﻿{
  "PackageData": [
    {
      "Row": [
        {
          "SchemaColumnUId": "ae0e45ca-c495-4fe7-a39d-3ab7278e1617",
          "Value": "06c871b4-618c-4420-9b7f-2494f848b116"
        },
        {
          "SchemaColumnUId": "23876494-a6ba-8df7-6cce-3400f6fac10c",
          "Value": ""
        },
        {
          "SchemaColumnUId": "47c4bfd1-4949-6f06-82c9-f92d8ff4ff20",
          "Value": "efbf3a0d-d780-465a-8e4b-8c0765197cfb",
          "DisplayValue": "Attachments"
        },
        {
          "SchemaColumnUId": "4a35bb09-6c8c-4de8-8773-4e9e3b3cf3b0",
          "Value": "Group Travel Registration Form.xlsx"
        },
        {
          "SchemaColumnUId": "5d9d91dd-892d-4652-8da1-e7a53b96ba4a",
          "Value": 21556
        },
        {
          "SchemaColumnUId": "6255f70e-45c9-4346-8ee0-8d604459e7d8",
          "Value": "529bc2f8-0ee0-df11-971b-001d60e938c6",
          "DisplayValue": "File"
        },
        {
          "SchemaColumnUId": "80dc2230-291b-4ff1-8555-4380678337cb",
          "Value": "af7f8a65-c1eb-44f8-ba1f-bf2022d5958e",
          "DisplayValue": "Group Travel Registration Form"
        },
        {
          "SchemaColumnUId": "8d8676ce-6974-4157-9a96-841d4499fccb",
          "Value": 1
        },
        {
          "SchemaColumnUId": "8f7c60c3-7d35-4de4-a234-6e18470eb34c",
          "Value": ""
        }
      ]
    }
  ]
}