﻿{
  "SqlScript": {
    "UId": "87339cdb-f168-4a78-8600-75d92315fca4",
    "Name": "SysImage_EmailTemplate_Wat16_HighRiskApprovalEmailTier1And2Manual",
    "DBEngineType": 0,
    "InstallType": 2,
    "ModifiedOnUtc": "\/Date(1616766769000)\/",
    "DependsOn": []
  }
}