﻿{
  "Descriptor": {
    "UId": "69f27ddd-8f4e-4988-8d42-856d02248622",
    "Name": "WatProcess28_2SetFacultyDepartmentOnTrip",
    "ModifiedOnUtc": "\/Date(1612984788000)\/",
    "ManagerName": "ProcessSchemaManager",
    "Caption": "SM#28-2 (Trip): Set Faculty Department on Trip"
  }
}