﻿{
  "Descriptor": {
    "UId": "f92e483a-c288-4cd2-a95f-75bd91b5a200",
    "Name": "WatAgreementTermDatesFile",
    "ModifiedOnUtc": "\/Date(1601069098000)\/",
    "Parent": {
      "UId": "556c5867-60a7-4456-aae1-a57a122bef70",
      "Name": "File"
    },
    "ManagerName": "EntitySchemaManager",
    "Caption": "Agreement Term Dates attachment"
  }
}