﻿{
  "Descriptor": {
    "UId": "1fd0fa90-0bb4-4ab0-9a3f-45473e5538be",
    "Name": "WatAgreementStages",
    "ModifiedOnUtc": "\/Date(1677246842000)\/",
    "Parent": {
      "UId": "9409a7b2-0018-430e-953b-64f029901127",
      "Name": "WatAgreementStages"
    },
    "ExtendParent": true,
    "ManagerName": "EntitySchemaManager",
    "Caption": "Agreement Stages Lookup",
    "DependsOn": []
  }
}