﻿{
  "Descriptor": {
    "UId": "12fd6a89-72ff-44b7-8008-1e058aba1511",
    "Name": "SysImage",
    "ModifiedOnUtc": "\/Date(1677797381000)\/",
    "Parent": {
      "UId": "93986bfe-2dbd-46bc-9bf9-d03dfefbf3b8",
      "Name": "SysImage"
    },
    "ExtendParent": true,
    "ManagerName": "EntitySchemaManager",
    "Caption": "Image",
    "DependsOn": []
  }
}