﻿{
  "PackageData": [
    {
      "Row": [
        {
          "SchemaColumnUId": "ae0e45ca-c495-4fe7-a39d-3ab7278e1617",
          "Value": "e0e64953-3d39-4216-8ca6-08bb4199dd0e"
        },
        {
          "SchemaColumnUId": "0c59594b-490a-4b55-a564-5841cfae3c19",
          "Value": "e3bac48b-896a-45c9-89b3-e9444f7a6a61"
        },
        {
          "SchemaColumnUId": "3107ef98-a02e-4ea8-809a-67dc3025ef4a",
          "Value": "null"
        }
      ]
    }
  ]
}