﻿{
  "PackageData": [
    {
      "Row": [
        {
          "SchemaColumnUId": "ae0e45ca-c495-4fe7-a39d-3ab7278e1617",
          "Value": "bacd2b5c-c7fd-491e-91bb-c058d4cfcd76"
        },
        {
          "SchemaColumnUId": "3205952e-7126-45fa-b720-9cd99f7875ae",
          "Value": "0f53f345-4e2a-4896-b824-d0957d6ff85e",
          "DisplayValue": "Additional questions"
        },
        {
          "SchemaColumnUId": "8f11220c-7647-4c8c-90b9-b79e03e8f6ee",
          "Value": "c85d4550-f114-479b-b7b6-138a495a456b"
        },
        {
          "SchemaColumnUId": "f8cd1f5c-b6e0-4a37-88ee-05929d09b2e8",
          "Value": "5ec1ac38-5c84-4ccb-8550-b2ccf00d455d"
        }
      ]
    }
  ]
}