﻿{
  "Descriptor": {
    "UId": "9409a7b2-0018-430e-953b-64f029901127",
    "Name": "WatAgreementStages",
    "ModifiedOnUtc": "\/Date(1601347655000)\/",
    "Parent": {
      "UId": "11ab4bcb-9b23-4b6d-9c86-520fae925d75",
      "Name": "BaseLookup"
    },
    "ManagerName": "EntitySchemaManager",
    "Caption": "Agreement Stages Lookup"
  }
}