﻿{
  "Descriptor": {
    "UId": "5d4881c5-6224-4910-a738-eee751775240",
    "Name": "WatHospitalityRequest6daf5fbbSection",
    "ModifiedOnUtc": "\/Date(1599406909000)\/",
    "Parent": {
      "UId": "7912fb69-4fee-429f-8b23-93943c35d66d",
      "Name": "BaseSectionV2"
    },
    "ManagerName": "ClientUnitSchemaManager",
    "Caption": "Section schema: \"Hospitality Request\""
  }
}