﻿{
  "Descriptor": {
    "UId": "256c635b-3fae-4157-b56b-4559cdca7ad5",
    "Name": "WatFacultyDepartment",
    "ModifiedOnUtc": "\/Date(1602022052000)\/",
    "Parent": {
      "UId": "11ab4bcb-9b23-4b6d-9c86-520fae925d75",
      "Name": "BaseLookup"
    },
    "ManagerName": "EntitySchemaManager",
    "Caption": "Faculty Department"
  }
}