{
  "MetaData": {
    "Schema": {
      "ManagerName": "ProcessSchemaManager",
      "UId": "26f0fb38-2937-4d67-873b-4f45f5a07312",
      "A2": "WatProcess23_1SubSetTripNameManually",
      "A5": "d6be1b0c-5d1a-461d-a7e8-b336e40dcd12",
      "B1": [],
      "B2": [],
      "B3": [],
      "B6": "80852c4e-6e90-4769-a5e6-c485d9bc7022",
      "B8": "8.0.4.1870",
      "FJ1": [
        {
          "BL1": "Terrasoft.Core.Process.ProcessSchemaParameter",
          "UId": "a8da1f1e-663a-4ed5-858e-9319b4d2b3bc",
          "A2": "TripId",
          "A3": "26f0fb38-2937-4d67-873b-4f45f5a07312",
          "A4": "26f0fb38-2937-4d67-873b-4f45f5a07312",
          "L1": "23018567-a13c-4320-8687-fd6f9e3699bd",
          "L8": {
            "GS5": "26f0fb38-2937-4d67-873b-4f45f5a07312"
          }
        }
      ],
      "IJ1": true,
      "BK8": "bb4d6607-026b-4b27-b640-8f5c77c1e89d",
      "IJ10": true,
      "BK15": [
        {
          "BL1": "Terrasoft.Core.Process.ProcessSchemaMapping",
          "UId": "d18f6d59-93f8-4b61-a938-a31fde7fc78d",
          "A2": "SubProcess1",
          "A3": "26f0fb38-2937-4d67-873b-4f45f5a07312",
          "A4": "26f0fb38-2937-4d67-873b-4f45f5a07312",
          "GT2": "[Element:{0e71c9e1-4f30-469f-9ae1-c6ec5f279ea1}].[Parameter:{6b73b883-844e-4a47-aef4-ba1790ca0cda}]",
          "GT3": "6b73b883-844e-4a47-aef4-ba1790ca0cda",
          "GT5": "87791e0e-01ca-414c-adc7-c3ea439dcf0e",
          "GT4": "92b8cbca-3068-4865-8a0c-54a32371c07c",
          "GT1": {
            "GS5": "92b8cbca-3068-4865-8a0c-54a32371c07c"
          }
        },
        {
          "BL1": "Terrasoft.Core.Process.ProcessSchemaMapping",
          "UId": "6d284b0c-ebf4-4141-9e9a-df0234161805",
          "A2": "SubProcess1",
          "A3": "26f0fb38-2937-4d67-873b-4f45f5a07312",
          "A4": "26f0fb38-2937-4d67-873b-4f45f5a07312",
          "GT2": "[Element:{0e71c9e1-4f30-469f-9ae1-c6ec5f279ea1}].[Parameter:{fafae325-6dca-40bb-9cc6-a2daca93b300}]",
          "GT3": "fafae325-6dca-40bb-9cc6-a2daca93b300",
          "GT5": "c3d78784-2439-4604-82d7-6b1f6afaa516",
          "GT4": "92b8cbca-3068-4865-8a0c-54a32371c07c",
          "GT1": {
            "GS5": "92b8cbca-3068-4865-8a0c-54a32371c07c"
          }
        },
        {
          "BL1": "Terrasoft.Core.Process.ProcessSchemaMapping",
          "UId": "ccc1d170-2e70-42a5-ab35-61ae7aa3ada9",
          "A2": "SubProcess1",
          "A3": "26f0fb38-2937-4d67-873b-4f45f5a07312",
          "A4": "26f0fb38-2937-4d67-873b-4f45f5a07312",
          "GT2": "[Element:{0e71c9e1-4f30-469f-9ae1-c6ec5f279ea1}].[Parameter:{323a96db-d9fb-4e40-9e58-0fdd506e5bf0}]",
          "GT3": "323a96db-d9fb-4e40-9e58-0fdd506e5bf0",
          "GT5": "ccd81f81-c003-4420-b21e-943f9809ef8f",
          "GT4": "92b8cbca-3068-4865-8a0c-54a32371c07c",
          "GT1": {
            "GS5": "92b8cbca-3068-4865-8a0c-54a32371c07c"
          }
        },
        {
          "BL1": "Terrasoft.Core.Process.ProcessSchemaMapping",
          "UId": "c99bcfab-d9a8-4ef6-bae6-65c8799ad56a",
          "A2": "SubProcess1",
          "A3": "26f0fb38-2937-4d67-873b-4f45f5a07312",
          "A4": "26f0fb38-2937-4d67-873b-4f45f5a07312",
          "GT2": "[Element:{0e71c9e1-4f30-469f-9ae1-c6ec5f279ea1}].[Parameter:{d428fef9-892f-4b3f-83ba-1f2bb7ac9876}]",
          "GT3": "d428fef9-892f-4b3f-83ba-1f2bb7ac9876",
          "GT5": "7ad41127-fb2b-4cf6-ba9b-e9f100e03c6d",
          "GT4": "92b8cbca-3068-4865-8a0c-54a32371c07c",
          "GT1": {
            "GS2": "",
            "GS5": "92b8cbca-3068-4865-8a0c-54a32371c07c"
          }
        },
        {
          "BL1": "Terrasoft.Core.Process.ProcessSchemaMapping",
          "UId": "1b41bb1b-4114-4808-9605-39c2af41a28e",
          "A2": "SubProcess1",
          "A3": "26f0fb38-2937-4d67-873b-4f45f5a07312",
          "A4": "26f0fb38-2937-4d67-873b-4f45f5a07312",
          "GT2": "[Element:{0e71c9e1-4f30-469f-9ae1-c6ec5f279ea1}].[Parameter:{8e769d67-c489-4b9a-9711-9db1a0647a2b}]",
          "GT3": "8e769d67-c489-4b9a-9711-9db1a0647a2b",
          "GT5": "66b4eef7-b0b2-4208-b76a-d0b8cdeac3e4",
          "GT4": "92b8cbca-3068-4865-8a0c-54a32371c07c",
          "GT1": {
            "GS5": "92b8cbca-3068-4865-8a0c-54a32371c07c"
          }
        },
        {
          "BL1": "Terrasoft.Core.Process.ProcessSchemaMapping",
          "UId": "0cd29c00-036f-425a-943b-51975d51e4b9",
          "A2": "SubProcess1",
          "A3": "26f0fb38-2937-4d67-873b-4f45f5a07312",
          "A4": "26f0fb38-2937-4d67-873b-4f45f5a07312",
          "GT2": "[Element:{0e71c9e1-4f30-469f-9ae1-c6ec5f279ea1}].[Parameter:{0dd4f773-4d85-49b0-a1a0-347dee8d3722}]",
          "GT3": "0dd4f773-4d85-49b0-a1a0-347dee8d3722",
          "GT5": "670a2968-5d4d-4937-aa21-9a66494b1103",
          "GT4": "92b8cbca-3068-4865-8a0c-54a32371c07c",
          "GT1": {
            "GS1": 3,
            "GS2": "[#BooleanValue.True#]",
            "GS5": "26f0fb38-2937-4d67-873b-4f45f5a07312"
          }
        }
      ],
      "BK37": {
        "BL1": "Terrasoft.Core.Process.ProcessSchemaParameter",
        "UId": "cdd58be7-2dba-4a5e-869b-1ad5d6d7513a",
        "A2": "NotificationCaption",
        "A3": "26f0fb38-2937-4d67-873b-4f45f5a07312",
        "A4": "26f0fb38-2937-4d67-873b-4f45f5a07312",
        "L1": "8b3f29bb-ea14-4ce5-a5c5-293a929b6ba2",
        "L8": {
          "GS1": 3,
          "GS2": "[#[PropertyValue:Caption]#]"
        }
      },
      "BK1": "FFFFFFFF",
      "BK2": "FFBBBBBB",
      "BK3": [
        {
          "BL1": "Terrasoft.Core.Process.ProcessSchemaLaneSet",
          "UId": "546c14b7-ea73-446d-8a50-8f5580ee74b6",
          "A2": "LaneSet1",
          "A3": "26f0fb38-2937-4d67-873b-4f45f5a07312",
          "A4": "26f0fb38-2937-4d67-873b-4f45f5a07312",
          "A5": "80852c4e-6e90-4769-a5e6-c485d9bc7022",
          "BL7": "11a47caf-a0d5-41fa-a274-a0b11f77447a",
          "BL8": "26f0fb38-2937-4d67-873b-4f45f5a07312",
          "BM1": 0,
          "BM4": [
            {
              "BL1": "Terrasoft.Core.Process.ProcessSchemaLane",
              "UId": "c889896a-d26b-4e51-b7d7-72340fc6857a",
              "A2": "Lane1",
              "A3": "26f0fb38-2937-4d67-873b-4f45f5a07312",
              "A4": "26f0fb38-2937-4d67-873b-4f45f5a07312",
              "A5": "80852c4e-6e90-4769-a5e6-c485d9bc7022",
              "IL2": "546c14b7-ea73-446d-8a50-8f5580ee74b6",
              "BL7": "abcd74b9-5912-414b-82ac-f1aa4dcd554e",
              "BL8": "26f0fb38-2937-4d67-873b-4f45f5a07312",
              "CD1": [],
              "CD2": [],
              "CD4": "546c14b7-ea73-446d-8a50-8f5580ee74b6",
              "CD7": []
            }
          ]
        }
      ],
      "BK5": [],
      "BK4": [
        {
          "BL1": "Terrasoft.Core.Process.ProcessSchemaStartEvent",
          "UId": "dc18f462-b465-4270-a623-d4223942d20f",
          "A2": "StartEvent1",
          "A3": "26f0fb38-2937-4d67-873b-4f45f5a07312",
          "A4": "26f0fb38-2937-4d67-873b-4f45f5a07312",
          "A5": "80852c4e-6e90-4769-a5e6-c485d9bc7022",
          "IL2": "c889896a-d26b-4e51-b7d7-72340fc6857a",
          "BL3": "50;184",
          "BL7": "53818048-7868-48f6-ada0-0ebaa65af628",
          "BL8": "26f0fb38-2937-4d67-873b-4f45f5a07312",
          "BN2": "31;31",
          "BO3": true,
          "FC1": [],
          "ED1": false
        },
        {
          "BL1": "Terrasoft.Core.Process.ProcessSchemaTerminateEvent",
          "UId": "71c245f4-da1e-46ff-a18b-ef7664884f2e",
          "A2": "TerminateEvent1",
          "A3": "26f0fb38-2937-4d67-873b-4f45f5a07312",
          "A4": "26f0fb38-2937-4d67-873b-4f45f5a07312",
          "A5": "80852c4e-6e90-4769-a5e6-c485d9bc7022",
          "IL2": "c889896a-d26b-4e51-b7d7-72340fc6857a",
          "BL3": "402;184",
          "BL7": "1bd93619-0574-454e-bb4e-cf53b9eb9470",
          "BL8": "26f0fb38-2937-4d67-873b-4f45f5a07312",
          "BN2": "31;31",
          "BO3": true,
          "FC1": []
        },
        {
          "BL1": "Terrasoft.Core.Process.ProcessSchemaSubProcess",
          "UId": "0e71c9e1-4f30-469f-9ae1-c6ec5f279ea1",
          "A2": "SubProcess1",
          "A3": "26f0fb38-2937-4d67-873b-4f45f5a07312",
          "A4": "26f0fb38-2937-4d67-873b-4f45f5a07312",
          "A5": "80852c4e-6e90-4769-a5e6-c485d9bc7022",
          "IL2": "c889896a-d26b-4e51-b7d7-72340fc6857a",
          "BL3": "182;172",
          "BL7": "49eafdbb-a89e-4bdf-a29d-7f17b1670a45",
          "BL8": "26f0fb38-2937-4d67-873b-4f45f5a07312",
          "BN2": "69;55",
          "BO2": true,
          "BO3": true,
          "BP2": [
            {
              "BL1": "Terrasoft.Core.Process.ProcessSchemaParameter",
              "UId": "6b73b883-844e-4a47-aef4-ba1790ca0cda",
              "A2": "TripId",
              "A3": "92b8cbca-3068-4865-8a0c-54a32371c07c",
              "A4": "92b8cbca-3068-4865-8a0c-54a32371c07c",
              "IL2": "0e71c9e1-4f30-469f-9ae1-c6ec5f279ea1",
              "L1": "23018567-a13c-4320-8687-fd6f9e3699bd",
              "L8": {
                "GS1": 3,
                "GS2": "[#[IsOwnerSchema:false].[IsSchema:false].[Parameter:{a8da1f1e-663a-4ed5-858e-9319b4d2b3bc}]#]",
                "GS5": "26f0fb38-2937-4d67-873b-4f45f5a07312"
              }
            },
            {
              "BL1": "Terrasoft.Core.Process.ProcessSchemaParameter",
              "UId": "fafae325-6dca-40bb-9cc6-a2daca93b300",
              "A2": "ContactId",
              "A3": "92b8cbca-3068-4865-8a0c-54a32371c07c",
              "A4": "92b8cbca-3068-4865-8a0c-54a32371c07c",
              "IL2": "0e71c9e1-4f30-469f-9ae1-c6ec5f279ea1",
              "L1": "23018567-a13c-4320-8687-fd6f9e3699bd",
              "L8": {
                "GS5": "92b8cbca-3068-4865-8a0c-54a32371c07c"
              }
            },
            {
              "BL1": "Terrasoft.Core.Process.ProcessSchemaParameter",
              "UId": "323a96db-d9fb-4e40-9e58-0fdd506e5bf0",
              "A2": "TravellerId",
              "A3": "92b8cbca-3068-4865-8a0c-54a32371c07c",
              "A4": "92b8cbca-3068-4865-8a0c-54a32371c07c",
              "IL2": "0e71c9e1-4f30-469f-9ae1-c6ec5f279ea1",
              "L1": "23018567-a13c-4320-8687-fd6f9e3699bd",
              "L8": {
                "GS5": "92b8cbca-3068-4865-8a0c-54a32371c07c"
              }
            },
            {
              "BL1": "Terrasoft.Core.Process.ProcessSchemaParameter",
              "UId": "d428fef9-892f-4b3f-83ba-1f2bb7ac9876",
              "A2": "Year",
              "A3": "92b8cbca-3068-4865-8a0c-54a32371c07c",
              "A4": "92b8cbca-3068-4865-8a0c-54a32371c07c",
              "IL2": "0e71c9e1-4f30-469f-9ae1-c6ec5f279ea1",
              "L1": "5ca35f10-a101-4c67-a96a-383da6afacfc",
              "L8": {
                "GS5": "92b8cbca-3068-4865-8a0c-54a32371c07c"
              }
            },
            {
              "BL1": "Terrasoft.Core.Process.ProcessSchemaParameter",
              "UId": "8e769d67-c489-4b9a-9711-9db1a0647a2b",
              "A2": "WF49Trigger",
              "A3": "92b8cbca-3068-4865-8a0c-54a32371c07c",
              "A4": "92b8cbca-3068-4865-8a0c-54a32371c07c",
              "IL2": "0e71c9e1-4f30-469f-9ae1-c6ec5f279ea1",
              "L1": "90b65bf8-0ffc-4141-8779-2420877af907",
              "L8": {
                "GS2": "false",
                "GS5": "26f0fb38-2937-4d67-873b-4f45f5a07312"
              }
            },
            {
              "BL1": "Terrasoft.Core.Process.ProcessSchemaParameter",
              "UId": "0dd4f773-4d85-49b0-a1a0-347dee8d3722",
              "A2": "WF23_1Trigger",
              "A3": "92b8cbca-3068-4865-8a0c-54a32371c07c",
              "A4": "92b8cbca-3068-4865-8a0c-54a32371c07c",
              "IL2": "0e71c9e1-4f30-469f-9ae1-c6ec5f279ea1",
              "L1": "90b65bf8-0ffc-4141-8779-2420877af907",
              "L8": {
                "GS1": 3,
                "GS2": "[#BooleanValue.True#]",
                "GS5": "26f0fb38-2937-4d67-873b-4f45f5a07312"
              }
            }
          ],
          "CK4": "92b8cbca-3068-4865-8a0c-54a32371c07c",
          "CK2": [],
          "CK3": []
        },
        {
          "BL1": "Terrasoft.Core.Process.ProcessSchemaSequenceFlow",
          "UId": "d6b61164-1921-4f44-be05-2a024e9e853d",
          "A2": "SequenceFlow1",
          "A3": "26f0fb38-2937-4d67-873b-4f45f5a07312",
          "A4": "26f0fb38-2937-4d67-873b-4f45f5a07312",
          "A5": "80852c4e-6e90-4769-a5e6-c485d9bc7022",
          "BL7": "0d8351f6-c2f4-4737-bdd9-6fbfe0837fec",
          "BL8": "26f0fb38-2937-4d67-873b-4f45f5a07312",
          "CI1": "dc18f462-b465-4270-a623-d4223942d20f",
          "CI2": "0e71c9e1-4f30-469f-9ae1-c6ec5f279ea1",
          "CI3": "null",
          "CI5": "FF939598",
          "CI6": 1,
          "CI11": "81;200",
          "CI12": "182;200"
        },
        {
          "BL1": "Terrasoft.Core.Process.ProcessSchemaSequenceFlow",
          "UId": "6562d96b-6e50-402e-b5db-d89f3fa3eb1b",
          "A2": "SequenceFlow2",
          "A3": "26f0fb38-2937-4d67-873b-4f45f5a07312",
          "A4": "26f0fb38-2937-4d67-873b-4f45f5a07312",
          "A5": "80852c4e-6e90-4769-a5e6-c485d9bc7022",
          "BL7": "0d8351f6-c2f4-4737-bdd9-6fbfe0837fec",
          "BL8": "26f0fb38-2937-4d67-873b-4f45f5a07312",
          "CI1": "0e71c9e1-4f30-469f-9ae1-c6ec5f279ea1",
          "CI2": "71c245f4-da1e-46ff-a18b-ef7664884f2e",
          "CI3": "null",
          "CI5": "FF939598",
          "CI6": 1,
          "CI11": "251;200",
          "CI12": "402;200"
        }
      ],
      "BK9": [],
      "BK18": "Business Process",
      "BK29": true,
      "BK30": true,
      "BK34": "en-US",
      "Labels": [],
      "BK24": []
    }
  }
}