﻿{
  "Descriptor": {
    "UId": "d9f94456-b714-42ad-b9d7-544aa69740d6",
    "Name": "WatCoOpWorkTermLookup",
    "ModifiedOnUtc": "\/Date(1684422551000)\/",
    "Parent": {
      "UId": "11ab4bcb-9b23-4b6d-9c86-520fae925d75",
      "Name": "BaseLookup"
    },
    "ManagerName": "EntitySchemaManager",
    "Caption": "Co-op work term lookup",
    "DependsOn": []
  }
}