﻿{
  "Descriptor": {
    "UId": "6b052b46-a59d-480a-8482-0312cb35a506",
    "Name": "WatTripAssociatedContactffc5a717Section",
    "ModifiedOnUtc": "\/Date(1604931648000)\/",
    "Parent": {
      "UId": "7912fb69-4fee-429f-8b23-93943c35d66d",
      "Name": "BaseSectionV2"
    },
    "ManagerName": "ClientUnitSchemaManager",
    "Caption": "Section schema: \"Trip Associated Contacts\""
  }
}