{
  "MetaData": {
    "Schema": {
      "ManagerName": "DcmSchemaManager",
      "UId": "ff67ae30-1263-436c-87a0-d6a7318cf879",
      "A2": "WatDelegationCase",
      "A5": "75bcb584-5e36-448a-a4b7-140d2dd57696",
      "B1": [],
      "B2": [],
      "B3": [],
      "B6": "80852c4e-6e90-4769-a5e6-c485d9bc7022",
      "B8": "7.16.3.1473",
      "FJ1": [],
      "IJ1": true,
      "BK8": "51b280eb-d8a3-4932-81b9-ef61a0877aab",
      "IJ10": true,
      "EntitySchemaUId": "1fc0bf0b-844f-4611-9453-07809de57345",
      "BK15": [],
      "BK37": {
        "BL1": "Terrasoft.Core.Process.ProcessSchemaParameter",
        "UId": "cdd58be7-2dba-4a5e-869b-1ad5d6d7513a",
        "A2": "NotificationCaption",
        "A3": "ff67ae30-1263-436c-87a0-d6a7318cf879",
        "A4": "ff67ae30-1263-436c-87a0-d6a7318cf879",
        "L1": "8b3f29bb-ea14-4ce5-a5c5-293a929b6ba2",
        "L8": {
          "GS1": 3,
          "GS2": "[#[PropertyValue:Caption]#]"
        }
      },
      "Stages": [
        {
          "BL1": "Terrasoft.Core.DcmProcess.DcmSchemaStage",
          "UId": "97d1ab95-ec83-4af2-a260-26bd7badf541",
          "A2": "Stage1",
          "A3": "ff67ae30-1263-436c-87a0-d6a7318cf879",
          "A4": "ff67ae30-1263-436c-87a0-d6a7318cf879",
          "A5": "80852c4e-6e90-4769-a5e6-c485d9bc7022",
          "Color": "#f8d162",
          "StageRecordId": "f1107ff3-a206-44bb-bf02-8a4f82bf9f2c",
          "Elements": [],
          "IsSuccessful": false
        },
        {
          "BL1": "Terrasoft.Core.DcmProcess.DcmSchemaStage",
          "UId": "d3717106-052f-4426-b02c-e963b9526bc6",
          "A2": "Stage4",
          "A3": "ff67ae30-1263-436c-87a0-d6a7318cf879",
          "A4": "ff67ae30-1263-436c-87a0-d6a7318cf879",
          "A5": "80852c4e-6e90-4769-a5e6-c485d9bc7022",
          "Color": "#8ecb60",
          "StageRecordId": "aae53289-762f-484e-a996-c8422679111e",
          "Elements": []
        },
        {
          "BL1": "Terrasoft.Core.DcmProcess.DcmSchemaStage",
          "UId": "f3a7a84f-f65c-4c5b-9825-d41500648d47",
          "A2": "Stage2",
          "A3": "ff67ae30-1263-436c-87a0-d6a7318cf879",
          "A4": "ff67ae30-1263-436c-87a0-d6a7318cf879",
          "A5": "80852c4e-6e90-4769-a5e6-c485d9bc7022",
          "Color": "#fbad43",
          "StageRecordId": "796f33f5-ace6-434a-a2b6-7fc5fc184f8f",
          "Elements": [],
          "IsSuccessful": false
        },
        {
          "BL1": "Terrasoft.Core.DcmProcess.DcmSchemaStage",
          "UId": "4562ede0-c39e-4310-bd74-828f37bc96ef",
          "A2": "Stage3",
          "A3": "ff67ae30-1263-436c-87a0-d6a7318cf879",
          "A4": "ff67ae30-1263-436c-87a0-d6a7318cf879",
          "A5": "80852c4e-6e90-4769-a5e6-c485d9bc7022",
          "Color": "#327b78",
          "StageRecordId": "24812c21-ce9f-4159-8433-b13d851efc70",
          "Elements": []
        },
        {
          "BL1": "Terrasoft.Core.DcmProcess.DcmSchemaStage",
          "UId": "3e1b554e-747e-414a-be89-d9cc4084175f",
          "A2": "Stage5",
          "A3": "ff67ae30-1263-436c-87a0-d6a7318cf879",
          "A4": "ff67ae30-1263-436c-87a0-d6a7318cf879",
          "A5": "80852c4e-6e90-4769-a5e6-c485d9bc7022",
          "Color": "#8ecb60",
          "StageRecordId": "42d4723f-5bdb-4b3a-a5ab-2d73703e35ca",
          "Elements": []
        },
        {
          "BL1": "Terrasoft.Core.DcmProcess.DcmSchemaStage",
          "UId": "94bfec29-b0c3-43e6-ae89-b18931cec3ed",
          "A2": "Stage6",
          "A3": "ff67ae30-1263-436c-87a0-d6a7318cf879",
          "A4": "ff67ae30-1263-436c-87a0-d6a7318cf879",
          "A5": "80852c4e-6e90-4769-a5e6-c485d9bc7022",
          "Color": "#d3ae46",
          "StageRecordId": "95eb03cb-0412-4074-8c92-059875ddb7d8",
          "Elements": []
        },
        {
          "BL1": "Terrasoft.Core.DcmProcess.DcmSchemaStage",
          "UId": "a65fa7ad-755b-4376-8a1a-4936398d8461",
          "A2": "Stage7",
          "A3": "ff67ae30-1263-436c-87a0-d6a7318cf879",
          "A4": "ff67ae30-1263-436c-87a0-d6a7318cf879",
          "A5": "80852c4e-6e90-4769-a5e6-c485d9bc7022",
          "Color": "#8ecb60",
          "StageRecordId": "a5bc052e-10d3-41dd-8788-23c9113b9dc6",
          "Elements": []
        },
        {
          "BL1": "Terrasoft.Core.DcmProcess.DcmSchemaStage",
          "UId": "0329050a-269e-43fb-b8b5-ce5e4825c42f",
          "A2": "Stage8",
          "A3": "ff67ae30-1263-436c-87a0-d6a7318cf879",
          "A4": "ff67ae30-1263-436c-87a0-d6a7318cf879",
          "A5": "80852c4e-6e90-4769-a5e6-c485d9bc7022",
          "ParentStageUId": "a65fa7ad-755b-4376-8a1a-4936398d8461",
          "Color": "#ef7e63",
          "StageRecordId": "06130f04-e80e-49ec-91bc-eb6b6f699161",
          "Elements": [],
          "IsSuccessful": false
        },
        {
          "BL1": "Terrasoft.Core.DcmProcess.DcmSchemaStage",
          "UId": "a4aeb557-8cc6-45c0-ab19-cd2cc23dd478",
          "A2": "Stage9",
          "A3": "ff67ae30-1263-436c-87a0-d6a7318cf879",
          "A4": "ff67ae30-1263-436c-87a0-d6a7318cf879",
          "A5": "80852c4e-6e90-4769-a5e6-c485d9bc7022",
          "ParentStageUId": "a65fa7ad-755b-4376-8a1a-4936398d8461",
          "Color": "#c73920",
          "StageRecordId": "f3bf73fd-67ff-4a6b-88bb-accda1c7a26b",
          "Elements": [],
          "IsSuccessful": false
        }
      ],
      "Transitions": [],
      "StageConnections": {
        "Connections": [
          {
            "Source": "f3a7a84f-f65c-4c5b-9825-d41500648d47",
            "Target": "4562ede0-c39e-4310-bd74-828f37bc96ef"
          },
          {
            "Source": "97d1ab95-ec83-4af2-a260-26bd7badf541",
            "Target": "d3717106-052f-4426-b02c-e963b9526bc6"
          },
          {
            "Source": "d3717106-052f-4426-b02c-e963b9526bc6",
            "Target": "f3a7a84f-f65c-4c5b-9825-d41500648d47"
          },
          {
            "Source": "3e1b554e-747e-414a-be89-d9cc4084175f",
            "Target": "97d1ab95-ec83-4af2-a260-26bd7badf541"
          },
          {
            "Source": "97d1ab95-ec83-4af2-a260-26bd7badf541",
            "Target": "3e1b554e-747e-414a-be89-d9cc4084175f"
          },
          {
            "Source": "3e1b554e-747e-414a-be89-d9cc4084175f",
            "Target": "d3717106-052f-4426-b02c-e963b9526bc6"
          },
          {
            "Source": "d3717106-052f-4426-b02c-e963b9526bc6",
            "Target": "3e1b554e-747e-414a-be89-d9cc4084175f"
          },
          {
            "Source": "3e1b554e-747e-414a-be89-d9cc4084175f",
            "Target": "f3a7a84f-f65c-4c5b-9825-d41500648d47"
          },
          {
            "Source": "f3a7a84f-f65c-4c5b-9825-d41500648d47",
            "Target": "3e1b554e-747e-414a-be89-d9cc4084175f"
          },
          {
            "Source": "3e1b554e-747e-414a-be89-d9cc4084175f",
            "Target": "4562ede0-c39e-4310-bd74-828f37bc96ef"
          },
          {
            "Source": "4562ede0-c39e-4310-bd74-828f37bc96ef",
            "Target": "3e1b554e-747e-414a-be89-d9cc4084175f"
          },
          {
            "Source": "94bfec29-b0c3-43e6-ae89-b18931cec3ed",
            "Target": "97d1ab95-ec83-4af2-a260-26bd7badf541"
          },
          {
            "Source": "97d1ab95-ec83-4af2-a260-26bd7badf541",
            "Target": "94bfec29-b0c3-43e6-ae89-b18931cec3ed"
          },
          {
            "Source": "94bfec29-b0c3-43e6-ae89-b18931cec3ed",
            "Target": "d3717106-052f-4426-b02c-e963b9526bc6"
          },
          {
            "Source": "d3717106-052f-4426-b02c-e963b9526bc6",
            "Target": "94bfec29-b0c3-43e6-ae89-b18931cec3ed"
          },
          {
            "Source": "94bfec29-b0c3-43e6-ae89-b18931cec3ed",
            "Target": "f3a7a84f-f65c-4c5b-9825-d41500648d47"
          },
          {
            "Source": "f3a7a84f-f65c-4c5b-9825-d41500648d47",
            "Target": "94bfec29-b0c3-43e6-ae89-b18931cec3ed"
          },
          {
            "Source": "94bfec29-b0c3-43e6-ae89-b18931cec3ed",
            "Target": "4562ede0-c39e-4310-bd74-828f37bc96ef"
          },
          {
            "Source": "4562ede0-c39e-4310-bd74-828f37bc96ef",
            "Target": "94bfec29-b0c3-43e6-ae89-b18931cec3ed"
          },
          {
            "Source": "94bfec29-b0c3-43e6-ae89-b18931cec3ed",
            "Target": "3e1b554e-747e-414a-be89-d9cc4084175f"
          },
          {
            "Source": "3e1b554e-747e-414a-be89-d9cc4084175f",
            "Target": "94bfec29-b0c3-43e6-ae89-b18931cec3ed"
          },
          {
            "Source": "a65fa7ad-755b-4376-8a1a-4936398d8461",
            "Target": "97d1ab95-ec83-4af2-a260-26bd7badf541"
          },
          {
            "Source": "97d1ab95-ec83-4af2-a260-26bd7badf541",
            "Target": "a65fa7ad-755b-4376-8a1a-4936398d8461"
          },
          {
            "Source": "a65fa7ad-755b-4376-8a1a-4936398d8461",
            "Target": "d3717106-052f-4426-b02c-e963b9526bc6"
          },
          {
            "Source": "d3717106-052f-4426-b02c-e963b9526bc6",
            "Target": "a65fa7ad-755b-4376-8a1a-4936398d8461"
          },
          {
            "Source": "a65fa7ad-755b-4376-8a1a-4936398d8461",
            "Target": "f3a7a84f-f65c-4c5b-9825-d41500648d47"
          },
          {
            "Source": "f3a7a84f-f65c-4c5b-9825-d41500648d47",
            "Target": "a65fa7ad-755b-4376-8a1a-4936398d8461"
          },
          {
            "Source": "a65fa7ad-755b-4376-8a1a-4936398d8461",
            "Target": "4562ede0-c39e-4310-bd74-828f37bc96ef"
          },
          {
            "Source": "4562ede0-c39e-4310-bd74-828f37bc96ef",
            "Target": "a65fa7ad-755b-4376-8a1a-4936398d8461"
          },
          {
            "Source": "a65fa7ad-755b-4376-8a1a-4936398d8461",
            "Target": "3e1b554e-747e-414a-be89-d9cc4084175f"
          },
          {
            "Source": "3e1b554e-747e-414a-be89-d9cc4084175f",
            "Target": "a65fa7ad-755b-4376-8a1a-4936398d8461"
          },
          {
            "Source": "a65fa7ad-755b-4376-8a1a-4936398d8461",
            "Target": "94bfec29-b0c3-43e6-ae89-b18931cec3ed"
          },
          {
            "Source": "94bfec29-b0c3-43e6-ae89-b18931cec3ed",
            "Target": "a65fa7ad-755b-4376-8a1a-4936398d8461"
          },
          {
            "Source": "0329050a-269e-43fb-b8b5-ce5e4825c42f",
            "Target": "97d1ab95-ec83-4af2-a260-26bd7badf541"
          },
          {
            "Source": "97d1ab95-ec83-4af2-a260-26bd7badf541",
            "Target": "0329050a-269e-43fb-b8b5-ce5e4825c42f"
          },
          {
            "Source": "0329050a-269e-43fb-b8b5-ce5e4825c42f",
            "Target": "d3717106-052f-4426-b02c-e963b9526bc6"
          },
          {
            "Source": "d3717106-052f-4426-b02c-e963b9526bc6",
            "Target": "0329050a-269e-43fb-b8b5-ce5e4825c42f"
          },
          {
            "Source": "0329050a-269e-43fb-b8b5-ce5e4825c42f",
            "Target": "f3a7a84f-f65c-4c5b-9825-d41500648d47"
          },
          {
            "Source": "f3a7a84f-f65c-4c5b-9825-d41500648d47",
            "Target": "0329050a-269e-43fb-b8b5-ce5e4825c42f"
          },
          {
            "Source": "0329050a-269e-43fb-b8b5-ce5e4825c42f",
            "Target": "4562ede0-c39e-4310-bd74-828f37bc96ef"
          },
          {
            "Source": "4562ede0-c39e-4310-bd74-828f37bc96ef",
            "Target": "0329050a-269e-43fb-b8b5-ce5e4825c42f"
          },
          {
            "Source": "0329050a-269e-43fb-b8b5-ce5e4825c42f",
            "Target": "3e1b554e-747e-414a-be89-d9cc4084175f"
          },
          {
            "Source": "3e1b554e-747e-414a-be89-d9cc4084175f",
            "Target": "0329050a-269e-43fb-b8b5-ce5e4825c42f"
          },
          {
            "Source": "0329050a-269e-43fb-b8b5-ce5e4825c42f",
            "Target": "94bfec29-b0c3-43e6-ae89-b18931cec3ed"
          },
          {
            "Source": "94bfec29-b0c3-43e6-ae89-b18931cec3ed",
            "Target": "0329050a-269e-43fb-b8b5-ce5e4825c42f"
          },
          {
            "Source": "0329050a-269e-43fb-b8b5-ce5e4825c42f",
            "Target": "a65fa7ad-755b-4376-8a1a-4936398d8461"
          },
          {
            "Source": "a65fa7ad-755b-4376-8a1a-4936398d8461",
            "Target": "0329050a-269e-43fb-b8b5-ce5e4825c42f"
          },
          {
            "Source": "a4aeb557-8cc6-45c0-ab19-cd2cc23dd478",
            "Target": "97d1ab95-ec83-4af2-a260-26bd7badf541"
          },
          {
            "Source": "97d1ab95-ec83-4af2-a260-26bd7badf541",
            "Target": "a4aeb557-8cc6-45c0-ab19-cd2cc23dd478"
          },
          {
            "Source": "a4aeb557-8cc6-45c0-ab19-cd2cc23dd478",
            "Target": "d3717106-052f-4426-b02c-e963b9526bc6"
          },
          {
            "Source": "d3717106-052f-4426-b02c-e963b9526bc6",
            "Target": "a4aeb557-8cc6-45c0-ab19-cd2cc23dd478"
          },
          {
            "Source": "a4aeb557-8cc6-45c0-ab19-cd2cc23dd478",
            "Target": "f3a7a84f-f65c-4c5b-9825-d41500648d47"
          },
          {
            "Source": "f3a7a84f-f65c-4c5b-9825-d41500648d47",
            "Target": "a4aeb557-8cc6-45c0-ab19-cd2cc23dd478"
          },
          {
            "Source": "a4aeb557-8cc6-45c0-ab19-cd2cc23dd478",
            "Target": "4562ede0-c39e-4310-bd74-828f37bc96ef"
          },
          {
            "Source": "4562ede0-c39e-4310-bd74-828f37bc96ef",
            "Target": "a4aeb557-8cc6-45c0-ab19-cd2cc23dd478"
          },
          {
            "Source": "a4aeb557-8cc6-45c0-ab19-cd2cc23dd478",
            "Target": "3e1b554e-747e-414a-be89-d9cc4084175f"
          },
          {
            "Source": "3e1b554e-747e-414a-be89-d9cc4084175f",
            "Target": "a4aeb557-8cc6-45c0-ab19-cd2cc23dd478"
          },
          {
            "Source": "a4aeb557-8cc6-45c0-ab19-cd2cc23dd478",
            "Target": "94bfec29-b0c3-43e6-ae89-b18931cec3ed"
          },
          {
            "Source": "94bfec29-b0c3-43e6-ae89-b18931cec3ed",
            "Target": "a4aeb557-8cc6-45c0-ab19-cd2cc23dd478"
          },
          {
            "Source": "a4aeb557-8cc6-45c0-ab19-cd2cc23dd478",
            "Target": "a65fa7ad-755b-4376-8a1a-4936398d8461"
          },
          {
            "Source": "a65fa7ad-755b-4376-8a1a-4936398d8461",
            "Target": "a4aeb557-8cc6-45c0-ab19-cd2cc23dd478"
          },
          {
            "Source": "a4aeb557-8cc6-45c0-ab19-cd2cc23dd478",
            "Target": "0329050a-269e-43fb-b8b5-ce5e4825c42f"
          },
          {
            "Source": "0329050a-269e-43fb-b8b5-ce5e4825c42f",
            "Target": "a4aeb557-8cc6-45c0-ab19-cd2cc23dd478"
          }
        ]
      },
      "StageColumnUId": "e653aed4-fe8d-4d81-a9e4-578ddb8532b8",
      "Filters": "{\"className\":\"Terrasoft.FilterGroup\",\"items\":{\"48ffbda7-0bc8-4536-be9d-5f57c45474db\":{\"className\":\"Terrasoft.InFilter\",\"filterType\":4,\"comparisonType\":3,\"isEnabled\":true,\"trimDateTimeParameterToDate\":false,\"leftExpression\":{\"className\":\"Terrasoft.ColumnExpression\",\"expressionType\":0,\"columnPath\":\"WatDelegationType\"},\"isAggregative\":false,\"key\":\"48ffbda7-0bc8-4536-be9d-5f57c45474db\",\"dataValueType\":10,\"leftExpressionCaption\":\"Delegation Type\",\"referenceSchemaName\":\"WatDelegationType\",\"rightExpressions\":[{\"className\":\"Terrasoft.ParameterExpression\",\"expressionType\":2,\"parameter\":{\"className\":\"Terrasoft.Parameter\",\"dataValueType\":10,\"value\":{\"Name\":\"Incoming\",\"Id\":\"b5c24527-575e-4d30-8bc7-93eeb5bd077b\",\"value\":\"b5c24527-575e-4d30-8bc7-93eeb5bd077b\",\"displayValue\":\"Incoming\"}}},{\"className\":\"Terrasoft.ParameterExpression\",\"expressionType\":2,\"parameter\":{\"className\":\"Terrasoft.Parameter\",\"dataValueType\":10,\"value\":{\"Name\":\"Outgoing\",\"Id\":\"d6b69e7a-48f5-45a8-82cb-2136ca9d88ab\",\"value\":\"d6b69e7a-48f5-45a8-82cb-2136ca9d88ab\",\"displayValue\":\"Outgoing\"}}}]}},\"logicalOperation\":0,\"isEnabled\":true,\"filterType\":6,\"rootSchemaName\":\"WatDelegation\",\"key\":\"\"}",
      "SystemElements": []
    }
  }
}