﻿{
  "Descriptor": {
    "UId": "cd3a53e6-be5a-4be5-aca0-a55f9b6d5ec5",
    "Name": "WatSchemaTimerDetail",
    "ModifiedOnUtc": "\/Date(1607572008000)\/",
    "Parent": {
      "UId": "01eb38ee-668a-42f0-999d-c2534f979089",
      "Name": "BaseGridDetailV2"
    },
    "ManagerName": "ClientUnitSchemaManager",
    "Caption": "Detail schema: \"Timer\""
  }
}