﻿{
  "Descriptor": {
    "UId": "49d0b0fa-5cf7-4191-9085-e9a0dd426746",
    "Name": "SMNewConsultedFaculties1MiniPage",
    "ModifiedOnUtc": "\/Date(1677881077000)\/",
    "Parent": {
      "UId": "8e06a577-08e4-424e-bd89-798a34e1b928",
      "Name": "BaseMiniPage"
    },
    "ManagerName": "ClientUnitSchemaManager",
    "Caption": "SMNewConsultedFaculties1MiniPage",
    "DependsOn": []
  }
}