﻿{
  "Descriptor": {
    "UId": "a53607e0-20ab-4c10-bd9f-3e8f6be4e88c",
    "Name": "WatParticipatingFacultiesFile",
    "ModifiedOnUtc": "\/Date(1601346187000)\/",
    "Parent": {
      "UId": "556c5867-60a7-4456-aae1-a57a122bef70",
      "Name": "File"
    },
    "ManagerName": "EntitySchemaManager",
    "Caption": "Participating Faculties attachment"
  }
}