﻿{
  "Descriptor": {
    "UId": "f75c0ac0-6267-412a-b0e6-a757bbea22a1",
    "Name": "WatDelegationStage_Dcm_Data",
    "ModifiedOnUtc": "\/Date(1598632097000)\/",
    "InstallType": 0,
    "Schema": {
      "UId": "e1a0db94-31bd-4666-b8b0-6e99453eb9a7",
      "Name": "WatDelegationStage"
    },
    "Columns": [
      {
        "ColumnUId": "9e53fd7c-dde4-4502-a64c-b9e34148108b",
        "IsForceUpdate": false,
        "IsKey": false,
        "ColumnName": "Description",
        "DataTypeValueUId": "ddb3a1ee-07e8-4d62-b7a9-d0e618b00fbd"
      },
      {
        "ColumnUId": "ae0e45ca-c495-4fe7-a39d-3ab7278e1617",
        "IsForceUpdate": false,
        "IsKey": true,
        "ColumnName": "Id",
        "DataTypeValueUId": "23018567-a13c-4320-8687-fd6f9e3699bd"
      },
      {
        "ColumnUId": "736c30a7-c0ec-4fa9-b034-2552b319b633",
        "IsForceUpdate": false,
        "IsKey": false,
        "ColumnName": "Name",
        "DataTypeValueUId": "ddb3a1ee-07e8-4d62-b7a9-d0e618b00fbd"
      }
    ]
  }
}