﻿{
  "Descriptor": {
    "UId": "5ca0048a-f80c-49f6-87e6-a566bcdaa26e",
    "Name": "WatAnvilExport27110aecSection",
    "ModifiedOnUtc": "\/Date(1614725215000)\/",
    "Parent": {
      "UId": "7912fb69-4fee-429f-8b23-93943c35d66d",
      "Name": "BaseSectionV2"
    },
    "ManagerName": "ClientUnitSchemaManager",
    "Caption": "Section schema: \"Anvil Export\""
  }
}