﻿{
  "PackageData": [
    {
      "Row": [
        {
          "SchemaColumnUId": "ae0e45ca-c495-4fe7-a39d-3ab7278e1617",
          "ColumnName": "Id",
          "Value": "236003e9-be41-4ae4-b3dc-824955e2d421"
        },
        {
          "SchemaColumnUId": "ca53e2c8-0767-4f2c-8a18-2ee5821f134e",
          "ColumnName": "Name",
          "Value": ""
        }
      ]
    },
    {
      "Row": [
        {
          "SchemaColumnUId": "ae0e45ca-c495-4fe7-a39d-3ab7278e1617",
          "ColumnName": "Id",
          "Value": "d3efdfc9-dc1f-460b-adc1-4f30785d527f"
        },
        {
          "SchemaColumnUId": "ca53e2c8-0767-4f2c-8a18-2ee5821f134e",
          "ColumnName": "Name",
          "Value": ""
        }
      ]
    }
  ]
}