﻿{
  "Descriptor": {
    "UId": "edb0ab1a-6dfb-4210-a70d-153a75d337dc",
    "Name": "WatConsortiumMemberd2de884dSection",
    "ModifiedOnUtc": "\/Date(1598628791000)\/",
    "Parent": {
      "UId": "7912fb69-4fee-429f-8b23-93943c35d66d",
      "Name": "BaseSectionV2"
    },
    "ManagerName": "ClientUnitSchemaManager",
    "Caption": "Section schema: \"Consortium Member\""
  }
}