﻿{
  "Descriptor": {
    "UId": "c9c960b1-bb77-4138-b5ba-65abf4e5b215",
    "Name": "WatPartnershipRequestInTag",
    "ModifiedOnUtc": "\/Date(1600185015000)\/",
    "Parent": {
      "UId": "5894a2b0-51d5-419a-82bb-238674634270",
      "Name": "BaseEntityInTag"
    },
    "ManagerName": "EntitySchemaManager",
    "Caption": "Partnership Requests section record tag"
  }
}