{
  "MetaData": {
    "Schema": {
      "ManagerName": "ProcessSchemaManager",
      "UId": "5d092161-4e0b-457c-a946-50a3bd02a3f9",
      "A2": "WatProcess36SetAccountOnPartnershipRequest",
      "A5": "75bcb584-5e36-448a-a4b7-140d2dd57696",
      "B1": [],
      "B2": [],
      "B3": [],
      "B6": "80852c4e-6e90-4769-a5e6-c485d9bc7022",
      "B8": "7.16.3.1473",
      "FJ1": [
        {
          "BL1": "Terrasoft.Core.Process.ProcessSchemaParameter",
          "UId": "5b9ee452-c8af-4ad3-88d2-8935fbbc71a9",
          "A2": "RequestId",
          "A3": "5d092161-4e0b-457c-a946-50a3bd02a3f9",
          "A4": "5d092161-4e0b-457c-a946-50a3bd02a3f9",
          "L1": "23018567-a13c-4320-8687-fd6f9e3699bd",
          "L8": {
            "GS5": "5d092161-4e0b-457c-a946-50a3bd02a3f9"
          }
        }
      ],
      "IJ1": true,
      "BK8": "bb4d6607-026b-4b27-b640-8f5c77c1e89d",
      "IJ10": true,
      "BK15": [
        {
          "BL1": "Terrasoft.Core.Process.ProcessSchemaMapping",
          "UId": "ec9e8771-72e4-438c-be8f-f6f6a2df177d",
          "A2": "StartSignal2",
          "A3": "5d092161-4e0b-457c-a946-50a3bd02a3f9",
          "A4": "5d092161-4e0b-457c-a946-50a3bd02a3f9",
          "GT2": "[Element:{745e0487-6c8e-450f-8656-154448bcadd2}].[Parameter:{de6ec950-264c-48ba-a41d-3024460cae6b}]",
          "GT3": "de6ec950-264c-48ba-a41d-3024460cae6b",
          "GT5": "de6ec950-264c-48ba-a41d-3024460cae6b",
          "GT1": {
            "GS1": 1,
            "GS2": ""
          }
        },
        {
          "BL1": "Terrasoft.Core.Process.ProcessSchemaMapping",
          "UId": "917eeb83-2fec-413a-8d52-e405b4bc1d93",
          "A2": "ReadDataUserTask2",
          "A3": "5d092161-4e0b-457c-a946-50a3bd02a3f9",
          "A4": "5d092161-4e0b-457c-a946-50a3bd02a3f9",
          "GT2": "[Element:{310d507d-2f2c-4a24-8cda-67b94b08cfd0}].[Parameter:{6fcd64a4-5005-40b7-aa4e-4a8c77533ddf}]",
          "GT3": "6fcd64a4-5005-40b7-aa4e-4a8c77533ddf",
          "GT5": "5d9ac9a7-7782-49ce-8990-dcb1c73832b0",
          "GT4": "cb455b6f-78ff-4b1e-b241-c2bbc0b37e9f",
          "GT1": {
            "GS1": 1,
            "GS2": "{\"className\":\"Terrasoft.FilterGroup\",\"serializedFilterEditData\":\"{\\\"className\\\":\\\"Terrasoft.FilterGroup\\\",\\\"items\\\":{\\\"ad37a286-16c9-4ad0-9f0f-4e33a016d993\\\":{\\\"className\\\":\\\"Terrasoft.CompareFilter\\\",\\\"filterType\\\":1,\\\"comparisonType\\\":3,\\\"isEnabled\\\":true,\\\"trimDateTimeParameterToDate\\\":false,\\\"leftExpression\\\":{\\\"className\\\":\\\"Terrasoft.ColumnExpression\\\",\\\"expressionType\\\":0,\\\"columnPath\\\":\\\"Id\\\"},\\\"isAggregative\\\":false,\\\"key\\\":\\\"ad37a286-16c9-4ad0-9f0f-4e33a016d993\\\",\\\"dataValueType\\\":0,\\\"leftExpressionCaption\\\":\\\"Id\\\",\\\"rightExpression\\\":{\\\"className\\\":\\\"Terrasoft.ParameterExpression\\\",\\\"expressionType\\\":2,\\\"parameter\\\":{\\\"className\\\":\\\"Terrasoft.Parameter\\\",\\\"dataValueType\\\":26,\\\"value\\\":{\\\"value\\\":\\\"[IsOwnerSchema:false].[IsSchema:false].[Parameter:{5b9ee452-c8af-4ad3-88d2-8935fbbc71a9}]\\\",\\\"displayValue\\\":\\\"RequestId\\\"}}}}},\\\"logicalOperation\\\":0,\\\"isEnabled\\\":true,\\\"filterType\\\":6,\\\"rootSchemaName\\\":\\\"WatPartnershipRequest\\\",\\\"key\\\":\\\"\\\"}\",\"dataSourceFilters\":\"{\\\"items\\\":{\\\"ad37a286-16c9-4ad0-9f0f-4e33a016d993\\\":{\\\"filterType\\\":1,\\\"comparisonType\\\":3,\\\"isEnabled\\\":true,\\\"trimDateTimeParameterToDate\\\":false,\\\"leftExpression\\\":{\\\"expressionType\\\":0,\\\"columnPath\\\":\\\"Id\\\"},\\\"rightExpression\\\":{\\\"expressionType\\\":2,\\\"parameter\\\":{\\\"dataValueType\\\":26,\\\"value\\\":{\\\"value\\\":\\\"[IsOwnerSchema:false].[IsSchema:false].[Parameter:{5b9ee452-c8af-4ad3-88d2-8935fbbc71a9}]\\\"}}}}},\\\"logicalOperation\\\":0,\\\"isEnabled\\\":true,\\\"filterType\\\":6,\\\"rootSchemaName\\\":\\\"WatPartnershipRequest\\\"}\"}"
          }
        },
        {
          "BL1": "Terrasoft.Core.Process.ProcessSchemaMapping",
          "UId": "76992e18-01ea-45ac-8299-784c02b90308",
          "A2": "ReadDataUserTask2",
          "A3": "5d092161-4e0b-457c-a946-50a3bd02a3f9",
          "A4": "5d092161-4e0b-457c-a946-50a3bd02a3f9",
          "GT2": "[Element:{310d507d-2f2c-4a24-8cda-67b94b08cfd0}].[Parameter:{c8c9418b-c6c2-49b5-9d40-46084b73af44}]",
          "GT3": "c8c9418b-c6c2-49b5-9d40-46084b73af44",
          "GT5": "643e4d6d-7ec8-49f0-842a-066a996fbe8b",
          "GT4": "cb455b6f-78ff-4b1e-b241-c2bbc0b37e9f",
          "GT1": {
            "GS1": 1,
            "GS2": "0",
            "GS5": "cb455b6f-78ff-4b1e-b241-c2bbc0b37e9f"
          }
        },
        {
          "BL1": "Terrasoft.Core.Process.ProcessSchemaMapping",
          "UId": "50ca5c16-23f0-452e-a502-86dadd5316b7",
          "A2": "ReadDataUserTask2",
          "A3": "5d092161-4e0b-457c-a946-50a3bd02a3f9",
          "A4": "5d092161-4e0b-457c-a946-50a3bd02a3f9",
          "GT2": "[Element:{310d507d-2f2c-4a24-8cda-67b94b08cfd0}].[Parameter:{13797d49-539c-48b4-861a-7b9ecc12382d}]",
          "GT3": "13797d49-539c-48b4-861a-7b9ecc12382d",
          "GT5": "29115add-7520-4ad4-8371-d91f537ac913",
          "GT4": "cb455b6f-78ff-4b1e-b241-c2bbc0b37e9f",
          "GT1": {
            "GS1": 1,
            "GS2": "true"
          }
        },
        {
          "BL1": "Terrasoft.Core.Process.ProcessSchemaMapping",
          "UId": "a74efd98-a7d5-40ce-81be-01d66abac9d3",
          "A2": "ReadDataUserTask2",
          "A3": "5d092161-4e0b-457c-a946-50a3bd02a3f9",
          "A4": "5d092161-4e0b-457c-a946-50a3bd02a3f9",
          "GT2": "[Element:{310d507d-2f2c-4a24-8cda-67b94b08cfd0}].[Parameter:{797a2805-b4e6-48a7-8385-c0f0bb6b336f}]",
          "GT3": "797a2805-b4e6-48a7-8385-c0f0bb6b336f",
          "GT5": "f29e5660-c5ef-4d84-8331-9046c3093519",
          "GT4": "cb455b6f-78ff-4b1e-b241-c2bbc0b37e9f",
          "GT1": {
            "GS1": 1,
            "GS2": "50"
          }
        },
        {
          "BL1": "Terrasoft.Core.Process.ProcessSchemaMapping",
          "UId": "a2172b85-b10f-4682-9abf-b2e8d260895f",
          "A2": "ReadDataUserTask2",
          "A3": "5d092161-4e0b-457c-a946-50a3bd02a3f9",
          "A4": "5d092161-4e0b-457c-a946-50a3bd02a3f9",
          "GT2": "[Element:{310d507d-2f2c-4a24-8cda-67b94b08cfd0}].[Parameter:{b488094a-2a45-4f35-826a-692678b13e24}]",
          "GT3": "b488094a-2a45-4f35-826a-692678b13e24",
          "GT5": "94ba9876-18c1-4a68-bcef-08f7e7f0e25c",
          "GT4": "cb455b6f-78ff-4b1e-b241-c2bbc0b37e9f",
          "GT1": {
            "GS1": 1,
            "GS2": "0"
          }
        },
        {
          "BL1": "Terrasoft.Core.Process.ProcessSchemaMapping",
          "UId": "dae77009-c2a7-44f7-885f-aa677433960a",
          "A2": "ReadDataUserTask2",
          "A3": "5d092161-4e0b-457c-a946-50a3bd02a3f9",
          "A4": "5d092161-4e0b-457c-a946-50a3bd02a3f9",
          "GT2": "[Element:{310d507d-2f2c-4a24-8cda-67b94b08cfd0}].[Parameter:{ed46efc3-0fe7-41c2-8b54-cdcec142c845}]",
          "GT3": "ed46efc3-0fe7-41c2-8b54-cdcec142c845",
          "GT5": "cb5d6d26-7e81-4cbe-8730-8b7169000d14",
          "GT4": "cb455b6f-78ff-4b1e-b241-c2bbc0b37e9f",
          "GT1": {
            "GS2": ""
          }
        },
        {
          "BL1": "Terrasoft.Core.Process.ProcessSchemaMapping",
          "UId": "e084b26b-e21b-4601-bac6-5a138f12c800",
          "A2": "ReadDataUserTask2",
          "A3": "5d092161-4e0b-457c-a946-50a3bd02a3f9",
          "A4": "5d092161-4e0b-457c-a946-50a3bd02a3f9",
          "GT2": "[Element:{310d507d-2f2c-4a24-8cda-67b94b08cfd0}].[Parameter:{ebdcffa9-a308-4aeb-834b-02d13d83e0f7}]",
          "GT3": "ebdcffa9-a308-4aeb-834b-02d13d83e0f7",
          "GT5": "473e79e2-727e-40a7-8829-7eefc576b403",
          "GT4": "cb455b6f-78ff-4b1e-b241-c2bbc0b37e9f",
          "GT1": {
            "GS2": ""
          }
        },
        {
          "BL1": "Terrasoft.Core.Process.ProcessSchemaMapping",
          "UId": "cac25a16-d296-413a-b9dd-6b60aab01392",
          "A2": "ReadDataUserTask2",
          "A3": "5d092161-4e0b-457c-a946-50a3bd02a3f9",
          "A4": "5d092161-4e0b-457c-a946-50a3bd02a3f9",
          "GT2": "[Element:{310d507d-2f2c-4a24-8cda-67b94b08cfd0}].[Parameter:{39c3549e-c73b-4d72-a794-32114489ac01}]",
          "GT3": "39c3549e-c73b-4d72-a794-32114489ac01",
          "GT5": "e2fced10-4842-423e-ada0-523bf7ea8ad3",
          "GT4": "cb455b6f-78ff-4b1e-b241-c2bbc0b37e9f",
          "GT1": {
            "GS1": 1
          }
        },
        {
          "BL1": "Terrasoft.Core.Process.ProcessSchemaMapping",
          "UId": "dd6b0868-4b1e-47d7-9302-53a9ba8a12ca",
          "A2": "ReadDataUserTask2",
          "A3": "5d092161-4e0b-457c-a946-50a3bd02a3f9",
          "A4": "5d092161-4e0b-457c-a946-50a3bd02a3f9",
          "GT2": "[Element:{310d507d-2f2c-4a24-8cda-67b94b08cfd0}].[Parameter:{959b6514-83e2-425f-ba06-a530bab2c8f1}]",
          "GT3": "959b6514-83e2-425f-ba06-a530bab2c8f1",
          "GT5": "2e63ea99-8125-4254-88bd-20d3610bd471",
          "GT4": "cb455b6f-78ff-4b1e-b241-c2bbc0b37e9f",
          "GT1": {
            "GS2": ""
          }
        },
        {
          "BL1": "Terrasoft.Core.Process.ProcessSchemaMapping",
          "UId": "7a5da3b3-5577-4753-ae79-b12412f11a66",
          "A2": "ReadDataUserTask2",
          "A3": "5d092161-4e0b-457c-a946-50a3bd02a3f9",
          "A4": "5d092161-4e0b-457c-a946-50a3bd02a3f9",
          "GT2": "[Element:{310d507d-2f2c-4a24-8cda-67b94b08cfd0}].[Parameter:{8681e297-0b85-47c8-b5ee-d3631e56fa43}]",
          "GT3": "8681e297-0b85-47c8-b5ee-d3631e56fa43",
          "GT5": "a3660fce-a8f9-4a68-a3c1-b4f2f7983635",
          "GT4": "cb455b6f-78ff-4b1e-b241-c2bbc0b37e9f",
          "GT1": {
            "GS2": ""
          }
        },
        {
          "BL1": "Terrasoft.Core.Process.ProcessSchemaMapping",
          "UId": "68e7bec1-e8f4-4edd-8bca-237b2b3d52dd",
          "A2": "ReadDataUserTask2",
          "A3": "5d092161-4e0b-457c-a946-50a3bd02a3f9",
          "A4": "5d092161-4e0b-457c-a946-50a3bd02a3f9",
          "GT2": "[Element:{310d507d-2f2c-4a24-8cda-67b94b08cfd0}].[Parameter:{6e7bc6bc-2fee-4220-bfe4-39f781c884bf}]",
          "GT3": "6e7bc6bc-2fee-4220-bfe4-39f781c884bf",
          "GT5": "9a594933-75da-4304-b6a3-5945dba159e3",
          "GT4": "cb455b6f-78ff-4b1e-b241-c2bbc0b37e9f",
          "GT1": {
            "GS2": ""
          }
        },
        {
          "BL1": "Terrasoft.Core.Process.ProcessSchemaMapping",
          "UId": "1ab3921b-8bb0-4706-bd6b-ea3ffd66f808",
          "A2": "ReadDataUserTask2",
          "A3": "5d092161-4e0b-457c-a946-50a3bd02a3f9",
          "A4": "5d092161-4e0b-457c-a946-50a3bd02a3f9",
          "GT2": "[Element:{310d507d-2f2c-4a24-8cda-67b94b08cfd0}].[Parameter:{036b9ab5-53bd-400f-a0ca-eaa0b338b19e}]",
          "GT3": "036b9ab5-53bd-400f-a0ca-eaa0b338b19e",
          "GT5": "11fb235f-c06a-4111-84cd-a5dbf9a440d5",
          "GT4": "cb455b6f-78ff-4b1e-b241-c2bbc0b37e9f",
          "GT1": {
            "GS2": ""
          }
        },
        {
          "BL1": "Terrasoft.Core.Process.ProcessSchemaMapping",
          "UId": "2a74c512-2439-4c3d-ae93-278584fcfb45",
          "A2": "ReadDataUserTask2",
          "A3": "5d092161-4e0b-457c-a946-50a3bd02a3f9",
          "A4": "5d092161-4e0b-457c-a946-50a3bd02a3f9",
          "GT2": "[Element:{310d507d-2f2c-4a24-8cda-67b94b08cfd0}].[Parameter:{211883b0-54a3-4300-a9f5-0aa9f3f87246}]",
          "GT3": "211883b0-54a3-4300-a9f5-0aa9f3f87246",
          "GT5": "78252e95-b759-416a-9c48-c128fbdf59ef",
          "GT4": "cb455b6f-78ff-4b1e-b241-c2bbc0b37e9f",
          "GT1": {
            "GS2": ""
          }
        },
        {
          "BL1": "Terrasoft.Core.Process.ProcessSchemaMapping",
          "UId": "ec8308fc-c608-4f69-be60-5e81cc4a7564",
          "A2": "ReadDataUserTask2",
          "A3": "5d092161-4e0b-457c-a946-50a3bd02a3f9",
          "A4": "5d092161-4e0b-457c-a946-50a3bd02a3f9",
          "GT2": "[Element:{310d507d-2f2c-4a24-8cda-67b94b08cfd0}].[Parameter:{377ee644-2960-4a95-a6cf-9e578b7cba0c}]",
          "GT3": "377ee644-2960-4a95-a6cf-9e578b7cba0c",
          "GT5": "2f797429-6f43-4594-96bb-62fbc7b7deec",
          "GT4": "cb455b6f-78ff-4b1e-b241-c2bbc0b37e9f",
          "GT1": {
            "GS1": 1,
            "GS2": "true",
            "GS5": "cb455b6f-78ff-4b1e-b241-c2bbc0b37e9f"
          }
        },
        {
          "BL1": "Terrasoft.Core.Process.ProcessSchemaMapping",
          "UId": "e52f2d04-929e-4aef-8156-bdb1dab5f833",
          "A2": "ReadDataUserTask2",
          "A3": "5d092161-4e0b-457c-a946-50a3bd02a3f9",
          "A4": "5d092161-4e0b-457c-a946-50a3bd02a3f9",
          "GT2": "[Element:{310d507d-2f2c-4a24-8cda-67b94b08cfd0}].[Parameter:{6f7935de-1952-4b8f-8d78-441ac45c30a7}]",
          "GT3": "6f7935de-1952-4b8f-8d78-441ac45c30a7",
          "GT5": "be4a0d16-6a15-41cf-ac44-a8b757565428",
          "GT4": "cb455b6f-78ff-4b1e-b241-c2bbc0b37e9f",
          "GT1": {
            "GS2": ""
          }
        },
        {
          "BL1": "Terrasoft.Core.Process.ProcessSchemaMapping",
          "UId": "6814279e-8eb0-467e-97ce-8cc72b8d8020",
          "A2": "ReadDataUserTask2",
          "A3": "5d092161-4e0b-457c-a946-50a3bd02a3f9",
          "A4": "5d092161-4e0b-457c-a946-50a3bd02a3f9",
          "GT2": "[Element:{310d507d-2f2c-4a24-8cda-67b94b08cfd0}].[Parameter:{224e702f-2237-4c1f-b1a0-59366cbb54c8}]",
          "GT3": "224e702f-2237-4c1f-b1a0-59366cbb54c8",
          "GT5": "cc12005f-f434-4a40-b9d0-dc8f81755545",
          "GT4": "cb455b6f-78ff-4b1e-b241-c2bbc0b37e9f",
          "GT1": {
            "GS1": 1,
            "GS2": "111d5591-ddf1-43c9-88a0-a64d7fd4a5fb"
          }
        },
        {
          "BL1": "Terrasoft.Core.Process.ProcessSchemaMapping",
          "UId": "1dba27c6-0a57-46c6-8719-cadf346e7740",
          "A2": "ReadDataUserTask2",
          "A3": "5d092161-4e0b-457c-a946-50a3bd02a3f9",
          "A4": "5d092161-4e0b-457c-a946-50a3bd02a3f9",
          "GT2": "[Element:{310d507d-2f2c-4a24-8cda-67b94b08cfd0}].[Parameter:{64eec704-56ba-4d77-9be7-60348692fc1a}]",
          "GT3": "64eec704-56ba-4d77-9be7-60348692fc1a",
          "GT5": "6dada847-859b-4e0a-9297-b3c9572530b6",
          "GT4": "cb455b6f-78ff-4b1e-b241-c2bbc0b37e9f",
          "GT1": {
            "GS2": ""
          }
        },
        {
          "BL1": "Terrasoft.Core.Process.ProcessSchemaMapping",
          "UId": "b3af90e5-c35b-4d4c-819c-be107f31c44d",
          "A2": "ReadDataUserTask2",
          "A3": "5d092161-4e0b-457c-a946-50a3bd02a3f9",
          "A4": "5d092161-4e0b-457c-a946-50a3bd02a3f9",
          "GT2": "[Element:{310d507d-2f2c-4a24-8cda-67b94b08cfd0}].[Parameter:{dd7f80c0-1888-4866-b9d4-1fa2a2fb2789}]",
          "GT3": "dd7f80c0-1888-4866-b9d4-1fa2a2fb2789",
          "GT5": "555901ef-f707-4803-a887-1bc07e882096",
          "GT4": "cb455b6f-78ff-4b1e-b241-c2bbc0b37e9f",
          "GT1": {
            "GS2": ""
          }
        },
        {
          "BL1": "Terrasoft.Core.Process.ProcessSchemaMapping",
          "UId": "dcb0e030-d020-4daa-b302-04cbc07e0e75",
          "A2": "ReadDataUserTask2",
          "A3": "5d092161-4e0b-457c-a946-50a3bd02a3f9",
          "A4": "5d092161-4e0b-457c-a946-50a3bd02a3f9",
          "GT2": "[Element:{310d507d-2f2c-4a24-8cda-67b94b08cfd0}].[Parameter:{2f5dc28c-0145-48a4-bcbb-8d66e46b8b68}]",
          "GT3": "2f5dc28c-0145-48a4-bcbb-8d66e46b8b68",
          "GT5": "978b550e-1b81-448a-8700-9c9190c3a2a4",
          "GT4": "cb455b6f-78ff-4b1e-b241-c2bbc0b37e9f",
          "GT1": {
            "GS1": 3,
            "GS2": "false",
            "GS5": "cb455b6f-78ff-4b1e-b241-c2bbc0b37e9f"
          }
        },
        {
          "BL1": "Terrasoft.Core.Process.ProcessSchemaMapping",
          "UId": "2789df50-1808-4144-bd6b-766df9f2fcb2",
          "A2": "ReadDataUserTask3",
          "A3": "5d092161-4e0b-457c-a946-50a3bd02a3f9",
          "A4": "5d092161-4e0b-457c-a946-50a3bd02a3f9",
          "GT2": "[Element:{9e708d43-cb32-4370-9c02-099261a07f9f}].[Parameter:{307308f1-ec11-415a-8b97-abdee3417512}]",
          "GT3": "307308f1-ec11-415a-8b97-abdee3417512",
          "GT5": "5d9ac9a7-7782-49ce-8990-dcb1c73832b0",
          "GT4": "cb455b6f-78ff-4b1e-b241-c2bbc0b37e9f",
          "GT1": {
            "GS1": 1,
            "GS2": "{\"className\":\"Terrasoft.FilterGroup\",\"serializedFilterEditData\":\"{\\\"className\\\":\\\"Terrasoft.FilterGroup\\\",\\\"items\\\":{\\\"5dfb2614-83c6-4fac-a1c9-9308c4ef1c25\\\":{\\\"className\\\":\\\"Terrasoft.CompareFilter\\\",\\\"filterType\\\":1,\\\"comparisonType\\\":3,\\\"isEnabled\\\":true,\\\"trimDateTimeParameterToDate\\\":false,\\\"leftExpression\\\":{\\\"className\\\":\\\"Terrasoft.ColumnExpression\\\",\\\"expressionType\\\":0,\\\"columnPath\\\":\\\"Id\\\"},\\\"isAggregative\\\":false,\\\"key\\\":\\\"5dfb2614-83c6-4fac-a1c9-9308c4ef1c25\\\",\\\"dataValueType\\\":0,\\\"leftExpressionCaption\\\":\\\"Id\\\",\\\"rightExpression\\\":{\\\"className\\\":\\\"Terrasoft.ParameterExpression\\\",\\\"expressionType\\\":2,\\\"parameter\\\":{\\\"className\\\":\\\"Terrasoft.Parameter\\\",\\\"dataValueType\\\":26,\\\"value\\\":{\\\"value\\\":\\\"[IsOwnerSchema:false].[IsSchema:false].[Element:{310d507d-2f2c-4a24-8cda-67b94b08cfd0}].[Parameter:{39c3549e-c73b-4d72-a794-32114489ac01}].[EntityColumn:{111d5591-ddf1-43c9-88a0-a64d7fd4a5fb}]\\\",\\\"displayValue\\\":\\\"RD Request.First item of resulting collection.Agreement for Renewal\\\"}}}}},\\\"logicalOperation\\\":0,\\\"isEnabled\\\":true,\\\"filterType\\\":6,\\\"rootSchemaName\\\":\\\"WatAgreement\\\",\\\"key\\\":\\\"\\\"}\",\"dataSourceFilters\":\"{\\\"items\\\":{\\\"5dfb2614-83c6-4fac-a1c9-9308c4ef1c25\\\":{\\\"filterType\\\":1,\\\"comparisonType\\\":3,\\\"isEnabled\\\":true,\\\"trimDateTimeParameterToDate\\\":false,\\\"leftExpression\\\":{\\\"expressionType\\\":0,\\\"columnPath\\\":\\\"Id\\\"},\\\"rightExpression\\\":{\\\"expressionType\\\":2,\\\"parameter\\\":{\\\"dataValueType\\\":26,\\\"value\\\":{\\\"value\\\":\\\"[IsOwnerSchema:false].[IsSchema:false].[Element:{310d507d-2f2c-4a24-8cda-67b94b08cfd0}].[Parameter:{39c3549e-c73b-4d72-a794-32114489ac01}].[EntityColumn:{111d5591-ddf1-43c9-88a0-a64d7fd4a5fb}]\\\"}}}}},\\\"logicalOperation\\\":0,\\\"isEnabled\\\":true,\\\"filterType\\\":6,\\\"rootSchemaName\\\":\\\"WatAgreement\\\"}\"}"
          }
        },
        {
          "BL1": "Terrasoft.Core.Process.ProcessSchemaMapping",
          "UId": "721eca31-3b63-48ef-9d6f-e1b48b7d4fb7",
          "A2": "ReadDataUserTask3",
          "A3": "5d092161-4e0b-457c-a946-50a3bd02a3f9",
          "A4": "5d092161-4e0b-457c-a946-50a3bd02a3f9",
          "GT2": "[Element:{9e708d43-cb32-4370-9c02-099261a07f9f}].[Parameter:{5bc5ae00-1739-45b6-a16f-cd2196bd600c}]",
          "GT3": "5bc5ae00-1739-45b6-a16f-cd2196bd600c",
          "GT5": "643e4d6d-7ec8-49f0-842a-066a996fbe8b",
          "GT4": "cb455b6f-78ff-4b1e-b241-c2bbc0b37e9f",
          "GT1": {
            "GS1": 1,
            "GS2": "0",
            "GS5": "cb455b6f-78ff-4b1e-b241-c2bbc0b37e9f"
          }
        },
        {
          "BL1": "Terrasoft.Core.Process.ProcessSchemaMapping",
          "UId": "e8f0871f-6427-4afa-82cc-7f79186893f6",
          "A2": "ReadDataUserTask3",
          "A3": "5d092161-4e0b-457c-a946-50a3bd02a3f9",
          "A4": "5d092161-4e0b-457c-a946-50a3bd02a3f9",
          "GT2": "[Element:{9e708d43-cb32-4370-9c02-099261a07f9f}].[Parameter:{65bfc4cf-32d9-48b9-80cf-079205d6bae2}]",
          "GT3": "65bfc4cf-32d9-48b9-80cf-079205d6bae2",
          "GT5": "29115add-7520-4ad4-8371-d91f537ac913",
          "GT4": "cb455b6f-78ff-4b1e-b241-c2bbc0b37e9f",
          "GT1": {
            "GS1": 1,
            "GS2": "true"
          }
        },
        {
          "BL1": "Terrasoft.Core.Process.ProcessSchemaMapping",
          "UId": "dcafe9bd-dd6f-4e7e-b07c-40b342c57a53",
          "A2": "ReadDataUserTask3",
          "A3": "5d092161-4e0b-457c-a946-50a3bd02a3f9",
          "A4": "5d092161-4e0b-457c-a946-50a3bd02a3f9",
          "GT2": "[Element:{9e708d43-cb32-4370-9c02-099261a07f9f}].[Parameter:{7a5495dc-fb07-4145-bc1c-5135c5653786}]",
          "GT3": "7a5495dc-fb07-4145-bc1c-5135c5653786",
          "GT5": "f29e5660-c5ef-4d84-8331-9046c3093519",
          "GT4": "cb455b6f-78ff-4b1e-b241-c2bbc0b37e9f",
          "GT1": {
            "GS1": 1,
            "GS2": "50"
          }
        },
        {
          "BL1": "Terrasoft.Core.Process.ProcessSchemaMapping",
          "UId": "6679ce94-494f-487c-8115-9f2ab36e7e9b",
          "A2": "ReadDataUserTask3",
          "A3": "5d092161-4e0b-457c-a946-50a3bd02a3f9",
          "A4": "5d092161-4e0b-457c-a946-50a3bd02a3f9",
          "GT2": "[Element:{9e708d43-cb32-4370-9c02-099261a07f9f}].[Parameter:{de6b52dd-45f0-4a3a-9b9a-fe654e8faa8b}]",
          "GT3": "de6b52dd-45f0-4a3a-9b9a-fe654e8faa8b",
          "GT5": "94ba9876-18c1-4a68-bcef-08f7e7f0e25c",
          "GT4": "cb455b6f-78ff-4b1e-b241-c2bbc0b37e9f",
          "GT1": {
            "GS1": 1,
            "GS2": "0"
          }
        },
        {
          "BL1": "Terrasoft.Core.Process.ProcessSchemaMapping",
          "UId": "9455534d-8c55-42a1-9292-11b72363cb10",
          "A2": "ReadDataUserTask3",
          "A3": "5d092161-4e0b-457c-a946-50a3bd02a3f9",
          "A4": "5d092161-4e0b-457c-a946-50a3bd02a3f9",
          "GT2": "[Element:{9e708d43-cb32-4370-9c02-099261a07f9f}].[Parameter:{e1de1117-f8bf-4efd-b087-f1b89bc94f2d}]",
          "GT3": "e1de1117-f8bf-4efd-b087-f1b89bc94f2d",
          "GT5": "cb5d6d26-7e81-4cbe-8730-8b7169000d14",
          "GT4": "cb455b6f-78ff-4b1e-b241-c2bbc0b37e9f",
          "GT1": {
            "GS2": ""
          }
        },
        {
          "BL1": "Terrasoft.Core.Process.ProcessSchemaMapping",
          "UId": "ec8723ad-614f-48c4-81ae-1d9927c7a236",
          "A2": "ReadDataUserTask3",
          "A3": "5d092161-4e0b-457c-a946-50a3bd02a3f9",
          "A4": "5d092161-4e0b-457c-a946-50a3bd02a3f9",
          "GT2": "[Element:{9e708d43-cb32-4370-9c02-099261a07f9f}].[Parameter:{db2bf7f8-8750-460b-8f00-3ebd19aaa2c5}]",
          "GT3": "db2bf7f8-8750-460b-8f00-3ebd19aaa2c5",
          "GT5": "473e79e2-727e-40a7-8829-7eefc576b403",
          "GT4": "cb455b6f-78ff-4b1e-b241-c2bbc0b37e9f",
          "GT1": {
            "GS2": ""
          }
        },
        {
          "BL1": "Terrasoft.Core.Process.ProcessSchemaMapping",
          "UId": "2382ea29-0a97-4e4a-9807-7dc64a9e3a0c",
          "A2": "ReadDataUserTask3",
          "A3": "5d092161-4e0b-457c-a946-50a3bd02a3f9",
          "A4": "5d092161-4e0b-457c-a946-50a3bd02a3f9",
          "GT2": "[Element:{9e708d43-cb32-4370-9c02-099261a07f9f}].[Parameter:{51a5e758-299c-4c79-b9af-70fc8d5c4f64}]",
          "GT3": "51a5e758-299c-4c79-b9af-70fc8d5c4f64",
          "GT5": "e2fced10-4842-423e-ada0-523bf7ea8ad3",
          "GT4": "cb455b6f-78ff-4b1e-b241-c2bbc0b37e9f",
          "GT1": {
            "GS1": 1
          }
        },
        {
          "BL1": "Terrasoft.Core.Process.ProcessSchemaMapping",
          "UId": "8b99e7fd-dcb6-4836-83e5-bf00ca1fdcbc",
          "A2": "ReadDataUserTask3",
          "A3": "5d092161-4e0b-457c-a946-50a3bd02a3f9",
          "A4": "5d092161-4e0b-457c-a946-50a3bd02a3f9",
          "GT2": "[Element:{9e708d43-cb32-4370-9c02-099261a07f9f}].[Parameter:{bec9b6fb-96f9-4365-9b7f-479284f2ede3}]",
          "GT3": "bec9b6fb-96f9-4365-9b7f-479284f2ede3",
          "GT5": "2e63ea99-8125-4254-88bd-20d3610bd471",
          "GT4": "cb455b6f-78ff-4b1e-b241-c2bbc0b37e9f",
          "GT1": {
            "GS2": ""
          }
        },
        {
          "BL1": "Terrasoft.Core.Process.ProcessSchemaMapping",
          "UId": "ca31d8b5-3c4d-4da5-8d72-7bf6eb67c4b5",
          "A2": "ReadDataUserTask3",
          "A3": "5d092161-4e0b-457c-a946-50a3bd02a3f9",
          "A4": "5d092161-4e0b-457c-a946-50a3bd02a3f9",
          "GT2": "[Element:{9e708d43-cb32-4370-9c02-099261a07f9f}].[Parameter:{b214f1d4-1d23-4602-b359-c91991342569}]",
          "GT3": "b214f1d4-1d23-4602-b359-c91991342569",
          "GT5": "a3660fce-a8f9-4a68-a3c1-b4f2f7983635",
          "GT4": "cb455b6f-78ff-4b1e-b241-c2bbc0b37e9f",
          "GT1": {
            "GS2": ""
          }
        },
        {
          "BL1": "Terrasoft.Core.Process.ProcessSchemaMapping",
          "UId": "21871af3-5f51-4d60-aead-7f9527a3f779",
          "A2": "ReadDataUserTask3",
          "A3": "5d092161-4e0b-457c-a946-50a3bd02a3f9",
          "A4": "5d092161-4e0b-457c-a946-50a3bd02a3f9",
          "GT2": "[Element:{9e708d43-cb32-4370-9c02-099261a07f9f}].[Parameter:{d644509f-3d4e-4877-b540-26babf22b468}]",
          "GT3": "d644509f-3d4e-4877-b540-26babf22b468",
          "GT5": "9a594933-75da-4304-b6a3-5945dba159e3",
          "GT4": "cb455b6f-78ff-4b1e-b241-c2bbc0b37e9f",
          "GT1": {
            "GS2": ""
          }
        },
        {
          "BL1": "Terrasoft.Core.Process.ProcessSchemaMapping",
          "UId": "d69b082a-53a4-42dc-9d7f-da8d1929714b",
          "A2": "ReadDataUserTask3",
          "A3": "5d092161-4e0b-457c-a946-50a3bd02a3f9",
          "A4": "5d092161-4e0b-457c-a946-50a3bd02a3f9",
          "GT2": "[Element:{9e708d43-cb32-4370-9c02-099261a07f9f}].[Parameter:{2357c9da-beed-44f3-b0ba-07a870c9cc89}]",
          "GT3": "2357c9da-beed-44f3-b0ba-07a870c9cc89",
          "GT5": "11fb235f-c06a-4111-84cd-a5dbf9a440d5",
          "GT4": "cb455b6f-78ff-4b1e-b241-c2bbc0b37e9f",
          "GT1": {
            "GS2": ""
          }
        },
        {
          "BL1": "Terrasoft.Core.Process.ProcessSchemaMapping",
          "UId": "133555f1-3f51-411d-b7e6-8e4665f1144f",
          "A2": "ReadDataUserTask3",
          "A3": "5d092161-4e0b-457c-a946-50a3bd02a3f9",
          "A4": "5d092161-4e0b-457c-a946-50a3bd02a3f9",
          "GT2": "[Element:{9e708d43-cb32-4370-9c02-099261a07f9f}].[Parameter:{5e6ec994-8919-4a75-9dde-366da27af537}]",
          "GT3": "5e6ec994-8919-4a75-9dde-366da27af537",
          "GT5": "78252e95-b759-416a-9c48-c128fbdf59ef",
          "GT4": "cb455b6f-78ff-4b1e-b241-c2bbc0b37e9f",
          "GT1": {
            "GS2": ""
          }
        },
        {
          "BL1": "Terrasoft.Core.Process.ProcessSchemaMapping",
          "UId": "16e06586-8164-49e5-afd8-a80c7dc4aac2",
          "A2": "ReadDataUserTask3",
          "A3": "5d092161-4e0b-457c-a946-50a3bd02a3f9",
          "A4": "5d092161-4e0b-457c-a946-50a3bd02a3f9",
          "GT2": "[Element:{9e708d43-cb32-4370-9c02-099261a07f9f}].[Parameter:{869b1175-05a1-45e4-b31b-d052ec7bb1e2}]",
          "GT3": "869b1175-05a1-45e4-b31b-d052ec7bb1e2",
          "GT5": "2f797429-6f43-4594-96bb-62fbc7b7deec",
          "GT4": "cb455b6f-78ff-4b1e-b241-c2bbc0b37e9f",
          "GT1": {
            "GS1": 1,
            "GS2": "true",
            "GS5": "cb455b6f-78ff-4b1e-b241-c2bbc0b37e9f"
          }
        },
        {
          "BL1": "Terrasoft.Core.Process.ProcessSchemaMapping",
          "UId": "9e0d6dc4-1515-4e21-806a-d38aafb3aaec",
          "A2": "ReadDataUserTask3",
          "A3": "5d092161-4e0b-457c-a946-50a3bd02a3f9",
          "A4": "5d092161-4e0b-457c-a946-50a3bd02a3f9",
          "GT2": "[Element:{9e708d43-cb32-4370-9c02-099261a07f9f}].[Parameter:{2a5a3430-3ba1-4517-8eb0-71b44385afec}]",
          "GT3": "2a5a3430-3ba1-4517-8eb0-71b44385afec",
          "GT5": "be4a0d16-6a15-41cf-ac44-a8b757565428",
          "GT4": "cb455b6f-78ff-4b1e-b241-c2bbc0b37e9f",
          "GT1": {
            "GS2": ""
          }
        },
        {
          "BL1": "Terrasoft.Core.Process.ProcessSchemaMapping",
          "UId": "2a5aa029-af25-475d-8fba-75e64b5d7d3a",
          "A2": "ReadDataUserTask3",
          "A3": "5d092161-4e0b-457c-a946-50a3bd02a3f9",
          "A4": "5d092161-4e0b-457c-a946-50a3bd02a3f9",
          "GT2": "[Element:{9e708d43-cb32-4370-9c02-099261a07f9f}].[Parameter:{0a233e8e-3658-4fa3-86bb-31297c211f60}]",
          "GT3": "0a233e8e-3658-4fa3-86bb-31297c211f60",
          "GT5": "cc12005f-f434-4a40-b9d0-dc8f81755545",
          "GT4": "cb455b6f-78ff-4b1e-b241-c2bbc0b37e9f",
          "GT1": {
            "GS1": 1,
            "GS2": "d2d96e97-13f1-46f7-957a-31a0a8e23f63;82ab9509-d988-46b0-ab08-aa9aac910cc6;011c3f0e-d63f-4754-8775-8db90bb1dc6b;9a55d137-1a33-432f-b808-373036a05f95",
            "GS5": "5d092161-4e0b-457c-a946-50a3bd02a3f9"
          }
        },
        {
          "BL1": "Terrasoft.Core.Process.ProcessSchemaMapping",
          "UId": "dba75601-7a10-408f-9883-566b8d082375",
          "A2": "ReadDataUserTask3",
          "A3": "5d092161-4e0b-457c-a946-50a3bd02a3f9",
          "A4": "5d092161-4e0b-457c-a946-50a3bd02a3f9",
          "GT2": "[Element:{9e708d43-cb32-4370-9c02-099261a07f9f}].[Parameter:{24c77123-f51e-42ca-8a13-fadd4fd8db07}]",
          "GT3": "24c77123-f51e-42ca-8a13-fadd4fd8db07",
          "GT5": "6dada847-859b-4e0a-9297-b3c9572530b6",
          "GT4": "cb455b6f-78ff-4b1e-b241-c2bbc0b37e9f",
          "GT1": {
            "GS2": ""
          }
        },
        {
          "BL1": "Terrasoft.Core.Process.ProcessSchemaMapping",
          "UId": "d42c79bb-2798-4d7b-8749-c189c81f1a3a",
          "A2": "ReadDataUserTask3",
          "A3": "5d092161-4e0b-457c-a946-50a3bd02a3f9",
          "A4": "5d092161-4e0b-457c-a946-50a3bd02a3f9",
          "GT2": "[Element:{9e708d43-cb32-4370-9c02-099261a07f9f}].[Parameter:{bcdf4899-c1c6-4026-aba0-8d867daab1c0}]",
          "GT3": "bcdf4899-c1c6-4026-aba0-8d867daab1c0",
          "GT5": "555901ef-f707-4803-a887-1bc07e882096",
          "GT4": "cb455b6f-78ff-4b1e-b241-c2bbc0b37e9f",
          "GT1": {
            "GS2": ""
          }
        },
        {
          "BL1": "Terrasoft.Core.Process.ProcessSchemaMapping",
          "UId": "2fc904c6-1265-46dc-9893-6bc2273f4036",
          "A2": "ReadDataUserTask3",
          "A3": "5d092161-4e0b-457c-a946-50a3bd02a3f9",
          "A4": "5d092161-4e0b-457c-a946-50a3bd02a3f9",
          "GT2": "[Element:{9e708d43-cb32-4370-9c02-099261a07f9f}].[Parameter:{ebbdc82a-ecbd-41a0-b876-1aa5e42b2a0c}]",
          "GT3": "ebbdc82a-ecbd-41a0-b876-1aa5e42b2a0c",
          "GT5": "978b550e-1b81-448a-8700-9c9190c3a2a4",
          "GT4": "cb455b6f-78ff-4b1e-b241-c2bbc0b37e9f",
          "GT1": {
            "GS1": 3,
            "GS2": "false",
            "GS5": "cb455b6f-78ff-4b1e-b241-c2bbc0b37e9f"
          }
        },
        {
          "BL1": "Terrasoft.Core.Process.ProcessSchemaMapping",
          "UId": "94aba7e8-4724-4099-af03-be20decd028b",
          "A2": "ChangeDataUserTask1",
          "A3": "5d092161-4e0b-457c-a946-50a3bd02a3f9",
          "A4": "5d092161-4e0b-457c-a946-50a3bd02a3f9",
          "GT2": "[Element:{6d7283e6-4a96-443d-a425-cc0c7253320f}].[Parameter:{81315ff3-8927-4712-b7e3-c9c6b1574a38}]",
          "GT3": "81315ff3-8927-4712-b7e3-c9c6b1574a38",
          "GT5": "bd2cf1ae-bbc6-4d91-8d6e-c6b40f057e95",
          "GT4": "d3021ca7-7450-4678-a117-060171eb2976",
          "GT1": {
            "GS1": 1,
            "GS2": "6d9487e3-54df-480b-9ce7-168a3987b209"
          }
        },
        {
          "BL1": "Terrasoft.Core.Process.ProcessSchemaMapping",
          "UId": "e993e575-a2d2-4f25-971c-8ad4d9af88f6",
          "A2": "ChangeDataUserTask1",
          "A3": "5d092161-4e0b-457c-a946-50a3bd02a3f9",
          "A4": "5d092161-4e0b-457c-a946-50a3bd02a3f9",
          "GT2": "[Element:{6d7283e6-4a96-443d-a425-cc0c7253320f}].[Parameter:{3cab4145-b2f8-42ea-bf00-cf661934185f}]",
          "GT3": "3cab4145-b2f8-42ea-bf00-cf661934185f",
          "GT5": "d6c84ba1-b6ca-4952-b517-880f22e21fdc",
          "GT4": "d3021ca7-7450-4678-a117-060171eb2976",
          "GT1": {
            "GS1": 3,
            "GS2": "true",
            "GS5": "d3021ca7-7450-4678-a117-060171eb2976"
          }
        },
        {
          "BL1": "Terrasoft.Core.Process.ProcessSchemaMapping",
          "UId": "6fe8345a-22f3-4a44-a729-567314bd859d",
          "A2": "ChangeDataUserTask1",
          "A3": "5d092161-4e0b-457c-a946-50a3bd02a3f9",
          "A4": "5d092161-4e0b-457c-a946-50a3bd02a3f9",
          "GT2": "[Element:{6d7283e6-4a96-443d-a425-cc0c7253320f}].[Parameter:{a8c81035-eabd-4ece-b3cc-ab1c1918dbfa}]",
          "GT3": "a8c81035-eabd-4ece-b3cc-ab1c1918dbfa",
          "GT5": "03166c4b-2e15-4768-a343-750c16b69691",
          "GT4": "d3021ca7-7450-4678-a117-060171eb2976",
          "GT1": {
            "GS1": 1,
            "GS2": "{\"className\":\"Terrasoft.FilterGroup\",\"serializedFilterEditData\":\"{\\\"className\\\":\\\"Terrasoft.FilterGroup\\\",\\\"items\\\":{\\\"89258324-7364-40b5-8835-a5bcbee16f30\\\":{\\\"className\\\":\\\"Terrasoft.CompareFilter\\\",\\\"filterType\\\":1,\\\"comparisonType\\\":3,\\\"isEnabled\\\":true,\\\"trimDateTimeParameterToDate\\\":false,\\\"leftExpression\\\":{\\\"className\\\":\\\"Terrasoft.ColumnExpression\\\",\\\"expressionType\\\":0,\\\"columnPath\\\":\\\"Id\\\"},\\\"isAggregative\\\":false,\\\"key\\\":\\\"89258324-7364-40b5-8835-a5bcbee16f30\\\",\\\"dataValueType\\\":0,\\\"leftExpressionCaption\\\":\\\"Id\\\",\\\"rightExpression\\\":{\\\"className\\\":\\\"Terrasoft.ParameterExpression\\\",\\\"expressionType\\\":2,\\\"parameter\\\":{\\\"className\\\":\\\"Terrasoft.Parameter\\\",\\\"dataValueType\\\":26,\\\"value\\\":{\\\"value\\\":\\\"[IsOwnerSchema:false].[IsSchema:false].[Parameter:{5b9ee452-c8af-4ad3-88d2-8935fbbc71a9}]\\\",\\\"displayValue\\\":\\\"RequestId\\\"}}}}},\\\"logicalOperation\\\":0,\\\"isEnabled\\\":true,\\\"filterType\\\":6,\\\"rootSchemaName\\\":\\\"WatPartnershipRequest\\\",\\\"key\\\":\\\"\\\"}\",\"dataSourceFilters\":\"{\\\"items\\\":{\\\"89258324-7364-40b5-8835-a5bcbee16f30\\\":{\\\"filterType\\\":1,\\\"comparisonType\\\":3,\\\"isEnabled\\\":true,\\\"trimDateTimeParameterToDate\\\":false,\\\"leftExpression\\\":{\\\"expressionType\\\":0,\\\"columnPath\\\":\\\"Id\\\"},\\\"rightExpression\\\":{\\\"expressionType\\\":2,\\\"parameter\\\":{\\\"dataValueType\\\":26,\\\"value\\\":{\\\"value\\\":\\\"[IsOwnerSchema:false].[IsSchema:false].[Parameter:{5b9ee452-c8af-4ad3-88d2-8935fbbc71a9}]\\\"}}}}},\\\"logicalOperation\\\":0,\\\"isEnabled\\\":true,\\\"filterType\\\":6,\\\"rootSchemaName\\\":\\\"WatPartnershipRequest\\\"}\"}"
          }
        },
        {
          "BL1": "Terrasoft.Core.Process.ProcessSchemaMapping",
          "UId": "649ee4fa-b410-41ac-9a34-fb28e2b204eb",
          "A2": "ChangeDataUserTask1",
          "A3": "5d092161-4e0b-457c-a946-50a3bd02a3f9",
          "A4": "5d092161-4e0b-457c-a946-50a3bd02a3f9",
          "GT2": "[Element:{6d7283e6-4a96-443d-a425-cc0c7253320f}].[Parameter:{0c44a148-146e-482e-86bb-fd10552db103}]",
          "GT3": "0c44a148-146e-482e-86bb-fd10552db103",
          "GT5": "effa11ce-90c7-4efe-8a02-be7a659d27e9",
          "GT4": "d3021ca7-7450-4678-a117-060171eb2976",
          "GT1": {
            "GS1": 1,
            "GS2": "{\"$type\":\"Terrasoft.Core.Process.LocalizableParameterValuesList, Terrasoft.Core\",\"$values\":[{\"ItemUId\":\"392a4056-2efc-477f-bd38-ae59bc43e5c2\",\"columnMetaPath\":{\"value\":\"b8ac5a13-6fa9-4d23-8fdb-21b190c7edfe\"},\"schemaUId\":{\"value\":\"6d9487e3-54df-480b-9ce7-168a3987b209\"},\"value\":{\"value\":\"[#[IsOwnerSchema:false].[IsSchema:false].[Element:{9e708d43-cb32-4370-9c02-099261a07f9f}].[Parameter:{51a5e758-299c-4c79-b9af-70fc8d5c4f64}].[EntityColumn:{82ab9509-d988-46b0-ab08-aa9aac910cc6}]#]\"},\"displayValue\":{\"value\":\"[#RD Agreement.First item of resulting collection.Institution#]\"},\"parameterValue\":{\"value\":\"{\\\"$type\\\":\\\"Terrasoft.Core.Process.ProcessSchemaParameterValue, Terrasoft.Core\\\",\\\"Source\\\":3,\\\"DisplayValue\\\":\\\"\\\",\\\"Value\\\":\\\"\\\",\\\"MetaPath\\\":null,\\\"MetaDataValue\\\":null,\\\"ModifiedInSchemaUId\\\":\\\"00000000-0000-0000-0000-000000000000\\\",\\\"SchemaUId\\\":\\\"00000000-0000-0000-0000-000000000000\\\",\\\"SchemaManagerName\\\":\\\"\\\",\\\"DataValueTypeUId\\\":\\\"b295071f-7ea9-4e62-8d1a-919bf3732ff2\\\",\\\"ReferenceSchemaUId\\\":\\\"25d7c1ab-1de0-4501-b402-02e0e5a72d6e\\\",\\\"ResourceItemName\\\":null}\"}},{\"ItemUId\":\"ede1ddb4-1ca5-4d54-aabf-13c2244f475e\",\"columnMetaPath\":{\"value\":\"e9d21f82-853d-4528-98d7-506b78f4ab7c\"},\"schemaUId\":{\"value\":\"6d9487e3-54df-480b-9ce7-168a3987b209\"},\"value\":{\"value\":\"[#[IsOwnerSchema:false].[IsSchema:false].[Element:{9e708d43-cb32-4370-9c02-099261a07f9f}].[Parameter:{51a5e758-299c-4c79-b9af-70fc8d5c4f64}].[EntityColumn:{011c3f0e-d63f-4754-8775-8db90bb1dc6b}]#]\"},\"displayValue\":{\"value\":\"[#RD Agreement.First item of resulting collection.Name#]\"},\"parameterValue\":{\"value\":\"{\\\"$type\\\":\\\"Terrasoft.Core.Process.ProcessSchemaParameterValue, Terrasoft.Core\\\",\\\"Source\\\":3,\\\"DisplayValue\\\":\\\"\\\",\\\"Value\\\":\\\"\\\",\\\"MetaPath\\\":null,\\\"MetaDataValue\\\":null,\\\"ModifiedInSchemaUId\\\":\\\"00000000-0000-0000-0000-000000000000\\\",\\\"SchemaUId\\\":\\\"00000000-0000-0000-0000-000000000000\\\",\\\"SchemaManagerName\\\":\\\"\\\",\\\"DataValueTypeUId\\\":\\\"8b3f29bb-ea14-4ce5-a5c5-293a929b6ba2\\\",\\\"ReferenceSchemaUId\\\":\\\"00000000-0000-0000-0000-000000000000\\\",\\\"ResourceItemName\\\":null}\"}},{\"ItemUId\":\"cff31cd6-f61b-418e-b384-0c1fa8e58429\",\"columnMetaPath\":{\"value\":\"234714bd-ef9d-4275-a767-ea10979c8f7f\"},\"schemaUId\":{\"value\":\"6d9487e3-54df-480b-9ce7-168a3987b209\"},\"value\":{\"value\":\"[#[IsOwnerSchema:false].[IsSchema:false].[Element:{9e708d43-cb32-4370-9c02-099261a07f9f}].[Parameter:{51a5e758-299c-4c79-b9af-70fc8d5c4f64}].[EntityColumn:{9a55d137-1a33-432f-b808-373036a05f95}]#]\"},\"displayValue\":{\"value\":\"[#RD Agreement.First item of resulting collection.Contact#]\"},\"parameterValue\":{\"value\":\"{\\\"$type\\\":\\\"Terrasoft.Core.Process.ProcessSchemaParameterValue, Terrasoft.Core\\\",\\\"Source\\\":3,\\\"DisplayValue\\\":\\\"\\\",\\\"Value\\\":\\\"\\\",\\\"MetaPath\\\":null,\\\"MetaDataValue\\\":null,\\\"ModifiedInSchemaUId\\\":\\\"00000000-0000-0000-0000-000000000000\\\",\\\"SchemaUId\\\":\\\"00000000-0000-0000-0000-000000000000\\\",\\\"SchemaManagerName\\\":\\\"\\\",\\\"DataValueTypeUId\\\":\\\"b295071f-7ea9-4e62-8d1a-919bf3732ff2\\\",\\\"ReferenceSchemaUId\\\":\\\"16be3651-8fe2-4159-8dd0-a803d4683dd3\\\",\\\"ResourceItemName\\\":null}\"}}]}",
            "GS5": "5d092161-4e0b-457c-a946-50a3bd02a3f9"
          }
        }
      ],
      "BK37": {
        "BL1": "Terrasoft.Core.Process.ProcessSchemaParameter",
        "UId": "cdd58be7-2dba-4a5e-869b-1ad5d6d7513a",
        "A2": "NotificationCaption",
        "A3": "5d092161-4e0b-457c-a946-50a3bd02a3f9",
        "A4": "5d092161-4e0b-457c-a946-50a3bd02a3f9",
        "L1": "8b3f29bb-ea14-4ce5-a5c5-293a929b6ba2",
        "L8": {
          "GS1": 3,
          "GS2": "[#[PropertyValue:Caption]#]"
        }
      },
      "BK1": "FFFFFFFF",
      "BK2": "FFBBBBBB",
      "BK3": [
        {
          "BL1": "Terrasoft.Core.Process.ProcessSchemaLaneSet",
          "UId": "cfab081f-8bc7-4417-ae1d-b7ce77f605dc",
          "A2": "LaneSet1",
          "A3": "5d092161-4e0b-457c-a946-50a3bd02a3f9",
          "A4": "5d092161-4e0b-457c-a946-50a3bd02a3f9",
          "A5": "80852c4e-6e90-4769-a5e6-c485d9bc7022",
          "BL7": "11a47caf-a0d5-41fa-a274-a0b11f77447a",
          "BL8": "5d092161-4e0b-457c-a946-50a3bd02a3f9",
          "BM1": 0,
          "BM4": [
            {
              "BL1": "Terrasoft.Core.Process.ProcessSchemaLane",
              "UId": "ee522e56-1dea-49ae-b95d-21eee4964c55",
              "A2": "Lane1",
              "A3": "5d092161-4e0b-457c-a946-50a3bd02a3f9",
              "A4": "5d092161-4e0b-457c-a946-50a3bd02a3f9",
              "A5": "80852c4e-6e90-4769-a5e6-c485d9bc7022",
              "IL2": "cfab081f-8bc7-4417-ae1d-b7ce77f605dc",
              "BL7": "abcd74b9-5912-414b-82ac-f1aa4dcd554e",
              "BL8": "5d092161-4e0b-457c-a946-50a3bd02a3f9",
              "CD1": [],
              "CD2": [],
              "CD4": "cfab081f-8bc7-4417-ae1d-b7ce77f605dc",
              "CD7": []
            }
          ]
        }
      ],
      "BK5": [],
      "BK4": [
        {
          "BL1": "Terrasoft.Core.Process.ProcessSchemaTerminateEvent",
          "UId": "1aea1144-1cd7-43fc-b19e-986820f70658",
          "A2": "TerminateEvent1",
          "A3": "5d092161-4e0b-457c-a946-50a3bd02a3f9",
          "A4": "5d092161-4e0b-457c-a946-50a3bd02a3f9",
          "A5": "80852c4e-6e90-4769-a5e6-c485d9bc7022",
          "IL2": "ee522e56-1dea-49ae-b95d-21eee4964c55",
          "BL3": "891;184",
          "BL7": "1bd93619-0574-454e-bb4e-cf53b9eb9470",
          "BL8": "5d092161-4e0b-457c-a946-50a3bd02a3f9",
          "BN2": "31;31",
          "BO3": true,
          "FC1": []
        },
        {
          "BL1": "Terrasoft.Core.Process.ProcessSchemaStartSignalEvent",
          "UId": "ce8f8d63-4ea0-4e3f-bac1-2c0a5339f17a",
          "A2": "StartSignal1",
          "A3": "5d092161-4e0b-457c-a946-50a3bd02a3f9",
          "A4": "5d092161-4e0b-457c-a946-50a3bd02a3f9",
          "A5": "80852c4e-6e90-4769-a5e6-c485d9bc7022",
          "IL2": "ee522e56-1dea-49ae-b95d-21eee4964c55",
          "BL3": "50;184",
          "BL7": "1129e72f-0e8c-445a-b2ea-463517e86395",
          "BL8": "5d092161-4e0b-457c-a946-50a3bd02a3f9",
          "BN2": "31;31",
          "BO3": true,
          "FC1": [
            {
              "BL1": "Terrasoft.Core.Process.ProcessSchemaParameter",
              "UId": "ae22e119-a5e5-471e-91fc-f201d0ec093c",
              "A2": "RecordId",
              "A3": "5d092161-4e0b-457c-a946-50a3bd02a3f9",
              "A4": "5d092161-4e0b-457c-a946-50a3bd02a3f9",
              "IL2": "ce8f8d63-4ea0-4e3f-bac1-2c0a5339f17a",
              "L1": "23018567-a13c-4320-8687-fd6f9e3699bd",
              "L8": {
                "GS1": 1,
                "GS2": ""
              }
            }
          ],
          "FC2": "6d9487e3-54df-480b-9ce7-168a3987b209",
          "ED1": false,
          "DZ1": "null",
          "DZ2": false,
          "DZ3": true,
          "DZ5": 1,
          "DZ8": true,
          "DZ12": "{\"$type\":\"System.Collections.ObjectModel.Collection`1[[System.String, mscorlib]], mscorlib\",\"$values\":[]}",
          "DZ13": "{\"className\":\"Terrasoft.FilterGroup\",\"serializedFilterEditData\":\"{\\\"className\\\":\\\"Terrasoft.FilterGroup\\\",\\\"items\\\":{\\\"fe76d62c-60c6-4135-bfef-de023672f316\\\":{\\\"className\\\":\\\"Terrasoft.InFilter\\\",\\\"filterType\\\":4,\\\"comparisonType\\\":3,\\\"isEnabled\\\":true,\\\"trimDateTimeParameterToDate\\\":false,\\\"leftExpression\\\":{\\\"className\\\":\\\"Terrasoft.ColumnExpression\\\",\\\"expressionType\\\":0,\\\"columnPath\\\":\\\"WatRequestType\\\"},\\\"isAggregative\\\":false,\\\"key\\\":\\\"fe76d62c-60c6-4135-bfef-de023672f316\\\",\\\"dataValueType\\\":10,\\\"leftExpressionCaption\\\":\\\"Request Type\\\",\\\"referenceSchemaName\\\":\\\"WatRequestType\\\",\\\"rightExpressions\\\":[{\\\"className\\\":\\\"Terrasoft.ParameterExpression\\\",\\\"expressionType\\\":2,\\\"parameter\\\":{\\\"className\\\":\\\"Terrasoft.Parameter\\\",\\\"dataValueType\\\":10,\\\"value\\\":{\\\"Name\\\":\\\"Agreement Amendment/Extension\\\",\\\"Id\\\":\\\"0e0e61e1-c12c-49fb-90be-f4e20a3c4fc7\\\",\\\"value\\\":\\\"0e0e61e1-c12c-49fb-90be-f4e20a3c4fc7\\\",\\\"displayValue\\\":\\\"Agreement Amendment/Extension\\\"}}},{\\\"className\\\":\\\"Terrasoft.ParameterExpression\\\",\\\"expressionType\\\":2,\\\"parameter\\\":{\\\"className\\\":\\\"Terrasoft.Parameter\\\",\\\"dataValueType\\\":10,\\\"value\\\":{\\\"Name\\\":\\\"Agreement Renewal\\\",\\\"Id\\\":\\\"445e5c6f-8b13-4a3d-b2fc-7e350d828005\\\",\\\"value\\\":\\\"445e5c6f-8b13-4a3d-b2fc-7e350d828005\\\",\\\"displayValue\\\":\\\"Agreement Renewal\\\"}}}]}},\\\"logicalOperation\\\":0,\\\"isEnabled\\\":true,\\\"filterType\\\":6,\\\"rootSchemaName\\\":\\\"WatPartnershipRequest\\\",\\\"key\\\":\\\"\\\"}\",\"dataSourceFilters\":\"{\\\"items\\\":{\\\"fe76d62c-60c6-4135-bfef-de023672f316\\\":{\\\"filterType\\\":4,\\\"comparisonType\\\":3,\\\"isEnabled\\\":true,\\\"trimDateTimeParameterToDate\\\":false,\\\"leftExpression\\\":{\\\"expressionType\\\":0,\\\"columnPath\\\":\\\"WatRequestType\\\"},\\\"rightExpressions\\\":[{\\\"expressionType\\\":2,\\\"parameter\\\":{\\\"dataValueType\\\":10,\\\"value\\\":\\\"0e0e61e1-c12c-49fb-90be-f4e20a3c4fc7\\\"}},{\\\"expressionType\\\":2,\\\"parameter\\\":{\\\"dataValueType\\\":10,\\\"value\\\":\\\"445e5c6f-8b13-4a3d-b2fc-7e350d828005\\\"}}]}},\\\"logicalOperation\\\":0,\\\"isEnabled\\\":true,\\\"filterType\\\":6,\\\"rootSchemaName\\\":\\\"WatPartnershipRequest\\\"}\"}"
        },
        {
          "BL1": "Terrasoft.Core.Process.ProcessSchemaFormulaTask",
          "UId": "7fd6ae8f-9579-46e6-b234-db257f1c50f1",
          "A2": "FormulaTask1",
          "A3": "5d092161-4e0b-457c-a946-50a3bd02a3f9",
          "A4": "5d092161-4e0b-457c-a946-50a3bd02a3f9",
          "A5": "80852c4e-6e90-4769-a5e6-c485d9bc7022",
          "IL2": "ee522e56-1dea-49ae-b95d-21eee4964c55",
          "BL3": "152;172",
          "BL7": "d334d28f-b11a-477e-9ff0-0a95fa73d53b",
          "BL8": "5d092161-4e0b-457c-a946-50a3bd02a3f9",
          "BN2": "69;55",
          "BO3": true,
          "BP2": [],
          "CL2": "FFFFFFFF",
          "CH1": "[#[IsOwnerSchema:false].[IsSchema:false].[Element:{ce8f8d63-4ea0-4e3f-bac1-2c0a5339f17a}].[Parameter:{ae22e119-a5e5-471e-91fc-f201d0ec093c}]#]",
          "HS1": "5b9ee452-c8af-4ad3-88d2-8935fbbc71a9"
        },
        {
          "BL1": "Terrasoft.Core.Process.ProcessSchemaStartSignalEvent",
          "UId": "745e0487-6c8e-450f-8656-154448bcadd2",
          "A2": "StartSignal2",
          "A3": "5d092161-4e0b-457c-a946-50a3bd02a3f9",
          "A4": "5d092161-4e0b-457c-a946-50a3bd02a3f9",
          "A5": "80852c4e-6e90-4769-a5e6-c485d9bc7022",
          "IL2": "ee522e56-1dea-49ae-b95d-21eee4964c55",
          "BL3": "50;293",
          "BL7": "1129e72f-0e8c-445a-b2ea-463517e86395",
          "BL8": "5d092161-4e0b-457c-a946-50a3bd02a3f9",
          "BN2": "31;31",
          "BO3": true,
          "FC1": [
            {
              "BL1": "Terrasoft.Core.Process.ProcessSchemaParameter",
              "UId": "de6ec950-264c-48ba-a41d-3024460cae6b",
              "A2": "RecordId",
              "A3": "5d092161-4e0b-457c-a946-50a3bd02a3f9",
              "A4": "5d092161-4e0b-457c-a946-50a3bd02a3f9",
              "IL2": "745e0487-6c8e-450f-8656-154448bcadd2",
              "L1": "23018567-a13c-4320-8687-fd6f9e3699bd",
              "L8": {
                "GS1": 1,
                "GS2": ""
              }
            }
          ],
          "FC2": "6d9487e3-54df-480b-9ce7-168a3987b209",
          "ED1": false,
          "DZ1": "null",
          "DZ2": false,
          "DZ3": true,
          "DZ5": 2,
          "DZ8": true,
          "DZ11": true,
          "DZ12": "{\"$type\":\"System.Collections.ObjectModel.Collection`1[[System.String, mscorlib]], mscorlib\",\"$values\":[\"111d5591-ddf1-43c9-88a0-a64d7fd4a5fb\",\"b65b2006-0a57-43cd-9428-34bf8191526e\"]}",
          "DZ13": "{\"className\":\"Terrasoft.FilterGroup\",\"serializedFilterEditData\":\"{\\\"className\\\":\\\"Terrasoft.FilterGroup\\\",\\\"items\\\":{\\\"e2134b9f-622b-4ef6-b5da-54f3795d82b5\\\":{\\\"className\\\":\\\"Terrasoft.InFilter\\\",\\\"filterType\\\":4,\\\"comparisonType\\\":3,\\\"isEnabled\\\":true,\\\"trimDateTimeParameterToDate\\\":false,\\\"leftExpression\\\":{\\\"className\\\":\\\"Terrasoft.ColumnExpression\\\",\\\"expressionType\\\":0,\\\"columnPath\\\":\\\"WatRequestType\\\"},\\\"isAggregative\\\":false,\\\"key\\\":\\\"e2134b9f-622b-4ef6-b5da-54f3795d82b5\\\",\\\"dataValueType\\\":10,\\\"leftExpressionCaption\\\":\\\"Request Type\\\",\\\"referenceSchemaName\\\":\\\"WatRequestType\\\",\\\"rightExpressions\\\":[{\\\"className\\\":\\\"Terrasoft.ParameterExpression\\\",\\\"expressionType\\\":2,\\\"parameter\\\":{\\\"className\\\":\\\"Terrasoft.Parameter\\\",\\\"dataValueType\\\":10,\\\"value\\\":{\\\"Name\\\":\\\"Agreement Amendment/Extension\\\",\\\"Id\\\":\\\"0e0e61e1-c12c-49fb-90be-f4e20a3c4fc7\\\",\\\"value\\\":\\\"0e0e61e1-c12c-49fb-90be-f4e20a3c4fc7\\\",\\\"displayValue\\\":\\\"Agreement Amendment/Extension\\\"}}},{\\\"className\\\":\\\"Terrasoft.ParameterExpression\\\",\\\"expressionType\\\":2,\\\"parameter\\\":{\\\"className\\\":\\\"Terrasoft.Parameter\\\",\\\"dataValueType\\\":10,\\\"value\\\":{\\\"Name\\\":\\\"Agreement Renewal\\\",\\\"Id\\\":\\\"445e5c6f-8b13-4a3d-b2fc-7e350d828005\\\",\\\"value\\\":\\\"445e5c6f-8b13-4a3d-b2fc-7e350d828005\\\",\\\"displayValue\\\":\\\"Agreement Renewal\\\"}}}]}},\\\"logicalOperation\\\":0,\\\"isEnabled\\\":true,\\\"filterType\\\":6,\\\"rootSchemaName\\\":\\\"WatPartnershipRequest\\\",\\\"key\\\":\\\"\\\"}\",\"dataSourceFilters\":\"{\\\"items\\\":{\\\"e2134b9f-622b-4ef6-b5da-54f3795d82b5\\\":{\\\"filterType\\\":4,\\\"comparisonType\\\":3,\\\"isEnabled\\\":true,\\\"trimDateTimeParameterToDate\\\":false,\\\"leftExpression\\\":{\\\"expressionType\\\":0,\\\"columnPath\\\":\\\"WatRequestType\\\"},\\\"rightExpressions\\\":[{\\\"expressionType\\\":2,\\\"parameter\\\":{\\\"dataValueType\\\":10,\\\"value\\\":\\\"0e0e61e1-c12c-49fb-90be-f4e20a3c4fc7\\\"}},{\\\"expressionType\\\":2,\\\"parameter\\\":{\\\"dataValueType\\\":10,\\\"value\\\":\\\"445e5c6f-8b13-4a3d-b2fc-7e350d828005\\\"}}]}},\\\"logicalOperation\\\":0,\\\"isEnabled\\\":true,\\\"filterType\\\":6,\\\"rootSchemaName\\\":\\\"WatPartnershipRequest\\\"}\"}"
        },
        {
          "BL1": "Terrasoft.Core.Process.ProcessSchemaFormulaTask",
          "UId": "30fcd888-6d65-4416-a4c7-3f021323b277",
          "A2": "FormulaTask2",
          "A3": "5d092161-4e0b-457c-a946-50a3bd02a3f9",
          "A4": "5d092161-4e0b-457c-a946-50a3bd02a3f9",
          "A5": "80852c4e-6e90-4769-a5e6-c485d9bc7022",
          "IL2": "ee522e56-1dea-49ae-b95d-21eee4964c55",
          "BL3": "152;281",
          "BL7": "d334d28f-b11a-477e-9ff0-0a95fa73d53b",
          "BL8": "5d092161-4e0b-457c-a946-50a3bd02a3f9",
          "BN2": "69;55",
          "BO3": true,
          "BP2": [],
          "CL2": "FFFFFFFF",
          "CH1": "[#[IsOwnerSchema:false].[IsSchema:false].[Element:{745e0487-6c8e-450f-8656-154448bcadd2}].[Parameter:{de6ec950-264c-48ba-a41d-3024460cae6b}]#]",
          "HS1": "5b9ee452-c8af-4ad3-88d2-8935fbbc71a9"
        },
        {
          "BL1": "Terrasoft.Core.Process.ProcessSchemaUserTask",
          "UId": "310d507d-2f2c-4a24-8cda-67b94b08cfd0",
          "A2": "ReadDataUserTask2",
          "A3": "5d092161-4e0b-457c-a946-50a3bd02a3f9",
          "A4": "5d092161-4e0b-457c-a946-50a3bd02a3f9",
          "A5": "80852c4e-6e90-4769-a5e6-c485d9bc7022",
          "IL2": "ee522e56-1dea-49ae-b95d-21eee4964c55",
          "BL3": "292;172",
          "BL7": "cb455b6f-78ff-4b1e-b241-c2bbc0b37e9f",
          "BL8": "5d092161-4e0b-457c-a946-50a3bd02a3f9",
          "BN2": "69;55",
          "BO2": true,
          "BO3": true,
          "BP2": [
            {
              "BL1": "Terrasoft.Core.Process.ProcessSchemaParameter",
              "UId": "6fcd64a4-5005-40b7-aa4e-4a8c77533ddf",
              "A2": "DataSourceFilters",
              "A3": "cb455b6f-78ff-4b1e-b241-c2bbc0b37e9f",
              "A4": "cb455b6f-78ff-4b1e-b241-c2bbc0b37e9f",
              "A5": "66e9e705-64b4-4dda-925e-d1e05a389eb6",
              "IL2": "310d507d-2f2c-4a24-8cda-67b94b08cfd0",
              "L1": "394e160f-c8e0-46fa-9c0d-75d97e9e9169",
              "L8": {
                "GS1": 1,
                "GS2": "{\"className\":\"Terrasoft.FilterGroup\",\"serializedFilterEditData\":\"{\\\"className\\\":\\\"Terrasoft.FilterGroup\\\",\\\"items\\\":{\\\"ad37a286-16c9-4ad0-9f0f-4e33a016d993\\\":{\\\"className\\\":\\\"Terrasoft.CompareFilter\\\",\\\"filterType\\\":1,\\\"comparisonType\\\":3,\\\"isEnabled\\\":true,\\\"trimDateTimeParameterToDate\\\":false,\\\"leftExpression\\\":{\\\"className\\\":\\\"Terrasoft.ColumnExpression\\\",\\\"expressionType\\\":0,\\\"columnPath\\\":\\\"Id\\\"},\\\"isAggregative\\\":false,\\\"key\\\":\\\"ad37a286-16c9-4ad0-9f0f-4e33a016d993\\\",\\\"dataValueType\\\":0,\\\"leftExpressionCaption\\\":\\\"Id\\\",\\\"rightExpression\\\":{\\\"className\\\":\\\"Terrasoft.ParameterExpression\\\",\\\"expressionType\\\":2,\\\"parameter\\\":{\\\"className\\\":\\\"Terrasoft.Parameter\\\",\\\"dataValueType\\\":26,\\\"value\\\":{\\\"value\\\":\\\"[IsOwnerSchema:false].[IsSchema:false].[Parameter:{5b9ee452-c8af-4ad3-88d2-8935fbbc71a9}]\\\",\\\"displayValue\\\":\\\"RequestId\\\"}}}}},\\\"logicalOperation\\\":0,\\\"isEnabled\\\":true,\\\"filterType\\\":6,\\\"rootSchemaName\\\":\\\"WatPartnershipRequest\\\",\\\"key\\\":\\\"\\\"}\",\"dataSourceFilters\":\"{\\\"items\\\":{\\\"ad37a286-16c9-4ad0-9f0f-4e33a016d993\\\":{\\\"filterType\\\":1,\\\"comparisonType\\\":3,\\\"isEnabled\\\":true,\\\"trimDateTimeParameterToDate\\\":false,\\\"leftExpression\\\":{\\\"expressionType\\\":0,\\\"columnPath\\\":\\\"Id\\\"},\\\"rightExpression\\\":{\\\"expressionType\\\":2,\\\"parameter\\\":{\\\"dataValueType\\\":26,\\\"value\\\":{\\\"value\\\":\\\"[IsOwnerSchema:false].[IsSchema:false].[Parameter:{5b9ee452-c8af-4ad3-88d2-8935fbbc71a9}]\\\"}}}}},\\\"logicalOperation\\\":0,\\\"isEnabled\\\":true,\\\"filterType\\\":6,\\\"rootSchemaName\\\":\\\"WatPartnershipRequest\\\"}\"}",
                "GS5": "5d092161-4e0b-457c-a946-50a3bd02a3f9"
              }
            },
            {
              "BL1": "Terrasoft.Core.Process.ProcessSchemaParameter",
              "UId": "c8c9418b-c6c2-49b5-9d40-46084b73af44",
              "A2": "ResultType",
              "A3": "cb455b6f-78ff-4b1e-b241-c2bbc0b37e9f",
              "A4": "cb455b6f-78ff-4b1e-b241-c2bbc0b37e9f",
              "IL2": "310d507d-2f2c-4a24-8cda-67b94b08cfd0",
              "L1": "6b6b74e2-820d-490e-a017-2b73d4ccf2b0",
              "L8": {
                "GS1": 1,
                "GS2": "0",
                "GS5": "cb455b6f-78ff-4b1e-b241-c2bbc0b37e9f"
              }
            },
            {
              "BL1": "Terrasoft.Core.Process.ProcessSchemaParameter",
              "UId": "13797d49-539c-48b4-861a-7b9ecc12382d",
              "A2": "ReadSomeTopRecords",
              "A3": "cb455b6f-78ff-4b1e-b241-c2bbc0b37e9f",
              "A4": "cb455b6f-78ff-4b1e-b241-c2bbc0b37e9f",
              "IL2": "310d507d-2f2c-4a24-8cda-67b94b08cfd0",
              "L1": "90b65bf8-0ffc-4141-8779-2420877af907",
              "L8": {
                "GS1": 1,
                "GS2": "true",
                "GS5": "5d092161-4e0b-457c-a946-50a3bd02a3f9"
              }
            },
            {
              "BL1": "Terrasoft.Core.Process.ProcessSchemaParameter",
              "UId": "797a2805-b4e6-48a7-8385-c0f0bb6b336f",
              "A2": "NumberOfRecords",
              "A3": "cb455b6f-78ff-4b1e-b241-c2bbc0b37e9f",
              "A4": "cb455b6f-78ff-4b1e-b241-c2bbc0b37e9f",
              "IL2": "310d507d-2f2c-4a24-8cda-67b94b08cfd0",
              "L1": "6b6b74e2-820d-490e-a017-2b73d4ccf2b0",
              "L8": {
                "GS1": 1,
                "GS2": "50",
                "GS5": "5d092161-4e0b-457c-a946-50a3bd02a3f9"
              }
            },
            {
              "BL1": "Terrasoft.Core.Process.ProcessSchemaParameter",
              "UId": "b488094a-2a45-4f35-826a-692678b13e24",
              "A2": "FunctionType",
              "A3": "cb455b6f-78ff-4b1e-b241-c2bbc0b37e9f",
              "A4": "cb455b6f-78ff-4b1e-b241-c2bbc0b37e9f",
              "IL2": "310d507d-2f2c-4a24-8cda-67b94b08cfd0",
              "L1": "6b6b74e2-820d-490e-a017-2b73d4ccf2b0",
              "L8": {
                "GS1": 1,
                "GS2": "0",
                "GS5": "5d092161-4e0b-457c-a946-50a3bd02a3f9"
              }
            },
            {
              "BL1": "Terrasoft.Core.Process.ProcessSchemaParameter",
              "UId": "ed46efc3-0fe7-41c2-8b54-cdcec142c845",
              "A2": "AggregationColumnName",
              "A3": "cb455b6f-78ff-4b1e-b241-c2bbc0b37e9f",
              "A4": "cb455b6f-78ff-4b1e-b241-c2bbc0b37e9f",
              "IL2": "310d507d-2f2c-4a24-8cda-67b94b08cfd0",
              "L1": "394e160f-c8e0-46fa-9c0d-75d97e9e9169",
              "L8": {
                "GS2": ""
              }
            },
            {
              "BL1": "Terrasoft.Core.Process.ProcessSchemaParameter",
              "UId": "ebdcffa9-a308-4aeb-834b-02d13d83e0f7",
              "A2": "OrderInfo",
              "A3": "cb455b6f-78ff-4b1e-b241-c2bbc0b37e9f",
              "A4": "cb455b6f-78ff-4b1e-b241-c2bbc0b37e9f",
              "IL2": "310d507d-2f2c-4a24-8cda-67b94b08cfd0",
              "L1": "394e160f-c8e0-46fa-9c0d-75d97e9e9169",
              "L8": {
                "GS2": ""
              }
            },
            {
              "BL1": "Terrasoft.Core.Process.ProcessSchemaParameter",
              "UId": "39c3549e-c73b-4d72-a794-32114489ac01",
              "A2": "ResultEntity",
              "A3": "cb455b6f-78ff-4b1e-b241-c2bbc0b37e9f",
              "A4": "cb455b6f-78ff-4b1e-b241-c2bbc0b37e9f",
              "A5": "66e9e705-64b4-4dda-925e-d1e05a389eb6",
              "IL2": "310d507d-2f2c-4a24-8cda-67b94b08cfd0",
              "L1": "ebd85d37-0abf-4bbf-bb32-97dc3dffcc8c",
              "L8": {
                "GS1": 1,
                "GS5": "5d092161-4e0b-457c-a946-50a3bd02a3f9"
              },
              "L9": "6d9487e3-54df-480b-9ce7-168a3987b209",
              "L13": true
            },
            {
              "BL1": "Terrasoft.Core.Process.ProcessSchemaParameter",
              "UId": "959b6514-83e2-425f-ba06-a530bab2c8f1",
              "A2": "ResultCount",
              "A3": "cb455b6f-78ff-4b1e-b241-c2bbc0b37e9f",
              "A4": "cb455b6f-78ff-4b1e-b241-c2bbc0b37e9f",
              "IL2": "310d507d-2f2c-4a24-8cda-67b94b08cfd0",
              "L1": "6b6b74e2-820d-490e-a017-2b73d4ccf2b0",
              "L8": {
                "GS2": ""
              }
            },
            {
              "BL1": "Terrasoft.Core.Process.ProcessSchemaParameter",
              "UId": "8681e297-0b85-47c8-b5ee-d3631e56fa43",
              "A2": "ResultIntegerFunction",
              "A3": "cb455b6f-78ff-4b1e-b241-c2bbc0b37e9f",
              "A4": "cb455b6f-78ff-4b1e-b241-c2bbc0b37e9f",
              "IL2": "310d507d-2f2c-4a24-8cda-67b94b08cfd0",
              "L1": "6b6b74e2-820d-490e-a017-2b73d4ccf2b0",
              "L8": {
                "GS2": ""
              }
            },
            {
              "BL1": "Terrasoft.Core.Process.ProcessSchemaParameter",
              "UId": "6e7bc6bc-2fee-4220-bfe4-39f781c884bf",
              "A2": "ResultFloatFunction",
              "A3": "cb455b6f-78ff-4b1e-b241-c2bbc0b37e9f",
              "A4": "cb455b6f-78ff-4b1e-b241-c2bbc0b37e9f",
              "IL2": "310d507d-2f2c-4a24-8cda-67b94b08cfd0",
              "L1": "ff22e049-4d16-46ee-a529-92d8808932dc",
              "L8": {
                "GS2": ""
              }
            },
            {
              "BL1": "Terrasoft.Core.Process.ProcessSchemaParameter",
              "UId": "036b9ab5-53bd-400f-a0ca-eaa0b338b19e",
              "A2": "ResultDateTimeFunction",
              "A3": "cb455b6f-78ff-4b1e-b241-c2bbc0b37e9f",
              "A4": "cb455b6f-78ff-4b1e-b241-c2bbc0b37e9f",
              "IL2": "310d507d-2f2c-4a24-8cda-67b94b08cfd0",
              "L1": "d21e9ef4-c064-4012-b286-fa1a8171da44",
              "L8": {
                "GS2": ""
              }
            },
            {
              "BL1": "Terrasoft.Core.Process.ProcessSchemaParameter",
              "UId": "211883b0-54a3-4300-a9f5-0aa9f3f87246",
              "A2": "ResultRowsCount",
              "A3": "cb455b6f-78ff-4b1e-b241-c2bbc0b37e9f",
              "A4": "cb455b6f-78ff-4b1e-b241-c2bbc0b37e9f",
              "IL2": "310d507d-2f2c-4a24-8cda-67b94b08cfd0",
              "L1": "6b6b74e2-820d-490e-a017-2b73d4ccf2b0",
              "L8": {
                "GS2": ""
              }
            },
            {
              "BL1": "Terrasoft.Core.Process.ProcessSchemaParameter",
              "UId": "377ee644-2960-4a95-a6cf-9e578b7cba0c",
              "A2": "CanReadUncommitedData",
              "A3": "cb455b6f-78ff-4b1e-b241-c2bbc0b37e9f",
              "A4": "cb455b6f-78ff-4b1e-b241-c2bbc0b37e9f",
              "IL2": "310d507d-2f2c-4a24-8cda-67b94b08cfd0",
              "L1": "90b65bf8-0ffc-4141-8779-2420877af907",
              "L8": {
                "GS1": 1,
                "GS2": "true",
                "GS5": "cb455b6f-78ff-4b1e-b241-c2bbc0b37e9f"
              }
            },
            {
              "BL1": "Terrasoft.Core.Process.ProcessSchemaParameter",
              "UId": "6f7935de-1952-4b8f-8d78-441ac45c30a7",
              "A2": "ResultEntityCollection",
              "A3": "cb455b6f-78ff-4b1e-b241-c2bbc0b37e9f",
              "A4": "cb455b6f-78ff-4b1e-b241-c2bbc0b37e9f",
              "IL2": "310d507d-2f2c-4a24-8cda-67b94b08cfd0",
              "L1": "51fb23ba-3eb2-11e2-b7d5-b0c76188709b",
              "L8": {
                "GS2": ""
              }
            },
            {
              "BL1": "Terrasoft.Core.Process.ProcessSchemaParameter",
              "UId": "224e702f-2237-4c1f-b1a0-59366cbb54c8",
              "A2": "EntityColumnMetaPathes",
              "A3": "cb455b6f-78ff-4b1e-b241-c2bbc0b37e9f",
              "A4": "cb455b6f-78ff-4b1e-b241-c2bbc0b37e9f",
              "IL2": "310d507d-2f2c-4a24-8cda-67b94b08cfd0",
              "L1": "394e160f-c8e0-46fa-9c0d-75d97e9e9169",
              "L8": {
                "GS1": 1,
                "GS2": "111d5591-ddf1-43c9-88a0-a64d7fd4a5fb",
                "GS5": "5d092161-4e0b-457c-a946-50a3bd02a3f9"
              }
            },
            {
              "BL1": "Terrasoft.Core.Process.ProcessSchemaParameter",
              "UId": "64eec704-56ba-4d77-9be7-60348692fc1a",
              "A2": "IgnoreDisplayValues",
              "A3": "cb455b6f-78ff-4b1e-b241-c2bbc0b37e9f",
              "A4": "cb455b6f-78ff-4b1e-b241-c2bbc0b37e9f",
              "IL2": "310d507d-2f2c-4a24-8cda-67b94b08cfd0",
              "L1": "90b65bf8-0ffc-4141-8779-2420877af907",
              "L8": {
                "GS2": ""
              }
            },
            {
              "BL1": "Terrasoft.Core.Process.ProcessSchemaParameter",
              "UId": "dd7f80c0-1888-4866-b9d4-1fa2a2fb2789",
              "A2": "ResultCompositeObjectList",
              "A3": "cb455b6f-78ff-4b1e-b241-c2bbc0b37e9f",
              "A4": "cb455b6f-78ff-4b1e-b241-c2bbc0b37e9f",
              "IL2": "310d507d-2f2c-4a24-8cda-67b94b08cfd0",
              "L1": "651ec16f-d140-46db-b9e2-825c985a8ac2",
              "L8": {
                "GS2": ""
              }
            },
            {
              "BL1": "Terrasoft.Core.Process.ProcessSchemaParameter",
              "UId": "2f5dc28c-0145-48a4-bcbb-8d66e46b8b68",
              "A2": "ConsiderTimeInFilter",
              "A3": "cb455b6f-78ff-4b1e-b241-c2bbc0b37e9f",
              "A4": "cb455b6f-78ff-4b1e-b241-c2bbc0b37e9f",
              "IL2": "310d507d-2f2c-4a24-8cda-67b94b08cfd0",
              "L1": "90b65bf8-0ffc-4141-8779-2420877af907",
              "L8": {
                "GS1": 3,
                "GS2": "false",
                "GS5": "cb455b6f-78ff-4b1e-b241-c2bbc0b37e9f"
              }
            }
          ],
          "CL2": "FFFFFFFF",
          "J6": "cb455b6f-78ff-4b1e-b241-c2bbc0b37e9f"
        },
        {
          "BL1": "Terrasoft.Core.Process.ProcessSchemaUserTask",
          "UId": "9e708d43-cb32-4370-9c02-099261a07f9f",
          "A2": "ReadDataUserTask3",
          "A3": "5d092161-4e0b-457c-a946-50a3bd02a3f9",
          "A4": "5d092161-4e0b-457c-a946-50a3bd02a3f9",
          "A5": "80852c4e-6e90-4769-a5e6-c485d9bc7022",
          "IL2": "ee522e56-1dea-49ae-b95d-21eee4964c55",
          "BL3": "438;172",
          "BL7": "cb455b6f-78ff-4b1e-b241-c2bbc0b37e9f",
          "BL8": "5d092161-4e0b-457c-a946-50a3bd02a3f9",
          "BN2": "69;55",
          "BO2": true,
          "BO3": true,
          "BP2": [
            {
              "BL1": "Terrasoft.Core.Process.ProcessSchemaParameter",
              "UId": "307308f1-ec11-415a-8b97-abdee3417512",
              "A2": "DataSourceFilters",
              "A3": "cb455b6f-78ff-4b1e-b241-c2bbc0b37e9f",
              "A4": "cb455b6f-78ff-4b1e-b241-c2bbc0b37e9f",
              "A5": "66e9e705-64b4-4dda-925e-d1e05a389eb6",
              "IL2": "9e708d43-cb32-4370-9c02-099261a07f9f",
              "L1": "394e160f-c8e0-46fa-9c0d-75d97e9e9169",
              "L8": {
                "GS1": 1,
                "GS2": "{\"className\":\"Terrasoft.FilterGroup\",\"serializedFilterEditData\":\"{\\\"className\\\":\\\"Terrasoft.FilterGroup\\\",\\\"items\\\":{\\\"5dfb2614-83c6-4fac-a1c9-9308c4ef1c25\\\":{\\\"className\\\":\\\"Terrasoft.CompareFilter\\\",\\\"filterType\\\":1,\\\"comparisonType\\\":3,\\\"isEnabled\\\":true,\\\"trimDateTimeParameterToDate\\\":false,\\\"leftExpression\\\":{\\\"className\\\":\\\"Terrasoft.ColumnExpression\\\",\\\"expressionType\\\":0,\\\"columnPath\\\":\\\"Id\\\"},\\\"isAggregative\\\":false,\\\"key\\\":\\\"5dfb2614-83c6-4fac-a1c9-9308c4ef1c25\\\",\\\"dataValueType\\\":0,\\\"leftExpressionCaption\\\":\\\"Id\\\",\\\"rightExpression\\\":{\\\"className\\\":\\\"Terrasoft.ParameterExpression\\\",\\\"expressionType\\\":2,\\\"parameter\\\":{\\\"className\\\":\\\"Terrasoft.Parameter\\\",\\\"dataValueType\\\":26,\\\"value\\\":{\\\"value\\\":\\\"[IsOwnerSchema:false].[IsSchema:false].[Element:{310d507d-2f2c-4a24-8cda-67b94b08cfd0}].[Parameter:{39c3549e-c73b-4d72-a794-32114489ac01}].[EntityColumn:{111d5591-ddf1-43c9-88a0-a64d7fd4a5fb}]\\\",\\\"displayValue\\\":\\\"RD Request.First item of resulting collection.Agreement for Renewal\\\"}}}}},\\\"logicalOperation\\\":0,\\\"isEnabled\\\":true,\\\"filterType\\\":6,\\\"rootSchemaName\\\":\\\"WatAgreement\\\",\\\"key\\\":\\\"\\\"}\",\"dataSourceFilters\":\"{\\\"items\\\":{\\\"5dfb2614-83c6-4fac-a1c9-9308c4ef1c25\\\":{\\\"filterType\\\":1,\\\"comparisonType\\\":3,\\\"isEnabled\\\":true,\\\"trimDateTimeParameterToDate\\\":false,\\\"leftExpression\\\":{\\\"expressionType\\\":0,\\\"columnPath\\\":\\\"Id\\\"},\\\"rightExpression\\\":{\\\"expressionType\\\":2,\\\"parameter\\\":{\\\"dataValueType\\\":26,\\\"value\\\":{\\\"value\\\":\\\"[IsOwnerSchema:false].[IsSchema:false].[Element:{310d507d-2f2c-4a24-8cda-67b94b08cfd0}].[Parameter:{39c3549e-c73b-4d72-a794-32114489ac01}].[EntityColumn:{111d5591-ddf1-43c9-88a0-a64d7fd4a5fb}]\\\"}}}}},\\\"logicalOperation\\\":0,\\\"isEnabled\\\":true,\\\"filterType\\\":6,\\\"rootSchemaName\\\":\\\"WatAgreement\\\"}\"}",
                "GS5": "5d092161-4e0b-457c-a946-50a3bd02a3f9"
              }
            },
            {
              "BL1": "Terrasoft.Core.Process.ProcessSchemaParameter",
              "UId": "5bc5ae00-1739-45b6-a16f-cd2196bd600c",
              "A2": "ResultType",
              "A3": "cb455b6f-78ff-4b1e-b241-c2bbc0b37e9f",
              "A4": "cb455b6f-78ff-4b1e-b241-c2bbc0b37e9f",
              "IL2": "9e708d43-cb32-4370-9c02-099261a07f9f",
              "L1": "6b6b74e2-820d-490e-a017-2b73d4ccf2b0",
              "L8": {
                "GS1": 1,
                "GS2": "0",
                "GS5": "cb455b6f-78ff-4b1e-b241-c2bbc0b37e9f"
              }
            },
            {
              "BL1": "Terrasoft.Core.Process.ProcessSchemaParameter",
              "UId": "65bfc4cf-32d9-48b9-80cf-079205d6bae2",
              "A2": "ReadSomeTopRecords",
              "A3": "cb455b6f-78ff-4b1e-b241-c2bbc0b37e9f",
              "A4": "cb455b6f-78ff-4b1e-b241-c2bbc0b37e9f",
              "IL2": "9e708d43-cb32-4370-9c02-099261a07f9f",
              "L1": "90b65bf8-0ffc-4141-8779-2420877af907",
              "L8": {
                "GS1": 1,
                "GS2": "true",
                "GS5": "5d092161-4e0b-457c-a946-50a3bd02a3f9"
              }
            },
            {
              "BL1": "Terrasoft.Core.Process.ProcessSchemaParameter",
              "UId": "7a5495dc-fb07-4145-bc1c-5135c5653786",
              "A2": "NumberOfRecords",
              "A3": "cb455b6f-78ff-4b1e-b241-c2bbc0b37e9f",
              "A4": "cb455b6f-78ff-4b1e-b241-c2bbc0b37e9f",
              "IL2": "9e708d43-cb32-4370-9c02-099261a07f9f",
              "L1": "6b6b74e2-820d-490e-a017-2b73d4ccf2b0",
              "L8": {
                "GS1": 1,
                "GS2": "50",
                "GS5": "5d092161-4e0b-457c-a946-50a3bd02a3f9"
              }
            },
            {
              "BL1": "Terrasoft.Core.Process.ProcessSchemaParameter",
              "UId": "de6b52dd-45f0-4a3a-9b9a-fe654e8faa8b",
              "A2": "FunctionType",
              "A3": "cb455b6f-78ff-4b1e-b241-c2bbc0b37e9f",
              "A4": "cb455b6f-78ff-4b1e-b241-c2bbc0b37e9f",
              "IL2": "9e708d43-cb32-4370-9c02-099261a07f9f",
              "L1": "6b6b74e2-820d-490e-a017-2b73d4ccf2b0",
              "L8": {
                "GS1": 1,
                "GS2": "0",
                "GS5": "5d092161-4e0b-457c-a946-50a3bd02a3f9"
              }
            },
            {
              "BL1": "Terrasoft.Core.Process.ProcessSchemaParameter",
              "UId": "e1de1117-f8bf-4efd-b087-f1b89bc94f2d",
              "A2": "AggregationColumnName",
              "A3": "cb455b6f-78ff-4b1e-b241-c2bbc0b37e9f",
              "A4": "cb455b6f-78ff-4b1e-b241-c2bbc0b37e9f",
              "IL2": "9e708d43-cb32-4370-9c02-099261a07f9f",
              "L1": "394e160f-c8e0-46fa-9c0d-75d97e9e9169",
              "L8": {
                "GS2": ""
              }
            },
            {
              "BL1": "Terrasoft.Core.Process.ProcessSchemaParameter",
              "UId": "db2bf7f8-8750-460b-8f00-3ebd19aaa2c5",
              "A2": "OrderInfo",
              "A3": "cb455b6f-78ff-4b1e-b241-c2bbc0b37e9f",
              "A4": "cb455b6f-78ff-4b1e-b241-c2bbc0b37e9f",
              "IL2": "9e708d43-cb32-4370-9c02-099261a07f9f",
              "L1": "394e160f-c8e0-46fa-9c0d-75d97e9e9169",
              "L8": {
                "GS2": ""
              }
            },
            {
              "BL1": "Terrasoft.Core.Process.ProcessSchemaParameter",
              "UId": "51a5e758-299c-4c79-b9af-70fc8d5c4f64",
              "A2": "ResultEntity",
              "A3": "cb455b6f-78ff-4b1e-b241-c2bbc0b37e9f",
              "A4": "cb455b6f-78ff-4b1e-b241-c2bbc0b37e9f",
              "A5": "66e9e705-64b4-4dda-925e-d1e05a389eb6",
              "IL2": "9e708d43-cb32-4370-9c02-099261a07f9f",
              "L1": "ebd85d37-0abf-4bbf-bb32-97dc3dffcc8c",
              "L8": {
                "GS1": 1,
                "GS5": "5d092161-4e0b-457c-a946-50a3bd02a3f9"
              },
              "L9": "320df743-3859-42ab-846e-d598464cd4c4",
              "L13": true
            },
            {
              "BL1": "Terrasoft.Core.Process.ProcessSchemaParameter",
              "UId": "bec9b6fb-96f9-4365-9b7f-479284f2ede3",
              "A2": "ResultCount",
              "A3": "cb455b6f-78ff-4b1e-b241-c2bbc0b37e9f",
              "A4": "cb455b6f-78ff-4b1e-b241-c2bbc0b37e9f",
              "IL2": "9e708d43-cb32-4370-9c02-099261a07f9f",
              "L1": "6b6b74e2-820d-490e-a017-2b73d4ccf2b0",
              "L8": {
                "GS2": ""
              }
            },
            {
              "BL1": "Terrasoft.Core.Process.ProcessSchemaParameter",
              "UId": "b214f1d4-1d23-4602-b359-c91991342569",
              "A2": "ResultIntegerFunction",
              "A3": "cb455b6f-78ff-4b1e-b241-c2bbc0b37e9f",
              "A4": "cb455b6f-78ff-4b1e-b241-c2bbc0b37e9f",
              "IL2": "9e708d43-cb32-4370-9c02-099261a07f9f",
              "L1": "6b6b74e2-820d-490e-a017-2b73d4ccf2b0",
              "L8": {
                "GS2": ""
              }
            },
            {
              "BL1": "Terrasoft.Core.Process.ProcessSchemaParameter",
              "UId": "d644509f-3d4e-4877-b540-26babf22b468",
              "A2": "ResultFloatFunction",
              "A3": "cb455b6f-78ff-4b1e-b241-c2bbc0b37e9f",
              "A4": "cb455b6f-78ff-4b1e-b241-c2bbc0b37e9f",
              "IL2": "9e708d43-cb32-4370-9c02-099261a07f9f",
              "L1": "ff22e049-4d16-46ee-a529-92d8808932dc",
              "L8": {
                "GS2": ""
              }
            },
            {
              "BL1": "Terrasoft.Core.Process.ProcessSchemaParameter",
              "UId": "2357c9da-beed-44f3-b0ba-07a870c9cc89",
              "A2": "ResultDateTimeFunction",
              "A3": "cb455b6f-78ff-4b1e-b241-c2bbc0b37e9f",
              "A4": "cb455b6f-78ff-4b1e-b241-c2bbc0b37e9f",
              "IL2": "9e708d43-cb32-4370-9c02-099261a07f9f",
              "L1": "d21e9ef4-c064-4012-b286-fa1a8171da44",
              "L8": {
                "GS2": ""
              }
            },
            {
              "BL1": "Terrasoft.Core.Process.ProcessSchemaParameter",
              "UId": "5e6ec994-8919-4a75-9dde-366da27af537",
              "A2": "ResultRowsCount",
              "A3": "cb455b6f-78ff-4b1e-b241-c2bbc0b37e9f",
              "A4": "cb455b6f-78ff-4b1e-b241-c2bbc0b37e9f",
              "IL2": "9e708d43-cb32-4370-9c02-099261a07f9f",
              "L1": "6b6b74e2-820d-490e-a017-2b73d4ccf2b0",
              "L8": {
                "GS2": ""
              }
            },
            {
              "BL1": "Terrasoft.Core.Process.ProcessSchemaParameter",
              "UId": "869b1175-05a1-45e4-b31b-d052ec7bb1e2",
              "A2": "CanReadUncommitedData",
              "A3": "cb455b6f-78ff-4b1e-b241-c2bbc0b37e9f",
              "A4": "cb455b6f-78ff-4b1e-b241-c2bbc0b37e9f",
              "IL2": "9e708d43-cb32-4370-9c02-099261a07f9f",
              "L1": "90b65bf8-0ffc-4141-8779-2420877af907",
              "L8": {
                "GS1": 1,
                "GS2": "true",
                "GS5": "cb455b6f-78ff-4b1e-b241-c2bbc0b37e9f"
              }
            },
            {
              "BL1": "Terrasoft.Core.Process.ProcessSchemaParameter",
              "UId": "2a5a3430-3ba1-4517-8eb0-71b44385afec",
              "A2": "ResultEntityCollection",
              "A3": "cb455b6f-78ff-4b1e-b241-c2bbc0b37e9f",
              "A4": "cb455b6f-78ff-4b1e-b241-c2bbc0b37e9f",
              "IL2": "9e708d43-cb32-4370-9c02-099261a07f9f",
              "L1": "51fb23ba-3eb2-11e2-b7d5-b0c76188709b",
              "L8": {
                "GS2": ""
              }
            },
            {
              "BL1": "Terrasoft.Core.Process.ProcessSchemaParameter",
              "UId": "0a233e8e-3658-4fa3-86bb-31297c211f60",
              "A2": "EntityColumnMetaPathes",
              "A3": "cb455b6f-78ff-4b1e-b241-c2bbc0b37e9f",
              "A4": "cb455b6f-78ff-4b1e-b241-c2bbc0b37e9f",
              "IL2": "9e708d43-cb32-4370-9c02-099261a07f9f",
              "L1": "394e160f-c8e0-46fa-9c0d-75d97e9e9169",
              "L8": {
                "GS1": 1,
                "GS2": "d2d96e97-13f1-46f7-957a-31a0a8e23f63;82ab9509-d988-46b0-ab08-aa9aac910cc6;011c3f0e-d63f-4754-8775-8db90bb1dc6b;9a55d137-1a33-432f-b808-373036a05f95",
                "GS5": "5d092161-4e0b-457c-a946-50a3bd02a3f9"
              }
            },
            {
              "BL1": "Terrasoft.Core.Process.ProcessSchemaParameter",
              "UId": "24c77123-f51e-42ca-8a13-fadd4fd8db07",
              "A2": "IgnoreDisplayValues",
              "A3": "cb455b6f-78ff-4b1e-b241-c2bbc0b37e9f",
              "A4": "cb455b6f-78ff-4b1e-b241-c2bbc0b37e9f",
              "IL2": "9e708d43-cb32-4370-9c02-099261a07f9f",
              "L1": "90b65bf8-0ffc-4141-8779-2420877af907",
              "L8": {
                "GS2": ""
              }
            },
            {
              "BL1": "Terrasoft.Core.Process.ProcessSchemaParameter",
              "UId": "bcdf4899-c1c6-4026-aba0-8d867daab1c0",
              "A2": "ResultCompositeObjectList",
              "A3": "cb455b6f-78ff-4b1e-b241-c2bbc0b37e9f",
              "A4": "cb455b6f-78ff-4b1e-b241-c2bbc0b37e9f",
              "IL2": "9e708d43-cb32-4370-9c02-099261a07f9f",
              "L1": "651ec16f-d140-46db-b9e2-825c985a8ac2",
              "L8": {
                "GS2": ""
              }
            },
            {
              "BL1": "Terrasoft.Core.Process.ProcessSchemaParameter",
              "UId": "ebbdc82a-ecbd-41a0-b876-1aa5e42b2a0c",
              "A2": "ConsiderTimeInFilter",
              "A3": "cb455b6f-78ff-4b1e-b241-c2bbc0b37e9f",
              "A4": "cb455b6f-78ff-4b1e-b241-c2bbc0b37e9f",
              "IL2": "9e708d43-cb32-4370-9c02-099261a07f9f",
              "L1": "90b65bf8-0ffc-4141-8779-2420877af907",
              "L8": {
                "GS1": 3,
                "GS2": "false",
                "GS5": "cb455b6f-78ff-4b1e-b241-c2bbc0b37e9f"
              }
            }
          ],
          "CL2": "FFFFFFFF",
          "J6": "cb455b6f-78ff-4b1e-b241-c2bbc0b37e9f"
        },
        {
          "BL1": "Terrasoft.Core.Process.ProcessSchemaUserTask",
          "UId": "6d7283e6-4a96-443d-a425-cc0c7253320f",
          "A2": "ChangeDataUserTask1",
          "A3": "5d092161-4e0b-457c-a946-50a3bd02a3f9",
          "A4": "5d092161-4e0b-457c-a946-50a3bd02a3f9",
          "A5": "80852c4e-6e90-4769-a5e6-c485d9bc7022",
          "IL2": "ee522e56-1dea-49ae-b95d-21eee4964c55",
          "BL3": "602;172",
          "BL7": "d3021ca7-7450-4678-a117-060171eb2976",
          "BL8": "5d092161-4e0b-457c-a946-50a3bd02a3f9",
          "BN2": "69;55",
          "BO3": true,
          "BP2": [
            {
              "BL1": "Terrasoft.Core.Process.ProcessSchemaParameter",
              "UId": "81315ff3-8927-4712-b7e3-c9c6b1574a38",
              "A2": "EntitySchemaUId",
              "A3": "d3021ca7-7450-4678-a117-060171eb2976",
              "A4": "d3021ca7-7450-4678-a117-060171eb2976",
              "A5": "66e9e705-64b4-4dda-925e-d1e05a389eb6",
              "IL2": "6d7283e6-4a96-443d-a425-cc0c7253320f",
              "L1": "b295071f-7ea9-4e62-8d1a-919bf3732ff2",
              "L8": {
                "GS1": 1,
                "GS2": "6d9487e3-54df-480b-9ce7-168a3987b209",
                "GS5": "5d092161-4e0b-457c-a946-50a3bd02a3f9"
              },
              "L9": "6c7394db-06ff-4050-91ef-8278e21dce15"
            },
            {
              "BL1": "Terrasoft.Core.Process.ProcessSchemaParameter",
              "UId": "3cab4145-b2f8-42ea-bf00-cf661934185f",
              "A2": "IsMatchConditions",
              "A3": "d3021ca7-7450-4678-a117-060171eb2976",
              "A4": "d3021ca7-7450-4678-a117-060171eb2976",
              "A5": "66e9e705-64b4-4dda-925e-d1e05a389eb6",
              "IL2": "6d7283e6-4a96-443d-a425-cc0c7253320f",
              "L1": "90b65bf8-0ffc-4141-8779-2420877af907",
              "L8": {
                "GS1": 3,
                "GS2": "true",
                "GS5": "d3021ca7-7450-4678-a117-060171eb2976"
              }
            },
            {
              "BL1": "Terrasoft.Core.Process.ProcessSchemaParameter",
              "UId": "a8c81035-eabd-4ece-b3cc-ab1c1918dbfa",
              "A2": "DataSourceFilters",
              "A3": "d3021ca7-7450-4678-a117-060171eb2976",
              "A4": "d3021ca7-7450-4678-a117-060171eb2976",
              "A5": "66e9e705-64b4-4dda-925e-d1e05a389eb6",
              "IL2": "6d7283e6-4a96-443d-a425-cc0c7253320f",
              "L1": "394e160f-c8e0-46fa-9c0d-75d97e9e9169",
              "L8": {
                "GS1": 1,
                "GS2": "{\"className\":\"Terrasoft.FilterGroup\",\"serializedFilterEditData\":\"{\\\"className\\\":\\\"Terrasoft.FilterGroup\\\",\\\"items\\\":{\\\"89258324-7364-40b5-8835-a5bcbee16f30\\\":{\\\"className\\\":\\\"Terrasoft.CompareFilter\\\",\\\"filterType\\\":1,\\\"comparisonType\\\":3,\\\"isEnabled\\\":true,\\\"trimDateTimeParameterToDate\\\":false,\\\"leftExpression\\\":{\\\"className\\\":\\\"Terrasoft.ColumnExpression\\\",\\\"expressionType\\\":0,\\\"columnPath\\\":\\\"Id\\\"},\\\"isAggregative\\\":false,\\\"key\\\":\\\"89258324-7364-40b5-8835-a5bcbee16f30\\\",\\\"dataValueType\\\":0,\\\"leftExpressionCaption\\\":\\\"Id\\\",\\\"rightExpression\\\":{\\\"className\\\":\\\"Terrasoft.ParameterExpression\\\",\\\"expressionType\\\":2,\\\"parameter\\\":{\\\"className\\\":\\\"Terrasoft.Parameter\\\",\\\"dataValueType\\\":26,\\\"value\\\":{\\\"value\\\":\\\"[IsOwnerSchema:false].[IsSchema:false].[Parameter:{5b9ee452-c8af-4ad3-88d2-8935fbbc71a9}]\\\",\\\"displayValue\\\":\\\"RequestId\\\"}}}}},\\\"logicalOperation\\\":0,\\\"isEnabled\\\":true,\\\"filterType\\\":6,\\\"rootSchemaName\\\":\\\"WatPartnershipRequest\\\",\\\"key\\\":\\\"\\\"}\",\"dataSourceFilters\":\"{\\\"items\\\":{\\\"89258324-7364-40b5-8835-a5bcbee16f30\\\":{\\\"filterType\\\":1,\\\"comparisonType\\\":3,\\\"isEnabled\\\":true,\\\"trimDateTimeParameterToDate\\\":false,\\\"leftExpression\\\":{\\\"expressionType\\\":0,\\\"columnPath\\\":\\\"Id\\\"},\\\"rightExpression\\\":{\\\"expressionType\\\":2,\\\"parameter\\\":{\\\"dataValueType\\\":26,\\\"value\\\":{\\\"value\\\":\\\"[IsOwnerSchema:false].[IsSchema:false].[Parameter:{5b9ee452-c8af-4ad3-88d2-8935fbbc71a9}]\\\"}}}}},\\\"logicalOperation\\\":0,\\\"isEnabled\\\":true,\\\"filterType\\\":6,\\\"rootSchemaName\\\":\\\"WatPartnershipRequest\\\"}\"}",
                "GS5": "5d092161-4e0b-457c-a946-50a3bd02a3f9"
              }
            },
            {
              "BL1": "Terrasoft.Core.Process.ProcessSchemaParameter",
              "UId": "0c44a148-146e-482e-86bb-fd10552db103",
              "A2": "RecordColumnValues",
              "A3": "d3021ca7-7450-4678-a117-060171eb2976",
              "A4": "d3021ca7-7450-4678-a117-060171eb2976",
              "A5": "66e9e705-64b4-4dda-925e-d1e05a389eb6",
              "IL2": "6d7283e6-4a96-443d-a425-cc0c7253320f",
              "L1": "b53eaa2a-4bb7-4a6b-9f4f-58ccab293e31",
              "L8": {
                "GS1": 1,
                "GS2": "{\"$type\":\"Terrasoft.Core.Process.LocalizableParameterValuesList, Terrasoft.Core\",\"$values\":[{\"ItemUId\":\"392a4056-2efc-477f-bd38-ae59bc43e5c2\",\"columnMetaPath\":{\"value\":\"b8ac5a13-6fa9-4d23-8fdb-21b190c7edfe\"},\"schemaUId\":{\"value\":\"6d9487e3-54df-480b-9ce7-168a3987b209\"},\"value\":{\"value\":\"[#[IsOwnerSchema:false].[IsSchema:false].[Element:{9e708d43-cb32-4370-9c02-099261a07f9f}].[Parameter:{51a5e758-299c-4c79-b9af-70fc8d5c4f64}].[EntityColumn:{82ab9509-d988-46b0-ab08-aa9aac910cc6}]#]\"},\"displayValue\":{\"value\":\"[#RD Agreement.First item of resulting collection.Institution#]\"},\"parameterValue\":{\"value\":\"{\\\"$type\\\":\\\"Terrasoft.Core.Process.ProcessSchemaParameterValue, Terrasoft.Core\\\",\\\"Source\\\":3,\\\"DisplayValue\\\":\\\"\\\",\\\"Value\\\":\\\"\\\",\\\"MetaPath\\\":null,\\\"MetaDataValue\\\":null,\\\"ModifiedInSchemaUId\\\":\\\"00000000-0000-0000-0000-000000000000\\\",\\\"SchemaUId\\\":\\\"00000000-0000-0000-0000-000000000000\\\",\\\"SchemaManagerName\\\":\\\"\\\",\\\"DataValueTypeUId\\\":\\\"b295071f-7ea9-4e62-8d1a-919bf3732ff2\\\",\\\"ReferenceSchemaUId\\\":\\\"25d7c1ab-1de0-4501-b402-02e0e5a72d6e\\\",\\\"ResourceItemName\\\":null}\"}},{\"ItemUId\":\"ede1ddb4-1ca5-4d54-aabf-13c2244f475e\",\"columnMetaPath\":{\"value\":\"e9d21f82-853d-4528-98d7-506b78f4ab7c\"},\"schemaUId\":{\"value\":\"6d9487e3-54df-480b-9ce7-168a3987b209\"},\"value\":{\"value\":\"[#[IsOwnerSchema:false].[IsSchema:false].[Element:{9e708d43-cb32-4370-9c02-099261a07f9f}].[Parameter:{51a5e758-299c-4c79-b9af-70fc8d5c4f64}].[EntityColumn:{011c3f0e-d63f-4754-8775-8db90bb1dc6b}]#]\"},\"displayValue\":{\"value\":\"[#RD Agreement.First item of resulting collection.Name#]\"},\"parameterValue\":{\"value\":\"{\\\"$type\\\":\\\"Terrasoft.Core.Process.ProcessSchemaParameterValue, Terrasoft.Core\\\",\\\"Source\\\":3,\\\"DisplayValue\\\":\\\"\\\",\\\"Value\\\":\\\"\\\",\\\"MetaPath\\\":null,\\\"MetaDataValue\\\":null,\\\"ModifiedInSchemaUId\\\":\\\"00000000-0000-0000-0000-000000000000\\\",\\\"SchemaUId\\\":\\\"00000000-0000-0000-0000-000000000000\\\",\\\"SchemaManagerName\\\":\\\"\\\",\\\"DataValueTypeUId\\\":\\\"8b3f29bb-ea14-4ce5-a5c5-293a929b6ba2\\\",\\\"ReferenceSchemaUId\\\":\\\"00000000-0000-0000-0000-000000000000\\\",\\\"ResourceItemName\\\":null}\"}},{\"ItemUId\":\"cff31cd6-f61b-418e-b384-0c1fa8e58429\",\"columnMetaPath\":{\"value\":\"234714bd-ef9d-4275-a767-ea10979c8f7f\"},\"schemaUId\":{\"value\":\"6d9487e3-54df-480b-9ce7-168a3987b209\"},\"value\":{\"value\":\"[#[IsOwnerSchema:false].[IsSchema:false].[Element:{9e708d43-cb32-4370-9c02-099261a07f9f}].[Parameter:{51a5e758-299c-4c79-b9af-70fc8d5c4f64}].[EntityColumn:{9a55d137-1a33-432f-b808-373036a05f95}]#]\"},\"displayValue\":{\"value\":\"[#RD Agreement.First item of resulting collection.Contact#]\"},\"parameterValue\":{\"value\":\"{\\\"$type\\\":\\\"Terrasoft.Core.Process.ProcessSchemaParameterValue, Terrasoft.Core\\\",\\\"Source\\\":3,\\\"DisplayValue\\\":\\\"\\\",\\\"Value\\\":\\\"\\\",\\\"MetaPath\\\":null,\\\"MetaDataValue\\\":null,\\\"ModifiedInSchemaUId\\\":\\\"00000000-0000-0000-0000-000000000000\\\",\\\"SchemaUId\\\":\\\"00000000-0000-0000-0000-000000000000\\\",\\\"SchemaManagerName\\\":\\\"\\\",\\\"DataValueTypeUId\\\":\\\"b295071f-7ea9-4e62-8d1a-919bf3732ff2\\\",\\\"ReferenceSchemaUId\\\":\\\"16be3651-8fe2-4159-8dd0-a803d4683dd3\\\",\\\"ResourceItemName\\\":null}\"}}]}",
                "GS5": "5d092161-4e0b-457c-a946-50a3bd02a3f9"
              }
            }
          ],
          "CL2": "FFFFFFFF",
          "J6": "d3021ca7-7450-4678-a117-060171eb2976"
        },
        {
          "BL1": "Terrasoft.Core.Process.ProcessSchemaUserTask",
          "UId": "35422c80-5522-4f62-81a5-cc592133fbb6",
          "A2": "SMRefreshPage1",
          "A3": "5d092161-4e0b-457c-a946-50a3bd02a3f9",
          "A4": "5d092161-4e0b-457c-a946-50a3bd02a3f9",
          "A5": "80852c4e-6e90-4769-a5e6-c485d9bc7022",
          "IL2": "ee522e56-1dea-49ae-b95d-21eee4964c55",
          "BL3": "748;172",
          "BL7": "5599f10c-788b-412c-9b59-0db3f4ba20d9",
          "BL8": "5d092161-4e0b-457c-a946-50a3bd02a3f9",
          "BN2": "69;55",
          "BO3": true,
          "BP2": [],
          "CL2": "FFFFFFFF",
          "J6": "5599f10c-788b-412c-9b59-0db3f4ba20d9"
        },
        {
          "BL1": "Terrasoft.Core.Process.ProcessSchemaSequenceFlow",
          "UId": "fb0ae361-69e3-4c2c-bc49-242b6fc00bfd",
          "A2": "SequenceFlow1",
          "A3": "5d092161-4e0b-457c-a946-50a3bd02a3f9",
          "A4": "5d092161-4e0b-457c-a946-50a3bd02a3f9",
          "A5": "80852c4e-6e90-4769-a5e6-c485d9bc7022",
          "BL7": "0d8351f6-c2f4-4737-bdd9-6fbfe0837fec",
          "BL8": "5d092161-4e0b-457c-a946-50a3bd02a3f9",
          "CI1": "ce8f8d63-4ea0-4e3f-bac1-2c0a5339f17a",
          "CI2": "7fd6ae8f-9579-46e6-b234-db257f1c50f1",
          "CI3": "null",
          "CI5": "FF939598",
          "CI6": 1,
          "CI11": "81;200",
          "CI12": "152;200"
        },
        {
          "BL1": "Terrasoft.Core.Process.ProcessSchemaSequenceFlow",
          "UId": "90e4dee7-dce4-4f55-8512-7c30d4f9cf8e",
          "A2": "SequenceFlow3",
          "A3": "5d092161-4e0b-457c-a946-50a3bd02a3f9",
          "A4": "5d092161-4e0b-457c-a946-50a3bd02a3f9",
          "A5": "80852c4e-6e90-4769-a5e6-c485d9bc7022",
          "BL7": "0d8351f6-c2f4-4737-bdd9-6fbfe0837fec",
          "BL8": "5d092161-4e0b-457c-a946-50a3bd02a3f9",
          "CI1": "745e0487-6c8e-450f-8656-154448bcadd2",
          "CI2": "30fcd888-6d65-4416-a4c7-3f021323b277",
          "CI3": "null",
          "CI5": "FF939598",
          "CI6": 1,
          "CI11": "81;309",
          "CI12": "152;309"
        },
        {
          "BL1": "Terrasoft.Core.Process.ProcessSchemaSequenceFlow",
          "UId": "405c5ec7-f355-41be-a41d-4c45619ed681",
          "A2": "SequenceFlow4",
          "A3": "5d092161-4e0b-457c-a946-50a3bd02a3f9",
          "A4": "5d092161-4e0b-457c-a946-50a3bd02a3f9",
          "A5": "80852c4e-6e90-4769-a5e6-c485d9bc7022",
          "BL7": "0d8351f6-c2f4-4737-bdd9-6fbfe0837fec",
          "BL8": "5d092161-4e0b-457c-a946-50a3bd02a3f9",
          "CI1": "7fd6ae8f-9579-46e6-b234-db257f1c50f1",
          "CI2": "310d507d-2f2c-4a24-8cda-67b94b08cfd0",
          "CI3": "null",
          "CI5": "FF939598",
          "CI6": 1,
          "CI11": "221;200",
          "CI12": "292;200"
        },
        {
          "BL1": "Terrasoft.Core.Process.ProcessSchemaSequenceFlow",
          "UId": "8d7d7b4f-ac60-4854-95e7-8eec63b65a35",
          "A2": "SequenceFlow5",
          "A3": "5d092161-4e0b-457c-a946-50a3bd02a3f9",
          "A4": "5d092161-4e0b-457c-a946-50a3bd02a3f9",
          "A5": "80852c4e-6e90-4769-a5e6-c485d9bc7022",
          "BL7": "0d8351f6-c2f4-4737-bdd9-6fbfe0837fec",
          "BL8": "5d092161-4e0b-457c-a946-50a3bd02a3f9",
          "CI1": "30fcd888-6d65-4416-a4c7-3f021323b277",
          "CI2": "310d507d-2f2c-4a24-8cda-67b94b08cfd0",
          "CI3": "null",
          "CI5": "FF939598",
          "CI6": 1,
          "CI7": "1;0",
          "CI8": "0;-1",
          "CI11": "221;309",
          "CI12": "327;227",
          "CI10": {
            "Item0": "327;309"
          }
        },
        {
          "BL1": "Terrasoft.Core.Process.ProcessSchemaSequenceFlow",
          "UId": "def9c5a2-5ad8-4aa6-8873-58162019a088",
          "A2": "SequenceFlow6",
          "A3": "5d092161-4e0b-457c-a946-50a3bd02a3f9",
          "A4": "5d092161-4e0b-457c-a946-50a3bd02a3f9",
          "A5": "80852c4e-6e90-4769-a5e6-c485d9bc7022",
          "BL7": "0d8351f6-c2f4-4737-bdd9-6fbfe0837fec",
          "BL8": "5d092161-4e0b-457c-a946-50a3bd02a3f9",
          "CI1": "310d507d-2f2c-4a24-8cda-67b94b08cfd0",
          "CI2": "9e708d43-cb32-4370-9c02-099261a07f9f",
          "CI3": "null",
          "CI5": "FF939598",
          "CI6": 1,
          "CI11": "361;200",
          "CI12": "438;200"
        },
        {
          "BL1": "Terrasoft.Core.Process.ProcessSchemaSequenceFlow",
          "UId": "db47b7cc-8c24-4372-bbde-f4e79bf880fc",
          "A2": "SequenceFlow7",
          "A3": "5d092161-4e0b-457c-a946-50a3bd02a3f9",
          "A4": "5d092161-4e0b-457c-a946-50a3bd02a3f9",
          "A5": "80852c4e-6e90-4769-a5e6-c485d9bc7022",
          "BL7": "0d8351f6-c2f4-4737-bdd9-6fbfe0837fec",
          "BL8": "5d092161-4e0b-457c-a946-50a3bd02a3f9",
          "CI1": "9e708d43-cb32-4370-9c02-099261a07f9f",
          "CI2": "6d7283e6-4a96-443d-a425-cc0c7253320f",
          "CI3": "null",
          "CI5": "FF939598",
          "CI6": 1,
          "CI11": "507;200",
          "CI12": "602;200"
        },
        {
          "BL1": "Terrasoft.Core.Process.ProcessSchemaSequenceFlow",
          "UId": "5726a448-1f3c-4424-b4cf-37694c45edf5",
          "A2": "SequenceFlow8",
          "A3": "5d092161-4e0b-457c-a946-50a3bd02a3f9",
          "A4": "5d092161-4e0b-457c-a946-50a3bd02a3f9",
          "A5": "80852c4e-6e90-4769-a5e6-c485d9bc7022",
          "BL7": "0d8351f6-c2f4-4737-bdd9-6fbfe0837fec",
          "BL8": "5d092161-4e0b-457c-a946-50a3bd02a3f9",
          "CI1": "6d7283e6-4a96-443d-a425-cc0c7253320f",
          "CI2": "35422c80-5522-4f62-81a5-cc592133fbb6",
          "CI3": "null",
          "CI5": "FF939598",
          "CI6": 1,
          "CI11": "671;200",
          "CI12": "748;200"
        },
        {
          "BL1": "Terrasoft.Core.Process.ProcessSchemaSequenceFlow",
          "UId": "4de1c4bc-3114-4350-b82b-4a57877e6d30",
          "A2": "SequenceFlow9",
          "A3": "5d092161-4e0b-457c-a946-50a3bd02a3f9",
          "A4": "5d092161-4e0b-457c-a946-50a3bd02a3f9",
          "A5": "80852c4e-6e90-4769-a5e6-c485d9bc7022",
          "BL7": "0d8351f6-c2f4-4737-bdd9-6fbfe0837fec",
          "BL8": "5d092161-4e0b-457c-a946-50a3bd02a3f9",
          "CI1": "35422c80-5522-4f62-81a5-cc592133fbb6",
          "CI2": "1aea1144-1cd7-43fc-b19e-986820f70658",
          "CI3": "null",
          "CI5": "FF939598",
          "CI6": 1,
          "CI11": "817;200",
          "CI12": "891;200"
        }
      ],
      "BK9": [],
      "BK18": "Business Process",
      "BK29": true,
      "BK30": true,
      "BK34": "null",
      "Labels": [
        {
          "BL1": "Terrasoft.Core.Process.ProcessSchemaLabel",
          "UId": "aa7ee3c7-19d9-494c-8857-ed1c4165878c",
          "A2": "StartSignal2_label1",
          "A3": "5d092161-4e0b-457c-a946-50a3bd02a3f9",
          "A4": "5d092161-4e0b-457c-a946-50a3bd02a3f9",
          "ParentUId": "745e0487-6c8e-450f-8656-154448bcadd2",
          "X": 3
        }
      ],
      "BK24": []
    }
  }
}