﻿{
  "PackageData": [
    {
      "Row": [
        {
          "SchemaColumnUId": "ae0e45ca-c495-4fe7-a39d-3ab7278e1617",
          "Value": "0ecf5ba5-1159-456c-b861-917a4d43a367"
        },
        {
          "SchemaColumnUId": "a18861e7-c840-4cae-9dd6-30277b513dc9",
          "Value": "2b3a178d-f75c-41ab-8335-fe84136097a1",
          "DisplayValue": "null"
        },
        {
          "SchemaColumnUId": "cec2ae4b-d2de-4c80-99a0-a59dc2a154cd",
          "Value": "feffde66-d1cb-4762-bc87-d60f1bd44782"
        }
      ]
    }
  ]
}