﻿{
  "Descriptor": {
    "UId": "e1a0db94-31bd-4666-b8b0-6e99453eb9a7",
    "Name": "WatDelegationStage",
    "ModifiedOnUtc": "\/Date(1598627141000)\/",
    "Parent": {
      "UId": "11ab4bcb-9b23-4b6d-9c86-520fae925d75",
      "Name": "BaseLookup"
    },
    "ManagerName": "EntitySchemaManager",
    "Caption": "Delegation Stage"
  }
}