﻿{
  "Descriptor": {
    "UId": "e16d80f9-62f9-4fa5-b53b-d2d44f1004e3",
    "Name": "WatDelegationPurposeTag",
    "ModifiedOnUtc": "\/Date(1598995245000)\/",
    "Parent": {
      "UId": "9e3f203c-e905-4de5-9468-335b193f2439",
      "Name": "BaseTag"
    },
    "ManagerName": "EntitySchemaManager",
    "Caption": "Delegation Purpose section tag"
  }
}