﻿{
  "Descriptor": {
    "UId": "ba5bbc0a-015b-449a-aac6-296d9668cff0",
    "Name": "WatProcess11HospitalityRequestCancelledByAdmin",
    "ModifiedOnUtc": "\/Date(1615427195000)\/",
    "ManagerName": "ProcessSchemaManager",
    "Caption": "SM#11 (Hospitality Request): Cancelled by Admin (Obsolete)"
  }
}