﻿{
  "PackageData": [
    {
      "Row": [
        {
          "SchemaColumnUId": "ae0e45ca-c495-4fe7-a39d-3ab7278e1617",
          "Value": "02403db2-5337-4fd9-a5b5-d3ca80380a0a"
        },
        {
          "SchemaColumnUId": "087f5050-1d50-4639-905e-b75eea498ff8",
          "Value": "a75734b7-048c-d8ab-578d-cf7a604b725a"
        },
        {
          "SchemaColumnUId": "9ed7e3f6-ce67-41fb-8dcc-16c9c5e4d08f",
          "Value": "Name"
        },
        {
          "SchemaColumnUId": "b03360a8-d50e-4cb0-a1d7-6d46d0b31bff",
          "Value": "87db805b-017f-472f-b167-0c82a6c6be35",
          "DisplayValue": "SMQuestionRequestConnetion"
        }
      ]
    },
    {
      "Row": [
        {
          "SchemaColumnUId": "ae0e45ca-c495-4fe7-a39d-3ab7278e1617",
          "Value": "02589434-3dfd-48c5-815a-f3889ab51617"
        },
        {
          "SchemaColumnUId": "087f5050-1d50-4639-905e-b75eea498ff8",
          "Value": "3cc987a9-3018-44d3-929f-b5ff5df2e114"
        },
        {
          "SchemaColumnUId": "9ed7e3f6-ce67-41fb-8dcc-16c9c5e4d08f",
          "Value": "WatFacultyDepartmentId"
        },
        {
          "SchemaColumnUId": "b03360a8-d50e-4cb0-a1d7-6d46d0b31bff",
          "Value": "aed97a32-06a9-4952-8c9e-7344c4da8dcb",
          "DisplayValue": "WatAgreementStakeholders"
        }
      ]
    },
    {
      "Row": [
        {
          "SchemaColumnUId": "ae0e45ca-c495-4fe7-a39d-3ab7278e1617",
          "Value": "027ac830-1bbe-427b-a13f-d44cce655229"
        },
        {
          "SchemaColumnUId": "087f5050-1d50-4639-905e-b75eea498ff8",
          "Value": "15a638e1-e0df-4a99-9371-4007250265fc"
        },
        {
          "SchemaColumnUId": "9ed7e3f6-ce67-41fb-8dcc-16c9c5e4d08f",
          "Value": ""
        },
        {
          "SchemaColumnUId": "b03360a8-d50e-4cb0-a1d7-6d46d0b31bff",
          "Value": "3a686873-ffaa-48f7-b1df-e3c8e0190517",
          "DisplayValue": "SMConsultedASUs"
        }
      ]
    },
    {
      "Row": [
        {
          "SchemaColumnUId": "ae0e45ca-c495-4fe7-a39d-3ab7278e1617",
          "Value": "02e67fc7-903c-4de6-85b8-c0b0fb6df011"
        },
        {
          "SchemaColumnUId": "087f5050-1d50-4639-905e-b75eea498ff8",
          "Value": "736c30a7-c0ec-4fa9-b034-2552b319b633"
        },
        {
          "SchemaColumnUId": "9ed7e3f6-ce67-41fb-8dcc-16c9c5e4d08f",
          "Value": "Name"
        },
        {
          "SchemaColumnUId": "b03360a8-d50e-4cb0-a1d7-6d46d0b31bff",
          "Value": "03ff1131-e43a-4c89-9417-1fc184df7d8d",
          "DisplayValue": "WatEOLTreatment"
        }
      ]
    },
    {
      "Row": [
        {
          "SchemaColumnUId": "ae0e45ca-c495-4fe7-a39d-3ab7278e1617",
          "Value": "0347cac2-2264-436b-bf1b-16a8d5ef43d2"
        },
        {
          "SchemaColumnUId": "087f5050-1d50-4639-905e-b75eea498ff8",
          "Value": "eddffec7-cf1d-4409-bbe8-425ecc3b75ae"
        },
        {
          "SchemaColumnUId": "9ed7e3f6-ce67-41fb-8dcc-16c9c5e4d08f",
          "Value": ""
        },
        {
          "SchemaColumnUId": "b03360a8-d50e-4cb0-a1d7-6d46d0b31bff",
          "Value": "4f12d853-5362-4132-bc40-4ba02d283b79",
          "DisplayValue": "SMNewConsultedFaculties"
        }
      ]
    },
    {
      "Row": [
        {
          "SchemaColumnUId": "ae0e45ca-c495-4fe7-a39d-3ab7278e1617",
          "Value": "0671022f-2856-471b-bf19-c357d297f730"
        },
        {
          "SchemaColumnUId": "087f5050-1d50-4639-905e-b75eea498ff8",
          "Value": "620c3201-7ef6-47c0-8da6-aab6c83530d6"
        },
        {
          "SchemaColumnUId": "9ed7e3f6-ce67-41fb-8dcc-16c9c5e4d08f",
          "Value": ""
        },
        {
          "SchemaColumnUId": "b03360a8-d50e-4cb0-a1d7-6d46d0b31bff",
          "Value": "4f12d853-5362-4132-bc40-4ba02d283b79",
          "DisplayValue": "SMNewConsultedFaculties"
        }
      ]
    },
    {
      "Row": [
        {
          "SchemaColumnUId": "ae0e45ca-c495-4fe7-a39d-3ab7278e1617",
          "Value": "08dd566b-0fa6-455f-994f-6ddc50d5f484"
        },
        {
          "SchemaColumnUId": "087f5050-1d50-4639-905e-b75eea498ff8",
          "Value": "2445ddd3-dc02-7a1b-6d11-587947bde7ae"
        },
        {
          "SchemaColumnUId": "9ed7e3f6-ce67-41fb-8dcc-16c9c5e4d08f",
          "Value": ""
        },
        {
          "SchemaColumnUId": "b03360a8-d50e-4cb0-a1d7-6d46d0b31bff",
          "Value": "4f12d853-5362-4132-bc40-4ba02d283b79",
          "DisplayValue": "SMNewConsultedFaculties"
        }
      ]
    },
    {
      "Row": [
        {
          "SchemaColumnUId": "ae0e45ca-c495-4fe7-a39d-3ab7278e1617",
          "Value": "090700e2-810b-4c29-959e-9725ef079adb"
        },
        {
          "SchemaColumnUId": "087f5050-1d50-4639-905e-b75eea498ff8",
          "Value": "c15b8deb-66b2-467d-bb0f-3336079dedb4"
        },
        {
          "SchemaColumnUId": "9ed7e3f6-ce67-41fb-8dcc-16c9c5e4d08f",
          "Value": ""
        },
        {
          "SchemaColumnUId": "b03360a8-d50e-4cb0-a1d7-6d46d0b31bff",
          "Value": "4f12d853-5362-4132-bc40-4ba02d283b79",
          "DisplayValue": "SMNewConsultedFaculties"
        }
      ]
    },
    {
      "Row": [
        {
          "SchemaColumnUId": "ae0e45ca-c495-4fe7-a39d-3ab7278e1617",
          "Value": "097d0ff3-7987-4c87-b81b-b1039c482e06"
        },
        {
          "SchemaColumnUId": "087f5050-1d50-4639-905e-b75eea498ff8",
          "Value": "9a55d137-1a33-432f-b808-373036a05f95"
        },
        {
          "SchemaColumnUId": "9ed7e3f6-ce67-41fb-8dcc-16c9c5e4d08f",
          "Value": "WatContactId"
        },
        {
          "SchemaColumnUId": "b03360a8-d50e-4cb0-a1d7-6d46d0b31bff",
          "Value": "514dc59b-d7d9-4c2b-9346-5c48c0ea252c",
          "DisplayValue": "WatAgreement"
        }
      ]
    },
    {
      "Row": [
        {
          "SchemaColumnUId": "ae0e45ca-c495-4fe7-a39d-3ab7278e1617",
          "Value": "0a99055a-a460-4355-9592-38199fa3ccd6"
        },
        {
          "SchemaColumnUId": "087f5050-1d50-4639-905e-b75eea498ff8",
          "Value": "9928edec-4272-425a-93bb-48743fee4b04"
        },
        {
          "SchemaColumnUId": "9ed7e3f6-ce67-41fb-8dcc-16c9c5e4d08f",
          "Value": ""
        },
        {
          "SchemaColumnUId": "b03360a8-d50e-4cb0-a1d7-6d46d0b31bff",
          "Value": "514dc59b-d7d9-4c2b-9346-5c48c0ea252c",
          "DisplayValue": "WatAgreement"
        }
      ]
    },
    {
      "Row": [
        {
          "SchemaColumnUId": "ae0e45ca-c495-4fe7-a39d-3ab7278e1617",
          "Value": "0b008b30-ec05-4198-b078-3cb1af8514d0"
        },
        {
          "SchemaColumnUId": "087f5050-1d50-4639-905e-b75eea498ff8",
          "Value": "e163e41d-322a-4b36-9de5-0151eed1d05f"
        },
        {
          "SchemaColumnUId": "9ed7e3f6-ce67-41fb-8dcc-16c9c5e4d08f",
          "Value": ""
        },
        {
          "SchemaColumnUId": "b03360a8-d50e-4cb0-a1d7-6d46d0b31bff",
          "Value": "3a686873-ffaa-48f7-b1df-e3c8e0190517",
          "DisplayValue": "SMConsultedASUs"
        }
      ]
    },
    {
      "Row": [
        {
          "SchemaColumnUId": "ae0e45ca-c495-4fe7-a39d-3ab7278e1617",
          "Value": "0ceca05e-b816-41af-a4c2-a1e44e4c0c80"
        },
        {
          "SchemaColumnUId": "087f5050-1d50-4639-905e-b75eea498ff8",
          "Value": "f4bb69c6-20af-46dd-8d35-e5e0f2055e9d"
        },
        {
          "SchemaColumnUId": "9ed7e3f6-ce67-41fb-8dcc-16c9c5e4d08f",
          "Value": "WatGeneralNotes"
        },
        {
          "SchemaColumnUId": "b03360a8-d50e-4cb0-a1d7-6d46d0b31bff",
          "Value": "514dc59b-d7d9-4c2b-9346-5c48c0ea252c",
          "DisplayValue": "WatAgreement"
        }
      ]
    },
    {
      "Row": [
        {
          "SchemaColumnUId": "ae0e45ca-c495-4fe7-a39d-3ab7278e1617",
          "Value": "0f8d327c-4f1e-42ab-8b1b-d61be79c42cd"
        },
        {
          "SchemaColumnUId": "087f5050-1d50-4639-905e-b75eea498ff8",
          "Value": "e55046ec-1967-4f39-8be0-2f6dbc4c1978"
        },
        {
          "SchemaColumnUId": "9ed7e3f6-ce67-41fb-8dcc-16c9c5e4d08f",
          "Value": ""
        },
        {
          "SchemaColumnUId": "b03360a8-d50e-4cb0-a1d7-6d46d0b31bff",
          "Value": "3a686873-ffaa-48f7-b1df-e3c8e0190517",
          "DisplayValue": "SMConsultedASUs"
        }
      ]
    },
    {
      "Row": [
        {
          "SchemaColumnUId": "ae0e45ca-c495-4fe7-a39d-3ab7278e1617",
          "Value": "10135189-4a56-452b-a316-f17625d22200"
        },
        {
          "SchemaColumnUId": "087f5050-1d50-4639-905e-b75eea498ff8",
          "Value": "2fcd68c8-4b71-46f3-baab-c99b826382f6"
        },
        {
          "SchemaColumnUId": "9ed7e3f6-ce67-41fb-8dcc-16c9c5e4d08f",
          "Value": ""
        },
        {
          "SchemaColumnUId": "b03360a8-d50e-4cb0-a1d7-6d46d0b31bff",
          "Value": "4f12d853-5362-4132-bc40-4ba02d283b79",
          "DisplayValue": "SMNewConsultedFaculties"
        }
      ]
    },
    {
      "Row": [
        {
          "SchemaColumnUId": "ae0e45ca-c495-4fe7-a39d-3ab7278e1617",
          "Value": "11d6f0f2-b1df-44b8-bba7-a647cef7604b"
        },
        {
          "SchemaColumnUId": "087f5050-1d50-4639-905e-b75eea498ff8",
          "Value": "d2309376-e632-4b13-b321-f076992791b5"
        },
        {
          "SchemaColumnUId": "9ed7e3f6-ce67-41fb-8dcc-16c9c5e4d08f",
          "Value": ""
        },
        {
          "SchemaColumnUId": "b03360a8-d50e-4cb0-a1d7-6d46d0b31bff",
          "Value": "4f12d853-5362-4132-bc40-4ba02d283b79",
          "DisplayValue": "SMNewConsultedFaculties"
        }
      ]
    },
    {
      "Row": [
        {
          "SchemaColumnUId": "ae0e45ca-c495-4fe7-a39d-3ab7278e1617",
          "Value": "1375d8e0-8eed-4346-b851-4d4b2e2f7937"
        },
        {
          "SchemaColumnUId": "087f5050-1d50-4639-905e-b75eea498ff8",
          "Value": "cb1185b6-c8dd-906e-1e5e-f07e0d8f4ae6"
        },
        {
          "SchemaColumnUId": "9ed7e3f6-ce67-41fb-8dcc-16c9c5e4d08f",
          "Value": ""
        },
        {
          "SchemaColumnUId": "b03360a8-d50e-4cb0-a1d7-6d46d0b31bff",
          "Value": "4f12d853-5362-4132-bc40-4ba02d283b79",
          "DisplayValue": "SMNewConsultedFaculties"
        }
      ]
    },
    {
      "Row": [
        {
          "SchemaColumnUId": "ae0e45ca-c495-4fe7-a39d-3ab7278e1617",
          "Value": "138cbd71-05a5-4ec0-8009-d7057c7921cc"
        },
        {
          "SchemaColumnUId": "087f5050-1d50-4639-905e-b75eea498ff8",
          "Value": "9b7b6de8-9c5f-4bd3-a301-dcd9b3d26821"
        },
        {
          "SchemaColumnUId": "9ed7e3f6-ce67-41fb-8dcc-16c9c5e4d08f",
          "Value": ""
        },
        {
          "SchemaColumnUId": "b03360a8-d50e-4cb0-a1d7-6d46d0b31bff",
          "Value": "4f12d853-5362-4132-bc40-4ba02d283b79",
          "DisplayValue": "SMNewConsultedFaculties"
        }
      ]
    },
    {
      "Row": [
        {
          "SchemaColumnUId": "ae0e45ca-c495-4fe7-a39d-3ab7278e1617",
          "Value": "144fa746-6fb6-48c9-8e8b-7b85e91c5035"
        },
        {
          "SchemaColumnUId": "087f5050-1d50-4639-905e-b75eea498ff8",
          "Value": "9d44e46f-1edb-441c-9286-0774adddec2f"
        },
        {
          "SchemaColumnUId": "9ed7e3f6-ce67-41fb-8dcc-16c9c5e4d08f",
          "Value": "WatFacultyId"
        },
        {
          "SchemaColumnUId": "b03360a8-d50e-4cb0-a1d7-6d46d0b31bff",
          "Value": "aed97a32-06a9-4952-8c9e-7344c4da8dcb",
          "DisplayValue": "WatAgreementStakeholders"
        }
      ]
    },
    {
      "Row": [
        {
          "SchemaColumnUId": "ae0e45ca-c495-4fe7-a39d-3ab7278e1617",
          "Value": "16b62e1f-c1d4-4feb-9ae7-c1e776707c42"
        },
        {
          "SchemaColumnUId": "087f5050-1d50-4639-905e-b75eea498ff8",
          "Value": "45a90734-b7a4-4b63-9c5b-d08f0f00fcb1"
        },
        {
          "SchemaColumnUId": "9ed7e3f6-ce67-41fb-8dcc-16c9c5e4d08f",
          "Value": "WatSysFieldExpirationConfirmed"
        },
        {
          "SchemaColumnUId": "b03360a8-d50e-4cb0-a1d7-6d46d0b31bff",
          "Value": "514dc59b-d7d9-4c2b-9346-5c48c0ea252c",
          "DisplayValue": "WatAgreement"
        }
      ]
    },
    {
      "Row": [
        {
          "SchemaColumnUId": "ae0e45ca-c495-4fe7-a39d-3ab7278e1617",
          "Value": "19fe5e33-e709-4f45-949b-f56030537642"
        },
        {
          "SchemaColumnUId": "087f5050-1d50-4639-905e-b75eea498ff8",
          "Value": "97404dab-139e-4cbf-ae63-ac2cee80f92b"
        },
        {
          "SchemaColumnUId": "9ed7e3f6-ce67-41fb-8dcc-16c9c5e4d08f",
          "Value": ""
        },
        {
          "SchemaColumnUId": "b03360a8-d50e-4cb0-a1d7-6d46d0b31bff",
          "Value": "3a686873-ffaa-48f7-b1df-e3c8e0190517",
          "DisplayValue": "SMConsultedASUs"
        }
      ]
    },
    {
      "Row": [
        {
          "SchemaColumnUId": "ae0e45ca-c495-4fe7-a39d-3ab7278e1617",
          "Value": "1abe8ac7-6d8d-41e4-81e5-2dca3413eab3"
        },
        {
          "SchemaColumnUId": "087f5050-1d50-4639-905e-b75eea498ff8",
          "Value": "011c3f0e-d63f-4754-8775-8db90bb1dc6b"
        },
        {
          "SchemaColumnUId": "9ed7e3f6-ce67-41fb-8dcc-16c9c5e4d08f",
          "Value": "WatName"
        },
        {
          "SchemaColumnUId": "b03360a8-d50e-4cb0-a1d7-6d46d0b31bff",
          "Value": "514dc59b-d7d9-4c2b-9346-5c48c0ea252c",
          "DisplayValue": "WatAgreement"
        }
      ]
    },
    {
      "Row": [
        {
          "SchemaColumnUId": "ae0e45ca-c495-4fe7-a39d-3ab7278e1617",
          "Value": "1b537960-eda3-485c-9516-f1a2fb97b32e"
        },
        {
          "SchemaColumnUId": "087f5050-1d50-4639-905e-b75eea498ff8",
          "Value": "01ef1bc9-1d3a-4889-829c-59aabcb35ef5"
        },
        {
          "SchemaColumnUId": "9ed7e3f6-ce67-41fb-8dcc-16c9c5e4d08f",
          "Value": "WatStakeholderTypeId"
        },
        {
          "SchemaColumnUId": "b03360a8-d50e-4cb0-a1d7-6d46d0b31bff",
          "Value": "aed97a32-06a9-4952-8c9e-7344c4da8dcb",
          "DisplayValue": "WatAgreementStakeholders"
        }
      ]
    },
    {
      "Row": [
        {
          "SchemaColumnUId": "ae0e45ca-c495-4fe7-a39d-3ab7278e1617",
          "Value": "1b6fa9c1-c474-44cd-a910-011bd16054c2"
        },
        {
          "SchemaColumnUId": "087f5050-1d50-4639-905e-b75eea498ff8",
          "Value": "8436413d-678d-4973-a908-7fbf652fa0ed"
        },
        {
          "SchemaColumnUId": "9ed7e3f6-ce67-41fb-8dcc-16c9c5e4d08f",
          "Value": "WatInitialAgreementDate"
        },
        {
          "SchemaColumnUId": "b03360a8-d50e-4cb0-a1d7-6d46d0b31bff",
          "Value": "514dc59b-d7d9-4c2b-9346-5c48c0ea252c",
          "DisplayValue": "WatAgreement"
        }
      ]
    },
    {
      "Row": [
        {
          "SchemaColumnUId": "ae0e45ca-c495-4fe7-a39d-3ab7278e1617",
          "Value": "1c2d916c-d9be-4576-9877-bcff16afff0d"
        },
        {
          "SchemaColumnUId": "087f5050-1d50-4639-905e-b75eea498ff8",
          "Value": "ebf6bb93-8aa6-4a01-900d-c6ea67affe21"
        },
        {
          "SchemaColumnUId": "9ed7e3f6-ce67-41fb-8dcc-16c9c5e4d08f",
          "Value": ""
        },
        {
          "SchemaColumnUId": "b03360a8-d50e-4cb0-a1d7-6d46d0b31bff",
          "Value": "514dc59b-d7d9-4c2b-9346-5c48c0ea252c",
          "DisplayValue": "WatAgreement"
        }
      ]
    },
    {
      "Row": [
        {
          "SchemaColumnUId": "ae0e45ca-c495-4fe7-a39d-3ab7278e1617",
          "Value": "1cb06347-da55-41e9-874e-aa6a154832f1"
        },
        {
          "SchemaColumnUId": "087f5050-1d50-4639-905e-b75eea498ff8",
          "Value": "f4d72c08-5c66-492e-936e-559da5764e1e"
        },
        {
          "SchemaColumnUId": "9ed7e3f6-ce67-41fb-8dcc-16c9c5e4d08f",
          "Value": ""
        },
        {
          "SchemaColumnUId": "b03360a8-d50e-4cb0-a1d7-6d46d0b31bff",
          "Value": "4f12d853-5362-4132-bc40-4ba02d283b79",
          "DisplayValue": "SMNewConsultedFaculties"
        }
      ]
    },
    {
      "Row": [
        {
          "SchemaColumnUId": "ae0e45ca-c495-4fe7-a39d-3ab7278e1617",
          "Value": "1d2a9534-582e-4b71-be51-a2d6ebe8b03c"
        },
        {
          "SchemaColumnUId": "087f5050-1d50-4639-905e-b75eea498ff8",
          "Value": "de4aef66-11e4-4a65-9a08-588e3588699b"
        },
        {
          "SchemaColumnUId": "9ed7e3f6-ce67-41fb-8dcc-16c9c5e4d08f",
          "Value": "WatAgreementStatusId"
        },
        {
          "SchemaColumnUId": "b03360a8-d50e-4cb0-a1d7-6d46d0b31bff",
          "Value": "514dc59b-d7d9-4c2b-9346-5c48c0ea252c",
          "DisplayValue": "WatAgreement"
        }
      ]
    },
    {
      "Row": [
        {
          "SchemaColumnUId": "ae0e45ca-c495-4fe7-a39d-3ab7278e1617",
          "Value": "1e3f76f6-36fc-4f74-abf1-0a816fb02c20"
        },
        {
          "SchemaColumnUId": "087f5050-1d50-4639-905e-b75eea498ff8",
          "Value": "13ae634b-f821-47d1-927a-6075d6738dd4"
        },
        {
          "SchemaColumnUId": "9ed7e3f6-ce67-41fb-8dcc-16c9c5e4d08f",
          "Value": ""
        },
        {
          "SchemaColumnUId": "b03360a8-d50e-4cb0-a1d7-6d46d0b31bff",
          "Value": "3a686873-ffaa-48f7-b1df-e3c8e0190517",
          "DisplayValue": "SMConsultedASUs"
        }
      ]
    },
    {
      "Row": [
        {
          "SchemaColumnUId": "ae0e45ca-c495-4fe7-a39d-3ab7278e1617",
          "Value": "1fadf94b-6bb6-4e62-8f2f-4ec6f48f9de5"
        },
        {
          "SchemaColumnUId": "087f5050-1d50-4639-905e-b75eea498ff8",
          "Value": "32b98fe4-7cb5-4e3b-bd3e-78f3abbfe7b4"
        },
        {
          "SchemaColumnUId": "9ed7e3f6-ce67-41fb-8dcc-16c9c5e4d08f",
          "Value": ""
        },
        {
          "SchemaColumnUId": "b03360a8-d50e-4cb0-a1d7-6d46d0b31bff",
          "Value": "4f12d853-5362-4132-bc40-4ba02d283b79",
          "DisplayValue": "SMNewConsultedFaculties"
        }
      ]
    },
    {
      "Row": [
        {
          "SchemaColumnUId": "ae0e45ca-c495-4fe7-a39d-3ab7278e1617",
          "Value": "213634c7-5159-4d9a-9cef-89b685ce7293"
        },
        {
          "SchemaColumnUId": "087f5050-1d50-4639-905e-b75eea498ff8",
          "Value": "3cc987a9-3018-44d3-929f-b5ff5df2e114"
        },
        {
          "SchemaColumnUId": "9ed7e3f6-ce67-41fb-8dcc-16c9c5e4d08f",
          "Value": "WatFacultyDepartmentId"
        },
        {
          "SchemaColumnUId": "b03360a8-d50e-4cb0-a1d7-6d46d0b31bff",
          "Value": "aed97a32-06a9-4952-8c9e-7344c4da8dcb",
          "DisplayValue": "WatAgreementStakeholders"
        }
      ]
    },
    {
      "Row": [
        {
          "SchemaColumnUId": "ae0e45ca-c495-4fe7-a39d-3ab7278e1617",
          "Value": "22f27bcb-154b-48d7-abf9-f275353bb6dd"
        },
        {
          "SchemaColumnUId": "087f5050-1d50-4639-905e-b75eea498ff8",
          "Value": "5f0bb309-8f6a-4482-83cf-6d0de427d323"
        },
        {
          "SchemaColumnUId": "9ed7e3f6-ce67-41fb-8dcc-16c9c5e4d08f",
          "Value": ""
        },
        {
          "SchemaColumnUId": "b03360a8-d50e-4cb0-a1d7-6d46d0b31bff",
          "Value": "3a686873-ffaa-48f7-b1df-e3c8e0190517",
          "DisplayValue": "SMConsultedASUs"
        }
      ]
    },
    {
      "Row": [
        {
          "SchemaColumnUId": "ae0e45ca-c495-4fe7-a39d-3ab7278e1617",
          "Value": "244a89bd-fade-4a4f-b913-335d1091ee38"
        },
        {
          "SchemaColumnUId": "087f5050-1d50-4639-905e-b75eea498ff8",
          "Value": "4d3252a1-6eb2-43c2-80ea-e08efd199caa"
        },
        {
          "SchemaColumnUId": "9ed7e3f6-ce67-41fb-8dcc-16c9c5e4d08f",
          "Value": "WatName"
        },
        {
          "SchemaColumnUId": "b03360a8-d50e-4cb0-a1d7-6d46d0b31bff",
          "Value": "aed97a32-06a9-4952-8c9e-7344c4da8dcb",
          "DisplayValue": "WatAgreementStakeholders"
        }
      ]
    },
    {
      "Row": [
        {
          "SchemaColumnUId": "ae0e45ca-c495-4fe7-a39d-3ab7278e1617",
          "Value": "27897551-108a-4e45-9727-96ed19dd521a"
        },
        {
          "SchemaColumnUId": "087f5050-1d50-4639-905e-b75eea498ff8",
          "Value": "ae0e45ca-c495-4fe7-a39d-3ab7278e1617"
        },
        {
          "SchemaColumnUId": "9ed7e3f6-ce67-41fb-8dcc-16c9c5e4d08f",
          "Value": ""
        },
        {
          "SchemaColumnUId": "b03360a8-d50e-4cb0-a1d7-6d46d0b31bff",
          "Value": "3a686873-ffaa-48f7-b1df-e3c8e0190517",
          "DisplayValue": "SMConsultedASUs"
        }
      ]
    },
    {
      "Row": [
        {
          "SchemaColumnUId": "ae0e45ca-c495-4fe7-a39d-3ab7278e1617",
          "Value": "28ec21d0-b30f-4166-a877-52b721c50482"
        },
        {
          "SchemaColumnUId": "087f5050-1d50-4639-905e-b75eea498ff8",
          "Value": "8bfdde25-a6bc-4f8e-b2e6-95ea0cef3f5c"
        },
        {
          "SchemaColumnUId": "9ed7e3f6-ce67-41fb-8dcc-16c9c5e4d08f",
          "Value": "WatApprovedId"
        },
        {
          "SchemaColumnUId": "b03360a8-d50e-4cb0-a1d7-6d46d0b31bff",
          "Value": "aed97a32-06a9-4952-8c9e-7344c4da8dcb",
          "DisplayValue": "WatAgreementStakeholders"
        }
      ]
    },
    {
      "Row": [
        {
          "SchemaColumnUId": "ae0e45ca-c495-4fe7-a39d-3ab7278e1617",
          "Value": "2917c170-a6e3-4cce-ba8d-f8a569d4db14"
        },
        {
          "SchemaColumnUId": "087f5050-1d50-4639-905e-b75eea498ff8",
          "Value": "8c4488c0-62bb-466f-beba-361eda133af9"
        },
        {
          "SchemaColumnUId": "9ed7e3f6-ce67-41fb-8dcc-16c9c5e4d08f",
          "Value": ""
        },
        {
          "SchemaColumnUId": "b03360a8-d50e-4cb0-a1d7-6d46d0b31bff",
          "Value": "514dc59b-d7d9-4c2b-9346-5c48c0ea252c",
          "DisplayValue": "WatAgreement"
        }
      ]
    },
    {
      "Row": [
        {
          "SchemaColumnUId": "ae0e45ca-c495-4fe7-a39d-3ab7278e1617",
          "Value": "2a28742e-dd8f-4305-83d4-64ee5982136a"
        },
        {
          "SchemaColumnUId": "087f5050-1d50-4639-905e-b75eea498ff8",
          "Value": "3015559e-cbc6-406a-88af-07f7930be832"
        },
        {
          "SchemaColumnUId": "9ed7e3f6-ce67-41fb-8dcc-16c9c5e4d08f",
          "Value": ""
        },
        {
          "SchemaColumnUId": "b03360a8-d50e-4cb0-a1d7-6d46d0b31bff",
          "Value": "514dc59b-d7d9-4c2b-9346-5c48c0ea252c",
          "DisplayValue": "WatAgreement"
        }
      ]
    },
    {
      "Row": [
        {
          "SchemaColumnUId": "ae0e45ca-c495-4fe7-a39d-3ab7278e1617",
          "Value": "2aeac57e-5f97-4b02-a3e0-eb8df84a9878"
        },
        {
          "SchemaColumnUId": "087f5050-1d50-4639-905e-b75eea498ff8",
          "Value": "874e2f6b-dc20-44b9-8953-c94efb8a2c6b"
        },
        {
          "SchemaColumnUId": "9ed7e3f6-ce67-41fb-8dcc-16c9c5e4d08f",
          "Value": "WatAgreementSigned"
        },
        {
          "SchemaColumnUId": "b03360a8-d50e-4cb0-a1d7-6d46d0b31bff",
          "Value": "514dc59b-d7d9-4c2b-9346-5c48c0ea252c",
          "DisplayValue": "WatAgreement"
        }
      ]
    },
    {
      "Row": [
        {
          "SchemaColumnUId": "ae0e45ca-c495-4fe7-a39d-3ab7278e1617",
          "Value": "2bb76b08-162b-4cc3-a27b-13dc4424fec5"
        },
        {
          "SchemaColumnUId": "087f5050-1d50-4639-905e-b75eea498ff8",
          "Value": "c1b1dd32-d3fe-4a0f-a524-908ac85d82de"
        },
        {
          "SchemaColumnUId": "9ed7e3f6-ce67-41fb-8dcc-16c9c5e4d08f",
          "Value": "WatActualAgreementEndDate"
        },
        {
          "SchemaColumnUId": "b03360a8-d50e-4cb0-a1d7-6d46d0b31bff",
          "Value": "514dc59b-d7d9-4c2b-9346-5c48c0ea252c",
          "DisplayValue": "WatAgreement"
        }
      ]
    },
    {
      "Row": [
        {
          "SchemaColumnUId": "ae0e45ca-c495-4fe7-a39d-3ab7278e1617",
          "Value": "2cc03a81-5b8f-446b-8797-100c7c211255"
        },
        {
          "SchemaColumnUId": "087f5050-1d50-4639-905e-b75eea498ff8",
          "Value": "39cb1d71-8341-c6f9-dfaf-e3c8ab656b50"
        },
        {
          "SchemaColumnUId": "9ed7e3f6-ce67-41fb-8dcc-16c9c5e4d08f",
          "Value": ""
        },
        {
          "SchemaColumnUId": "b03360a8-d50e-4cb0-a1d7-6d46d0b31bff",
          "Value": "4f12d853-5362-4132-bc40-4ba02d283b79",
          "DisplayValue": "SMNewConsultedFaculties"
        }
      ]
    },
    {
      "Row": [
        {
          "SchemaColumnUId": "ae0e45ca-c495-4fe7-a39d-3ab7278e1617",
          "Value": "2f57d471-b6cd-431d-9eb7-2bd37fe22720"
        },
        {
          "SchemaColumnUId": "087f5050-1d50-4639-905e-b75eea498ff8",
          "Value": "736c30a7-c0ec-4fa9-b034-2552b319b633"
        },
        {
          "SchemaColumnUId": "9ed7e3f6-ce67-41fb-8dcc-16c9c5e4d08f",
          "Value": "Name"
        },
        {
          "SchemaColumnUId": "b03360a8-d50e-4cb0-a1d7-6d46d0b31bff",
          "Value": "622df785-de20-406b-b55c-6583c5196ae3",
          "DisplayValue": "WatRequestType"
        }
      ]
    },
    {
      "Row": [
        {
          "SchemaColumnUId": "ae0e45ca-c495-4fe7-a39d-3ab7278e1617",
          "Value": "32a56f0b-511a-42a9-94cb-b11aa6c2f34f"
        },
        {
          "SchemaColumnUId": "087f5050-1d50-4639-905e-b75eea498ff8",
          "Value": "54cc479a-c06b-4974-8c1f-9efc072f7086"
        },
        {
          "SchemaColumnUId": "9ed7e3f6-ce67-41fb-8dcc-16c9c5e4d08f",
          "Value": "WatLeadUnitDepartmentId"
        },
        {
          "SchemaColumnUId": "b03360a8-d50e-4cb0-a1d7-6d46d0b31bff",
          "Value": "514dc59b-d7d9-4c2b-9346-5c48c0ea252c",
          "DisplayValue": "WatAgreement"
        }
      ]
    },
    {
      "Row": [
        {
          "SchemaColumnUId": "ae0e45ca-c495-4fe7-a39d-3ab7278e1617",
          "Value": "3777a964-809c-4688-8f9f-69d95f6ef0b0"
        },
        {
          "SchemaColumnUId": "087f5050-1d50-4639-905e-b75eea498ff8",
          "Value": "6630cb32-5dfb-4d01-9761-6a379561b621"
        },
        {
          "SchemaColumnUId": "9ed7e3f6-ce67-41fb-8dcc-16c9c5e4d08f",
          "Value": "WatAgreementId"
        },
        {
          "SchemaColumnUId": "b03360a8-d50e-4cb0-a1d7-6d46d0b31bff",
          "Value": "aad13166-2f7d-4648-a4a5-21d5380c3160",
          "DisplayValue": "WatAgreementVisa"
        }
      ]
    },
    {
      "Row": [
        {
          "SchemaColumnUId": "ae0e45ca-c495-4fe7-a39d-3ab7278e1617",
          "Value": "382a6859-e08e-433e-883c-1efb6f7e6b5c"
        },
        {
          "SchemaColumnUId": "087f5050-1d50-4639-905e-b75eea498ff8",
          "Value": "9ff9e0a2-bc74-403c-85af-3889f6699bc8"
        },
        {
          "SchemaColumnUId": "9ed7e3f6-ce67-41fb-8dcc-16c9c5e4d08f",
          "Value": "WatSysFieldFinalizationTasksComplete"
        },
        {
          "SchemaColumnUId": "b03360a8-d50e-4cb0-a1d7-6d46d0b31bff",
          "Value": "514dc59b-d7d9-4c2b-9346-5c48c0ea252c",
          "DisplayValue": "WatAgreement"
        }
      ]
    },
    {
      "Row": [
        {
          "SchemaColumnUId": "ae0e45ca-c495-4fe7-a39d-3ab7278e1617",
          "Value": "38c7eca3-9f8f-4cd6-a8a7-0d9557546955"
        },
        {
          "SchemaColumnUId": "087f5050-1d50-4639-905e-b75eea498ff8",
          "Value": "e80190a5-03b2-4095-90f7-a193a960adee"
        },
        {
          "SchemaColumnUId": "9ed7e3f6-ce67-41fb-8dcc-16c9c5e4d08f",
          "Value": ""
        },
        {
          "SchemaColumnUId": "b03360a8-d50e-4cb0-a1d7-6d46d0b31bff",
          "Value": "3a686873-ffaa-48f7-b1df-e3c8e0190517",
          "DisplayValue": "SMConsultedASUs"
        }
      ]
    },
    {
      "Row": [
        {
          "SchemaColumnUId": "ae0e45ca-c495-4fe7-a39d-3ab7278e1617",
          "Value": "3a771961-c7af-4388-a597-5d7c3c2700ea"
        },
        {
          "SchemaColumnUId": "087f5050-1d50-4639-905e-b75eea498ff8",
          "Value": "1d0c8b9f-a690-424c-bbb1-bf576dbfec4e"
        },
        {
          "SchemaColumnUId": "9ed7e3f6-ce67-41fb-8dcc-16c9c5e4d08f",
          "Value": "WatRenewalTerms"
        },
        {
          "SchemaColumnUId": "b03360a8-d50e-4cb0-a1d7-6d46d0b31bff",
          "Value": "514dc59b-d7d9-4c2b-9346-5c48c0ea252c",
          "DisplayValue": "WatAgreement"
        }
      ]
    },
    {
      "Row": [
        {
          "SchemaColumnUId": "ae0e45ca-c495-4fe7-a39d-3ab7278e1617",
          "Value": "3d8ef9d5-7f1b-4ce8-893f-c29e57558128"
        },
        {
          "SchemaColumnUId": "087f5050-1d50-4639-905e-b75eea498ff8",
          "Value": "eef48cbe-3900-0dfd-7444-edfa6d9db4f6"
        },
        {
          "SchemaColumnUId": "9ed7e3f6-ce67-41fb-8dcc-16c9c5e4d08f",
          "Value": ""
        },
        {
          "SchemaColumnUId": "b03360a8-d50e-4cb0-a1d7-6d46d0b31bff",
          "Value": "3a686873-ffaa-48f7-b1df-e3c8e0190517",
          "DisplayValue": "SMConsultedASUs"
        }
      ]
    },
    {
      "Row": [
        {
          "SchemaColumnUId": "ae0e45ca-c495-4fe7-a39d-3ab7278e1617",
          "Value": "3e61b6b5-20c8-48dd-b106-27ecd6bfed27"
        },
        {
          "SchemaColumnUId": "087f5050-1d50-4639-905e-b75eea498ff8",
          "Value": "736c30a7-c0ec-4fa9-b034-2552b319b633"
        },
        {
          "SchemaColumnUId": "9ed7e3f6-ce67-41fb-8dcc-16c9c5e4d08f",
          "Value": "Name"
        },
        {
          "SchemaColumnUId": "b03360a8-d50e-4cb0-a1d7-6d46d0b31bff",
          "Value": "f0837f19-4f5a-4f07-9d0a-d236ae7b7950",
          "DisplayValue": "WatAcademicLevels"
        }
      ]
    },
    {
      "Row": [
        {
          "SchemaColumnUId": "ae0e45ca-c495-4fe7-a39d-3ab7278e1617",
          "Value": "437c3275-ce94-439e-a70f-dccaa50bcdbb"
        },
        {
          "SchemaColumnUId": "087f5050-1d50-4639-905e-b75eea498ff8",
          "Value": "8a7aa739-d5b0-4f5f-9449-feabe82507a5"
        },
        {
          "SchemaColumnUId": "9ed7e3f6-ce67-41fb-8dcc-16c9c5e4d08f",
          "Value": ""
        },
        {
          "SchemaColumnUId": "b03360a8-d50e-4cb0-a1d7-6d46d0b31bff",
          "Value": "3a686873-ffaa-48f7-b1df-e3c8e0190517",
          "DisplayValue": "SMConsultedASUs"
        }
      ]
    },
    {
      "Row": [
        {
          "SchemaColumnUId": "ae0e45ca-c495-4fe7-a39d-3ab7278e1617",
          "Value": "45248f54-e6fc-4a9f-b6ed-df5fffc46c6c"
        },
        {
          "SchemaColumnUId": "087f5050-1d50-4639-905e-b75eea498ff8",
          "Value": "ecb53db0-e440-4ccd-85a4-b666bdcc86aa"
        },
        {
          "SchemaColumnUId": "9ed7e3f6-ce67-41fb-8dcc-16c9c5e4d08f",
          "Value": "WatFacultyDepartmentId"
        },
        {
          "SchemaColumnUId": "b03360a8-d50e-4cb0-a1d7-6d46d0b31bff",
          "Value": "a272903d-3a21-4802-99d3-2d0b918fa73d",
          "DisplayValue": "WatFaculty"
        }
      ]
    },
    {
      "Row": [
        {
          "SchemaColumnUId": "ae0e45ca-c495-4fe7-a39d-3ab7278e1617",
          "Value": "45f71f5a-7611-42bc-ba3e-02c2a0a0cb69"
        },
        {
          "SchemaColumnUId": "087f5050-1d50-4639-905e-b75eea498ff8",
          "Value": "8212aa0f-6842-4e27-a10c-7277f7b6af3d"
        },
        {
          "SchemaColumnUId": "9ed7e3f6-ce67-41fb-8dcc-16c9c5e4d08f",
          "Value": "WatTermEndDate"
        },
        {
          "SchemaColumnUId": "b03360a8-d50e-4cb0-a1d7-6d46d0b31bff",
          "Value": "514dc59b-d7d9-4c2b-9346-5c48c0ea252c",
          "DisplayValue": "WatAgreement"
        }
      ]
    },
    {
      "Row": [
        {
          "SchemaColumnUId": "ae0e45ca-c495-4fe7-a39d-3ab7278e1617",
          "Value": "46ca3029-473d-4a52-b7de-fe4bd296abef"
        },
        {
          "SchemaColumnUId": "087f5050-1d50-4639-905e-b75eea498ff8",
          "Value": "732106ff-c889-4407-9bc0-7c0c7094b269"
        },
        {
          "SchemaColumnUId": "9ed7e3f6-ce67-41fb-8dcc-16c9c5e4d08f",
          "Value": "WatFundingArrangements"
        },
        {
          "SchemaColumnUId": "b03360a8-d50e-4cb0-a1d7-6d46d0b31bff",
          "Value": "514dc59b-d7d9-4c2b-9346-5c48c0ea252c",
          "DisplayValue": "WatAgreement"
        }
      ]
    },
    {
      "Row": [
        {
          "SchemaColumnUId": "ae0e45ca-c495-4fe7-a39d-3ab7278e1617",
          "Value": "4709e03b-c114-49c7-ad53-7f3825d0433b"
        },
        {
          "SchemaColumnUId": "087f5050-1d50-4639-905e-b75eea498ff8",
          "Value": "b1e45089-6fda-b236-c8c6-cfb114ccd42c"
        },
        {
          "SchemaColumnUId": "9ed7e3f6-ce67-41fb-8dcc-16c9c5e4d08f",
          "Value": ""
        },
        {
          "SchemaColumnUId": "b03360a8-d50e-4cb0-a1d7-6d46d0b31bff",
          "Value": "4f12d853-5362-4132-bc40-4ba02d283b79",
          "DisplayValue": "SMNewConsultedFaculties"
        }
      ]
    },
    {
      "Row": [
        {
          "SchemaColumnUId": "ae0e45ca-c495-4fe7-a39d-3ab7278e1617",
          "Value": "4becf4ad-121a-485f-888c-03447d844560"
        },
        {
          "SchemaColumnUId": "087f5050-1d50-4639-905e-b75eea498ff8",
          "Value": "7d4534be-4800-4793-b848-6771da492076"
        },
        {
          "SchemaColumnUId": "9ed7e3f6-ce67-41fb-8dcc-16c9c5e4d08f",
          "Value": "IsAllowedToDelegate"
        },
        {
          "SchemaColumnUId": "b03360a8-d50e-4cb0-a1d7-6d46d0b31bff",
          "Value": "aad13166-2f7d-4648-a4a5-21d5380c3160",
          "DisplayValue": "WatAgreementVisa"
        }
      ]
    },
    {
      "Row": [
        {
          "SchemaColumnUId": "ae0e45ca-c495-4fe7-a39d-3ab7278e1617",
          "Value": "4f9a9b8e-a709-4af8-a76c-ad6525f558a6"
        },
        {
          "SchemaColumnUId": "087f5050-1d50-4639-905e-b75eea498ff8",
          "Value": "3110bcf2-10f0-4c94-b734-7b61333d4294"
        },
        {
          "SchemaColumnUId": "9ed7e3f6-ce67-41fb-8dcc-16c9c5e4d08f",
          "Value": ""
        },
        {
          "SchemaColumnUId": "b03360a8-d50e-4cb0-a1d7-6d46d0b31bff",
          "Value": "514dc59b-d7d9-4c2b-9346-5c48c0ea252c",
          "DisplayValue": "WatAgreement"
        }
      ]
    },
    {
      "Row": [
        {
          "SchemaColumnUId": "ae0e45ca-c495-4fe7-a39d-3ab7278e1617",
          "Value": "5135ae97-e442-41c2-9596-244e02b94256"
        },
        {
          "SchemaColumnUId": "087f5050-1d50-4639-905e-b75eea498ff8",
          "Value": "58ebe36e-7384-4abd-b09c-407c6f508a4d"
        },
        {
          "SchemaColumnUId": "9ed7e3f6-ce67-41fb-8dcc-16c9c5e4d08f",
          "Value": "StatusId"
        },
        {
          "SchemaColumnUId": "b03360a8-d50e-4cb0-a1d7-6d46d0b31bff",
          "Value": "aad13166-2f7d-4648-a4a5-21d5380c3160",
          "DisplayValue": "WatAgreementVisa"
        }
      ]
    },
    {
      "Row": [
        {
          "SchemaColumnUId": "ae0e45ca-c495-4fe7-a39d-3ab7278e1617",
          "Value": "55a057ca-0247-49c1-a88f-f39b437cc286"
        },
        {
          "SchemaColumnUId": "087f5050-1d50-4639-905e-b75eea498ff8",
          "Value": "a2e89eb4-dd01-5c81-1cdc-f83432d2bfae"
        },
        {
          "SchemaColumnUId": "9ed7e3f6-ce67-41fb-8dcc-16c9c5e4d08f",
          "Value": ""
        },
        {
          "SchemaColumnUId": "b03360a8-d50e-4cb0-a1d7-6d46d0b31bff",
          "Value": "4f12d853-5362-4132-bc40-4ba02d283b79",
          "DisplayValue": "SMNewConsultedFaculties"
        }
      ]
    },
    {
      "Row": [
        {
          "SchemaColumnUId": "ae0e45ca-c495-4fe7-a39d-3ab7278e1617",
          "Value": "571a5122-9989-44d0-9b2b-97000d4e7d01"
        },
        {
          "SchemaColumnUId": "087f5050-1d50-4639-905e-b75eea498ff8",
          "Value": "1e6fcaf1-3eef-559c-6a76-b94b8903d94e"
        },
        {
          "SchemaColumnUId": "9ed7e3f6-ce67-41fb-8dcc-16c9c5e4d08f",
          "Value": "SMQuestionsId"
        },
        {
          "SchemaColumnUId": "b03360a8-d50e-4cb0-a1d7-6d46d0b31bff",
          "Value": "87db805b-017f-472f-b167-0c82a6c6be35",
          "DisplayValue": "SMQuestionRequestConnetion"
        }
      ]
    },
    {
      "Row": [
        {
          "SchemaColumnUId": "ae0e45ca-c495-4fe7-a39d-3ab7278e1617",
          "Value": "58fb1f50-c931-4232-a0fd-f3f0031787f1"
        },
        {
          "SchemaColumnUId": "087f5050-1d50-4639-905e-b75eea498ff8",
          "Value": "86738581-b9df-437d-8251-4d650b984aaa"
        },
        {
          "SchemaColumnUId": "9ed7e3f6-ce67-41fb-8dcc-16c9c5e4d08f",
          "Value": ""
        },
        {
          "SchemaColumnUId": "b03360a8-d50e-4cb0-a1d7-6d46d0b31bff",
          "Value": "3a686873-ffaa-48f7-b1df-e3c8e0190517",
          "DisplayValue": "SMConsultedASUs"
        }
      ]
    },
    {
      "Row": [
        {
          "SchemaColumnUId": "ae0e45ca-c495-4fe7-a39d-3ab7278e1617",
          "Value": "5c6961f9-2871-4346-b9f6-e07b40c420f7"
        },
        {
          "SchemaColumnUId": "087f5050-1d50-4639-905e-b75eea498ff8",
          "Value": "ed21b9bc-bf0c-4afe-b0d7-220111647a1f"
        },
        {
          "SchemaColumnUId": "9ed7e3f6-ce67-41fb-8dcc-16c9c5e4d08f",
          "Value": ""
        },
        {
          "SchemaColumnUId": "b03360a8-d50e-4cb0-a1d7-6d46d0b31bff",
          "Value": "4f12d853-5362-4132-bc40-4ba02d283b79",
          "DisplayValue": "SMNewConsultedFaculties"
        }
      ]
    },
    {
      "Row": [
        {
          "SchemaColumnUId": "ae0e45ca-c495-4fe7-a39d-3ab7278e1617",
          "Value": "5de9650e-7b3b-48b4-891f-096dd3b73b6a"
        },
        {
          "SchemaColumnUId": "087f5050-1d50-4639-905e-b75eea498ff8",
          "Value": "2ea05182-7c0f-4a83-a1d7-fade155020b6"
        },
        {
          "SchemaColumnUId": "9ed7e3f6-ce67-41fb-8dcc-16c9c5e4d08f",
          "Value": ""
        },
        {
          "SchemaColumnUId": "b03360a8-d50e-4cb0-a1d7-6d46d0b31bff",
          "Value": "4f12d853-5362-4132-bc40-4ba02d283b79",
          "DisplayValue": "SMNewConsultedFaculties"
        }
      ]
    },
    {
      "Row": [
        {
          "SchemaColumnUId": "ae0e45ca-c495-4fe7-a39d-3ab7278e1617",
          "Value": "5f0e0d33-d8dc-45d9-9738-e07726fbfec5"
        },
        {
          "SchemaColumnUId": "087f5050-1d50-4639-905e-b75eea498ff8",
          "Value": "ae0e45ca-c495-4fe7-a39d-3ab7278e1617"
        },
        {
          "SchemaColumnUId": "9ed7e3f6-ce67-41fb-8dcc-16c9c5e4d08f",
          "Value": ""
        },
        {
          "SchemaColumnUId": "b03360a8-d50e-4cb0-a1d7-6d46d0b31bff",
          "Value": "4f12d853-5362-4132-bc40-4ba02d283b79",
          "DisplayValue": "SMNewConsultedFaculties"
        }
      ]
    },
    {
      "Row": [
        {
          "SchemaColumnUId": "ae0e45ca-c495-4fe7-a39d-3ab7278e1617",
          "Value": "61cd0016-f86e-4fed-b837-ed6e87dcbac2"
        },
        {
          "SchemaColumnUId": "087f5050-1d50-4639-905e-b75eea498ff8",
          "Value": "73e708bd-8782-494a-b000-f780daae127e"
        },
        {
          "SchemaColumnUId": "9ed7e3f6-ce67-41fb-8dcc-16c9c5e4d08f",
          "Value": ""
        },
        {
          "SchemaColumnUId": "b03360a8-d50e-4cb0-a1d7-6d46d0b31bff",
          "Value": "4f12d853-5362-4132-bc40-4ba02d283b79",
          "DisplayValue": "SMNewConsultedFaculties"
        }
      ]
    },
    {
      "Row": [
        {
          "SchemaColumnUId": "ae0e45ca-c495-4fe7-a39d-3ab7278e1617",
          "Value": "6211073e-a475-434c-b49e-6f4408dd1b3d"
        },
        {
          "SchemaColumnUId": "087f5050-1d50-4639-905e-b75eea498ff8",
          "Value": "2ef79775-0be6-4561-b9c7-4f4adb46eff2"
        },
        {
          "SchemaColumnUId": "9ed7e3f6-ce67-41fb-8dcc-16c9c5e4d08f",
          "Value": "WatEFASELASId"
        },
        {
          "SchemaColumnUId": "b03360a8-d50e-4cb0-a1d7-6d46d0b31bff",
          "Value": "514dc59b-d7d9-4c2b-9346-5c48c0ea252c",
          "DisplayValue": "WatAgreement"
        }
      ]
    },
    {
      "Row": [
        {
          "SchemaColumnUId": "ae0e45ca-c495-4fe7-a39d-3ab7278e1617",
          "Value": "63f40232-cd77-4068-9ed2-dce7a63e1f92"
        },
        {
          "SchemaColumnUId": "087f5050-1d50-4639-905e-b75eea498ff8",
          "Value": "ae0e45ca-c495-4fe7-a39d-3ab7278e1617"
        },
        {
          "SchemaColumnUId": "9ed7e3f6-ce67-41fb-8dcc-16c9c5e4d08f",
          "Value": ""
        },
        {
          "SchemaColumnUId": "b03360a8-d50e-4cb0-a1d7-6d46d0b31bff",
          "Value": "514dc59b-d7d9-4c2b-9346-5c48c0ea252c",
          "DisplayValue": "WatAgreement"
        }
      ]
    },
    {
      "Row": [
        {
          "SchemaColumnUId": "ae0e45ca-c495-4fe7-a39d-3ab7278e1617",
          "Value": "660bae1d-0a7e-44e4-a409-75268f7312c8"
        },
        {
          "SchemaColumnUId": "087f5050-1d50-4639-905e-b75eea498ff8",
          "Value": "736c30a7-c0ec-4fa9-b034-2552b319b633"
        },
        {
          "SchemaColumnUId": "9ed7e3f6-ce67-41fb-8dcc-16c9c5e4d08f",
          "Value": "Name"
        },
        {
          "SchemaColumnUId": "b03360a8-d50e-4cb0-a1d7-6d46d0b31bff",
          "Value": "e3e06dac-8375-42f1-996e-66fb53650524",
          "DisplayValue": "WatFacultyDepartment"
        }
      ]
    },
    {
      "Row": [
        {
          "SchemaColumnUId": "ae0e45ca-c495-4fe7-a39d-3ab7278e1617",
          "Value": "665ed0a3-9b1d-45cf-8b8d-d43de3d112f7"
        },
        {
          "SchemaColumnUId": "087f5050-1d50-4639-905e-b75eea498ff8",
          "Value": "6cc036a1-8ac8-458f-81f6-76964a85ee9b"
        },
        {
          "SchemaColumnUId": "9ed7e3f6-ce67-41fb-8dcc-16c9c5e4d08f",
          "Value": ""
        },
        {
          "SchemaColumnUId": "b03360a8-d50e-4cb0-a1d7-6d46d0b31bff",
          "Value": "3a686873-ffaa-48f7-b1df-e3c8e0190517",
          "DisplayValue": "SMConsultedASUs"
        }
      ]
    },
    {
      "Row": [
        {
          "SchemaColumnUId": "ae0e45ca-c495-4fe7-a39d-3ab7278e1617",
          "Value": "69092d3d-13da-4064-ab40-3a381a2a4d68"
        },
        {
          "SchemaColumnUId": "087f5050-1d50-4639-905e-b75eea498ff8",
          "Value": "650e4acd-fcf2-4706-849c-833980f557cd"
        },
        {
          "SchemaColumnUId": "9ed7e3f6-ce67-41fb-8dcc-16c9c5e4d08f",
          "Value": "WatStageChangeDate"
        },
        {
          "SchemaColumnUId": "b03360a8-d50e-4cb0-a1d7-6d46d0b31bff",
          "Value": "514dc59b-d7d9-4c2b-9346-5c48c0ea252c",
          "DisplayValue": "WatAgreement"
        }
      ]
    },
    {
      "Row": [
        {
          "SchemaColumnUId": "ae0e45ca-c495-4fe7-a39d-3ab7278e1617",
          "Value": "6a59f579-53dd-4c9a-a6af-89d86ffe7023"
        },
        {
          "SchemaColumnUId": "087f5050-1d50-4639-905e-b75eea498ff8",
          "Value": "920ffa33-b0b0-4527-b778-45e2ce663e51"
        },
        {
          "SchemaColumnUId": "9ed7e3f6-ce67-41fb-8dcc-16c9c5e4d08f",
          "Value": "WatAgreementId"
        },
        {
          "SchemaColumnUId": "b03360a8-d50e-4cb0-a1d7-6d46d0b31bff",
          "Value": "aed97a32-06a9-4952-8c9e-7344c4da8dcb",
          "DisplayValue": "WatAgreementStakeholders"
        }
      ]
    },
    {
      "Row": [
        {
          "SchemaColumnUId": "ae0e45ca-c495-4fe7-a39d-3ab7278e1617",
          "Value": "6c020ca8-188c-480f-9415-1fc4b15d912c"
        },
        {
          "SchemaColumnUId": "087f5050-1d50-4639-905e-b75eea498ff8",
          "Value": "3895b751-42bc-49de-865f-4368d357adb7"
        },
        {
          "SchemaColumnUId": "9ed7e3f6-ce67-41fb-8dcc-16c9c5e4d08f",
          "Value": "WatTermDuration"
        },
        {
          "SchemaColumnUId": "b03360a8-d50e-4cb0-a1d7-6d46d0b31bff",
          "Value": "514dc59b-d7d9-4c2b-9346-5c48c0ea252c",
          "DisplayValue": "WatAgreement"
        }
      ]
    },
    {
      "Row": [
        {
          "SchemaColumnUId": "ae0e45ca-c495-4fe7-a39d-3ab7278e1617",
          "Value": "72c9c2b6-e659-4dcd-8d3d-bcf173191a0f"
        },
        {
          "SchemaColumnUId": "087f5050-1d50-4639-905e-b75eea498ff8",
          "Value": "200ca217-5b3d-47e0-bb99-b4349fa8a387"
        },
        {
          "SchemaColumnUId": "9ed7e3f6-ce67-41fb-8dcc-16c9c5e4d08f",
          "Value": "WatEOLTreatmentId"
        },
        {
          "SchemaColumnUId": "b03360a8-d50e-4cb0-a1d7-6d46d0b31bff",
          "Value": "514dc59b-d7d9-4c2b-9346-5c48c0ea252c",
          "DisplayValue": "WatAgreement"
        }
      ]
    },
    {
      "Row": [
        {
          "SchemaColumnUId": "ae0e45ca-c495-4fe7-a39d-3ab7278e1617",
          "Value": "78230996-eaf7-4003-a987-c6307546b703"
        },
        {
          "SchemaColumnUId": "087f5050-1d50-4639-905e-b75eea498ff8",
          "Value": "a09ab4f4-9008-44ad-9dcc-af3e759290e9"
        },
        {
          "SchemaColumnUId": "9ed7e3f6-ce67-41fb-8dcc-16c9c5e4d08f",
          "Value": ""
        },
        {
          "SchemaColumnUId": "b03360a8-d50e-4cb0-a1d7-6d46d0b31bff",
          "Value": "3a686873-ffaa-48f7-b1df-e3c8e0190517",
          "DisplayValue": "SMConsultedASUs"
        }
      ]
    },
    {
      "Row": [
        {
          "SchemaColumnUId": "ae0e45ca-c495-4fe7-a39d-3ab7278e1617",
          "Value": "79892f1c-5f9d-44b2-9885-092ee40d2197"
        },
        {
          "SchemaColumnUId": "087f5050-1d50-4639-905e-b75eea498ff8",
          "Value": "c282c824-7aa1-44b4-b8f0-dca0fe3d8b4b"
        },
        {
          "SchemaColumnUId": "9ed7e3f6-ce67-41fb-8dcc-16c9c5e4d08f",
          "Value": "Objective"
        },
        {
          "SchemaColumnUId": "b03360a8-d50e-4cb0-a1d7-6d46d0b31bff",
          "Value": "aad13166-2f7d-4648-a4a5-21d5380c3160",
          "DisplayValue": "WatAgreementVisa"
        }
      ]
    },
    {
      "Row": [
        {
          "SchemaColumnUId": "ae0e45ca-c495-4fe7-a39d-3ab7278e1617",
          "Value": "7a231843-1b04-40bd-8556-500b0bd283d6"
        },
        {
          "SchemaColumnUId": "087f5050-1d50-4639-905e-b75eea498ff8",
          "Value": "58492143-2002-4f6d-9c8e-b8e9415c5e49"
        },
        {
          "SchemaColumnUId": "9ed7e3f6-ce67-41fb-8dcc-16c9c5e4d08f",
          "Value": ""
        },
        {
          "SchemaColumnUId": "b03360a8-d50e-4cb0-a1d7-6d46d0b31bff",
          "Value": "4f12d853-5362-4132-bc40-4ba02d283b79",
          "DisplayValue": "SMNewConsultedFaculties"
        }
      ]
    },
    {
      "Row": [
        {
          "SchemaColumnUId": "ae0e45ca-c495-4fe7-a39d-3ab7278e1617",
          "Value": "7b8c5edc-ca8d-4f36-8184-4bf03c84b4e3"
        },
        {
          "SchemaColumnUId": "087f5050-1d50-4639-905e-b75eea498ff8",
          "Value": "f7e43967-c270-4e75-846a-9325d743ef21"
        },
        {
          "SchemaColumnUId": "9ed7e3f6-ce67-41fb-8dcc-16c9c5e4d08f",
          "Value": "WatLastReachedStageId"
        },
        {
          "SchemaColumnUId": "b03360a8-d50e-4cb0-a1d7-6d46d0b31bff",
          "Value": "514dc59b-d7d9-4c2b-9346-5c48c0ea252c",
          "DisplayValue": "WatAgreement"
        }
      ]
    },
    {
      "Row": [
        {
          "SchemaColumnUId": "ae0e45ca-c495-4fe7-a39d-3ab7278e1617",
          "Value": "7bab7677-ade4-44bf-846a-42b60fba4d77"
        },
        {
          "SchemaColumnUId": "087f5050-1d50-4639-905e-b75eea498ff8",
          "Value": "736c30a7-c0ec-4fa9-b034-2552b319b633"
        },
        {
          "SchemaColumnUId": "9ed7e3f6-ce67-41fb-8dcc-16c9c5e4d08f",
          "Value": "Name"
        },
        {
          "SchemaColumnUId": "b03360a8-d50e-4cb0-a1d7-6d46d0b31bff",
          "Value": "aaf2f1aa-08e0-45bb-a3f3-f1e88e2243b4",
          "DisplayValue": "WatAgreementType"
        }
      ]
    },
    {
      "Row": [
        {
          "SchemaColumnUId": "ae0e45ca-c495-4fe7-a39d-3ab7278e1617",
          "Value": "81100254-d5f6-4d70-a8c4-10d09a42d837"
        },
        {
          "SchemaColumnUId": "087f5050-1d50-4639-905e-b75eea498ff8",
          "Value": "df5d4044-b766-c589-e1b6-8281b12fc950"
        },
        {
          "SchemaColumnUId": "9ed7e3f6-ce67-41fb-8dcc-16c9c5e4d08f",
          "Value": "SMAgreementTypeId"
        },
        {
          "SchemaColumnUId": "b03360a8-d50e-4cb0-a1d7-6d46d0b31bff",
          "Value": "87db805b-017f-472f-b167-0c82a6c6be35",
          "DisplayValue": "SMQuestionRequestConnetion"
        }
      ]
    },
    {
      "Row": [
        {
          "SchemaColumnUId": "ae0e45ca-c495-4fe7-a39d-3ab7278e1617",
          "Value": "85d3b115-a660-48db-a3b1-0a52053d5cd0"
        },
        {
          "SchemaColumnUId": "087f5050-1d50-4639-905e-b75eea498ff8",
          "Value": "db7aa429-c878-4521-b5cd-4c8583610db8"
        },
        {
          "SchemaColumnUId": "9ed7e3f6-ce67-41fb-8dcc-16c9c5e4d08f",
          "Value": ""
        },
        {
          "SchemaColumnUId": "b03360a8-d50e-4cb0-a1d7-6d46d0b31bff",
          "Value": "4f12d853-5362-4132-bc40-4ba02d283b79",
          "DisplayValue": "SMNewConsultedFaculties"
        }
      ]
    },
    {
      "Row": [
        {
          "SchemaColumnUId": "ae0e45ca-c495-4fe7-a39d-3ab7278e1617",
          "Value": "8a664aa1-de3d-481c-80fc-5ba245510ee5"
        },
        {
          "SchemaColumnUId": "087f5050-1d50-4639-905e-b75eea498ff8",
          "Value": "c1807605-1420-4d50-8299-16d8d5ad42b2"
        },
        {
          "SchemaColumnUId": "9ed7e3f6-ce67-41fb-8dcc-16c9c5e4d08f",
          "Value": "WatSysFieldAllowLapse"
        },
        {
          "SchemaColumnUId": "b03360a8-d50e-4cb0-a1d7-6d46d0b31bff",
          "Value": "514dc59b-d7d9-4c2b-9346-5c48c0ea252c",
          "DisplayValue": "WatAgreement"
        }
      ]
    },
    {
      "Row": [
        {
          "SchemaColumnUId": "ae0e45ca-c495-4fe7-a39d-3ab7278e1617",
          "Value": "8cf78bfb-b59b-42e4-9615-f3f7feb85a27"
        },
        {
          "SchemaColumnUId": "087f5050-1d50-4639-905e-b75eea498ff8",
          "Value": "f9b05fd4-c26e-44f9-8908-c36cd0b5790d"
        },
        {
          "SchemaColumnUId": "9ed7e3f6-ce67-41fb-8dcc-16c9c5e4d08f",
          "Value": "WatPartnershipRequestId"
        },
        {
          "SchemaColumnUId": "b03360a8-d50e-4cb0-a1d7-6d46d0b31bff",
          "Value": "514dc59b-d7d9-4c2b-9346-5c48c0ea252c",
          "DisplayValue": "WatAgreement"
        }
      ]
    },
    {
      "Row": [
        {
          "SchemaColumnUId": "ae0e45ca-c495-4fe7-a39d-3ab7278e1617",
          "Value": "910c4a05-b3b9-49a7-85a0-abf7fdd7e8c3"
        },
        {
          "SchemaColumnUId": "087f5050-1d50-4639-905e-b75eea498ff8",
          "Value": "c73f29c5-7f5b-43d0-962c-241301d2d58e"
        },
        {
          "SchemaColumnUId": "9ed7e3f6-ce67-41fb-8dcc-16c9c5e4d08f",
          "Value": "WatFeasibleId"
        },
        {
          "SchemaColumnUId": "b03360a8-d50e-4cb0-a1d7-6d46d0b31bff",
          "Value": "aed97a32-06a9-4952-8c9e-7344c4da8dcb",
          "DisplayValue": "WatAgreementStakeholders"
        }
      ]
    },
    {
      "Row": [
        {
          "SchemaColumnUId": "ae0e45ca-c495-4fe7-a39d-3ab7278e1617",
          "Value": "9487bb87-bed5-4b8a-96a5-972bfd0d527d"
        },
        {
          "SchemaColumnUId": "087f5050-1d50-4639-905e-b75eea498ff8",
          "Value": "82ab9509-d988-46b0-ab08-aa9aac910cc6"
        },
        {
          "SchemaColumnUId": "9ed7e3f6-ce67-41fb-8dcc-16c9c5e4d08f",
          "Value": "WatInstitutionId"
        },
        {
          "SchemaColumnUId": "b03360a8-d50e-4cb0-a1d7-6d46d0b31bff",
          "Value": "514dc59b-d7d9-4c2b-9346-5c48c0ea252c",
          "DisplayValue": "WatAgreement"
        }
      ]
    },
    {
      "Row": [
        {
          "SchemaColumnUId": "ae0e45ca-c495-4fe7-a39d-3ab7278e1617",
          "Value": "94a3fef8-ce8b-4789-80b3-77849ceba29f"
        },
        {
          "SchemaColumnUId": "087f5050-1d50-4639-905e-b75eea498ff8",
          "Value": "9e53fd7c-dde4-4502-a64c-b9e34148108b"
        },
        {
          "SchemaColumnUId": "9ed7e3f6-ce67-41fb-8dcc-16c9c5e4d08f",
          "Value": "Description"
        },
        {
          "SchemaColumnUId": "b03360a8-d50e-4cb0-a1d7-6d46d0b31bff",
          "Value": "622df785-de20-406b-b55c-6583c5196ae3",
          "DisplayValue": "WatRequestType"
        }
      ]
    },
    {
      "Row": [
        {
          "SchemaColumnUId": "ae0e45ca-c495-4fe7-a39d-3ab7278e1617",
          "Value": "9537d40e-0404-4ff8-8af3-7a7d019b237a"
        },
        {
          "SchemaColumnUId": "087f5050-1d50-4639-905e-b75eea498ff8",
          "Value": "449cc2ef-52c2-4664-95db-303c03449938"
        },
        {
          "SchemaColumnUId": "9ed7e3f6-ce67-41fb-8dcc-16c9c5e4d08f",
          "Value": "WatAcademicLevelId"
        },
        {
          "SchemaColumnUId": "b03360a8-d50e-4cb0-a1d7-6d46d0b31bff",
          "Value": "514dc59b-d7d9-4c2b-9346-5c48c0ea252c",
          "DisplayValue": "WatAgreement"
        }
      ]
    },
    {
      "Row": [
        {
          "SchemaColumnUId": "ae0e45ca-c495-4fe7-a39d-3ab7278e1617",
          "Value": "9734937a-6165-40b2-9a1d-b6449c382a29"
        },
        {
          "SchemaColumnUId": "087f5050-1d50-4639-905e-b75eea498ff8",
          "Value": "e80190a5-03b2-4095-90f7-a193a960adee"
        },
        {
          "SchemaColumnUId": "9ed7e3f6-ce67-41fb-8dcc-16c9c5e4d08f",
          "Value": ""
        },
        {
          "SchemaColumnUId": "b03360a8-d50e-4cb0-a1d7-6d46d0b31bff",
          "Value": "514dc59b-d7d9-4c2b-9346-5c48c0ea252c",
          "DisplayValue": "WatAgreement"
        }
      ]
    },
    {
      "Row": [
        {
          "SchemaColumnUId": "ae0e45ca-c495-4fe7-a39d-3ab7278e1617",
          "Value": "980c5f1f-c8bc-40d0-9609-76a36119613b"
        },
        {
          "SchemaColumnUId": "087f5050-1d50-4639-905e-b75eea498ff8",
          "Value": "9ac51438-a0cd-1aea-d368-b9e880657d2c"
        },
        {
          "SchemaColumnUId": "9ed7e3f6-ce67-41fb-8dcc-16c9c5e4d08f",
          "Value": ""
        },
        {
          "SchemaColumnUId": "b03360a8-d50e-4cb0-a1d7-6d46d0b31bff",
          "Value": "4f12d853-5362-4132-bc40-4ba02d283b79",
          "DisplayValue": "SMNewConsultedFaculties"
        }
      ]
    },
    {
      "Row": [
        {
          "SchemaColumnUId": "ae0e45ca-c495-4fe7-a39d-3ab7278e1617",
          "Value": "987cf8b7-723c-4e3b-adbb-9d7f5ecc782f"
        },
        {
          "SchemaColumnUId": "087f5050-1d50-4639-905e-b75eea498ff8",
          "Value": "997716f9-5073-4836-9e2c-82bd673a81b9"
        },
        {
          "SchemaColumnUId": "9ed7e3f6-ce67-41fb-8dcc-16c9c5e4d08f",
          "Value": ""
        },
        {
          "SchemaColumnUId": "b03360a8-d50e-4cb0-a1d7-6d46d0b31bff",
          "Value": "4f12d853-5362-4132-bc40-4ba02d283b79",
          "DisplayValue": "SMNewConsultedFaculties"
        }
      ]
    },
    {
      "Row": [
        {
          "SchemaColumnUId": "ae0e45ca-c495-4fe7-a39d-3ab7278e1617",
          "Value": "98ce7230-b457-4801-b705-a72e27ce81fd"
        },
        {
          "SchemaColumnUId": "087f5050-1d50-4639-905e-b75eea498ff8",
          "Value": "02894923-9963-4bfa-a1ae-a0e433bfbe5d"
        },
        {
          "SchemaColumnUId": "9ed7e3f6-ce67-41fb-8dcc-16c9c5e4d08f",
          "Value": ""
        },
        {
          "SchemaColumnUId": "b03360a8-d50e-4cb0-a1d7-6d46d0b31bff",
          "Value": "4f12d853-5362-4132-bc40-4ba02d283b79",
          "DisplayValue": "SMNewConsultedFaculties"
        }
      ]
    },
    {
      "Row": [
        {
          "SchemaColumnUId": "ae0e45ca-c495-4fe7-a39d-3ab7278e1617",
          "Value": "9d1a2253-9019-4e91-bac2-be190ac5a8ab"
        },
        {
          "SchemaColumnUId": "087f5050-1d50-4639-905e-b75eea498ff8",
          "Value": "be12e507-a45f-42a5-bf88-6a3c57a1272e"
        },
        {
          "SchemaColumnUId": "9ed7e3f6-ce67-41fb-8dcc-16c9c5e4d08f",
          "Value": ""
        },
        {
          "SchemaColumnUId": "b03360a8-d50e-4cb0-a1d7-6d46d0b31bff",
          "Value": "3a686873-ffaa-48f7-b1df-e3c8e0190517",
          "DisplayValue": "SMConsultedASUs"
        }
      ]
    },
    {
      "Row": [
        {
          "SchemaColumnUId": "ae0e45ca-c495-4fe7-a39d-3ab7278e1617",
          "Value": "9d56111a-7ffb-4b4c-86b6-f33be35e65bc"
        },
        {
          "SchemaColumnUId": "087f5050-1d50-4639-905e-b75eea498ff8",
          "Value": "0286bebd-9e8d-43b2-b78b-529a0e937225"
        },
        {
          "SchemaColumnUId": "9ed7e3f6-ce67-41fb-8dcc-16c9c5e4d08f",
          "Value": ""
        },
        {
          "SchemaColumnUId": "b03360a8-d50e-4cb0-a1d7-6d46d0b31bff",
          "Value": "3a686873-ffaa-48f7-b1df-e3c8e0190517",
          "DisplayValue": "SMConsultedASUs"
        }
      ]
    },
    {
      "Row": [
        {
          "SchemaColumnUId": "ae0e45ca-c495-4fe7-a39d-3ab7278e1617",
          "Value": "9e269761-e6d4-4df7-9aeb-3fb330ac5fd1"
        },
        {
          "SchemaColumnUId": "087f5050-1d50-4639-905e-b75eea498ff8",
          "Value": "1e7e548f-42b3-48a8-b328-08a65102eb2d"
        },
        {
          "SchemaColumnUId": "9ed7e3f6-ce67-41fb-8dcc-16c9c5e4d08f",
          "Value": "WatTermStartDate"
        },
        {
          "SchemaColumnUId": "b03360a8-d50e-4cb0-a1d7-6d46d0b31bff",
          "Value": "514dc59b-d7d9-4c2b-9346-5c48c0ea252c",
          "DisplayValue": "WatAgreement"
        }
      ]
    },
    {
      "Row": [
        {
          "SchemaColumnUId": "ae0e45ca-c495-4fe7-a39d-3ab7278e1617",
          "Value": "9ec90f90-c5df-4be0-b936-dba38d27b15f"
        },
        {
          "SchemaColumnUId": "087f5050-1d50-4639-905e-b75eea498ff8",
          "Value": "096ba820-618e-4c8a-022c-ba53b7c787cf"
        },
        {
          "SchemaColumnUId": "9ed7e3f6-ce67-41fb-8dcc-16c9c5e4d08f",
          "Value": ""
        },
        {
          "SchemaColumnUId": "b03360a8-d50e-4cb0-a1d7-6d46d0b31bff",
          "Value": "4f12d853-5362-4132-bc40-4ba02d283b79",
          "DisplayValue": "SMNewConsultedFaculties"
        }
      ]
    },
    {
      "Row": [
        {
          "SchemaColumnUId": "ae0e45ca-c495-4fe7-a39d-3ab7278e1617",
          "Value": "a276f424-44ce-4eaa-8127-5be808d9e2d7"
        },
        {
          "SchemaColumnUId": "087f5050-1d50-4639-905e-b75eea498ff8",
          "Value": "736c30a7-c0ec-4fa9-b034-2552b319b633"
        },
        {
          "SchemaColumnUId": "9ed7e3f6-ce67-41fb-8dcc-16c9c5e4d08f",
          "Value": "Name"
        },
        {
          "SchemaColumnUId": "b03360a8-d50e-4cb0-a1d7-6d46d0b31bff",
          "Value": "a272903d-3a21-4802-99d3-2d0b918fa73d",
          "DisplayValue": "WatFaculty"
        }
      ]
    },
    {
      "Row": [
        {
          "SchemaColumnUId": "ae0e45ca-c495-4fe7-a39d-3ab7278e1617",
          "Value": "a39979fc-760a-4259-88db-d5b6883e61c8"
        },
        {
          "SchemaColumnUId": "087f5050-1d50-4639-905e-b75eea498ff8",
          "Value": "130c1245-9680-4ce1-958a-dd3bece93ba0"
        },
        {
          "SchemaColumnUId": "9ed7e3f6-ce67-41fb-8dcc-16c9c5e4d08f",
          "Value": ""
        },
        {
          "SchemaColumnUId": "b03360a8-d50e-4cb0-a1d7-6d46d0b31bff",
          "Value": "4f12d853-5362-4132-bc40-4ba02d283b79",
          "DisplayValue": "SMNewConsultedFaculties"
        }
      ]
    },
    {
      "Row": [
        {
          "SchemaColumnUId": "ae0e45ca-c495-4fe7-a39d-3ab7278e1617",
          "Value": "a479bd95-ff30-484d-a60d-5f5d9ab07e8b"
        },
        {
          "SchemaColumnUId": "087f5050-1d50-4639-905e-b75eea498ff8",
          "Value": "736c30a7-c0ec-4fa9-b034-2552b319b633"
        },
        {
          "SchemaColumnUId": "9ed7e3f6-ce67-41fb-8dcc-16c9c5e4d08f",
          "Value": "Name"
        },
        {
          "SchemaColumnUId": "b03360a8-d50e-4cb0-a1d7-6d46d0b31bff",
          "Value": "c262f342-12ce-41e0-8d4a-ab73c85b0d94",
          "DisplayValue": "WatAgreementStatus"
        }
      ]
    },
    {
      "Row": [
        {
          "SchemaColumnUId": "ae0e45ca-c495-4fe7-a39d-3ab7278e1617",
          "Value": "a5306b40-fa52-430a-adc6-0246071be4c5"
        },
        {
          "SchemaColumnUId": "087f5050-1d50-4639-905e-b75eea498ff8",
          "Value": "ec91843c-8b0c-46f9-bd19-e16e13821eb1"
        },
        {
          "SchemaColumnUId": "9ed7e3f6-ce67-41fb-8dcc-16c9c5e4d08f",
          "Value": ""
        },
        {
          "SchemaColumnUId": "b03360a8-d50e-4cb0-a1d7-6d46d0b31bff",
          "Value": "4f12d853-5362-4132-bc40-4ba02d283b79",
          "DisplayValue": "SMNewConsultedFaculties"
        }
      ]
    },
    {
      "Row": [
        {
          "SchemaColumnUId": "ae0e45ca-c495-4fe7-a39d-3ab7278e1617",
          "Value": "a57906dc-3f0d-436e-abe9-f9ba32c838eb"
        },
        {
          "SchemaColumnUId": "087f5050-1d50-4639-905e-b75eea498ff8",
          "Value": "aee960c0-dc36-444b-8409-5f9b917ea3b8"
        },
        {
          "SchemaColumnUId": "9ed7e3f6-ce67-41fb-8dcc-16c9c5e4d08f",
          "Value": ""
        },
        {
          "SchemaColumnUId": "b03360a8-d50e-4cb0-a1d7-6d46d0b31bff",
          "Value": "3a686873-ffaa-48f7-b1df-e3c8e0190517",
          "DisplayValue": "SMConsultedASUs"
        }
      ]
    },
    {
      "Row": [
        {
          "SchemaColumnUId": "ae0e45ca-c495-4fe7-a39d-3ab7278e1617",
          "Value": "a683f108-a271-4ee1-8e79-c398e134fdb6"
        },
        {
          "SchemaColumnUId": "087f5050-1d50-4639-905e-b75eea498ff8",
          "Value": "dafdc990-8f1e-4ab4-ad42-815093fb9cd9"
        },
        {
          "SchemaColumnUId": "9ed7e3f6-ce67-41fb-8dcc-16c9c5e4d08f",
          "Value": ""
        },
        {
          "SchemaColumnUId": "b03360a8-d50e-4cb0-a1d7-6d46d0b31bff",
          "Value": "4f12d853-5362-4132-bc40-4ba02d283b79",
          "DisplayValue": "SMNewConsultedFaculties"
        }
      ]
    },
    {
      "Row": [
        {
          "SchemaColumnUId": "ae0e45ca-c495-4fe7-a39d-3ab7278e1617",
          "Value": "a7565d0d-6d47-4c68-b8e8-5dd87c1015b6"
        },
        {
          "SchemaColumnUId": "087f5050-1d50-4639-905e-b75eea498ff8",
          "Value": "aee862c6-26d3-4122-9e1b-25e0e8419491"
        },
        {
          "SchemaColumnUId": "9ed7e3f6-ce67-41fb-8dcc-16c9c5e4d08f",
          "Value": ""
        },
        {
          "SchemaColumnUId": "b03360a8-d50e-4cb0-a1d7-6d46d0b31bff",
          "Value": "4f12d853-5362-4132-bc40-4ba02d283b79",
          "DisplayValue": "SMNewConsultedFaculties"
        }
      ]
    },
    {
      "Row": [
        {
          "SchemaColumnUId": "ae0e45ca-c495-4fe7-a39d-3ab7278e1617",
          "Value": "a8a208c6-3f99-4a05-9815-c7780cc96f3a"
        },
        {
          "SchemaColumnUId": "087f5050-1d50-4639-905e-b75eea498ff8",
          "Value": "d271ccd6-a062-44c2-a1ef-8ee037dd9e72"
        },
        {
          "SchemaColumnUId": "9ed7e3f6-ce67-41fb-8dcc-16c9c5e4d08f",
          "Value": ""
        },
        {
          "SchemaColumnUId": "b03360a8-d50e-4cb0-a1d7-6d46d0b31bff",
          "Value": "4f12d853-5362-4132-bc40-4ba02d283b79",
          "DisplayValue": "SMNewConsultedFaculties"
        }
      ]
    },
    {
      "Row": [
        {
          "SchemaColumnUId": "ae0e45ca-c495-4fe7-a39d-3ab7278e1617",
          "Value": "af2f533d-419a-49e0-9380-e099d17a87bc"
        },
        {
          "SchemaColumnUId": "087f5050-1d50-4639-905e-b75eea498ff8",
          "Value": "39bbe69d-fbc1-4d8d-9baf-eb919cd55422"
        },
        {
          "SchemaColumnUId": "9ed7e3f6-ce67-41fb-8dcc-16c9c5e4d08f",
          "Value": ""
        },
        {
          "SchemaColumnUId": "b03360a8-d50e-4cb0-a1d7-6d46d0b31bff",
          "Value": "4f12d853-5362-4132-bc40-4ba02d283b79",
          "DisplayValue": "SMNewConsultedFaculties"
        }
      ]
    },
    {
      "Row": [
        {
          "SchemaColumnUId": "ae0e45ca-c495-4fe7-a39d-3ab7278e1617",
          "Value": "b0be9f1b-9231-4c95-a343-f739ca35d858"
        },
        {
          "SchemaColumnUId": "087f5050-1d50-4639-905e-b75eea498ff8",
          "Value": "fad69093-e67e-449d-83e5-43edf0f25ebf"
        },
        {
          "SchemaColumnUId": "9ed7e3f6-ce67-41fb-8dcc-16c9c5e4d08f",
          "Value": ""
        },
        {
          "SchemaColumnUId": "b03360a8-d50e-4cb0-a1d7-6d46d0b31bff",
          "Value": "4f12d853-5362-4132-bc40-4ba02d283b79",
          "DisplayValue": "SMNewConsultedFaculties"
        }
      ]
    },
    {
      "Row": [
        {
          "SchemaColumnUId": "ae0e45ca-c495-4fe7-a39d-3ab7278e1617",
          "Value": "b3021e74-8f1d-4445-a0ba-f0d1b640cd5b"
        },
        {
          "SchemaColumnUId": "087f5050-1d50-4639-905e-b75eea498ff8",
          "Value": "453a7c65-0418-4684-be8f-641427eb6837"
        },
        {
          "SchemaColumnUId": "9ed7e3f6-ce67-41fb-8dcc-16c9c5e4d08f",
          "Value": "IsRequiredDigitalSignature"
        },
        {
          "SchemaColumnUId": "b03360a8-d50e-4cb0-a1d7-6d46d0b31bff",
          "Value": "aad13166-2f7d-4648-a4a5-21d5380c3160",
          "DisplayValue": "WatAgreementVisa"
        }
      ]
    },
    {
      "Row": [
        {
          "SchemaColumnUId": "ae0e45ca-c495-4fe7-a39d-3ab7278e1617",
          "Value": "b3349029-5438-48ea-84c3-20d719b2b094"
        },
        {
          "SchemaColumnUId": "087f5050-1d50-4639-905e-b75eea498ff8",
          "Value": "b6d0f4eb-9fae-44f2-b708-8ce94fa552f7"
        },
        {
          "SchemaColumnUId": "9ed7e3f6-ce67-41fb-8dcc-16c9c5e4d08f",
          "Value": ""
        },
        {
          "SchemaColumnUId": "b03360a8-d50e-4cb0-a1d7-6d46d0b31bff",
          "Value": "514dc59b-d7d9-4c2b-9346-5c48c0ea252c",
          "DisplayValue": "WatAgreement"
        }
      ]
    },
    {
      "Row": [
        {
          "SchemaColumnUId": "ae0e45ca-c495-4fe7-a39d-3ab7278e1617",
          "Value": "b42e444c-6258-4196-bf47-6f53fd27bc59"
        },
        {
          "SchemaColumnUId": "087f5050-1d50-4639-905e-b75eea498ff8",
          "Value": "8ca9705d-c819-7197-4355-40b092ff0684"
        },
        {
          "SchemaColumnUId": "9ed7e3f6-ce67-41fb-8dcc-16c9c5e4d08f",
          "Value": ""
        },
        {
          "SchemaColumnUId": "b03360a8-d50e-4cb0-a1d7-6d46d0b31bff",
          "Value": "4f12d853-5362-4132-bc40-4ba02d283b79",
          "DisplayValue": "SMNewConsultedFaculties"
        }
      ]
    },
    {
      "Row": [
        {
          "SchemaColumnUId": "ae0e45ca-c495-4fe7-a39d-3ab7278e1617",
          "Value": "b65df1e3-3d90-42c4-84cc-19db5e17c3bc"
        },
        {
          "SchemaColumnUId": "087f5050-1d50-4639-905e-b75eea498ff8",
          "Value": "73da6247-0a2d-421d-ac73-3c096c7a5e92"
        },
        {
          "SchemaColumnUId": "9ed7e3f6-ce67-41fb-8dcc-16c9c5e4d08f",
          "Value": ""
        },
        {
          "SchemaColumnUId": "b03360a8-d50e-4cb0-a1d7-6d46d0b31bff",
          "Value": "3a686873-ffaa-48f7-b1df-e3c8e0190517",
          "DisplayValue": "SMConsultedASUs"
        }
      ]
    },
    {
      "Row": [
        {
          "SchemaColumnUId": "ae0e45ca-c495-4fe7-a39d-3ab7278e1617",
          "Value": "b756b5b2-1eec-471e-9ac2-4308a0f2b241"
        },
        {
          "SchemaColumnUId": "087f5050-1d50-4639-905e-b75eea498ff8",
          "Value": "e80190a5-03b2-4095-90f7-a193a960adee"
        },
        {
          "SchemaColumnUId": "9ed7e3f6-ce67-41fb-8dcc-16c9c5e4d08f",
          "Value": ""
        },
        {
          "SchemaColumnUId": "b03360a8-d50e-4cb0-a1d7-6d46d0b31bff",
          "Value": "4f12d853-5362-4132-bc40-4ba02d283b79",
          "DisplayValue": "SMNewConsultedFaculties"
        }
      ]
    },
    {
      "Row": [
        {
          "SchemaColumnUId": "ae0e45ca-c495-4fe7-a39d-3ab7278e1617",
          "Value": "ba08426d-8fa8-4071-af1a-3a2ab02260bd"
        },
        {
          "SchemaColumnUId": "087f5050-1d50-4639-905e-b75eea498ff8",
          "Value": "a64d39d7-23d8-4f44-bb34-92abdf19b15c"
        },
        {
          "SchemaColumnUId": "9ed7e3f6-ce67-41fb-8dcc-16c9c5e4d08f",
          "Value": "WatNotes"
        },
        {
          "SchemaColumnUId": "b03360a8-d50e-4cb0-a1d7-6d46d0b31bff",
          "Value": "514dc59b-d7d9-4c2b-9346-5c48c0ea252c",
          "DisplayValue": "WatAgreement"
        }
      ]
    },
    {
      "Row": [
        {
          "SchemaColumnUId": "ae0e45ca-c495-4fe7-a39d-3ab7278e1617",
          "Value": "be5d8fec-8b50-4a4a-8e55-99c0d194a1ed"
        },
        {
          "SchemaColumnUId": "087f5050-1d50-4639-905e-b75eea498ff8",
          "Value": "07e34ea1-27fc-43a7-9f1a-d9748e53b567"
        },
        {
          "SchemaColumnUId": "9ed7e3f6-ce67-41fb-8dcc-16c9c5e4d08f",
          "Value": ""
        },
        {
          "SchemaColumnUId": "b03360a8-d50e-4cb0-a1d7-6d46d0b31bff",
          "Value": "4f12d853-5362-4132-bc40-4ba02d283b79",
          "DisplayValue": "SMNewConsultedFaculties"
        }
      ]
    },
    {
      "Row": [
        {
          "SchemaColumnUId": "ae0e45ca-c495-4fe7-a39d-3ab7278e1617",
          "Value": "bee8b4c6-bf56-465f-8754-6b0eb6a46640"
        },
        {
          "SchemaColumnUId": "087f5050-1d50-4639-905e-b75eea498ff8",
          "Value": "2026edfb-2bb5-45cd-a0e3-d7430a9da66a"
        },
        {
          "SchemaColumnUId": "9ed7e3f6-ce67-41fb-8dcc-16c9c5e4d08f",
          "Value": ""
        },
        {
          "SchemaColumnUId": "b03360a8-d50e-4cb0-a1d7-6d46d0b31bff",
          "Value": "4f12d853-5362-4132-bc40-4ba02d283b79",
          "DisplayValue": "SMNewConsultedFaculties"
        }
      ]
    },
    {
      "Row": [
        {
          "SchemaColumnUId": "ae0e45ca-c495-4fe7-a39d-3ab7278e1617",
          "Value": "bf0854f1-daae-4802-b663-4d4b8a98d1e9"
        },
        {
          "SchemaColumnUId": "087f5050-1d50-4639-905e-b75eea498ff8",
          "Value": "9045b1d3-8fdf-4dc3-8e06-b0f0c971dbdb"
        },
        {
          "SchemaColumnUId": "9ed7e3f6-ce67-41fb-8dcc-16c9c5e4d08f",
          "Value": ""
        },
        {
          "SchemaColumnUId": "b03360a8-d50e-4cb0-a1d7-6d46d0b31bff",
          "Value": "4f12d853-5362-4132-bc40-4ba02d283b79",
          "DisplayValue": "SMNewConsultedFaculties"
        }
      ]
    },
    {
      "Row": [
        {
          "SchemaColumnUId": "ae0e45ca-c495-4fe7-a39d-3ab7278e1617",
          "Value": "c0eed7d2-a639-4b61-8f5a-bdd7940a6083"
        },
        {
          "SchemaColumnUId": "087f5050-1d50-4639-905e-b75eea498ff8",
          "Value": "ebc887d9-3539-e9c6-5e67-c2d42b4a9471"
        },
        {
          "SchemaColumnUId": "9ed7e3f6-ce67-41fb-8dcc-16c9c5e4d08f",
          "Value": ""
        },
        {
          "SchemaColumnUId": "b03360a8-d50e-4cb0-a1d7-6d46d0b31bff",
          "Value": "4f12d853-5362-4132-bc40-4ba02d283b79",
          "DisplayValue": "SMNewConsultedFaculties"
        }
      ]
    },
    {
      "Row": [
        {
          "SchemaColumnUId": "ae0e45ca-c495-4fe7-a39d-3ab7278e1617",
          "Value": "c0fcf62d-2019-4e77-94d3-27da117e2325"
        },
        {
          "SchemaColumnUId": "087f5050-1d50-4639-905e-b75eea498ff8",
          "Value": "c5e90e57-a7f4-475c-8c95-1361fd3a7a74"
        },
        {
          "SchemaColumnUId": "9ed7e3f6-ce67-41fb-8dcc-16c9c5e4d08f",
          "Value": "WatContactId"
        },
        {
          "SchemaColumnUId": "b03360a8-d50e-4cb0-a1d7-6d46d0b31bff",
          "Value": "aed97a32-06a9-4952-8c9e-7344c4da8dcb",
          "DisplayValue": "WatAgreementStakeholders"
        }
      ]
    },
    {
      "Row": [
        {
          "SchemaColumnUId": "ae0e45ca-c495-4fe7-a39d-3ab7278e1617",
          "Value": "c23e2406-b6c5-4ecc-91ae-00fec1f972b8"
        },
        {
          "SchemaColumnUId": "087f5050-1d50-4639-905e-b75eea498ff8",
          "Value": "4a7fa557-2e2d-426b-b5a6-005ce1bd436c"
        },
        {
          "SchemaColumnUId": "9ed7e3f6-ce67-41fb-8dcc-16c9c5e4d08f",
          "Value": ""
        },
        {
          "SchemaColumnUId": "b03360a8-d50e-4cb0-a1d7-6d46d0b31bff",
          "Value": "4f12d853-5362-4132-bc40-4ba02d283b79",
          "DisplayValue": "SMNewConsultedFaculties"
        }
      ]
    },
    {
      "Row": [
        {
          "SchemaColumnUId": "ae0e45ca-c495-4fe7-a39d-3ab7278e1617",
          "Value": "c49c1c91-3fd3-4646-be57-3f21b35c76a7"
        },
        {
          "SchemaColumnUId": "087f5050-1d50-4639-905e-b75eea498ff8",
          "Value": "a49571cc-a9a9-4c3e-a346-46c466e9a0d3"
        },
        {
          "SchemaColumnUId": "9ed7e3f6-ce67-41fb-8dcc-16c9c5e4d08f",
          "Value": ""
        },
        {
          "SchemaColumnUId": "b03360a8-d50e-4cb0-a1d7-6d46d0b31bff",
          "Value": "c8ac3409-ca0e-4d56-945d-6d36a129c6a9",
          "DisplayValue": "Contact"
        }
      ]
    },
    {
      "Row": [
        {
          "SchemaColumnUId": "ae0e45ca-c495-4fe7-a39d-3ab7278e1617",
          "Value": "c6cf3918-8f4c-4d4f-84e8-200c99f259fc"
        },
        {
          "SchemaColumnUId": "087f5050-1d50-4639-905e-b75eea498ff8",
          "Value": "f9b05fd4-c26e-44f9-8908-c36cd0b5790d"
        },
        {
          "SchemaColumnUId": "9ed7e3f6-ce67-41fb-8dcc-16c9c5e4d08f",
          "Value": "WatPartnershipRequestId"
        },
        {
          "SchemaColumnUId": "b03360a8-d50e-4cb0-a1d7-6d46d0b31bff",
          "Value": "514dc59b-d7d9-4c2b-9346-5c48c0ea252c",
          "DisplayValue": "WatAgreement"
        }
      ]
    },
    {
      "Row": [
        {
          "SchemaColumnUId": "ae0e45ca-c495-4fe7-a39d-3ab7278e1617",
          "Value": "c6e5f19c-14bd-47f2-a847-511959e13227"
        },
        {
          "SchemaColumnUId": "087f5050-1d50-4639-905e-b75eea498ff8",
          "Value": "8039feae-3376-4a44-8c52-949543a976e2"
        },
        {
          "SchemaColumnUId": "9ed7e3f6-ce67-41fb-8dcc-16c9c5e4d08f",
          "Value": ""
        },
        {
          "SchemaColumnUId": "b03360a8-d50e-4cb0-a1d7-6d46d0b31bff",
          "Value": "3a686873-ffaa-48f7-b1df-e3c8e0190517",
          "DisplayValue": "SMConsultedASUs"
        }
      ]
    },
    {
      "Row": [
        {
          "SchemaColumnUId": "ae0e45ca-c495-4fe7-a39d-3ab7278e1617",
          "Value": "c7670b86-dce9-4e0b-bc43-6d1a6907d6fe"
        },
        {
          "SchemaColumnUId": "087f5050-1d50-4639-905e-b75eea498ff8",
          "Value": "64bcdb65-fddd-4bb2-ac13-344ae27d165e"
        },
        {
          "SchemaColumnUId": "9ed7e3f6-ce67-41fb-8dcc-16c9c5e4d08f",
          "Value": ""
        },
        {
          "SchemaColumnUId": "b03360a8-d50e-4cb0-a1d7-6d46d0b31bff",
          "Value": "3a686873-ffaa-48f7-b1df-e3c8e0190517",
          "DisplayValue": "SMConsultedASUs"
        }
      ]
    },
    {
      "Row": [
        {
          "SchemaColumnUId": "ae0e45ca-c495-4fe7-a39d-3ab7278e1617",
          "Value": "c937bef2-e485-4bf8-863a-596be97c6af7"
        },
        {
          "SchemaColumnUId": "087f5050-1d50-4639-905e-b75eea498ff8",
          "Value": "dd9fa533-b8eb-4601-9786-e42ba0272ddb"
        },
        {
          "SchemaColumnUId": "9ed7e3f6-ce67-41fb-8dcc-16c9c5e4d08f",
          "Value": ""
        },
        {
          "SchemaColumnUId": "b03360a8-d50e-4cb0-a1d7-6d46d0b31bff",
          "Value": "4f12d853-5362-4132-bc40-4ba02d283b79",
          "DisplayValue": "SMNewConsultedFaculties"
        }
      ]
    },
    {
      "Row": [
        {
          "SchemaColumnUId": "ae0e45ca-c495-4fe7-a39d-3ab7278e1617",
          "Value": "c945b7f5-fe68-4ce9-94c1-fbb8fdaf2f44"
        },
        {
          "SchemaColumnUId": "087f5050-1d50-4639-905e-b75eea498ff8",
          "Value": "9e53fd7c-dde4-4502-a64c-b9e34148108b"
        },
        {
          "SchemaColumnUId": "9ed7e3f6-ce67-41fb-8dcc-16c9c5e4d08f",
          "Value": "Description"
        },
        {
          "SchemaColumnUId": "b03360a8-d50e-4cb0-a1d7-6d46d0b31bff",
          "Value": "aaf2f1aa-08e0-45bb-a3f3-f1e88e2243b4",
          "DisplayValue": "WatAgreementType"
        }
      ]
    },
    {
      "Row": [
        {
          "SchemaColumnUId": "ae0e45ca-c495-4fe7-a39d-3ab7278e1617",
          "Value": "ca46007f-9a79-4a1a-a0b4-a30956fde72a"
        },
        {
          "SchemaColumnUId": "087f5050-1d50-4639-905e-b75eea498ff8",
          "Value": "9bc10db2-17ab-4ae8-861a-6b8a290ec58a"
        },
        {
          "SchemaColumnUId": "9ed7e3f6-ce67-41fb-8dcc-16c9c5e4d08f",
          "Value": ""
        },
        {
          "SchemaColumnUId": "b03360a8-d50e-4cb0-a1d7-6d46d0b31bff",
          "Value": "3a686873-ffaa-48f7-b1df-e3c8e0190517",
          "DisplayValue": "SMConsultedASUs"
        }
      ]
    },
    {
      "Row": [
        {
          "SchemaColumnUId": "ae0e45ca-c495-4fe7-a39d-3ab7278e1617",
          "Value": "caa2869d-8701-4a9e-a9a9-d462b3eb530e"
        },
        {
          "SchemaColumnUId": "087f5050-1d50-4639-905e-b75eea498ff8",
          "Value": "bceb081c-5f61-420f-b16a-90c522637dd3"
        },
        {
          "SchemaColumnUId": "9ed7e3f6-ce67-41fb-8dcc-16c9c5e4d08f",
          "Value": "WatAgreementSubClassificationId"
        },
        {
          "SchemaColumnUId": "b03360a8-d50e-4cb0-a1d7-6d46d0b31bff",
          "Value": "514dc59b-d7d9-4c2b-9346-5c48c0ea252c",
          "DisplayValue": "WatAgreement"
        }
      ]
    },
    {
      "Row": [
        {
          "SchemaColumnUId": "ae0e45ca-c495-4fe7-a39d-3ab7278e1617",
          "Value": "cb195afc-6ada-4680-8a42-8c818486afe3"
        },
        {
          "SchemaColumnUId": "087f5050-1d50-4639-905e-b75eea498ff8",
          "Value": "b7bede12-0161-42c4-844c-973829a14034"
        },
        {
          "SchemaColumnUId": "9ed7e3f6-ce67-41fb-8dcc-16c9c5e4d08f",
          "Value": "WatQuota"
        },
        {
          "SchemaColumnUId": "b03360a8-d50e-4cb0-a1d7-6d46d0b31bff",
          "Value": "514dc59b-d7d9-4c2b-9346-5c48c0ea252c",
          "DisplayValue": "WatAgreement"
        }
      ]
    },
    {
      "Row": [
        {
          "SchemaColumnUId": "ae0e45ca-c495-4fe7-a39d-3ab7278e1617",
          "Value": "cb7c2067-e2a6-4bc6-96fc-46b3be02c87f"
        },
        {
          "SchemaColumnUId": "087f5050-1d50-4639-905e-b75eea498ff8",
          "Value": "1eb1e117-1923-4d85-bb1b-d8b34dd65239"
        },
        {
          "SchemaColumnUId": "9ed7e3f6-ce67-41fb-8dcc-16c9c5e4d08f",
          "Value": ""
        },
        {
          "SchemaColumnUId": "b03360a8-d50e-4cb0-a1d7-6d46d0b31bff",
          "Value": "4f12d853-5362-4132-bc40-4ba02d283b79",
          "DisplayValue": "SMNewConsultedFaculties"
        }
      ]
    },
    {
      "Row": [
        {
          "SchemaColumnUId": "ae0e45ca-c495-4fe7-a39d-3ab7278e1617",
          "Value": "ccf49785-a40b-4914-9aa1-f08379fdbe8d"
        },
        {
          "SchemaColumnUId": "087f5050-1d50-4639-905e-b75eea498ff8",
          "Value": "26fa4230-a4a3-4e32-a703-da0fe4c3cb3a"
        },
        {
          "SchemaColumnUId": "9ed7e3f6-ce67-41fb-8dcc-16c9c5e4d08f",
          "Value": "WatAgreementClassificationId"
        },
        {
          "SchemaColumnUId": "b03360a8-d50e-4cb0-a1d7-6d46d0b31bff",
          "Value": "514dc59b-d7d9-4c2b-9346-5c48c0ea252c",
          "DisplayValue": "WatAgreement"
        }
      ]
    },
    {
      "Row": [
        {
          "SchemaColumnUId": "ae0e45ca-c495-4fe7-a39d-3ab7278e1617",
          "Value": "cf6f317e-09d5-4c3e-9747-d43c8f0954ef"
        },
        {
          "SchemaColumnUId": "087f5050-1d50-4639-905e-b75eea498ff8",
          "Value": "9928edec-4272-425a-93bb-48743fee4b04"
        },
        {
          "SchemaColumnUId": "9ed7e3f6-ce67-41fb-8dcc-16c9c5e4d08f",
          "Value": "ModifiedOn"
        },
        {
          "SchemaColumnUId": "b03360a8-d50e-4cb0-a1d7-6d46d0b31bff",
          "Value": "622df785-de20-406b-b55c-6583c5196ae3",
          "DisplayValue": "WatRequestType"
        }
      ]
    },
    {
      "Row": [
        {
          "SchemaColumnUId": "ae0e45ca-c495-4fe7-a39d-3ab7278e1617",
          "Value": "d0eb8d86-fd36-45a5-a57e-3e4c2dba241d"
        },
        {
          "SchemaColumnUId": "087f5050-1d50-4639-905e-b75eea498ff8",
          "Value": "2dca11fc-15a5-40e2-8272-0a2ad9bee3e5"
        },
        {
          "SchemaColumnUId": "9ed7e3f6-ce67-41fb-8dcc-16c9c5e4d08f",
          "Value": ""
        },
        {
          "SchemaColumnUId": "b03360a8-d50e-4cb0-a1d7-6d46d0b31bff",
          "Value": "3a686873-ffaa-48f7-b1df-e3c8e0190517",
          "DisplayValue": "SMConsultedASUs"
        }
      ]
    },
    {
      "Row": [
        {
          "SchemaColumnUId": "ae0e45ca-c495-4fe7-a39d-3ab7278e1617",
          "Value": "d1f73ba4-35b2-4bd3-9f1e-1021044bbd04"
        },
        {
          "SchemaColumnUId": "087f5050-1d50-4639-905e-b75eea498ff8",
          "Value": "bceb081c-5f61-420f-b16a-90c522637dd3"
        },
        {
          "SchemaColumnUId": "9ed7e3f6-ce67-41fb-8dcc-16c9c5e4d08f",
          "Value": "WatAgreementSubClassificationId"
        },
        {
          "SchemaColumnUId": "b03360a8-d50e-4cb0-a1d7-6d46d0b31bff",
          "Value": "514dc59b-d7d9-4c2b-9346-5c48c0ea252c",
          "DisplayValue": "WatAgreement"
        }
      ]
    },
    {
      "Row": [
        {
          "SchemaColumnUId": "ae0e45ca-c495-4fe7-a39d-3ab7278e1617",
          "Value": "d2f04c75-adce-4103-942d-94f9c4beb466"
        },
        {
          "SchemaColumnUId": "087f5050-1d50-4639-905e-b75eea498ff8",
          "Value": "defbe8dc-2228-9265-d790-fe99b362ec97"
        },
        {
          "SchemaColumnUId": "9ed7e3f6-ce67-41fb-8dcc-16c9c5e4d08f",
          "Value": "Name"
        },
        {
          "SchemaColumnUId": "b03360a8-d50e-4cb0-a1d7-6d46d0b31bff",
          "Value": "6f6fde23-b6eb-479d-bee4-4d9533526a9c",
          "DisplayValue": "SMQuestions"
        }
      ]
    },
    {
      "Row": [
        {
          "SchemaColumnUId": "ae0e45ca-c495-4fe7-a39d-3ab7278e1617",
          "Value": "d365a67e-6c7c-4152-8110-e728c895345d"
        },
        {
          "SchemaColumnUId": "087f5050-1d50-4639-905e-b75eea498ff8",
          "Value": "2800e792-e676-4b25-b8a0-aa7f0e714056"
        },
        {
          "SchemaColumnUId": "9ed7e3f6-ce67-41fb-8dcc-16c9c5e4d08f",
          "Value": "DelegatedFromId"
        },
        {
          "SchemaColumnUId": "b03360a8-d50e-4cb0-a1d7-6d46d0b31bff",
          "Value": "aad13166-2f7d-4648-a4a5-21d5380c3160",
          "DisplayValue": "WatAgreementVisa"
        }
      ]
    },
    {
      "Row": [
        {
          "SchemaColumnUId": "ae0e45ca-c495-4fe7-a39d-3ab7278e1617",
          "Value": "d51927ff-c44c-4a03-8d85-2c01c5f3f0b9"
        },
        {
          "SchemaColumnUId": "087f5050-1d50-4639-905e-b75eea498ff8",
          "Value": "1cd605e0-196d-473d-8557-0782eb79e8d4"
        },
        {
          "SchemaColumnUId": "9ed7e3f6-ce67-41fb-8dcc-16c9c5e4d08f",
          "Value": "WatAgreementStageId"
        },
        {
          "SchemaColumnUId": "b03360a8-d50e-4cb0-a1d7-6d46d0b31bff",
          "Value": "514dc59b-d7d9-4c2b-9346-5c48c0ea252c",
          "DisplayValue": "WatAgreement"
        }
      ]
    },
    {
      "Row": [
        {
          "SchemaColumnUId": "ae0e45ca-c495-4fe7-a39d-3ab7278e1617",
          "Value": "d5645d8e-1748-466a-a6ac-22328d08d601"
        },
        {
          "SchemaColumnUId": "087f5050-1d50-4639-905e-b75eea498ff8",
          "Value": "c581f011-0e02-460b-83d4-b5fa78e4377d"
        },
        {
          "SchemaColumnUId": "9ed7e3f6-ce67-41fb-8dcc-16c9c5e4d08f",
          "Value": "WatEnglishLanguageRequirements"
        },
        {
          "SchemaColumnUId": "b03360a8-d50e-4cb0-a1d7-6d46d0b31bff",
          "Value": "514dc59b-d7d9-4c2b-9346-5c48c0ea252c",
          "DisplayValue": "WatAgreement"
        }
      ]
    },
    {
      "Row": [
        {
          "SchemaColumnUId": "ae0e45ca-c495-4fe7-a39d-3ab7278e1617",
          "Value": "d5b3e6bc-cf44-484e-97a7-77d3fc21aa52"
        },
        {
          "SchemaColumnUId": "087f5050-1d50-4639-905e-b75eea498ff8",
          "Value": "ad8f191c-2f01-4131-9c76-b5c6964cce54"
        },
        {
          "SchemaColumnUId": "9ed7e3f6-ce67-41fb-8dcc-16c9c5e4d08f",
          "Value": ""
        },
        {
          "SchemaColumnUId": "b03360a8-d50e-4cb0-a1d7-6d46d0b31bff",
          "Value": "4f12d853-5362-4132-bc40-4ba02d283b79",
          "DisplayValue": "SMNewConsultedFaculties"
        }
      ]
    },
    {
      "Row": [
        {
          "SchemaColumnUId": "ae0e45ca-c495-4fe7-a39d-3ab7278e1617",
          "Value": "d64ff298-673a-48ae-982c-8c141662b8d2"
        },
        {
          "SchemaColumnUId": "087f5050-1d50-4639-905e-b75eea498ff8",
          "Value": "c6d9a7f7-1628-4ee2-8c13-6bac56956c8f"
        },
        {
          "SchemaColumnUId": "9ed7e3f6-ce67-41fb-8dcc-16c9c5e4d08f",
          "Value": ""
        },
        {
          "SchemaColumnUId": "b03360a8-d50e-4cb0-a1d7-6d46d0b31bff",
          "Value": "4f12d853-5362-4132-bc40-4ba02d283b79",
          "DisplayValue": "SMNewConsultedFaculties"
        }
      ]
    },
    {
      "Row": [
        {
          "SchemaColumnUId": "ae0e45ca-c495-4fe7-a39d-3ab7278e1617",
          "Value": "d8b798b5-6130-45aa-aebd-0332815a9be5"
        },
        {
          "SchemaColumnUId": "087f5050-1d50-4639-905e-b75eea498ff8",
          "Value": "b366dbf5-efcd-c4ac-2936-a9ea0a9d1ccc"
        },
        {
          "SchemaColumnUId": "9ed7e3f6-ce67-41fb-8dcc-16c9c5e4d08f",
          "Value": ""
        },
        {
          "SchemaColumnUId": "b03360a8-d50e-4cb0-a1d7-6d46d0b31bff",
          "Value": "4f12d853-5362-4132-bc40-4ba02d283b79",
          "DisplayValue": "SMNewConsultedFaculties"
        }
      ]
    },
    {
      "Row": [
        {
          "SchemaColumnUId": "ae0e45ca-c495-4fe7-a39d-3ab7278e1617",
          "Value": "da9e0cd6-de4d-4ea2-a6b3-23a1003bf32f"
        },
        {
          "SchemaColumnUId": "087f5050-1d50-4639-905e-b75eea498ff8",
          "Value": "60cc5643-4ee2-4adf-b76b-06000ad0b067"
        },
        {
          "SchemaColumnUId": "9ed7e3f6-ce67-41fb-8dcc-16c9c5e4d08f",
          "Value": "Code"
        },
        {
          "SchemaColumnUId": "b03360a8-d50e-4cb0-a1d7-6d46d0b31bff",
          "Value": "28bb0de8-2dc5-4c92-8560-c9d7156987de",
          "DisplayValue": "Account"
        }
      ]
    },
    {
      "Row": [
        {
          "SchemaColumnUId": "ae0e45ca-c495-4fe7-a39d-3ab7278e1617",
          "Value": "dab3ac5b-75d3-48ac-9d2c-1894efc0df6e"
        },
        {
          "SchemaColumnUId": "087f5050-1d50-4639-905e-b75eea498ff8",
          "Value": "ebf6bb93-8aa6-4a01-900d-c6ea67affe21"
        },
        {
          "SchemaColumnUId": "9ed7e3f6-ce67-41fb-8dcc-16c9c5e4d08f",
          "Value": "CreatedById"
        },
        {
          "SchemaColumnUId": "b03360a8-d50e-4cb0-a1d7-6d46d0b31bff",
          "Value": "622df785-de20-406b-b55c-6583c5196ae3",
          "DisplayValue": "WatRequestType"
        }
      ]
    },
    {
      "Row": [
        {
          "SchemaColumnUId": "ae0e45ca-c495-4fe7-a39d-3ab7278e1617",
          "Value": "e1a1eab5-8ddc-488e-a0a8-8b38307f343d"
        },
        {
          "SchemaColumnUId": "087f5050-1d50-4639-905e-b75eea498ff8",
          "Value": "7b2b31c4-d11d-4473-88be-d6194f477de8"
        },
        {
          "SchemaColumnUId": "9ed7e3f6-ce67-41fb-8dcc-16c9c5e4d08f",
          "Value": ""
        },
        {
          "SchemaColumnUId": "b03360a8-d50e-4cb0-a1d7-6d46d0b31bff",
          "Value": "514dc59b-d7d9-4c2b-9346-5c48c0ea252c",
          "DisplayValue": "WatAgreement"
        }
      ]
    },
    {
      "Row": [
        {
          "SchemaColumnUId": "ae0e45ca-c495-4fe7-a39d-3ab7278e1617",
          "Value": "e3f784e9-d4df-4271-8ba1-397bae7da9c9"
        },
        {
          "SchemaColumnUId": "087f5050-1d50-4639-905e-b75eea498ff8",
          "Value": "39a73f7b-9b81-4cdc-8266-fccf78e455d1"
        },
        {
          "SchemaColumnUId": "9ed7e3f6-ce67-41fb-8dcc-16c9c5e4d08f",
          "Value": ""
        },
        {
          "SchemaColumnUId": "b03360a8-d50e-4cb0-a1d7-6d46d0b31bff",
          "Value": "3a686873-ffaa-48f7-b1df-e3c8e0190517",
          "DisplayValue": "SMConsultedASUs"
        }
      ]
    },
    {
      "Row": [
        {
          "SchemaColumnUId": "ae0e45ca-c495-4fe7-a39d-3ab7278e1617",
          "Value": "e49d680f-5fd7-4d7b-9e9c-8d046e644607"
        },
        {
          "SchemaColumnUId": "087f5050-1d50-4639-905e-b75eea498ff8",
          "Value": "c293c563-0a53-4e55-a99f-bc8ecfc72fa5"
        },
        {
          "SchemaColumnUId": "9ed7e3f6-ce67-41fb-8dcc-16c9c5e4d08f",
          "Value": ""
        },
        {
          "SchemaColumnUId": "b03360a8-d50e-4cb0-a1d7-6d46d0b31bff",
          "Value": "4f12d853-5362-4132-bc40-4ba02d283b79",
          "DisplayValue": "SMNewConsultedFaculties"
        }
      ]
    },
    {
      "Row": [
        {
          "SchemaColumnUId": "ae0e45ca-c495-4fe7-a39d-3ab7278e1617",
          "Value": "e7d835b2-724e-4316-ac1e-697b20f34683"
        },
        {
          "SchemaColumnUId": "087f5050-1d50-4639-905e-b75eea498ff8",
          "Value": "f33a75e0-7ed4-4b06-a410-b9e9323645b1"
        },
        {
          "SchemaColumnUId": "9ed7e3f6-ce67-41fb-8dcc-16c9c5e4d08f",
          "Value": "VisaOwnerId"
        },
        {
          "SchemaColumnUId": "b03360a8-d50e-4cb0-a1d7-6d46d0b31bff",
          "Value": "aad13166-2f7d-4648-a4a5-21d5380c3160",
          "DisplayValue": "WatAgreementVisa"
        }
      ]
    },
    {
      "Row": [
        {
          "SchemaColumnUId": "ae0e45ca-c495-4fe7-a39d-3ab7278e1617",
          "Value": "ebba7bdb-3961-4f3a-9205-e79de1890336"
        },
        {
          "SchemaColumnUId": "087f5050-1d50-4639-905e-b75eea498ff8",
          "Value": "cc26b1c5-4254-4287-9c15-0b5acd319811"
        },
        {
          "SchemaColumnUId": "9ed7e3f6-ce67-41fb-8dcc-16c9c5e4d08f",
          "Value": ""
        },
        {
          "SchemaColumnUId": "b03360a8-d50e-4cb0-a1d7-6d46d0b31bff",
          "Value": "c8ac3409-ca0e-4d56-945d-6d36a129c6a9",
          "DisplayValue": "Contact"
        }
      ]
    },
    {
      "Row": [
        {
          "SchemaColumnUId": "ae0e45ca-c495-4fe7-a39d-3ab7278e1617",
          "Value": "f19e4f76-a717-4731-a7a0-3ef1747cccbd"
        },
        {
          "SchemaColumnUId": "087f5050-1d50-4639-905e-b75eea498ff8",
          "Value": "40fe84bd-2543-4751-9a9b-2f6d31263fb7"
        },
        {
          "SchemaColumnUId": "9ed7e3f6-ce67-41fb-8dcc-16c9c5e4d08f",
          "Value": ""
        },
        {
          "SchemaColumnUId": "b03360a8-d50e-4cb0-a1d7-6d46d0b31bff",
          "Value": "4f12d853-5362-4132-bc40-4ba02d283b79",
          "DisplayValue": "SMNewConsultedFaculties"
        }
      ]
    },
    {
      "Row": [
        {
          "SchemaColumnUId": "ae0e45ca-c495-4fe7-a39d-3ab7278e1617",
          "Value": "f1aabca4-9ca8-47fb-9e41-d804ce07824e"
        },
        {
          "SchemaColumnUId": "087f5050-1d50-4639-905e-b75eea498ff8",
          "Value": "29667438-0d9a-4415-935f-be8a8bbf970c"
        },
        {
          "SchemaColumnUId": "9ed7e3f6-ce67-41fb-8dcc-16c9c5e4d08f",
          "Value": "WatRequestTypeId"
        },
        {
          "SchemaColumnUId": "b03360a8-d50e-4cb0-a1d7-6d46d0b31bff",
          "Value": "514dc59b-d7d9-4c2b-9346-5c48c0ea252c",
          "DisplayValue": "WatAgreement"
        }
      ]
    },
    {
      "Row": [
        {
          "SchemaColumnUId": "ae0e45ca-c495-4fe7-a39d-3ab7278e1617",
          "Value": "f2d2d038-e2c4-43c6-9c57-ecec020ac77a"
        },
        {
          "SchemaColumnUId": "087f5050-1d50-4639-905e-b75eea498ff8",
          "Value": "07b08fa1-8369-4370-b31f-7bb2ac886baf"
        },
        {
          "SchemaColumnUId": "9ed7e3f6-ce67-41fb-8dcc-16c9c5e4d08f",
          "Value": ""
        },
        {
          "SchemaColumnUId": "b03360a8-d50e-4cb0-a1d7-6d46d0b31bff",
          "Value": "4f12d853-5362-4132-bc40-4ba02d283b79",
          "DisplayValue": "SMNewConsultedFaculties"
        }
      ]
    },
    {
      "Row": [
        {
          "SchemaColumnUId": "ae0e45ca-c495-4fe7-a39d-3ab7278e1617",
          "Value": "f353446d-9fc1-4563-82da-54d6944321fd"
        },
        {
          "SchemaColumnUId": "087f5050-1d50-4639-905e-b75eea498ff8",
          "Value": "c7d206aa-401c-4095-ba43-757c8f1914e9"
        },
        {
          "SchemaColumnUId": "9ed7e3f6-ce67-41fb-8dcc-16c9c5e4d08f",
          "Value": "IsCanceled"
        },
        {
          "SchemaColumnUId": "b03360a8-d50e-4cb0-a1d7-6d46d0b31bff",
          "Value": "aad13166-2f7d-4648-a4a5-21d5380c3160",
          "DisplayValue": "WatAgreementVisa"
        }
      ]
    },
    {
      "Row": [
        {
          "SchemaColumnUId": "ae0e45ca-c495-4fe7-a39d-3ab7278e1617",
          "Value": "f41ba783-b477-4df1-8f5e-96aca3315e65"
        },
        {
          "SchemaColumnUId": "087f5050-1d50-4639-905e-b75eea498ff8",
          "Value": "771a60e2-020c-4dd2-8512-b428b8a47dba"
        },
        {
          "SchemaColumnUId": "9ed7e3f6-ce67-41fb-8dcc-16c9c5e4d08f",
          "Value": ""
        },
        {
          "SchemaColumnUId": "b03360a8-d50e-4cb0-a1d7-6d46d0b31bff",
          "Value": "c8ac3409-ca0e-4d56-945d-6d36a129c6a9",
          "DisplayValue": "Contact"
        }
      ]
    },
    {
      "Row": [
        {
          "SchemaColumnUId": "ae0e45ca-c495-4fe7-a39d-3ab7278e1617",
          "Value": "fd81d1ae-fe5a-4c37-ae1d-e12588b7ec6c"
        },
        {
          "SchemaColumnUId": "087f5050-1d50-4639-905e-b75eea498ff8",
          "Value": "d2d96e97-13f1-46f7-957a-31a0a8e23f63"
        },
        {
          "SchemaColumnUId": "9ed7e3f6-ce67-41fb-8dcc-16c9c5e4d08f",
          "Value": "WatAgreementTypeId"
        },
        {
          "SchemaColumnUId": "b03360a8-d50e-4cb0-a1d7-6d46d0b31bff",
          "Value": "514dc59b-d7d9-4c2b-9346-5c48c0ea252c",
          "DisplayValue": "WatAgreement"
        }
      ]
    },
    {
      "Row": [
        {
          "SchemaColumnUId": "ae0e45ca-c495-4fe7-a39d-3ab7278e1617",
          "Value": "fdb7ff12-3701-40b9-bae1-fe788af1d37f"
        },
        {
          "SchemaColumnUId": "087f5050-1d50-4639-905e-b75eea498ff8",
          "Value": "cdb581da-5dc6-4e12-9a52-1b1e3b8b5629"
        },
        {
          "SchemaColumnUId": "9ed7e3f6-ce67-41fb-8dcc-16c9c5e4d08f",
          "Value": ""
        },
        {
          "SchemaColumnUId": "b03360a8-d50e-4cb0-a1d7-6d46d0b31bff",
          "Value": "4f12d853-5362-4132-bc40-4ba02d283b79",
          "DisplayValue": "SMNewConsultedFaculties"
        }
      ]
    },
    {
      "Row": [
        {
          "SchemaColumnUId": "ae0e45ca-c495-4fe7-a39d-3ab7278e1617",
          "Value": "fe80702d-d193-45b2-a2d5-919879e5eb6b"
        },
        {
          "SchemaColumnUId": "087f5050-1d50-4639-905e-b75eea498ff8",
          "Value": "721b5212-bd91-4a69-9fe2-5edc259b772f"
        },
        {
          "SchemaColumnUId": "9ed7e3f6-ce67-41fb-8dcc-16c9c5e4d08f",
          "Value": ""
        },
        {
          "SchemaColumnUId": "b03360a8-d50e-4cb0-a1d7-6d46d0b31bff",
          "Value": "4f12d853-5362-4132-bc40-4ba02d283b79",
          "DisplayValue": "SMNewConsultedFaculties"
        }
      ]
    }
  ]
}