﻿{
  "Descriptor": {
    "UId": "310f2f2a-8073-494a-bcc9-3af09eedead1",
    "Name": "WatProcess17AgreementManagement",
    "ModifiedOnUtc": "\/Date(1677902357000)\/",
    "ManagerName": "ProcessSchemaManager",
    "Caption": "SM#17 (Agreements): Agreement Management",
    "DependsOn": []
  }
}