﻿{
  "Descriptor": {
    "UId": "4784b056-352e-4470-8a0a-77c91b28e596",
    "Name": "WatReceivedGiftFile",
    "ModifiedOnUtc": "\/Date(1616011981000)\/",
    "Parent": {
      "UId": "556c5867-60a7-4456-aae1-a57a122bef70",
      "Name": "File"
    },
    "ManagerName": "EntitySchemaManager",
    "Caption": "Received Gifts attachment"
  }
}