﻿{
  "PackageData": [
    {
      "Row": [
        {
          "SchemaColumnUId": "ae0e45ca-c495-4fe7-a39d-3ab7278e1617",
          "Value": "efb4c27f-b2f2-46fc-a200-1432c4052170"
        },
        {
          "SchemaColumnUId": "3205952e-7126-45fa-b720-9cd99f7875ae",
          "Value": "47e57f88-7b44-47d3-91af-1abe997cb0c9",
          "DisplayValue": "Agreement Stakeholders"
        },
        {
          "SchemaColumnUId": "8f11220c-7647-4c8c-90b9-b79e03e8f6ee",
          "Value": "a1074938-799a-4097-9574-7e9543cb74e4"
        },
        {
          "SchemaColumnUId": "f8cd1f5c-b6e0-4a37-88ee-05929d09b2e8",
          "Value": "7da7ceef-03d7-43d8-a021-ffc5f5bb5e3c"
        }
      ]
    }
  ]
}