﻿{
  "PackageData": [
    {
      "Row": [
        {
          "SchemaColumnUId": "ae0e45ca-c495-4fe7-a39d-3ab7278e1617",
          "Value": "08506e04-9633-459d-8644-c857c24f0b62"
        },
        {
          "SchemaColumnUId": "bd12ea8e-2bc2-42bf-925a-3ab766cc0b9f",
          "Value": 72
        },
        {
          "SchemaColumnUId": "0e3d3857-2203-40e4-b1ec-8e972007650e",
          "Value": "f3ec7ec0-ae93-4488-b97a-4db29361791e",
          "DisplayValue": "Admin"
        },
        {
          "SchemaColumnUId": "991cf5ef-ffb8-49a5-add3-074a595f6c43",
          "Value": "63ed49b8-ee7d-4fe4-a5cc-7563caecfc1e",
          "DisplayValue": "Received Gifts"
        }
      ]
    }
  ]
}