{
  "MetaData": {
    "Schema": {
      "ManagerName": "DcmSchemaManager",
      "UId": "47de129f-26d6-439c-9079-cdd9c5b0ba62",
      "A2": "WatCase_HospitalityRequest",
      "A5": "75bcb584-5e36-448a-a4b7-140d2dd57696",
      "B1": [],
      "B2": [],
      "B3": [],
      "B6": "80852c4e-6e90-4769-a5e6-c485d9bc7022",
      "B8": "7.16.3.1473",
      "FJ1": [],
      "IJ1": true,
      "BK8": "51b280eb-d8a3-4932-81b9-ef61a0877aab",
      "IJ10": true,
      "EntitySchemaUId": "1e22caba-ccc9-4071-a347-495c34cf34c5",
      "BK15": [],
      "BK37": {
        "BL1": "Terrasoft.Core.Process.ProcessSchemaParameter",
        "UId": "cdd58be7-2dba-4a5e-869b-1ad5d6d7513a",
        "A2": "NotificationCaption",
        "A3": "47de129f-26d6-439c-9079-cdd9c5b0ba62",
        "A4": "47de129f-26d6-439c-9079-cdd9c5b0ba62",
        "L1": "8b3f29bb-ea14-4ce5-a5c5-293a929b6ba2",
        "L8": {
          "GS1": 3,
          "GS2": "[#[PropertyValue:Caption]#]"
        }
      },
      "Stages": [
        {
          "BL1": "Terrasoft.Core.DcmProcess.DcmSchemaStage",
          "UId": "36a050e1-cd80-4cab-9fef-fd62bb60cbe7",
          "A2": "Stage1",
          "A3": "47de129f-26d6-439c-9079-cdd9c5b0ba62",
          "A4": "47de129f-26d6-439c-9079-cdd9c5b0ba62",
          "A5": "80852c4e-6e90-4769-a5e6-c485d9bc7022",
          "Color": "#4ca6a3",
          "StageRecordId": "ee30b465-2b83-4d12-8f68-2383ff26669e",
          "Elements": []
        },
        {
          "BL1": "Terrasoft.Core.DcmProcess.DcmSchemaStage",
          "UId": "940f7d55-a1c2-4657-a455-e0c2de119a1a",
          "A2": "Stage2",
          "A3": "47de129f-26d6-439c-9079-cdd9c5b0ba62",
          "A4": "47de129f-26d6-439c-9079-cdd9c5b0ba62",
          "A5": "80852c4e-6e90-4769-a5e6-c485d9bc7022",
          "Color": "#fbad43",
          "StageRecordId": "b017e847-08ae-4142-b7ab-d60445f80092",
          "Elements": []
        },
        {
          "BL1": "Terrasoft.Core.DcmProcess.DcmSchemaStage",
          "UId": "8743d5e8-0584-4de9-bf43-7de20ecf056f",
          "A2": "Stage3",
          "A3": "47de129f-26d6-439c-9079-cdd9c5b0ba62",
          "A4": "47de129f-26d6-439c-9079-cdd9c5b0ba62",
          "A5": "80852c4e-6e90-4769-a5e6-c485d9bc7022",
          "Color": "#8ecb60",
          "StageRecordId": "724f0c3c-90f7-4d05-bdce-1a33761da7fa",
          "Elements": []
        },
        {
          "BL1": "Terrasoft.Core.DcmProcess.DcmSchemaStage",
          "UId": "0348fc7a-c2aa-4298-a7f4-7f3841644098",
          "A2": "Stage5",
          "A3": "47de129f-26d6-439c-9079-cdd9c5b0ba62",
          "A4": "47de129f-26d6-439c-9079-cdd9c5b0ba62",
          "A5": "80852c4e-6e90-4769-a5e6-c485d9bc7022",
          "ParentStageUId": "8743d5e8-0584-4de9-bf43-7de20ecf056f",
          "Color": "#c73920",
          "StageRecordId": "9b157a42-b3f9-4430-94f4-1337a96b5451",
          "Elements": [],
          "IsSuccessful": false
        },
        {
          "BL1": "Terrasoft.Core.DcmProcess.DcmSchemaStage",
          "UId": "0fc87c54-0416-4977-a7e7-2a900f65603e",
          "A2": "Stage4",
          "A3": "47de129f-26d6-439c-9079-cdd9c5b0ba62",
          "A4": "47de129f-26d6-439c-9079-cdd9c5b0ba62",
          "A5": "80852c4e-6e90-4769-a5e6-c485d9bc7022",
          "ParentStageUId": "8743d5e8-0584-4de9-bf43-7de20ecf056f",
          "Color": "#ef7e63",
          "StageRecordId": "d64e17a7-c754-41e9-a363-69746cf7ed01",
          "Elements": [],
          "IsSuccessful": false
        }
      ],
      "Transitions": [],
      "StageConnections": {
        "Connections": [
          {
            "Source": "940f7d55-a1c2-4657-a455-e0c2de119a1a",
            "Target": "36a050e1-cd80-4cab-9fef-fd62bb60cbe7"
          },
          {
            "Source": "36a050e1-cd80-4cab-9fef-fd62bb60cbe7",
            "Target": "940f7d55-a1c2-4657-a455-e0c2de119a1a"
          },
          {
            "Source": "8743d5e8-0584-4de9-bf43-7de20ecf056f",
            "Target": "36a050e1-cd80-4cab-9fef-fd62bb60cbe7"
          },
          {
            "Source": "36a050e1-cd80-4cab-9fef-fd62bb60cbe7",
            "Target": "8743d5e8-0584-4de9-bf43-7de20ecf056f"
          },
          {
            "Source": "8743d5e8-0584-4de9-bf43-7de20ecf056f",
            "Target": "940f7d55-a1c2-4657-a455-e0c2de119a1a"
          },
          {
            "Source": "940f7d55-a1c2-4657-a455-e0c2de119a1a",
            "Target": "8743d5e8-0584-4de9-bf43-7de20ecf056f"
          },
          {
            "Source": "0fc87c54-0416-4977-a7e7-2a900f65603e",
            "Target": "36a050e1-cd80-4cab-9fef-fd62bb60cbe7"
          },
          {
            "Source": "36a050e1-cd80-4cab-9fef-fd62bb60cbe7",
            "Target": "0fc87c54-0416-4977-a7e7-2a900f65603e"
          },
          {
            "Source": "0fc87c54-0416-4977-a7e7-2a900f65603e",
            "Target": "940f7d55-a1c2-4657-a455-e0c2de119a1a"
          },
          {
            "Source": "940f7d55-a1c2-4657-a455-e0c2de119a1a",
            "Target": "0fc87c54-0416-4977-a7e7-2a900f65603e"
          },
          {
            "Source": "0fc87c54-0416-4977-a7e7-2a900f65603e",
            "Target": "8743d5e8-0584-4de9-bf43-7de20ecf056f"
          },
          {
            "Source": "8743d5e8-0584-4de9-bf43-7de20ecf056f",
            "Target": "0fc87c54-0416-4977-a7e7-2a900f65603e"
          },
          {
            "Source": "0348fc7a-c2aa-4298-a7f4-7f3841644098",
            "Target": "36a050e1-cd80-4cab-9fef-fd62bb60cbe7"
          },
          {
            "Source": "36a050e1-cd80-4cab-9fef-fd62bb60cbe7",
            "Target": "0348fc7a-c2aa-4298-a7f4-7f3841644098"
          },
          {
            "Source": "0348fc7a-c2aa-4298-a7f4-7f3841644098",
            "Target": "940f7d55-a1c2-4657-a455-e0c2de119a1a"
          },
          {
            "Source": "940f7d55-a1c2-4657-a455-e0c2de119a1a",
            "Target": "0348fc7a-c2aa-4298-a7f4-7f3841644098"
          },
          {
            "Source": "0348fc7a-c2aa-4298-a7f4-7f3841644098",
            "Target": "8743d5e8-0584-4de9-bf43-7de20ecf056f"
          },
          {
            "Source": "8743d5e8-0584-4de9-bf43-7de20ecf056f",
            "Target": "0348fc7a-c2aa-4298-a7f4-7f3841644098"
          },
          {
            "Source": "0348fc7a-c2aa-4298-a7f4-7f3841644098",
            "Target": "0fc87c54-0416-4977-a7e7-2a900f65603e"
          },
          {
            "Source": "0fc87c54-0416-4977-a7e7-2a900f65603e",
            "Target": "0348fc7a-c2aa-4298-a7f4-7f3841644098"
          }
        ]
      },
      "StageColumnUId": "8e3c7364-2c6d-47db-80fd-9bd3a7a4d30b",
      "Filters": "{\"className\":\"Terrasoft.FilterGroup\",\"items\":{\"d80b4519-83f1-4b1a-8ee6-e629b2aed5de\":{\"className\":\"Terrasoft.InFilter\",\"filterType\":4,\"comparisonType\":3,\"isEnabled\":true,\"trimDateTimeParameterToDate\":false,\"leftExpression\":{\"className\":\"Terrasoft.ColumnExpression\",\"expressionType\":0,\"columnPath\":\"WatDelegationType\"},\"isAggregative\":false,\"key\":\"d80b4519-83f1-4b1a-8ee6-e629b2aed5de\",\"dataValueType\":10,\"leftExpressionCaption\":\"Delegation Type\",\"referenceSchemaName\":\"WatDelegationType\",\"rightExpressions\":[{\"className\":\"Terrasoft.ParameterExpression\",\"expressionType\":2,\"parameter\":{\"className\":\"Terrasoft.Parameter\",\"dataValueType\":10,\"value\":{\"Name\":\"Incoming\",\"Id\":\"b5c24527-575e-4d30-8bc7-93eeb5bd077b\",\"value\":\"b5c24527-575e-4d30-8bc7-93eeb5bd077b\",\"displayValue\":\"Incoming\"}}},{\"className\":\"Terrasoft.ParameterExpression\",\"expressionType\":2,\"parameter\":{\"className\":\"Terrasoft.Parameter\",\"dataValueType\":10,\"value\":{\"Name\":\"Outgoing\",\"Id\":\"d6b69e7a-48f5-45a8-82cb-2136ca9d88ab\",\"value\":\"d6b69e7a-48f5-45a8-82cb-2136ca9d88ab\",\"displayValue\":\"Outgoing\"}}}]}},\"logicalOperation\":0,\"isEnabled\":true,\"filterType\":6,\"rootSchemaName\":\"WatHospitalityRequest\",\"key\":\"\"}",
      "SystemElements": []
    }
  }
}