﻿{
  "SqlScript": {
    "UId": "b3736a23-e975-4c3f-a4a3-09aeedcb5d6b",
    "Name": "Lookup_EFASELAS",
    "DBEngineType": 0,
    "InstallType": 2,
    "ModifiedOnUtc": "\/Date(1600272174000)\/",
    "DependsOn": []
  }
}