﻿{
  "Descriptor": {
    "UId": "09d64040-4471-45bb-b04e-c2456c518c7c",
    "Name": "ContactPageV2",
    "ModifiedOnUtc": "\/Date(1628192671000)\/",
    "Parent": {
      "UId": "8737e39c-ac08-4903-acd0-11570570691d",
      "Name": "ContactPageV2"
    },
    "ExtendParent": true,
    "ManagerName": "ClientUnitSchemaManager",
    "Caption": "Display schema - Contact card"
  }
}