﻿{
  "Descriptor": {
    "UId": "8edc91b1-1083-4297-8584-bac6ecdb5dc5",
    "Name": "WatDelegationGiftsInFolder",
    "ModifiedOnUtc": "\/Date(1599083654000)\/",
    "Parent": {
      "UId": "4f63bafb-e9e7-4082-b92e-66b97c14017c",
      "Name": "BaseItemInFolder"
    },
    "ManagerName": "EntitySchemaManager",
    "Caption": "Delegation Gifts in Folder"
  }
}