﻿{
  "SqlScript": {
    "UId": "85180a03-6e1a-474d-87bf-8cee124afb98",
    "Name": "SysModuleEdit_MiniPage_HospitalityChange",
    "DBEngineType": 0,
    "InstallType": 2,
    "ModifiedOnUtc": "\/Date(1604346911000)\/",
    "DependsOn": []
  }
}