﻿{
  "Descriptor": {
    "UId": "ad47ab96-fa5c-47ac-a779-5c305d4f752c",
    "Name": "WatAgreementTag",
    "ModifiedOnUtc": "\/Date(1677173180000)\/",
    "Parent": {
      "UId": "c662ead8-b1e4-435b-b1c8-d05d7a106ab6",
      "Name": "WatAgreementTag"
    },
    "ExtendParent": true,
    "ManagerName": "EntitySchemaManager",
    "Caption": "Agreements section tag",
    "DependsOn": []
  }
}