﻿{
  "Descriptor": {
    "UId": "2f7049ea-4d04-4ccb-81dd-c43e1e6d9cb8",
    "Name": "WatDelegationInstitutionsFile",
    "ModifiedOnUtc": "\/Date(1598995610000)\/",
    "Parent": {
      "UId": "556c5867-60a7-4456-aae1-a57a122bef70",
      "Name": "File"
    },
    "ManagerName": "EntitySchemaManager",
    "Caption": "Delegation Institutions attachment"
  }
}