﻿{
  "Descriptor": {
    "UId": "b563ffc4-8577-42d6-a013-21137618d255",
    "Name": "WatAgreementClassification",
    "ModifiedOnUtc": "\/Date(1606332417000)\/",
    "Parent": {
      "UId": "11ab4bcb-9b23-4b6d-9c86-520fae925d75",
      "Name": "BaseLookup"
    },
    "ManagerName": "EntitySchemaManager",
    "Caption": "Agreement Classification"
  }
}