﻿{
  "SqlScript": {
    "UId": "dfa02fe6-86b3-4f63-b201-c75ba286eee4",
    "Name": "Lookup_PreDepartureWarning",
    "DBEngineType": 0,
    "InstallType": 2,
    "ModifiedOnUtc": "\/Date(1616547510000)\/",
    "DependsOn": []
  }
}