﻿{
  "Descriptor": {
    "UId": "c30d2cd8-7fcb-40a7-8388-93083c125be2",
    "Name": "WatProcess53LockGroupTravelRegistrationDocument",
    "ModifiedOnUtc": "\/Date(1675382266000)\/",
    "ManagerName": "ProcessSchemaManager",
    "Caption": "SM#53 (Document): Lock group travel registration document",
    "DependsOn": []
  }
}