﻿{
  "PackageData": [
    {
      "Row": [
        {
          "SchemaColumnUId": "ae0e45ca-c495-4fe7-a39d-3ab7278e1617",
          "Value": "4f3ad157-1400-467a-a173-2cf3c83a5ede"
        },
        {
          "SchemaColumnUId": "2bf9d686-2f7e-464b-a049-041c3225dc51",
          "Value": "null"
        },
        {
          "SchemaColumnUId": "42ed2383-1455-49ec-82df-1a184c12a398",
          "Value": "[{\"columnUId\":\"d2d96e97-13f1-46f7-957a-31a0a8e23f63\"}]"
        },
        {
          "SchemaColumnUId": "beb7f6b2-f338-45ac-80a8-7177238b52a9",
          "Value": "1cd605e0-196d-473d-8557-0782eb79e8d4"
        },
        {
          "SchemaColumnUId": "fa51db91-37a6-4df4-bbcd-8481740c5d8c",
          "Value": "077de010-76b7-40b4-8853-b5e3baf09b6d",
          "DisplayValue": "null"
        }
      ]
    }
  ]
}