﻿{
  "Descriptor": {
    "UId": "5bb8d899-8a8f-4058-881b-24f317af58ad",
    "Name": "WatLEARNRegistrationFolder",
    "ModifiedOnUtc": "\/Date(1620920592000)\/",
    "Parent": {
      "UId": "d602bf96-d029-4b07-9755-63c8f5cb5ed5",
      "Name": "BaseFolder"
    },
    "ManagerName": "EntitySchemaManager",
    "Caption": "LEARN Registrations folder"
  }
}