﻿{
  "SqlScript": {
    "UId": "79ac9e98-857f-46fd-a3c4-ec72beea9587",
    "Name": "SysImage_EmailTemplate_Wat5_DelegationDeclineEmail",
    "DBEngineType": 0,
    "InstallType": 2,
    "ModifiedOnUtc": "\/Date(1608761499000)\/",
    "DependsOn": []
  }
}