﻿{
  "SqlScript": {
    "UId": "2182eab1-72fb-4ede-846d-d59228a938a5",
    "Name": "SysSetting_Learn2",
    "DBEngineType": 0,
    "InstallType": 0,
    "ModifiedOnUtc": "\/Date(1619639348000)\/",
    "DependsOn": []
  }
}