﻿{
  "SqlScript": {
    "UId": "8904fd14-415a-41f4-9dd3-bc573300db51",
    "Name": "Lookup_RequestApproval",
    "DBEngineType": 0,
    "InstallType": 2,
    "ModifiedOnUtc": "\/Date(1604456242000)\/",
    "DependsOn": []
  }
}