﻿{
  "Descriptor": {
    "UId": "97a41e2f-42dd-426f-a330-3b0846a7fa14",
    "PackageVersion": "7.11.1",
    "Name": "TcmDetailsSummary",
    "ModifiedOnUtc": "\/Date(1511040395000)\/",
    "Maintainer": "Customer",
    "DependsOn": [
      {
        "UId": "613fd913-be03-46ce-909b-f44e4225469e",
        "PackageVersion": "7.8.0",
        "Name": "UIv2"
      },
      {
        "UId": "a7d9c356-450c-46d7-bc85-72dca4e280ba",
        "PackageVersion": "7.8.0",
        "Name": "NUI"
      }
    ]
  }
}