﻿{
  "Properties": {
    "AdministratedByColumns": "False",
    "AdministratedByOperations": "True",
    "AdministratedByRecords": "False",
    "CreatedInVersion": "8.0.4.1870",
    "IsSSPAvailable": "False",
    "IsTrackChangesInDB": "False",
    "IsVirtual": "False"
  }
}