﻿{
  "Descriptor": {
    "UId": "c8a5fd83-d609-432a-98e6-b0a0b9b31662",
    "Name": "SMConsultedASUEmailNotificationMainBP",
    "ModifiedOnUtc": "\/Date(1680300497000)\/",
    "ManagerName": "ProcessSchemaManager",
    "Caption": "Consulted ASU Email Notification",
    "DependsOn": []
  }
}