﻿{
  "PackageData": [
    {
      "Row": [
        {
          "SchemaColumnUId": "ae0e45ca-c495-4fe7-a39d-3ab7278e1617",
          "Value": "b69cc479-91ca-41f1-97d9-0d8dd64c5e9b"
        },
        {
          "SchemaColumnUId": "a9afe7de-15cf-48a6-b6fb-249b1883c032",
          "Value": "2b7a2aab-e125-4175-bda2-109d572caa82",
          "DisplayValue": "null"
        },
        {
          "SchemaColumnUId": "c86fd533-a630-42fa-8042-c604384abe1f",
          "Value": "c8565240-1da3-4a68-bd4e-280f17b0d32e",
          "DisplayValue": "ServicePortal"
        }
      ]
    }
  ]
}