﻿{
  "Descriptor": {
    "UId": "6eba3e14-0c30-46d2-9e8f-863de28af926",
    "Name": "WatMasterAgreement0821d55dSection",
    "ModifiedOnUtc": "\/Date(1605663915000)\/",
    "Parent": {
      "UId": "7912fb69-4fee-429f-8b23-93943c35d66d",
      "Name": "BaseSectionV2"
    },
    "ManagerName": "ClientUnitSchemaManager",
    "Caption": "Section schema: \"Master Agreement\""
  }
}