﻿{
  "Descriptor": {
    "UId": "82d3ba9e-59e8-462d-8fbd-7c838b4b7c29",
    "Name": "SMSendEmail",
    "ModifiedOnUtc": "\/Date(1605564416000)\/",
    "Maintainer": "Customer",
    "DependsOn": [
      {
        "UId": "613fd913-be03-46ce-909b-f44e4225469e",
        "PackageVersion": "7.8.0",
        "Name": "UIv2"
      }
    ]
  }
}