﻿{
  "SqlScript": {
    "UId": "5427e4b7-03f7-43e1-832f-8b0f99ef42dc",
    "Name": "Lookup_FacultyDepartment",
    "DBEngineType": 0,
    "InstallType": 2,
    "ModifiedOnUtc": "\/Date(1602022759000)\/",
    "DependsOn": []
  }
}