﻿{
  "MetaData": {
    "Schema": {
      "ManagerName": "SourceCodeSchemaManager",
      "UId": "d5213f59-5204-4310-9c43-315a22a387b7",
      "A2": "WatAnvilExcelReportService",
      "A5": "75bcb584-5e36-448a-a4b7-140d2dd57696",
      "B1": [],
      "B2": [],
      "B3": [],
      "B6": "80852c4e-6e90-4769-a5e6-c485d9bc7022",
      "B8": "7.16.3.1473",
      "HD1": "50e3acc0-26fc-4237-a095-849a1d534bd3"
    }
  }
}