﻿{
  "PackageData": [
    {
      "Row": [
        {
          "SchemaColumnUId": "ae0e45ca-c495-4fe7-a39d-3ab7278e1617",
          "Value": "800ae548-c7c8-4615-897e-a3f587f734b5"
        },
        {
          "SchemaColumnUId": "a18861e7-c840-4cae-9dd6-30277b513dc9",
          "Value": "febc38ef-9139-45c1-a86d-6ed1e7f7cf14",
          "DisplayValue": "null"
        },
        {
          "SchemaColumnUId": "cec2ae4b-d2de-4c80-99a0-a59dc2a154cd",
          "Value": "7ebfa3f7-5f84-42ef-ae1d-77b2f2fe570d"
        }
      ]
    }
  ]
}