﻿{
  "SqlScript": {
    "UId": "223803da-e419-4a5e-956b-453289bffa5d",
    "Name": "SysModuleInWorkplace_Agreements",
    "DBEngineType": 0,
    "InstallType": 0,
    "ModifiedOnUtc": "\/Date(1667414138000)\/",
    "BackwardCompatibilityConfirmed": false,
    "DependsOn": [
      {
        "UId": "a1f3f09e-1b1e-44e7-a685-14e625947af7",
        "Name": "SysWorkplace"
      }
    ]
  }
}