﻿{
  "Descriptor": {
    "UId": "32437b32-7bfd-4b46-95c2-6ae5c19e2e86",
    "Name": "WatTripInTag",
    "ModifiedOnUtc": "\/Date(1602768480000)\/",
    "Parent": {
      "UId": "5894a2b0-51d5-419a-82bb-238674634270",
      "Name": "BaseEntityInTag"
    },
    "ManagerName": "EntitySchemaManager",
    "Caption": "Trips section record tag"
  }
}