﻿{
  "PackageData": [
    {
      "Row": [
        {
          "SchemaColumnUId": "ae0e45ca-c495-4fe7-a39d-3ab7278e1617",
          "Value": "263dd183-2352-47b6-b3d8-d07bfe9dbf02"
        },
        {
          "SchemaColumnUId": "134c280f-f7a7-4ac5-beeb-4ab1ed9e4ff5",
          "Value": "0b5ff414-e00a-4115-af0c-fe872e826f07"
        },
        {
          "SchemaColumnUId": "21a61238-45dc-4089-9882-cc1be097cbf8",
          "Value": true
        },
        {
          "SchemaColumnUId": "2cda2c20-d48a-44d0-b266-5542730b1ad9",
          "Value": true
        },
        {
          "SchemaColumnUId": "379b41a2-dfb5-4069-a267-88ec0653e391",
          "Value": true
        },
        {
          "SchemaColumnUId": "a3dc68d6-f74e-4a57-8411-77a88dfe0bbb",
          "Value": true
        },
        {
          "SchemaColumnUId": "a72532ba-4755-4b2f-8079-c382ae6d0e9a",
          "Value": 0
        },
        {
          "SchemaColumnUId": "d27e9964-a7a6-46dd-9f9a-7cb470c33b98",
          "Value": "720b771c-e7a7-4f31-9cfb-52cd21c3739f",
          "DisplayValue": "All portal users"
        }
      ]
    },
    {
      "Row": [
        {
          "SchemaColumnUId": "ae0e45ca-c495-4fe7-a39d-3ab7278e1617",
          "Value": "280ab83d-128b-4e9b-8255-f3f06e2b130e"
        },
        {
          "SchemaColumnUId": "134c280f-f7a7-4ac5-beeb-4ab1ed9e4ff5",
          "Value": "93986bfe-2dbd-46bc-9bf9-d03dfefbf3b8"
        },
        {
          "SchemaColumnUId": "21a61238-45dc-4089-9882-cc1be097cbf8",
          "Value": true
        },
        {
          "SchemaColumnUId": "2cda2c20-d48a-44d0-b266-5542730b1ad9",
          "Value": true
        },
        {
          "SchemaColumnUId": "379b41a2-dfb5-4069-a267-88ec0653e391",
          "Value": true
        },
        {
          "SchemaColumnUId": "a3dc68d6-f74e-4a57-8411-77a88dfe0bbb",
          "Value": true
        },
        {
          "SchemaColumnUId": "a72532ba-4755-4b2f-8079-c382ae6d0e9a",
          "Value": 0
        },
        {
          "SchemaColumnUId": "d27e9964-a7a6-46dd-9f9a-7cb470c33b98",
          "Value": "a29a3ba5-4b0d-de11-9a51-005056c00008",
          "DisplayValue": "All employees"
        }
      ]
    },
    {
      "Row": [
        {
          "SchemaColumnUId": "ae0e45ca-c495-4fe7-a39d-3ab7278e1617",
          "Value": "2973bb32-bcbf-4f39-80cb-7fe04fbb5942"
        },
        {
          "SchemaColumnUId": "134c280f-f7a7-4ac5-beeb-4ab1ed9e4ff5",
          "Value": "25d7c1ab-1de0-4501-b402-02e0e5a72d6e"
        },
        {
          "SchemaColumnUId": "21a61238-45dc-4089-9882-cc1be097cbf8",
          "Value": true
        },
        {
          "SchemaColumnUId": "2cda2c20-d48a-44d0-b266-5542730b1ad9",
          "Value": true
        },
        {
          "SchemaColumnUId": "379b41a2-dfb5-4069-a267-88ec0653e391",
          "Value": true
        },
        {
          "SchemaColumnUId": "a3dc68d6-f74e-4a57-8411-77a88dfe0bbb",
          "Value": true
        },
        {
          "SchemaColumnUId": "a72532ba-4755-4b2f-8079-c382ae6d0e9a",
          "Value": 1
        },
        {
          "SchemaColumnUId": "d27e9964-a7a6-46dd-9f9a-7cb470c33b98",
          "Value": "a29a3ba5-4b0d-de11-9a51-005056c00008",
          "DisplayValue": "All employees"
        }
      ]
    },
    {
      "Row": [
        {
          "SchemaColumnUId": "ae0e45ca-c495-4fe7-a39d-3ab7278e1617",
          "Value": "2fe27683-d3ed-4b10-ac5a-2986c150bcee"
        },
        {
          "SchemaColumnUId": "134c280f-f7a7-4ac5-beeb-4ab1ed9e4ff5",
          "Value": "25d7c1ab-1de0-4501-b402-02e0e5a72d6e"
        },
        {
          "SchemaColumnUId": "21a61238-45dc-4089-9882-cc1be097cbf8",
          "Value": true
        },
        {
          "SchemaColumnUId": "2cda2c20-d48a-44d0-b266-5542730b1ad9",
          "Value": true
        },
        {
          "SchemaColumnUId": "379b41a2-dfb5-4069-a267-88ec0653e391",
          "Value": true
        },
        {
          "SchemaColumnUId": "a3dc68d6-f74e-4a57-8411-77a88dfe0bbb",
          "Value": true
        },
        {
          "SchemaColumnUId": "a72532ba-4755-4b2f-8079-c382ae6d0e9a",
          "Value": 0
        },
        {
          "SchemaColumnUId": "d27e9964-a7a6-46dd-9f9a-7cb470c33b98",
          "Value": "720b771c-e7a7-4f31-9cfb-52cd21c3739f",
          "DisplayValue": "All portal users"
        }
      ]
    },
    {
      "Row": [
        {
          "SchemaColumnUId": "ae0e45ca-c495-4fe7-a39d-3ab7278e1617",
          "Value": "39736e5d-e3bc-4a40-8b19-7facd86a5037"
        },
        {
          "SchemaColumnUId": "134c280f-f7a7-4ac5-beeb-4ab1ed9e4ff5",
          "Value": "54aa771f-fba6-4d76-9239-bff3f00ee3e5"
        },
        {
          "SchemaColumnUId": "21a61238-45dc-4089-9882-cc1be097cbf8",
          "Value": true
        },
        {
          "SchemaColumnUId": "2cda2c20-d48a-44d0-b266-5542730b1ad9",
          "Value": true
        },
        {
          "SchemaColumnUId": "379b41a2-dfb5-4069-a267-88ec0653e391",
          "Value": true
        },
        {
          "SchemaColumnUId": "a3dc68d6-f74e-4a57-8411-77a88dfe0bbb",
          "Value": true
        },
        {
          "SchemaColumnUId": "a72532ba-4755-4b2f-8079-c382ae6d0e9a",
          "Value": 1
        },
        {
          "SchemaColumnUId": "d27e9964-a7a6-46dd-9f9a-7cb470c33b98",
          "Value": "720b771c-e7a7-4f31-9cfb-52cd21c3739f",
          "DisplayValue": "All portal users"
        }
      ]
    },
    {
      "Row": [
        {
          "SchemaColumnUId": "ae0e45ca-c495-4fe7-a39d-3ab7278e1617",
          "Value": "626e7d0a-e303-4714-9faa-270186a9a652"
        },
        {
          "SchemaColumnUId": "134c280f-f7a7-4ac5-beeb-4ab1ed9e4ff5",
          "Value": "7a269220-a657-4b5f-bfb4-ebe596e419d8"
        },
        {
          "SchemaColumnUId": "21a61238-45dc-4089-9882-cc1be097cbf8",
          "Value": true
        },
        {
          "SchemaColumnUId": "2cda2c20-d48a-44d0-b266-5542730b1ad9",
          "Value": true
        },
        {
          "SchemaColumnUId": "379b41a2-dfb5-4069-a267-88ec0653e391",
          "Value": true
        },
        {
          "SchemaColumnUId": "a3dc68d6-f74e-4a57-8411-77a88dfe0bbb",
          "Value": true
        },
        {
          "SchemaColumnUId": "a72532ba-4755-4b2f-8079-c382ae6d0e9a",
          "Value": 0
        },
        {
          "SchemaColumnUId": "d27e9964-a7a6-46dd-9f9a-7cb470c33b98",
          "Value": "a29a3ba5-4b0d-de11-9a51-005056c00008",
          "DisplayValue": "All employees"
        }
      ]
    },
    {
      "Row": [
        {
          "SchemaColumnUId": "ae0e45ca-c495-4fe7-a39d-3ab7278e1617",
          "Value": "67ee41f5-d0c4-4a87-bd30-5fa7d688c721"
        },
        {
          "SchemaColumnUId": "134c280f-f7a7-4ac5-beeb-4ab1ed9e4ff5",
          "Value": "0bc5d826-8e8f-48cd-b087-30b33d133120"
        },
        {
          "SchemaColumnUId": "21a61238-45dc-4089-9882-cc1be097cbf8",
          "Value": true
        },
        {
          "SchemaColumnUId": "2cda2c20-d48a-44d0-b266-5542730b1ad9",
          "Value": true
        },
        {
          "SchemaColumnUId": "379b41a2-dfb5-4069-a267-88ec0653e391",
          "Value": true
        },
        {
          "SchemaColumnUId": "a3dc68d6-f74e-4a57-8411-77a88dfe0bbb",
          "Value": true
        },
        {
          "SchemaColumnUId": "a72532ba-4755-4b2f-8079-c382ae6d0e9a",
          "Value": 1
        },
        {
          "SchemaColumnUId": "d27e9964-a7a6-46dd-9f9a-7cb470c33b98",
          "Value": "a29a3ba5-4b0d-de11-9a51-005056c00008",
          "DisplayValue": "All employees"
        }
      ]
    },
    {
      "Row": [
        {
          "SchemaColumnUId": "ae0e45ca-c495-4fe7-a39d-3ab7278e1617",
          "Value": "b2f88e55-75ce-4828-84db-11b4ea61ed9d"
        },
        {
          "SchemaColumnUId": "134c280f-f7a7-4ac5-beeb-4ab1ed9e4ff5",
          "Value": "93986bfe-2dbd-46bc-9bf9-d03dfefbf3b8"
        },
        {
          "SchemaColumnUId": "21a61238-45dc-4089-9882-cc1be097cbf8",
          "Value": true
        },
        {
          "SchemaColumnUId": "2cda2c20-d48a-44d0-b266-5542730b1ad9",
          "Value": true
        },
        {
          "SchemaColumnUId": "379b41a2-dfb5-4069-a267-88ec0653e391",
          "Value": true
        },
        {
          "SchemaColumnUId": "a3dc68d6-f74e-4a57-8411-77a88dfe0bbb",
          "Value": true
        },
        {
          "SchemaColumnUId": "a72532ba-4755-4b2f-8079-c382ae6d0e9a",
          "Value": 1
        },
        {
          "SchemaColumnUId": "d27e9964-a7a6-46dd-9f9a-7cb470c33b98",
          "Value": "720b771c-e7a7-4f31-9cfb-52cd21c3739f",
          "DisplayValue": "All portal users"
        }
      ]
    },
    {
      "Row": [
        {
          "SchemaColumnUId": "ae0e45ca-c495-4fe7-a39d-3ab7278e1617",
          "Value": "b3f4d2b6-4e7b-4a1b-8908-93cf3eb749aa"
        },
        {
          "SchemaColumnUId": "134c280f-f7a7-4ac5-beeb-4ab1ed9e4ff5",
          "Value": "0b5ff414-e00a-4115-af0c-fe872e826f07"
        },
        {
          "SchemaColumnUId": "21a61238-45dc-4089-9882-cc1be097cbf8",
          "Value": true
        },
        {
          "SchemaColumnUId": "2cda2c20-d48a-44d0-b266-5542730b1ad9",
          "Value": true
        },
        {
          "SchemaColumnUId": "379b41a2-dfb5-4069-a267-88ec0653e391",
          "Value": true
        },
        {
          "SchemaColumnUId": "a3dc68d6-f74e-4a57-8411-77a88dfe0bbb",
          "Value": true
        },
        {
          "SchemaColumnUId": "a72532ba-4755-4b2f-8079-c382ae6d0e9a",
          "Value": 1
        },
        {
          "SchemaColumnUId": "d27e9964-a7a6-46dd-9f9a-7cb470c33b98",
          "Value": "a29a3ba5-4b0d-de11-9a51-005056c00008",
          "DisplayValue": "All employees"
        }
      ]
    },
    {
      "Row": [
        {
          "SchemaColumnUId": "ae0e45ca-c495-4fe7-a39d-3ab7278e1617",
          "Value": "b520e7b0-ee4c-4cf2-9f56-eceaee887672"
        },
        {
          "SchemaColumnUId": "134c280f-f7a7-4ac5-beeb-4ab1ed9e4ff5",
          "Value": "e3c92284-1491-4438-986f-4bf5dbe4b847"
        },
        {
          "SchemaColumnUId": "21a61238-45dc-4089-9882-cc1be097cbf8",
          "Value": true
        },
        {
          "SchemaColumnUId": "2cda2c20-d48a-44d0-b266-5542730b1ad9",
          "Value": true
        },
        {
          "SchemaColumnUId": "379b41a2-dfb5-4069-a267-88ec0653e391",
          "Value": true
        },
        {
          "SchemaColumnUId": "a3dc68d6-f74e-4a57-8411-77a88dfe0bbb",
          "Value": true
        },
        {
          "SchemaColumnUId": "a72532ba-4755-4b2f-8079-c382ae6d0e9a",
          "Value": 1
        },
        {
          "SchemaColumnUId": "d27e9964-a7a6-46dd-9f9a-7cb470c33b98",
          "Value": "a29a3ba5-4b0d-de11-9a51-005056c00008",
          "DisplayValue": "All employees"
        }
      ]
    },
    {
      "Row": [
        {
          "SchemaColumnUId": "ae0e45ca-c495-4fe7-a39d-3ab7278e1617",
          "Value": "b6dcebc7-a4d9-4c4c-b06e-0f5703e9a8a3"
        },
        {
          "SchemaColumnUId": "134c280f-f7a7-4ac5-beeb-4ab1ed9e4ff5",
          "Value": "c82ab6f0-0e36-4376-9ab3-c583d714b7b6"
        },
        {
          "SchemaColumnUId": "21a61238-45dc-4089-9882-cc1be097cbf8",
          "Value": true
        },
        {
          "SchemaColumnUId": "2cda2c20-d48a-44d0-b266-5542730b1ad9",
          "Value": true
        },
        {
          "SchemaColumnUId": "379b41a2-dfb5-4069-a267-88ec0653e391",
          "Value": true
        },
        {
          "SchemaColumnUId": "a3dc68d6-f74e-4a57-8411-77a88dfe0bbb",
          "Value": true
        },
        {
          "SchemaColumnUId": "a72532ba-4755-4b2f-8079-c382ae6d0e9a",
          "Value": 1
        },
        {
          "SchemaColumnUId": "d27e9964-a7a6-46dd-9f9a-7cb470c33b98",
          "Value": "a29a3ba5-4b0d-de11-9a51-005056c00008",
          "DisplayValue": "All employees"
        }
      ]
    },
    {
      "Row": [
        {
          "SchemaColumnUId": "ae0e45ca-c495-4fe7-a39d-3ab7278e1617",
          "Value": "b8fe3f37-090f-4f4a-83fc-67c036e3cc47"
        },
        {
          "SchemaColumnUId": "134c280f-f7a7-4ac5-beeb-4ab1ed9e4ff5",
          "Value": "7a269220-a657-4b5f-bfb4-ebe596e419d8"
        },
        {
          "SchemaColumnUId": "21a61238-45dc-4089-9882-cc1be097cbf8",
          "Value": true
        },
        {
          "SchemaColumnUId": "2cda2c20-d48a-44d0-b266-5542730b1ad9",
          "Value": true
        },
        {
          "SchemaColumnUId": "379b41a2-dfb5-4069-a267-88ec0653e391",
          "Value": true
        },
        {
          "SchemaColumnUId": "a3dc68d6-f74e-4a57-8411-77a88dfe0bbb",
          "Value": true
        },
        {
          "SchemaColumnUId": "a72532ba-4755-4b2f-8079-c382ae6d0e9a",
          "Value": 1
        },
        {
          "SchemaColumnUId": "d27e9964-a7a6-46dd-9f9a-7cb470c33b98",
          "Value": "720b771c-e7a7-4f31-9cfb-52cd21c3739f",
          "DisplayValue": "All portal users"
        }
      ]
    },
    {
      "Row": [
        {
          "SchemaColumnUId": "ae0e45ca-c495-4fe7-a39d-3ab7278e1617",
          "Value": "c2667994-f36f-4873-85cb-0f30d85e0a24"
        },
        {
          "SchemaColumnUId": "134c280f-f7a7-4ac5-beeb-4ab1ed9e4ff5",
          "Value": "54aa771f-fba6-4d76-9239-bff3f00ee3e5"
        },
        {
          "SchemaColumnUId": "21a61238-45dc-4089-9882-cc1be097cbf8",
          "Value": true
        },
        {
          "SchemaColumnUId": "2cda2c20-d48a-44d0-b266-5542730b1ad9",
          "Value": true
        },
        {
          "SchemaColumnUId": "379b41a2-dfb5-4069-a267-88ec0653e391",
          "Value": true
        },
        {
          "SchemaColumnUId": "a3dc68d6-f74e-4a57-8411-77a88dfe0bbb",
          "Value": true
        },
        {
          "SchemaColumnUId": "a72532ba-4755-4b2f-8079-c382ae6d0e9a",
          "Value": 0
        },
        {
          "SchemaColumnUId": "d27e9964-a7a6-46dd-9f9a-7cb470c33b98",
          "Value": "a29a3ba5-4b0d-de11-9a51-005056c00008",
          "DisplayValue": "All employees"
        }
      ]
    },
    {
      "Row": [
        {
          "SchemaColumnUId": "ae0e45ca-c495-4fe7-a39d-3ab7278e1617",
          "Value": "cb9ff1b2-2c69-4159-930d-78801fedb960"
        },
        {
          "SchemaColumnUId": "134c280f-f7a7-4ac5-beeb-4ab1ed9e4ff5",
          "Value": "e3c92284-1491-4438-986f-4bf5dbe4b847"
        },
        {
          "SchemaColumnUId": "21a61238-45dc-4089-9882-cc1be097cbf8",
          "Value": true
        },
        {
          "SchemaColumnUId": "2cda2c20-d48a-44d0-b266-5542730b1ad9",
          "Value": true
        },
        {
          "SchemaColumnUId": "379b41a2-dfb5-4069-a267-88ec0653e391",
          "Value": true
        },
        {
          "SchemaColumnUId": "a3dc68d6-f74e-4a57-8411-77a88dfe0bbb",
          "Value": true
        },
        {
          "SchemaColumnUId": "a72532ba-4755-4b2f-8079-c382ae6d0e9a",
          "Value": 0
        },
        {
          "SchemaColumnUId": "d27e9964-a7a6-46dd-9f9a-7cb470c33b98",
          "Value": "720b771c-e7a7-4f31-9cfb-52cd21c3739f",
          "DisplayValue": "All portal users"
        }
      ]
    },
    {
      "Row": [
        {
          "SchemaColumnUId": "ae0e45ca-c495-4fe7-a39d-3ab7278e1617",
          "Value": "cf2755b1-d23d-4c02-81c5-9cbb1d107632"
        },
        {
          "SchemaColumnUId": "134c280f-f7a7-4ac5-beeb-4ab1ed9e4ff5",
          "Value": "16be3651-8fe2-4159-8dd0-a803d4683dd3"
        },
        {
          "SchemaColumnUId": "21a61238-45dc-4089-9882-cc1be097cbf8",
          "Value": true
        },
        {
          "SchemaColumnUId": "2cda2c20-d48a-44d0-b266-5542730b1ad9",
          "Value": true
        },
        {
          "SchemaColumnUId": "379b41a2-dfb5-4069-a267-88ec0653e391",
          "Value": true
        },
        {
          "SchemaColumnUId": "a3dc68d6-f74e-4a57-8411-77a88dfe0bbb",
          "Value": true
        },
        {
          "SchemaColumnUId": "a72532ba-4755-4b2f-8079-c382ae6d0e9a",
          "Value": 3
        },
        {
          "SchemaColumnUId": "d27e9964-a7a6-46dd-9f9a-7cb470c33b98",
          "Value": "720b771c-e7a7-4f31-9cfb-52cd21c3739f",
          "DisplayValue": "All portal users"
        }
      ]
    },
    {
      "Row": [
        {
          "SchemaColumnUId": "ae0e45ca-c495-4fe7-a39d-3ab7278e1617",
          "Value": "daea773a-5d32-4a6d-aa7b-d7415830b577"
        },
        {
          "SchemaColumnUId": "134c280f-f7a7-4ac5-beeb-4ab1ed9e4ff5",
          "Value": "c82ab6f0-0e36-4376-9ab3-c583d714b7b6"
        },
        {
          "SchemaColumnUId": "21a61238-45dc-4089-9882-cc1be097cbf8",
          "Value": true
        },
        {
          "SchemaColumnUId": "2cda2c20-d48a-44d0-b266-5542730b1ad9",
          "Value": true
        },
        {
          "SchemaColumnUId": "379b41a2-dfb5-4069-a267-88ec0653e391",
          "Value": true
        },
        {
          "SchemaColumnUId": "a3dc68d6-f74e-4a57-8411-77a88dfe0bbb",
          "Value": true
        },
        {
          "SchemaColumnUId": "a72532ba-4755-4b2f-8079-c382ae6d0e9a",
          "Value": 0
        },
        {
          "SchemaColumnUId": "d27e9964-a7a6-46dd-9f9a-7cb470c33b98",
          "Value": "720b771c-e7a7-4f31-9cfb-52cd21c3739f",
          "DisplayValue": "All portal users"
        }
      ]
    },
    {
      "Row": [
        {
          "SchemaColumnUId": "ae0e45ca-c495-4fe7-a39d-3ab7278e1617",
          "Value": "e2e49250-f54e-4577-8470-9c35eb187c48"
        },
        {
          "SchemaColumnUId": "134c280f-f7a7-4ac5-beeb-4ab1ed9e4ff5",
          "Value": "16be3651-8fe2-4159-8dd0-a803d4683dd3"
        },
        {
          "SchemaColumnUId": "21a61238-45dc-4089-9882-cc1be097cbf8",
          "Value": true
        },
        {
          "SchemaColumnUId": "2cda2c20-d48a-44d0-b266-5542730b1ad9",
          "Value": true
        },
        {
          "SchemaColumnUId": "379b41a2-dfb5-4069-a267-88ec0653e391",
          "Value": true
        },
        {
          "SchemaColumnUId": "a3dc68d6-f74e-4a57-8411-77a88dfe0bbb",
          "Value": true
        },
        {
          "SchemaColumnUId": "a72532ba-4755-4b2f-8079-c382ae6d0e9a",
          "Value": 2
        },
        {
          "SchemaColumnUId": "d27e9964-a7a6-46dd-9f9a-7cb470c33b98",
          "Value": "a29a3ba5-4b0d-de11-9a51-005056c00008",
          "DisplayValue": "All employees"
        }
      ]
    },
    {
      "Row": [
        {
          "SchemaColumnUId": "ae0e45ca-c495-4fe7-a39d-3ab7278e1617",
          "Value": "ffbe34ee-a279-4ffe-9444-18f76ecda6eb"
        },
        {
          "SchemaColumnUId": "134c280f-f7a7-4ac5-beeb-4ab1ed9e4ff5",
          "Value": "0bc5d826-8e8f-48cd-b087-30b33d133120"
        },
        {
          "SchemaColumnUId": "21a61238-45dc-4089-9882-cc1be097cbf8",
          "Value": true
        },
        {
          "SchemaColumnUId": "2cda2c20-d48a-44d0-b266-5542730b1ad9",
          "Value": true
        },
        {
          "SchemaColumnUId": "379b41a2-dfb5-4069-a267-88ec0653e391",
          "Value": true
        },
        {
          "SchemaColumnUId": "a3dc68d6-f74e-4a57-8411-77a88dfe0bbb",
          "Value": true
        },
        {
          "SchemaColumnUId": "a72532ba-4755-4b2f-8079-c382ae6d0e9a",
          "Value": 0
        },
        {
          "SchemaColumnUId": "d27e9964-a7a6-46dd-9f9a-7cb470c33b98",
          "Value": "720b771c-e7a7-4f31-9cfb-52cd21c3739f",
          "DisplayValue": "All portal users"
        }
      ]
    }
  ]
}