﻿{
  "Descriptor": {
    "UId": "f19165c5-62d4-4709-80e2-8b2185b7b635",
    "Name": "SysEntitySchemaOperationRight_8abf9b3cbcd94b85916518539f09ea2a",
    "ModifiedOnUtc": "\/Date(1677797386000)\/",
    "InstallType": 0,
    "Schema": {
      "UId": "f028c2c5-facc-4109-8cfa-75b2b6620527",
      "Name": "SysEntitySchemaOperationRight"
    },
    "Columns": [
      {
        "ColumnUId": "ae0e45ca-c495-4fe7-a39d-3ab7278e1617",
        "IsForceUpdate": false,
        "IsKey": true,
        "ColumnName": "Id",
        "DataTypeValueUId": "23018567-a13c-4320-8687-fd6f9e3699bd"
      },
      {
        "ColumnUId": "379b41a2-dfb5-4069-a267-88ec0653e391",
        "IsForceUpdate": false,
        "IsKey": false,
        "ColumnName": "CanEdit",
        "DataTypeValueUId": "90b65bf8-0ffc-4141-8779-2420877af907"
      },
      {
        "ColumnUId": "a3dc68d6-f74e-4a57-8411-77a88dfe0bbb",
        "IsForceUpdate": false,
        "IsKey": false,
        "ColumnName": "CanRead",
        "DataTypeValueUId": "90b65bf8-0ffc-4141-8779-2420877af907"
      },
      {
        "ColumnUId": "21a61238-45dc-4089-9882-cc1be097cbf8",
        "IsForceUpdate": false,
        "IsKey": false,
        "ColumnName": "CanAppend",
        "DataTypeValueUId": "90b65bf8-0ffc-4141-8779-2420877af907"
      },
      {
        "ColumnUId": "a72532ba-4755-4b2f-8079-c382ae6d0e9a",
        "IsForceUpdate": false,
        "IsKey": false,
        "ColumnName": "Position",
        "DataTypeValueUId": "6b6b74e2-820d-490e-a017-2b73d4ccf2b0"
      },
      {
        "ColumnUId": "d27e9964-a7a6-46dd-9f9a-7cb470c33b98",
        "IsForceUpdate": false,
        "IsKey": false,
        "ColumnName": "SysAdminUnit",
        "DataTypeValueUId": "b295071f-7ea9-4e62-8d1a-919bf3732ff2"
      },
      {
        "ColumnUId": "2cda2c20-d48a-44d0-b266-5542730b1ad9",
        "IsForceUpdate": false,
        "IsKey": false,
        "ColumnName": "CanDelete",
        "DataTypeValueUId": "90b65bf8-0ffc-4141-8779-2420877af907"
      },
      {
        "ColumnUId": "134c280f-f7a7-4ac5-beeb-4ab1ed9e4ff5",
        "IsForceUpdate": false,
        "IsKey": false,
        "ColumnName": "SubjectSchemaUId",
        "DataTypeValueUId": "23018567-a13c-4320-8687-fd6f9e3699bd"
      }
    ]
  }
}