{
  "MetaData": {
    "Schema": {
      "ManagerName": "ProcessSchemaManager",
      "UId": "97036cec-7e2a-4bfa-b3c9-79739854a678",
      "A2": "WatProcess_362e4a3",
      "A5": "75bcb584-5e36-448a-a4b7-140d2dd57696",
      "B1": [],
      "B2": [],
      "B3": [],
      "B6": "80852c4e-6e90-4769-a5e6-c485d9bc7022",
      "B8": "7.16.3.1473",
      "FJ1": [
        {
          "BL1": "Terrasoft.Core.Process.ProcessSchemaParameter",
          "UId": "c01b77e2-a27e-4b7e-b458-81a5b0e6242a",
          "A2": "ProcessSchemaParameter1",
          "A3": "97036cec-7e2a-4bfa-b3c9-79739854a678",
          "A4": "97036cec-7e2a-4bfa-b3c9-79739854a678",
          "L1": "23018567-a13c-4320-8687-fd6f9e3699bd",
          "L8": {
            "GS5": "97036cec-7e2a-4bfa-b3c9-79739854a678"
          }
        }
      ],
      "IJ1": true,
      "BK8": "bb4d6607-026b-4b27-b640-8f5c77c1e89d",
      "IJ10": true,
      "BK15": [
        {
          "BL1": "Terrasoft.Core.Process.ProcessSchemaMapping",
          "UId": "05c2bf27-701b-43ac-a432-e2b174b6554b",
          "A2": "SMCreateNewEmail1",
          "A3": "97036cec-7e2a-4bfa-b3c9-79739854a678",
          "A4": "97036cec-7e2a-4bfa-b3c9-79739854a678",
          "GT2": "[Element:{80abf987-e297-46ef-b806-f164b4ef00ac}].[Parameter:{c8b22569-54d4-4257-8eb6-4bbf37e3b7da}]",
          "GT3": "c8b22569-54d4-4257-8eb6-4bbf37e3b7da",
          "GT5": "027c9606-96bf-4f46-8d07-bafca07af941",
          "GT4": "de333660-e2e6-479e-8e79-ff7b1c07c276",
          "GT1": {
            "GS1": 3,
            "GS2": "[#Lookup.93030575-f70f-4041-902e-c4badaf62c63.559604d2-571b-4161-84f0-983da4879621#]"
          }
        },
        {
          "BL1": "Terrasoft.Core.Process.ProcessSchemaMapping",
          "UId": "77b61291-06b6-4ce8-84bb-0ad735bf2748",
          "A2": "SMCreateNewEmail1",
          "A3": "97036cec-7e2a-4bfa-b3c9-79739854a678",
          "A4": "97036cec-7e2a-4bfa-b3c9-79739854a678",
          "GT2": "[Element:{80abf987-e297-46ef-b806-f164b4ef00ac}].[Parameter:{c8495e96-88f6-49ac-8e55-e0d063fdc572}]",
          "GT3": "c8495e96-88f6-49ac-8e55-e0d063fdc572",
          "GT5": "35fbb620-389f-4d57-b5a5-dc47531efb36",
          "GT4": "de333660-e2e6-479e-8e79-ff7b1c07c276",
          "GT1": {
            "GS1": 3,
            "GS2": "[#Lookup.1fc0bf0b-844f-4611-9453-07809de57345.3e4307a7-c06a-4a35-95e2-ca0e27bd99c1#]"
          }
        },
        {
          "BL1": "Terrasoft.Core.Process.ProcessSchemaMapping",
          "UId": "94ac5883-f3b7-41fe-b321-35d2e09d61ed",
          "A2": "SMCreateNewEmail1",
          "A3": "97036cec-7e2a-4bfa-b3c9-79739854a678",
          "A4": "97036cec-7e2a-4bfa-b3c9-79739854a678",
          "GT2": "[Element:{80abf987-e297-46ef-b806-f164b4ef00ac}].[Parameter:{a09ece2a-e0af-48c8-af9c-5226e7f01f37}]",
          "GT3": "a09ece2a-e0af-48c8-af9c-5226e7f01f37",
          "GT5": "72f3716f-fa46-4276-9176-8e2c0fbf985c",
          "GT4": "de333660-e2e6-479e-8e79-ff7b1c07c276",
          "GT1": {
            "GS1": 3,
            "GS2": "[#Lookup.5e487721-02e2-48ee-b755-dfa5160f5315.a29379b0-9f2a-4bb7-81b0-76ab0c05f3fe#]"
          }
        },
        {
          "BL1": "Terrasoft.Core.Process.ProcessSchemaMapping",
          "UId": "ec3a6933-a75c-4154-8dc9-1f2b6a98aefa",
          "A2": "SMCreateNewEmail1",
          "A3": "97036cec-7e2a-4bfa-b3c9-79739854a678",
          "A4": "97036cec-7e2a-4bfa-b3c9-79739854a678",
          "GT2": "[Element:{80abf987-e297-46ef-b806-f164b4ef00ac}].[Parameter:{08d3ec73-7f1c-4b35-a84b-5ee66fa9e95e}]",
          "GT3": "08d3ec73-7f1c-4b35-a84b-5ee66fa9e95e",
          "GT5": "b299eeb7-b495-4b79-9d56-13b26e51b171",
          "GT4": "de333660-e2e6-479e-8e79-ff7b1c07c276",
          "GT1": {
            "GS1": 1,
            "GS2": "o.huetz@mac.com"
          }
        },
        {
          "BL1": "Terrasoft.Core.Process.ProcessSchemaMapping",
          "UId": "ea4d9601-618e-4465-b977-db8c31305c51",
          "A2": "SMCreateNewEmail1",
          "A3": "97036cec-7e2a-4bfa-b3c9-79739854a678",
          "A4": "97036cec-7e2a-4bfa-b3c9-79739854a678",
          "GT2": "[Element:{80abf987-e297-46ef-b806-f164b4ef00ac}].[Parameter:{f367d080-0b94-4bef-be12-eda15efab019}]",
          "GT3": "f367d080-0b94-4bef-be12-eda15efab019",
          "GT5": "fac6c5ab-b7ea-4802-8498-5a675b6d6422",
          "GT4": "de333660-e2e6-479e-8e79-ff7b1c07c276",
          "GT1": {
            "GS1": 3,
            "GS2": "[#BooleanValue.False#]",
            "GS5": "97036cec-7e2a-4bfa-b3c9-79739854a678"
          }
        },
        {
          "BL1": "Terrasoft.Core.Process.ProcessSchemaMapping",
          "UId": "71a8216a-7dfe-4a74-839c-2559e18d3233",
          "A2": "SMCreateNewEmail1",
          "A3": "97036cec-7e2a-4bfa-b3c9-79739854a678",
          "A4": "97036cec-7e2a-4bfa-b3c9-79739854a678",
          "GT2": "[Element:{80abf987-e297-46ef-b806-f164b4ef00ac}].[Parameter:{de9de7cf-f465-4cd5-9ad9-3917000979a7}]",
          "GT3": "de9de7cf-f465-4cd5-9ad9-3917000979a7",
          "GT5": "7e1b8763-7c00-486b-920a-8dfaede8bc9c",
          "GT4": "de333660-e2e6-479e-8e79-ff7b1c07c276",
          "GT1": {
            "GS2": ""
          }
        },
        {
          "BL1": "Terrasoft.Core.Process.ProcessSchemaMapping",
          "UId": "d219709b-4b82-4b2d-9a38-b49f2b67ea47",
          "A2": "ChangeDataUserTask1",
          "A3": "97036cec-7e2a-4bfa-b3c9-79739854a678",
          "A4": "97036cec-7e2a-4bfa-b3c9-79739854a678",
          "GT2": "[Element:{61661352-b18f-46f7-a38f-0b652e560137}].[Parameter:{ab52e7a8-becb-4c6a-a027-33f34ca99266}]",
          "GT3": "ab52e7a8-becb-4c6a-a027-33f34ca99266",
          "GT5": "bd2cf1ae-bbc6-4d91-8d6e-c6b40f057e95",
          "GT4": "d3021ca7-7450-4678-a117-060171eb2976",
          "GT1": {
            "GS1": 1,
            "GS2": "c449d832-a4cc-4b01-b9d5-8a12c42a9f89"
          }
        },
        {
          "BL1": "Terrasoft.Core.Process.ProcessSchemaMapping",
          "UId": "58011a13-b69e-4f3b-be12-5b550adfd911",
          "A2": "ChangeDataUserTask1",
          "A3": "97036cec-7e2a-4bfa-b3c9-79739854a678",
          "A4": "97036cec-7e2a-4bfa-b3c9-79739854a678",
          "GT2": "[Element:{61661352-b18f-46f7-a38f-0b652e560137}].[Parameter:{f72ea976-16e1-4059-97ce-fb64b7351429}]",
          "GT3": "f72ea976-16e1-4059-97ce-fb64b7351429",
          "GT5": "d6c84ba1-b6ca-4952-b517-880f22e21fdc",
          "GT4": "d3021ca7-7450-4678-a117-060171eb2976",
          "GT1": {
            "GS1": 3,
            "GS2": "true",
            "GS5": "d3021ca7-7450-4678-a117-060171eb2976"
          }
        },
        {
          "BL1": "Terrasoft.Core.Process.ProcessSchemaMapping",
          "UId": "65c3007c-c610-45de-81ac-bab6e132809c",
          "A2": "ChangeDataUserTask1",
          "A3": "97036cec-7e2a-4bfa-b3c9-79739854a678",
          "A4": "97036cec-7e2a-4bfa-b3c9-79739854a678",
          "GT2": "[Element:{61661352-b18f-46f7-a38f-0b652e560137}].[Parameter:{f1493c2b-a5c5-4a04-bbb7-7d6199c228f2}]",
          "GT3": "f1493c2b-a5c5-4a04-bbb7-7d6199c228f2",
          "GT5": "03166c4b-2e15-4768-a343-750c16b69691",
          "GT4": "d3021ca7-7450-4678-a117-060171eb2976",
          "GT1": {
            "GS1": 1,
            "GS2": "{\"className\":\"Terrasoft.FilterGroup\",\"serializedFilterEditData\":\"{\\\"className\\\":\\\"Terrasoft.FilterGroup\\\",\\\"items\\\":{\\\"4ebf5231-a30d-4524-b71e-720a244b1214\\\":{\\\"className\\\":\\\"Terrasoft.CompareFilter\\\",\\\"filterType\\\":1,\\\"comparisonType\\\":3,\\\"isEnabled\\\":true,\\\"trimDateTimeParameterToDate\\\":false,\\\"leftExpression\\\":{\\\"className\\\":\\\"Terrasoft.ColumnExpression\\\",\\\"expressionType\\\":0,\\\"columnPath\\\":\\\"Id\\\"},\\\"isAggregative\\\":false,\\\"key\\\":\\\"4ebf5231-a30d-4524-b71e-720a244b1214\\\",\\\"dataValueType\\\":0,\\\"leftExpressionCaption\\\":\\\"Id\\\",\\\"rightExpression\\\":{\\\"className\\\":\\\"Terrasoft.ParameterExpression\\\",\\\"expressionType\\\":2,\\\"parameter\\\":{\\\"className\\\":\\\"Terrasoft.Parameter\\\",\\\"dataValueType\\\":26,\\\"value\\\":{\\\"value\\\":\\\"[IsOwnerSchema:false].[IsSchema:false].[Element:{80abf987-e297-46ef-b806-f164b4ef00ac}].[Parameter:{de9de7cf-f465-4cd5-9ad9-3917000979a7}]\\\",\\\"displayValue\\\":\\\"SMCreateNewEmail1.ActivityId\\\"}}}}},\\\"logicalOperation\\\":0,\\\"isEnabled\\\":true,\\\"filterType\\\":6,\\\"rootSchemaName\\\":\\\"Activity\\\",\\\"key\\\":\\\"\\\"}\",\"dataSourceFilters\":\"{\\\"items\\\":{\\\"4ebf5231-a30d-4524-b71e-720a244b1214\\\":{\\\"filterType\\\":1,\\\"comparisonType\\\":3,\\\"isEnabled\\\":true,\\\"trimDateTimeParameterToDate\\\":false,\\\"leftExpression\\\":{\\\"expressionType\\\":0,\\\"columnPath\\\":\\\"Id\\\"},\\\"rightExpression\\\":{\\\"expressionType\\\":2,\\\"parameter\\\":{\\\"dataValueType\\\":26,\\\"value\\\":{\\\"value\\\":\\\"[IsOwnerSchema:false].[IsSchema:false].[Element:{80abf987-e297-46ef-b806-f164b4ef00ac}].[Parameter:{de9de7cf-f465-4cd5-9ad9-3917000979a7}]\\\"}}}}},\\\"logicalOperation\\\":0,\\\"isEnabled\\\":true,\\\"filterType\\\":6,\\\"rootSchemaName\\\":\\\"Activity\\\"}\"}"
          }
        },
        {
          "BL1": "Terrasoft.Core.Process.ProcessSchemaMapping",
          "UId": "147dc89f-3faf-40ee-ad81-67783c8a5b1a",
          "A2": "ChangeDataUserTask1",
          "A3": "97036cec-7e2a-4bfa-b3c9-79739854a678",
          "A4": "97036cec-7e2a-4bfa-b3c9-79739854a678",
          "GT2": "[Element:{61661352-b18f-46f7-a38f-0b652e560137}].[Parameter:{a5396efa-b90f-4671-b16c-b99361dac4c4}]",
          "GT3": "a5396efa-b90f-4671-b16c-b99361dac4c4",
          "GT5": "effa11ce-90c7-4efe-8a02-be7a659d27e9",
          "GT4": "d3021ca7-7450-4678-a117-060171eb2976",
          "GT1": {
            "GS1": 1,
            "GS2": "{\"$type\":\"Terrasoft.Core.Process.LocalizableParameterValuesList, Terrasoft.Core\",\"$values\":[{\"ItemUId\":\"fa16fdcb-5e04-4dda-bc58-02831d5624ad\",\"columnMetaPath\":{\"value\":\"fb0d6fd1-17a1-4a04-a155-a4b643c6d048\"},\"schemaUId\":{\"value\":\"c449d832-a4cc-4b01-b9d5-8a12c42a9f89\"},\"value\":{\"value\":\"[#Lookup.25d7c1ab-1de0-4501-b402-02e0e5a72d6e.0afe6e50-54df-4d31-93bb-21c7032b19a7#]\"},\"displayValue\":{\"value\":\"[#Lookup.Account.ABC Schools#]\"},\"parameterValue\":{\"value\":\"{\\\"$type\\\":\\\"Terrasoft.Core.Process.ProcessSchemaParameterValue, Terrasoft.Core\\\",\\\"Source\\\":3,\\\"DisplayValue\\\":\\\"\\\",\\\"Value\\\":\\\"\\\",\\\"MetaPath\\\":null,\\\"MetaDataValue\\\":null,\\\"ModifiedInSchemaUId\\\":\\\"00000000-0000-0000-0000-000000000000\\\",\\\"SchemaUId\\\":\\\"00000000-0000-0000-0000-000000000000\\\",\\\"SchemaManagerName\\\":\\\"\\\",\\\"DataValueTypeUId\\\":\\\"b295071f-7ea9-4e62-8d1a-919bf3732ff2\\\",\\\"ReferenceSchemaUId\\\":\\\"25d7c1ab-1de0-4501-b402-02e0e5a72d6e\\\",\\\"ResourceItemName\\\":null}\"}}]}"
          }
        },
        {
          "BL1": "Terrasoft.Core.Process.ProcessSchemaMapping",
          "UId": "5bb14df3-023d-4504-9b0d-e604443f2545",
          "A2": "SMSendExistingEmail1",
          "A3": "97036cec-7e2a-4bfa-b3c9-79739854a678",
          "A4": "97036cec-7e2a-4bfa-b3c9-79739854a678",
          "GT2": "[Element:{6487a383-4acb-4b8f-a869-529f80e1a54e}].[Parameter:{7d70d1ce-3810-4f84-8823-05819fcbb574}]",
          "GT3": "7d70d1ce-3810-4f84-8823-05819fcbb574",
          "GT5": "3d0f0de6-3682-4dba-8a21-68f125dd049b",
          "GT4": "cf1173cf-722d-4a16-87a5-5a2f9d8b6564",
          "GT1": {
            "GS1": 3,
            "GS2": "[#[IsOwnerSchema:false].[IsSchema:false].[Element:{80abf987-e297-46ef-b806-f164b4ef00ac}].[Parameter:{de9de7cf-f465-4cd5-9ad9-3917000979a7}]#]"
          }
        }
      ],
      "BK37": {
        "BL1": "Terrasoft.Core.Process.ProcessSchemaParameter",
        "UId": "cdd58be7-2dba-4a5e-869b-1ad5d6d7513a",
        "A2": "NotificationCaption",
        "A3": "97036cec-7e2a-4bfa-b3c9-79739854a678",
        "A4": "97036cec-7e2a-4bfa-b3c9-79739854a678",
        "L1": "8b3f29bb-ea14-4ce5-a5c5-293a929b6ba2",
        "L8": {
          "GS1": 3,
          "GS2": "[#[PropertyValue:Caption]#]"
        }
      },
      "BK1": "FFFFFFFF",
      "BK2": "FFBBBBBB",
      "BK3": [
        {
          "BL1": "Terrasoft.Core.Process.ProcessSchemaLaneSet",
          "UId": "7ad25dad-3c21-4d75-bf53-a1da0dadef8b",
          "A2": "LaneSet1",
          "A3": "97036cec-7e2a-4bfa-b3c9-79739854a678",
          "A4": "97036cec-7e2a-4bfa-b3c9-79739854a678",
          "A5": "80852c4e-6e90-4769-a5e6-c485d9bc7022",
          "BL7": "11a47caf-a0d5-41fa-a274-a0b11f77447a",
          "BL8": "97036cec-7e2a-4bfa-b3c9-79739854a678",
          "BM4": [
            {
              "BL1": "Terrasoft.Core.Process.ProcessSchemaLane",
              "UId": "c49a9cdf-da3b-4975-88ea-8ec625c3a94b",
              "A2": "Lane1",
              "A3": "97036cec-7e2a-4bfa-b3c9-79739854a678",
              "A4": "97036cec-7e2a-4bfa-b3c9-79739854a678",
              "A5": "80852c4e-6e90-4769-a5e6-c485d9bc7022",
              "IL2": "7ad25dad-3c21-4d75-bf53-a1da0dadef8b",
              "BL7": "abcd74b9-5912-414b-82ac-f1aa4dcd554e",
              "BL8": "97036cec-7e2a-4bfa-b3c9-79739854a678",
              "CD1": [],
              "CD2": [],
              "CD4": "7ad25dad-3c21-4d75-bf53-a1da0dadef8b",
              "CD7": []
            }
          ]
        }
      ],
      "BK5": [],
      "BK4": [
        {
          "BL1": "Terrasoft.Core.Process.ProcessSchemaStartEvent",
          "UId": "d178be0f-d957-433f-83eb-597a8fc89a61",
          "A2": "StartEvent1",
          "A3": "97036cec-7e2a-4bfa-b3c9-79739854a678",
          "A4": "97036cec-7e2a-4bfa-b3c9-79739854a678",
          "A5": "80852c4e-6e90-4769-a5e6-c485d9bc7022",
          "IL2": "c49a9cdf-da3b-4975-88ea-8ec625c3a94b",
          "BL3": "50;184",
          "BL7": "53818048-7868-48f6-ada0-0ebaa65af628",
          "BL8": "97036cec-7e2a-4bfa-b3c9-79739854a678",
          "BN2": "31;31",
          "BO3": true,
          "FC1": []
        },
        {
          "BL1": "Terrasoft.Core.Process.ProcessSchemaTerminateEvent",
          "UId": "1c79e3c9-4f04-4453-9d7a-7bea8375a958",
          "A2": "TerminateEvent1",
          "A3": "97036cec-7e2a-4bfa-b3c9-79739854a678",
          "A4": "97036cec-7e2a-4bfa-b3c9-79739854a678",
          "A5": "80852c4e-6e90-4769-a5e6-c485d9bc7022",
          "IL2": "c49a9cdf-da3b-4975-88ea-8ec625c3a94b",
          "BL3": "658;184",
          "BL7": "1bd93619-0574-454e-bb4e-cf53b9eb9470",
          "BL8": "97036cec-7e2a-4bfa-b3c9-79739854a678",
          "BN2": "31;31",
          "BO3": true,
          "FC1": []
        },
        {
          "BL1": "Terrasoft.Core.Process.ProcessSchemaUserTask",
          "UId": "80abf987-e297-46ef-b806-f164b4ef00ac",
          "A2": "SMCreateNewEmail1",
          "A3": "97036cec-7e2a-4bfa-b3c9-79739854a678",
          "A4": "97036cec-7e2a-4bfa-b3c9-79739854a678",
          "A5": "80852c4e-6e90-4769-a5e6-c485d9bc7022",
          "IL2": "c49a9cdf-da3b-4975-88ea-8ec625c3a94b",
          "BL3": "162;172",
          "BL7": "de333660-e2e6-479e-8e79-ff7b1c07c276",
          "BL8": "97036cec-7e2a-4bfa-b3c9-79739854a678",
          "BN2": "69;55",
          "BO2": true,
          "BO3": true,
          "BP2": [
            {
              "BL1": "Terrasoft.Core.Process.ProcessSchemaParameter",
              "UId": "c8b22569-54d4-4257-8eb6-4bbf37e3b7da",
              "A2": "EmailTemplateId",
              "A3": "de333660-e2e6-479e-8e79-ff7b1c07c276",
              "A4": "de333660-e2e6-479e-8e79-ff7b1c07c276",
              "IL2": "80abf987-e297-46ef-b806-f164b4ef00ac",
              "L1": "b295071f-7ea9-4e62-8d1a-919bf3732ff2",
              "L8": {
                "GS1": 3,
                "GS2": "[#Lookup.93030575-f70f-4041-902e-c4badaf62c63.559604d2-571b-4161-84f0-983da4879621#]",
                "GS5": "97036cec-7e2a-4bfa-b3c9-79739854a678"
              },
              "L6": true,
              "L9": "93030575-f70f-4041-902e-c4badaf62c63"
            },
            {
              "BL1": "Terrasoft.Core.Process.ProcessSchemaParameter",
              "UId": "c8495e96-88f6-49ac-8e55-e0d063fdc572",
              "A2": "RecordId",
              "A3": "de333660-e2e6-479e-8e79-ff7b1c07c276",
              "A4": "de333660-e2e6-479e-8e79-ff7b1c07c276",
              "IL2": "80abf987-e297-46ef-b806-f164b4ef00ac",
              "L1": "b295071f-7ea9-4e62-8d1a-919bf3732ff2",
              "L8": {
                "GS1": 3,
                "GS2": "[#Lookup.1fc0bf0b-844f-4611-9453-07809de57345.3e4307a7-c06a-4a35-95e2-ca0e27bd99c1#]",
                "GS5": "97036cec-7e2a-4bfa-b3c9-79739854a678"
              },
              "L9": "1fc0bf0b-844f-4611-9453-07809de57345"
            },
            {
              "BL1": "Terrasoft.Core.Process.ProcessSchemaParameter",
              "UId": "a09ece2a-e0af-48c8-af9c-5226e7f01f37",
              "A2": "Sender",
              "A3": "de333660-e2e6-479e-8e79-ff7b1c07c276",
              "A4": "de333660-e2e6-479e-8e79-ff7b1c07c276",
              "IL2": "80abf987-e297-46ef-b806-f164b4ef00ac",
              "L1": "b295071f-7ea9-4e62-8d1a-919bf3732ff2",
              "L8": {
                "GS1": 3,
                "GS2": "[#Lookup.5e487721-02e2-48ee-b755-dfa5160f5315.a29379b0-9f2a-4bb7-81b0-76ab0c05f3fe#]",
                "GS5": "97036cec-7e2a-4bfa-b3c9-79739854a678"
              },
              "L6": true,
              "L9": "5e487721-02e2-48ee-b755-dfa5160f5315"
            },
            {
              "BL1": "Terrasoft.Core.Process.ProcessSchemaParameter",
              "UId": "08d3ec73-7f1c-4b35-a84b-5ee66fa9e95e",
              "A2": "Recipient",
              "A3": "de333660-e2e6-479e-8e79-ff7b1c07c276",
              "A4": "de333660-e2e6-479e-8e79-ff7b1c07c276",
              "IL2": "80abf987-e297-46ef-b806-f164b4ef00ac",
              "L1": "8b3f29bb-ea14-4ce5-a5c5-293a929b6ba2",
              "L8": {
                "GS1": 1,
                "GS5": "97036cec-7e2a-4bfa-b3c9-79739854a678"
              },
              "L6": true
            },
            {
              "BL1": "Terrasoft.Core.Process.ProcessSchemaParameter",
              "UId": "f367d080-0b94-4bef-be12-eda15efab019",
              "A2": "Send",
              "A3": "de333660-e2e6-479e-8e79-ff7b1c07c276",
              "A4": "de333660-e2e6-479e-8e79-ff7b1c07c276",
              "IL2": "80abf987-e297-46ef-b806-f164b4ef00ac",
              "L1": "90b65bf8-0ffc-4141-8779-2420877af907",
              "L8": {
                "GS1": 3,
                "GS2": "[#BooleanValue.False#]",
                "GS5": "97036cec-7e2a-4bfa-b3c9-79739854a678"
              }
            },
            {
              "BL1": "Terrasoft.Core.Process.ProcessSchemaParameter",
              "UId": "de9de7cf-f465-4cd5-9ad9-3917000979a7",
              "A2": "ActivityId",
              "A3": "de333660-e2e6-479e-8e79-ff7b1c07c276",
              "A4": "de333660-e2e6-479e-8e79-ff7b1c07c276",
              "IL2": "80abf987-e297-46ef-b806-f164b4ef00ac",
              "L1": "23018567-a13c-4320-8687-fd6f9e3699bd",
              "L8": {
                "GS2": ""
              },
              "L13": true
            }
          ],
          "CL2": "FFFFFFFF",
          "J6": "de333660-e2e6-479e-8e79-ff7b1c07c276"
        },
        {
          "BL1": "Terrasoft.Core.Process.ProcessSchemaUserTask",
          "UId": "61661352-b18f-46f7-a38f-0b652e560137",
          "A2": "ChangeDataUserTask1",
          "A3": "97036cec-7e2a-4bfa-b3c9-79739854a678",
          "A4": "97036cec-7e2a-4bfa-b3c9-79739854a678",
          "A5": "80852c4e-6e90-4769-a5e6-c485d9bc7022",
          "IL2": "c49a9cdf-da3b-4975-88ea-8ec625c3a94b",
          "BL3": "308;172",
          "BL7": "d3021ca7-7450-4678-a117-060171eb2976",
          "BL8": "97036cec-7e2a-4bfa-b3c9-79739854a678",
          "BN2": "69;55",
          "BO3": true,
          "BP2": [
            {
              "BL1": "Terrasoft.Core.Process.ProcessSchemaParameter",
              "UId": "ab52e7a8-becb-4c6a-a027-33f34ca99266",
              "A2": "EntitySchemaUId",
              "A3": "d3021ca7-7450-4678-a117-060171eb2976",
              "A4": "d3021ca7-7450-4678-a117-060171eb2976",
              "A5": "66e9e705-64b4-4dda-925e-d1e05a389eb6",
              "IL2": "61661352-b18f-46f7-a38f-0b652e560137",
              "L1": "b295071f-7ea9-4e62-8d1a-919bf3732ff2",
              "L8": {
                "GS1": 1,
                "GS2": "c449d832-a4cc-4b01-b9d5-8a12c42a9f89",
                "GS5": "97036cec-7e2a-4bfa-b3c9-79739854a678"
              }
            },
            {
              "BL1": "Terrasoft.Core.Process.ProcessSchemaParameter",
              "UId": "f72ea976-16e1-4059-97ce-fb64b7351429",
              "A2": "IsMatchConditions",
              "A3": "d3021ca7-7450-4678-a117-060171eb2976",
              "A4": "d3021ca7-7450-4678-a117-060171eb2976",
              "A5": "66e9e705-64b4-4dda-925e-d1e05a389eb6",
              "IL2": "61661352-b18f-46f7-a38f-0b652e560137",
              "L1": "90b65bf8-0ffc-4141-8779-2420877af907",
              "L8": {
                "GS1": 3,
                "GS2": "true",
                "GS5": "d3021ca7-7450-4678-a117-060171eb2976"
              }
            },
            {
              "BL1": "Terrasoft.Core.Process.ProcessSchemaParameter",
              "UId": "f1493c2b-a5c5-4a04-bbb7-7d6199c228f2",
              "A2": "DataSourceFilters",
              "A3": "d3021ca7-7450-4678-a117-060171eb2976",
              "A4": "d3021ca7-7450-4678-a117-060171eb2976",
              "A5": "66e9e705-64b4-4dda-925e-d1e05a389eb6",
              "IL2": "61661352-b18f-46f7-a38f-0b652e560137",
              "L1": "394e160f-c8e0-46fa-9c0d-75d97e9e9169",
              "L8": {
                "GS1": 1,
                "GS2": "{\"className\":\"Terrasoft.FilterGroup\",\"serializedFilterEditData\":\"{\\\"className\\\":\\\"Terrasoft.FilterGroup\\\",\\\"items\\\":{\\\"4ebf5231-a30d-4524-b71e-720a244b1214\\\":{\\\"className\\\":\\\"Terrasoft.CompareFilter\\\",\\\"filterType\\\":1,\\\"comparisonType\\\":3,\\\"isEnabled\\\":true,\\\"trimDateTimeParameterToDate\\\":false,\\\"leftExpression\\\":{\\\"className\\\":\\\"Terrasoft.ColumnExpression\\\",\\\"expressionType\\\":0,\\\"columnPath\\\":\\\"Id\\\"},\\\"isAggregative\\\":false,\\\"key\\\":\\\"4ebf5231-a30d-4524-b71e-720a244b1214\\\",\\\"dataValueType\\\":0,\\\"leftExpressionCaption\\\":\\\"Id\\\",\\\"rightExpression\\\":{\\\"className\\\":\\\"Terrasoft.ParameterExpression\\\",\\\"expressionType\\\":2,\\\"parameter\\\":{\\\"className\\\":\\\"Terrasoft.Parameter\\\",\\\"dataValueType\\\":26,\\\"value\\\":{\\\"value\\\":\\\"[IsOwnerSchema:false].[IsSchema:false].[Element:{80abf987-e297-46ef-b806-f164b4ef00ac}].[Parameter:{de9de7cf-f465-4cd5-9ad9-3917000979a7}]\\\",\\\"displayValue\\\":\\\"SMCreateNewEmail1.ActivityId\\\"}}}}},\\\"logicalOperation\\\":0,\\\"isEnabled\\\":true,\\\"filterType\\\":6,\\\"rootSchemaName\\\":\\\"Activity\\\",\\\"key\\\":\\\"\\\"}\",\"dataSourceFilters\":\"{\\\"items\\\":{\\\"4ebf5231-a30d-4524-b71e-720a244b1214\\\":{\\\"filterType\\\":1,\\\"comparisonType\\\":3,\\\"isEnabled\\\":true,\\\"trimDateTimeParameterToDate\\\":false,\\\"leftExpression\\\":{\\\"expressionType\\\":0,\\\"columnPath\\\":\\\"Id\\\"},\\\"rightExpression\\\":{\\\"expressionType\\\":2,\\\"parameter\\\":{\\\"dataValueType\\\":26,\\\"value\\\":{\\\"value\\\":\\\"[IsOwnerSchema:false].[IsSchema:false].[Element:{80abf987-e297-46ef-b806-f164b4ef00ac}].[Parameter:{de9de7cf-f465-4cd5-9ad9-3917000979a7}]\\\"}}}}},\\\"logicalOperation\\\":0,\\\"isEnabled\\\":true,\\\"filterType\\\":6,\\\"rootSchemaName\\\":\\\"Activity\\\"}\"}",
                "GS5": "97036cec-7e2a-4bfa-b3c9-79739854a678"
              }
            },
            {
              "BL1": "Terrasoft.Core.Process.ProcessSchemaParameter",
              "UId": "a5396efa-b90f-4671-b16c-b99361dac4c4",
              "A2": "RecordColumnValues",
              "A3": "d3021ca7-7450-4678-a117-060171eb2976",
              "A4": "d3021ca7-7450-4678-a117-060171eb2976",
              "A5": "66e9e705-64b4-4dda-925e-d1e05a389eb6",
              "IL2": "61661352-b18f-46f7-a38f-0b652e560137",
              "L1": "b53eaa2a-4bb7-4a6b-9f4f-58ccab293e31",
              "L8": {
                "GS1": 1,
                "GS2": "{\"$type\":\"Terrasoft.Core.Process.LocalizableParameterValuesList, Terrasoft.Core\",\"$values\":[{\"ItemUId\":\"fa16fdcb-5e04-4dda-bc58-02831d5624ad\",\"columnMetaPath\":{\"value\":\"fb0d6fd1-17a1-4a04-a155-a4b643c6d048\"},\"schemaUId\":{\"value\":\"c449d832-a4cc-4b01-b9d5-8a12c42a9f89\"},\"value\":{\"value\":\"[#Lookup.25d7c1ab-1de0-4501-b402-02e0e5a72d6e.0afe6e50-54df-4d31-93bb-21c7032b19a7#]\"},\"displayValue\":{\"value\":\"[#Lookup.Account.ABC Schools#]\"},\"parameterValue\":{\"value\":\"{\\\"$type\\\":\\\"Terrasoft.Core.Process.ProcessSchemaParameterValue, Terrasoft.Core\\\",\\\"Source\\\":3,\\\"DisplayValue\\\":\\\"\\\",\\\"Value\\\":\\\"\\\",\\\"MetaPath\\\":null,\\\"MetaDataValue\\\":null,\\\"ModifiedInSchemaUId\\\":\\\"00000000-0000-0000-0000-000000000000\\\",\\\"SchemaUId\\\":\\\"00000000-0000-0000-0000-000000000000\\\",\\\"SchemaManagerName\\\":\\\"\\\",\\\"DataValueTypeUId\\\":\\\"b295071f-7ea9-4e62-8d1a-919bf3732ff2\\\",\\\"ReferenceSchemaUId\\\":\\\"25d7c1ab-1de0-4501-b402-02e0e5a72d6e\\\",\\\"ResourceItemName\\\":null}\"}}]}",
                "GS5": "97036cec-7e2a-4bfa-b3c9-79739854a678"
              }
            }
          ],
          "CL2": "FFFFFFFF",
          "J6": "d3021ca7-7450-4678-a117-060171eb2976"
        },
        {
          "BL1": "Terrasoft.Core.Process.ProcessSchemaUserTask",
          "UId": "6487a383-4acb-4b8f-a869-529f80e1a54e",
          "A2": "SMSendExistingEmail1",
          "A3": "97036cec-7e2a-4bfa-b3c9-79739854a678",
          "A4": "97036cec-7e2a-4bfa-b3c9-79739854a678",
          "A5": "80852c4e-6e90-4769-a5e6-c485d9bc7022",
          "IL2": "c49a9cdf-da3b-4975-88ea-8ec625c3a94b",
          "BL3": "478;172",
          "BL7": "cf1173cf-722d-4a16-87a5-5a2f9d8b6564",
          "BL8": "97036cec-7e2a-4bfa-b3c9-79739854a678",
          "BN2": "69;55",
          "BO2": true,
          "BO3": true,
          "BP2": [
            {
              "BL1": "Terrasoft.Core.Process.ProcessSchemaParameter",
              "UId": "7d70d1ce-3810-4f84-8823-05819fcbb574",
              "A2": "ActivityId",
              "A3": "cf1173cf-722d-4a16-87a5-5a2f9d8b6564",
              "A4": "cf1173cf-722d-4a16-87a5-5a2f9d8b6564",
              "IL2": "6487a383-4acb-4b8f-a869-529f80e1a54e",
              "L1": "23018567-a13c-4320-8687-fd6f9e3699bd",
              "L8": {
                "GS1": 3,
                "GS2": "[#[IsOwnerSchema:false].[IsSchema:false].[Element:{80abf987-e297-46ef-b806-f164b4ef00ac}].[Parameter:{de9de7cf-f465-4cd5-9ad9-3917000979a7}]#]",
                "GS5": "97036cec-7e2a-4bfa-b3c9-79739854a678"
              }
            }
          ],
          "CL2": "FFFFFFFF",
          "J6": "cf1173cf-722d-4a16-87a5-5a2f9d8b6564"
        },
        {
          "BL1": "Terrasoft.Core.Process.ProcessSchemaSequenceFlow",
          "UId": "9b8b5fa1-2aaf-4b9d-b0b0-587d130baaef",
          "A2": "SequenceFlow1",
          "A3": "97036cec-7e2a-4bfa-b3c9-79739854a678",
          "A4": "97036cec-7e2a-4bfa-b3c9-79739854a678",
          "A5": "80852c4e-6e90-4769-a5e6-c485d9bc7022",
          "BL7": "0d8351f6-c2f4-4737-bdd9-6fbfe0837fec",
          "BL8": "97036cec-7e2a-4bfa-b3c9-79739854a678",
          "CI1": "d178be0f-d957-433f-83eb-597a8fc89a61",
          "CI2": "80abf987-e297-46ef-b806-f164b4ef00ac",
          "CI3": "null",
          "CI5": "FF939598",
          "CI6": 1,
          "CI11": "81;200",
          "CI12": "162;200"
        },
        {
          "BL1": "Terrasoft.Core.Process.ProcessSchemaSequenceFlow",
          "UId": "aaa34835-d0ed-4a05-a1c7-116cf1b61ab3",
          "A2": "SequenceFlow2",
          "A3": "97036cec-7e2a-4bfa-b3c9-79739854a678",
          "A4": "97036cec-7e2a-4bfa-b3c9-79739854a678",
          "A5": "80852c4e-6e90-4769-a5e6-c485d9bc7022",
          "BL7": "0d8351f6-c2f4-4737-bdd9-6fbfe0837fec",
          "BL8": "97036cec-7e2a-4bfa-b3c9-79739854a678",
          "CI1": "80abf987-e297-46ef-b806-f164b4ef00ac",
          "CI2": "61661352-b18f-46f7-a38f-0b652e560137",
          "CI3": "null",
          "CI5": "FF939598",
          "CI6": 1,
          "CI11": "231;200",
          "CI12": "308;200"
        },
        {
          "BL1": "Terrasoft.Core.Process.ProcessSchemaSequenceFlow",
          "UId": "bb10ada1-80c6-4a71-9b37-8f9ffb717b45",
          "A2": "SequenceFlow3",
          "A3": "97036cec-7e2a-4bfa-b3c9-79739854a678",
          "A4": "97036cec-7e2a-4bfa-b3c9-79739854a678",
          "A5": "80852c4e-6e90-4769-a5e6-c485d9bc7022",
          "BL7": "0d8351f6-c2f4-4737-bdd9-6fbfe0837fec",
          "BL8": "97036cec-7e2a-4bfa-b3c9-79739854a678",
          "CI1": "61661352-b18f-46f7-a38f-0b652e560137",
          "CI2": "6487a383-4acb-4b8f-a869-529f80e1a54e",
          "CI3": "null",
          "CI5": "FF939598",
          "CI6": 1,
          "CI11": "377;200",
          "CI12": "478;200"
        },
        {
          "BL1": "Terrasoft.Core.Process.ProcessSchemaSequenceFlow",
          "UId": "38a64a9f-ca5a-4bf8-8bd1-e46f561fe80f",
          "A2": "SequenceFlow4",
          "A3": "97036cec-7e2a-4bfa-b3c9-79739854a678",
          "A4": "97036cec-7e2a-4bfa-b3c9-79739854a678",
          "A5": "80852c4e-6e90-4769-a5e6-c485d9bc7022",
          "BL7": "0d8351f6-c2f4-4737-bdd9-6fbfe0837fec",
          "BL8": "97036cec-7e2a-4bfa-b3c9-79739854a678",
          "CI1": "6487a383-4acb-4b8f-a869-529f80e1a54e",
          "CI2": "1c79e3c9-4f04-4453-9d7a-7bea8375a958",
          "CI3": "null",
          "CI5": "FF939598",
          "CI6": 1,
          "CI11": "547;200",
          "CI12": "658;200"
        }
      ],
      "BK9": [],
      "BK18": "Business Process",
      "BK29": true,
      "BK30": true,
      "BK34": "en-US",
      "Labels": [],
      "BK24": []
    }
  }
}