﻿{
  "Descriptor": {
    "UId": "b3aba14e-1112-4d3a-bea6-f072e4e957e5",
    "Name": "WatConsortiumFolder",
    "ModifiedOnUtc": "\/Date(1598628459000)\/",
    "Parent": {
      "UId": "d602bf96-d029-4b07-9755-63c8f5cb5ed5",
      "Name": "BaseFolder"
    },
    "ManagerName": "EntitySchemaManager",
    "Caption": "Consortium folder"
  }
}