﻿{
  "Descriptor": {
    "UId": "b523fa4e-a381-4a50-9310-f2ca60d9f436",
    "Name": "WatSchemae3d19951Detail",
    "ModifiedOnUtc": "\/Date(1599413786000)\/",
    "Parent": {
      "UId": "01eb38ee-668a-42f0-999d-c2534f979089",
      "Name": "BaseGridDetailV2"
    },
    "ManagerName": "ClientUnitSchemaManager",
    "Caption": "Detail schema: \"Hospitality Change\""
  }
}