{
  "MetaData": {
    "Schema": {
      "ManagerName": "ProcessSchemaManager",
      "UId": "32c03794-3cf5-4052-856e-cbeeb0495e74",
      "A2": "WatProcess9_2SetTimerAsCompletedAfterHours",
      "A5": "75bcb584-5e36-448a-a4b7-140d2dd57696",
      "B1": [],
      "B2": [],
      "B3": [],
      "B6": "80852c4e-6e90-4769-a5e6-c485d9bc7022",
      "B8": "7.16.3.1473",
      "FJ1": [],
      "IJ1": true,
      "BK8": "bb4d6607-026b-4b27-b640-8f5c77c1e89d",
      "IJ7": false,
      "IJ10": true,
      "BK15": [
        {
          "BL1": "Terrasoft.Core.Process.ProcessSchemaMapping",
          "UId": "1f5f8165-8bfd-45fb-9e1b-ac7701f67e0b",
          "A2": "ChangeDataUserTask1",
          "A3": "32c03794-3cf5-4052-856e-cbeeb0495e74",
          "A4": "32c03794-3cf5-4052-856e-cbeeb0495e74",
          "GT2": "[Element:{4cd5e036-ae5d-49f3-965b-eaf96e7b822b}].[Parameter:{9209fe45-2020-4611-8ebd-f6c2462b22be}]",
          "GT3": "9209fe45-2020-4611-8ebd-f6c2462b22be",
          "GT5": "bd2cf1ae-bbc6-4d91-8d6e-c6b40f057e95",
          "GT4": "d3021ca7-7450-4678-a117-060171eb2976",
          "GT1": {
            "GS1": 1,
            "GS2": "af0894b6-378f-446f-8846-96b862887826"
          }
        },
        {
          "BL1": "Terrasoft.Core.Process.ProcessSchemaMapping",
          "UId": "b294c741-a3a7-4660-a687-eb5df90244e7",
          "A2": "ChangeDataUserTask1",
          "A3": "32c03794-3cf5-4052-856e-cbeeb0495e74",
          "A4": "32c03794-3cf5-4052-856e-cbeeb0495e74",
          "GT2": "[Element:{4cd5e036-ae5d-49f3-965b-eaf96e7b822b}].[Parameter:{d1724493-506f-4842-9757-2e4ab6ead4f7}]",
          "GT3": "d1724493-506f-4842-9757-2e4ab6ead4f7",
          "GT5": "d6c84ba1-b6ca-4952-b517-880f22e21fdc",
          "GT4": "d3021ca7-7450-4678-a117-060171eb2976",
          "GT1": {
            "GS1": 3,
            "GS2": "true",
            "GS5": "d3021ca7-7450-4678-a117-060171eb2976"
          }
        },
        {
          "BL1": "Terrasoft.Core.Process.ProcessSchemaMapping",
          "UId": "3b41249c-e746-4512-be99-5a222f424d1e",
          "A2": "ChangeDataUserTask1",
          "A3": "32c03794-3cf5-4052-856e-cbeeb0495e74",
          "A4": "32c03794-3cf5-4052-856e-cbeeb0495e74",
          "GT2": "[Element:{4cd5e036-ae5d-49f3-965b-eaf96e7b822b}].[Parameter:{551dfd24-ff8f-4ae2-9a81-83fb44d71407}]",
          "GT3": "551dfd24-ff8f-4ae2-9a81-83fb44d71407",
          "GT5": "03166c4b-2e15-4768-a343-750c16b69691",
          "GT4": "d3021ca7-7450-4678-a117-060171eb2976",
          "GT1": {
            "GS1": 1,
            "GS2": "{\"className\":\"Terrasoft.FilterGroup\",\"serializedFilterEditData\":\"{\\\"className\\\":\\\"Terrasoft.FilterGroup\\\",\\\"items\\\":{\\\"b9fb8fe7-7a2e-4476-9dcf-8a5fc026b68c\\\":{\\\"className\\\":\\\"Terrasoft.CompareFilter\\\",\\\"filterType\\\":1,\\\"comparisonType\\\":6,\\\"isEnabled\\\":true,\\\"trimDateTimeParameterToDate\\\":true,\\\"leftExpression\\\":{\\\"className\\\":\\\"Terrasoft.ColumnExpression\\\",\\\"expressionType\\\":0,\\\"columnPath\\\":\\\"WatWaitUntil\\\"},\\\"isAggregative\\\":false,\\\"key\\\":\\\"b9fb8fe7-7a2e-4476-9dcf-8a5fc026b68c\\\",\\\"dataValueType\\\":7,\\\"leftExpressionCaption\\\":\\\"Wait Until\\\",\\\"rightExpression\\\":{\\\"className\\\":\\\"Terrasoft.FunctionExpression\\\",\\\"expressionType\\\":1,\\\"functionType\\\":1,\\\"macrosType\\\":21}},\\\"d1dfec2d-1384-4b7b-ac6a-423c851b8058\\\":{\\\"className\\\":\\\"Terrasoft.CompareFilter\\\",\\\"filterType\\\":1,\\\"comparisonType\\\":3,\\\"isEnabled\\\":true,\\\"trimDateTimeParameterToDate\\\":false,\\\"leftExpression\\\":{\\\"className\\\":\\\"Terrasoft.ColumnExpression\\\",\\\"expressionType\\\":0,\\\"columnPath\\\":\\\"WatCompleted\\\"},\\\"isAggregative\\\":false,\\\"key\\\":\\\"d1dfec2d-1384-4b7b-ac6a-423c851b8058\\\",\\\"dataValueType\\\":12,\\\"leftExpressionCaption\\\":\\\"Completed\\\",\\\"rightExpression\\\":{\\\"className\\\":\\\"Terrasoft.ParameterExpression\\\",\\\"expressionType\\\":2,\\\"parameter\\\":{\\\"className\\\":\\\"Terrasoft.Parameter\\\",\\\"dataValueType\\\":12,\\\"value\\\":false}}}},\\\"logicalOperation\\\":0,\\\"isEnabled\\\":true,\\\"filterType\\\":6,\\\"rootSchemaName\\\":\\\"WatTimer\\\",\\\"key\\\":\\\"\\\"}\",\"dataSourceFilters\":\"{\\\"items\\\":{\\\"b9fb8fe7-7a2e-4476-9dcf-8a5fc026b68c\\\":{\\\"filterType\\\":1,\\\"comparisonType\\\":6,\\\"isEnabled\\\":true,\\\"trimDateTimeParameterToDate\\\":true,\\\"leftExpression\\\":{\\\"expressionType\\\":0,\\\"columnPath\\\":\\\"WatWaitUntil\\\"},\\\"rightExpression\\\":{\\\"expressionType\\\":1,\\\"functionType\\\":1,\\\"macrosType\\\":21}},\\\"d1dfec2d-1384-4b7b-ac6a-423c851b8058\\\":{\\\"filterType\\\":1,\\\"comparisonType\\\":3,\\\"isEnabled\\\":true,\\\"trimDateTimeParameterToDate\\\":false,\\\"leftExpression\\\":{\\\"expressionType\\\":0,\\\"columnPath\\\":\\\"WatCompleted\\\"},\\\"rightExpression\\\":{\\\"expressionType\\\":2,\\\"parameter\\\":{\\\"dataValueType\\\":12,\\\"value\\\":false}}}},\\\"logicalOperation\\\":0,\\\"isEnabled\\\":true,\\\"filterType\\\":6,\\\"rootSchemaName\\\":\\\"WatTimer\\\"}\"}",
            "GS5": "32c03794-3cf5-4052-856e-cbeeb0495e74"
          }
        },
        {
          "BL1": "Terrasoft.Core.Process.ProcessSchemaMapping",
          "UId": "3c7cf4ce-1f4f-4ca1-85fe-8bc4d0d27649",
          "A2": "ChangeDataUserTask1",
          "A3": "32c03794-3cf5-4052-856e-cbeeb0495e74",
          "A4": "32c03794-3cf5-4052-856e-cbeeb0495e74",
          "GT2": "[Element:{4cd5e036-ae5d-49f3-965b-eaf96e7b822b}].[Parameter:{cbe8f244-f3a4-4681-9040-81d568745c53}]",
          "GT3": "cbe8f244-f3a4-4681-9040-81d568745c53",
          "GT5": "effa11ce-90c7-4efe-8a02-be7a659d27e9",
          "GT4": "d3021ca7-7450-4678-a117-060171eb2976",
          "GT1": {
            "GS1": 1,
            "GS2": "{\"$type\":\"Terrasoft.Core.Process.LocalizableParameterValuesList, Terrasoft.Core\",\"$values\":[{\"ItemUId\":\"9f1f7c29-9735-4b8d-8b7d-8f5e04c1016d\",\"columnMetaPath\":{\"value\":\"5722c995-86f3-437f-8a4b-fdf9603847fa\"},\"schemaUId\":{\"value\":\"af0894b6-378f-446f-8846-96b862887826\"},\"value\":{\"value\":\"[#BooleanValue.True#]\"},\"displayValue\":{\"value\":\"[#Boolean value.True#]\"},\"parameterValue\":{\"value\":\"{\\\"$type\\\":\\\"Terrasoft.Core.Process.ProcessSchemaParameterValue, Terrasoft.Core\\\",\\\"Source\\\":3,\\\"DisplayValue\\\":\\\"\\\",\\\"Value\\\":\\\"\\\",\\\"MetaPath\\\":null,\\\"MetaDataValue\\\":null,\\\"ModifiedInSchemaUId\\\":\\\"00000000-0000-0000-0000-000000000000\\\",\\\"SchemaUId\\\":\\\"00000000-0000-0000-0000-000000000000\\\",\\\"SchemaManagerName\\\":\\\"\\\",\\\"DataValueTypeUId\\\":\\\"90b65bf8-0ffc-4141-8779-2420877af907\\\",\\\"ReferenceSchemaUId\\\":\\\"00000000-0000-0000-0000-000000000000\\\",\\\"ResourceItemName\\\":null}\"}}]}"
          }
        },
        {
          "BL1": "Terrasoft.Core.Process.ProcessSchemaMapping",
          "UId": "93c9f54e-327e-4c16-9dd9-a5c3911d6801",
          "A2": "ChangeDataUserTask2",
          "A3": "32c03794-3cf5-4052-856e-cbeeb0495e74",
          "A4": "32c03794-3cf5-4052-856e-cbeeb0495e74",
          "GT2": "[Element:{b16cc708-d954-499c-bc22-af2476b2b5b2}].[Parameter:{1344f99b-4b14-47b8-8c4f-cad51444a5bb}]",
          "GT3": "1344f99b-4b14-47b8-8c4f-cad51444a5bb",
          "GT5": "bd2cf1ae-bbc6-4d91-8d6e-c6b40f057e95",
          "GT4": "d3021ca7-7450-4678-a117-060171eb2976",
          "GT1": {
            "GS1": 1,
            "GS2": "4ae87426-a469-4452-a24b-46571f8a3419"
          }
        },
        {
          "BL1": "Terrasoft.Core.Process.ProcessSchemaMapping",
          "UId": "abef27ee-55af-4524-991e-8351dfd4e859",
          "A2": "ChangeDataUserTask2",
          "A3": "32c03794-3cf5-4052-856e-cbeeb0495e74",
          "A4": "32c03794-3cf5-4052-856e-cbeeb0495e74",
          "GT2": "[Element:{b16cc708-d954-499c-bc22-af2476b2b5b2}].[Parameter:{f11d4cc2-919b-4cd2-9e39-e4e274ae5310}]",
          "GT3": "f11d4cc2-919b-4cd2-9e39-e4e274ae5310",
          "GT5": "d6c84ba1-b6ca-4952-b517-880f22e21fdc",
          "GT4": "d3021ca7-7450-4678-a117-060171eb2976",
          "GT1": {
            "GS1": 3,
            "GS2": "true",
            "GS5": "d3021ca7-7450-4678-a117-060171eb2976"
          }
        },
        {
          "BL1": "Terrasoft.Core.Process.ProcessSchemaMapping",
          "UId": "89bfcd72-8429-4f6c-ae9d-355005eb0c2c",
          "A2": "ChangeDataUserTask2",
          "A3": "32c03794-3cf5-4052-856e-cbeeb0495e74",
          "A4": "32c03794-3cf5-4052-856e-cbeeb0495e74",
          "GT2": "[Element:{b16cc708-d954-499c-bc22-af2476b2b5b2}].[Parameter:{673f2b8b-a3a3-4d89-8d51-a14903c92362}]",
          "GT3": "673f2b8b-a3a3-4d89-8d51-a14903c92362",
          "GT5": "03166c4b-2e15-4768-a343-750c16b69691",
          "GT4": "d3021ca7-7450-4678-a117-060171eb2976",
          "GT1": {
            "GS1": 1,
            "GS2": "{\"className\":\"Terrasoft.FilterGroup\",\"serializedFilterEditData\":\"{\\\"className\\\":\\\"Terrasoft.FilterGroup\\\",\\\"items\\\":{\\\"3ca2b3bf-8203-4022-809b-2697c58334c0\\\":{\\\"className\\\":\\\"Terrasoft.IsNullFilter\\\",\\\"filterType\\\":2,\\\"comparisonType\\\":2,\\\"isEnabled\\\":true,\\\"trimDateTimeParameterToDate\\\":false,\\\"leftExpression\\\":{\\\"className\\\":\\\"Terrasoft.ColumnExpression\\\",\\\"expressionType\\\":0,\\\"columnPath\\\":\\\"WatAnvilExport\\\"},\\\"isAggregative\\\":false,\\\"key\\\":\\\"3ca2b3bf-8203-4022-809b-2697c58334c0\\\",\\\"dataValueType\\\":10,\\\"leftExpressionCaption\\\":\\\"Anvil Export\\\",\\\"referenceSchemaName\\\":\\\"WatAnvilExport\\\",\\\"isNull\\\":false},\\\"2f9edcc8-6d86-46dc-8405-727d39c5aaea\\\":{\\\"className\\\":\\\"Terrasoft.IsNullFilter\\\",\\\"filterType\\\":2,\\\"comparisonType\\\":1,\\\"isEnabled\\\":true,\\\"trimDateTimeParameterToDate\\\":false,\\\"leftExpression\\\":{\\\"className\\\":\\\"Terrasoft.ColumnExpression\\\",\\\"expressionType\\\":0,\\\"columnPath\\\":\\\"WatANVILReceivedInfo\\\"},\\\"isAggregative\\\":false,\\\"key\\\":\\\"2f9edcc8-6d86-46dc-8405-727d39c5aaea\\\",\\\"dataValueType\\\":1,\\\"leftExpressionCaption\\\":\\\"ANVIL Exported\\\",\\\"isNull\\\":true},\\\"efda4ea5-a7f5-40b3-8358-4b9df6ff729a\\\":{\\\"className\\\":\\\"Terrasoft.CompareFilter\\\",\\\"filterType\\\":1,\\\"comparisonType\\\":3,\\\"isEnabled\\\":true,\\\"trimDateTimeParameterToDate\\\":false,\\\"leftExpression\\\":{\\\"className\\\":\\\"Terrasoft.ColumnExpression\\\",\\\"expressionType\\\":0,\\\"columnPath\\\":\\\"WatAnvilReady\\\"},\\\"isAggregative\\\":false,\\\"key\\\":\\\"efda4ea5-a7f5-40b3-8358-4b9df6ff729a\\\",\\\"dataValueType\\\":12,\\\"leftExpressionCaption\\\":\\\"Anvil Ready\\\",\\\"rightExpression\\\":{\\\"className\\\":\\\"Terrasoft.ParameterExpression\\\",\\\"expressionType\\\":2,\\\"parameter\\\":{\\\"className\\\":\\\"Terrasoft.Parameter\\\",\\\"dataValueType\\\":12,\\\"value\\\":true}}}},\\\"logicalOperation\\\":0,\\\"isEnabled\\\":true,\\\"filterType\\\":6,\\\"rootSchemaName\\\":\\\"WatTraveler\\\",\\\"key\\\":\\\"\\\"}\",\"dataSourceFilters\":\"{\\\"items\\\":{\\\"3ca2b3bf-8203-4022-809b-2697c58334c0\\\":{\\\"filterType\\\":2,\\\"comparisonType\\\":2,\\\"isEnabled\\\":true,\\\"trimDateTimeParameterToDate\\\":false,\\\"leftExpression\\\":{\\\"expressionType\\\":0,\\\"columnPath\\\":\\\"WatAnvilExport\\\"},\\\"isNull\\\":false},\\\"2f9edcc8-6d86-46dc-8405-727d39c5aaea\\\":{\\\"filterType\\\":2,\\\"comparisonType\\\":1,\\\"isEnabled\\\":true,\\\"trimDateTimeParameterToDate\\\":false,\\\"leftExpression\\\":{\\\"expressionType\\\":0,\\\"columnPath\\\":\\\"WatANVILReceivedInfo\\\"},\\\"isNull\\\":true},\\\"efda4ea5-a7f5-40b3-8358-4b9df6ff729a\\\":{\\\"filterType\\\":1,\\\"comparisonType\\\":3,\\\"isEnabled\\\":true,\\\"trimDateTimeParameterToDate\\\":false,\\\"leftExpression\\\":{\\\"expressionType\\\":0,\\\"columnPath\\\":\\\"WatAnvilReady\\\"},\\\"rightExpression\\\":{\\\"expressionType\\\":2,\\\"parameter\\\":{\\\"dataValueType\\\":12,\\\"value\\\":true}}}},\\\"logicalOperation\\\":0,\\\"isEnabled\\\":true,\\\"filterType\\\":6,\\\"rootSchemaName\\\":\\\"WatTraveler\\\"}\"}"
          }
        },
        {
          "BL1": "Terrasoft.Core.Process.ProcessSchemaMapping",
          "UId": "eed26ec5-4280-4369-a745-de355272a78b",
          "A2": "ChangeDataUserTask2",
          "A3": "32c03794-3cf5-4052-856e-cbeeb0495e74",
          "A4": "32c03794-3cf5-4052-856e-cbeeb0495e74",
          "GT2": "[Element:{b16cc708-d954-499c-bc22-af2476b2b5b2}].[Parameter:{ed792ba7-69a2-465a-90ad-9feda14bbf3d}]",
          "GT3": "ed792ba7-69a2-465a-90ad-9feda14bbf3d",
          "GT5": "effa11ce-90c7-4efe-8a02-be7a659d27e9",
          "GT4": "d3021ca7-7450-4678-a117-060171eb2976",
          "GT1": {
            "GS1": 1,
            "GS2": "{\"$type\":\"Terrasoft.Core.Process.LocalizableParameterValuesList, Terrasoft.Core\",\"$values\":[{\"ItemUId\":\"43918072-ebfa-45d7-bfd3-cfe4b577b8b6\",\"columnMetaPath\":{\"value\":\"9fb4884c-6d82-4a34-b66e-2b86925c9e51\"},\"schemaUId\":{\"value\":\"4ae87426-a469-4452-a24b-46571f8a3419\"},\"value\":{\"isLczValue\":true,\"value\":\"Yes\"},\"displayValue\":{\"isLczValue\":true,\"value\":\"Yes\"},\"parameterValue\":{\"value\":\"{\\\"$type\\\":\\\"Terrasoft.Core.Process.ProcessSchemaParameterValue, Terrasoft.Core\\\",\\\"Source\\\":1,\\\"DisplayValue\\\":\\\"\\\",\\\"Value\\\":\\\"\\\",\\\"MetaPath\\\":null,\\\"MetaDataValue\\\":null,\\\"ModifiedInSchemaUId\\\":\\\"00000000-0000-0000-0000-000000000000\\\",\\\"SchemaUId\\\":\\\"00000000-0000-0000-0000-000000000000\\\",\\\"SchemaManagerName\\\":\\\"\\\",\\\"DataValueTypeUId\\\":\\\"8b3f29bb-ea14-4ce5-a5c5-293a929b6ba2\\\",\\\"ReferenceSchemaUId\\\":\\\"00000000-0000-0000-0000-000000000000\\\",\\\"ResourceItemName\\\":null}\"}}]}"
          }
        }
      ],
      "BK37": {
        "BL1": "Terrasoft.Core.Process.ProcessSchemaParameter",
        "UId": "cdd58be7-2dba-4a5e-869b-1ad5d6d7513a",
        "A2": "NotificationCaption",
        "A3": "32c03794-3cf5-4052-856e-cbeeb0495e74",
        "A4": "32c03794-3cf5-4052-856e-cbeeb0495e74",
        "L1": "8b3f29bb-ea14-4ce5-a5c5-293a929b6ba2",
        "L8": {
          "GS1": 3,
          "GS2": "[#[PropertyValue:Caption]#]"
        }
      },
      "BK1": "FFFFFFFF",
      "BK2": "FFBBBBBB",
      "BK3": [
        {
          "BL1": "Terrasoft.Core.Process.ProcessSchemaLaneSet",
          "UId": "9f64621d-3de5-464a-91f6-d76446b8de99",
          "A2": "LaneSet1",
          "A3": "32c03794-3cf5-4052-856e-cbeeb0495e74",
          "A4": "32c03794-3cf5-4052-856e-cbeeb0495e74",
          "A5": "75bcb584-5e36-448a-a4b7-140d2dd57696",
          "BL7": "11a47caf-a0d5-41fa-a274-a0b11f77447a",
          "BL8": "32c03794-3cf5-4052-856e-cbeeb0495e74",
          "BM1": 0,
          "BM4": [
            {
              "BL1": "Terrasoft.Core.Process.ProcessSchemaLane",
              "UId": "7500b972-4fe4-4ada-bc28-fad836eaa38f",
              "A2": "Lane1",
              "A3": "32c03794-3cf5-4052-856e-cbeeb0495e74",
              "A4": "32c03794-3cf5-4052-856e-cbeeb0495e74",
              "A5": "75bcb584-5e36-448a-a4b7-140d2dd57696",
              "IL2": "9f64621d-3de5-464a-91f6-d76446b8de99",
              "BL7": "abcd74b9-5912-414b-82ac-f1aa4dcd554e",
              "BL8": "32c03794-3cf5-4052-856e-cbeeb0495e74",
              "CD1": [],
              "CD2": [],
              "CD4": "9f64621d-3de5-464a-91f6-d76446b8de99",
              "CD7": []
            }
          ]
        }
      ],
      "BK5": [],
      "BK4": [
        {
          "BL1": "Terrasoft.Core.Process.ProcessSchemaStartTimerEvent",
          "UId": "e17d10cb-c7f8-4946-9fc4-b17c35a6834a",
          "A2": "StartTimerEvent1",
          "A3": "32c03794-3cf5-4052-856e-cbeeb0495e74",
          "A4": "32c03794-3cf5-4052-856e-cbeeb0495e74",
          "A5": "75bcb584-5e36-448a-a4b7-140d2dd57696",
          "IL2": "7500b972-4fe4-4ada-bc28-fad836eaa38f",
          "BL3": "168;196",
          "BL7": "c735ed92-e545-4699-b3c6-f8f57dd8c529",
          "BL8": "32c03794-3cf5-4052-856e-cbeeb0495e74",
          "BN2": "31;31",
          "BO3": true,
          "FC1": [],
          "ED1": false,
          "PS1": "0 0 4,5,20,21,22,23 ? * 2,3,4,5 *",
          "PS2": 1,
          "PS3": 6,
          "PS6": "Eastern Standard Time"
        },
        {
          "BL1": "Terrasoft.Core.Process.ProcessSchemaUserTask",
          "UId": "4cd5e036-ae5d-49f3-965b-eaf96e7b822b",
          "A2": "ChangeDataUserTask1",
          "A3": "32c03794-3cf5-4052-856e-cbeeb0495e74",
          "A4": "32c03794-3cf5-4052-856e-cbeeb0495e74",
          "A5": "75bcb584-5e36-448a-a4b7-140d2dd57696",
          "IL2": "7500b972-4fe4-4ada-bc28-fad836eaa38f",
          "BL3": "313;184",
          "BL7": "d3021ca7-7450-4678-a117-060171eb2976",
          "BL8": "32c03794-3cf5-4052-856e-cbeeb0495e74",
          "BN2": "69;55",
          "BO3": true,
          "BP2": [
            {
              "BL1": "Terrasoft.Core.Process.ProcessSchemaParameter",
              "UId": "9209fe45-2020-4611-8ebd-f6c2462b22be",
              "A2": "EntitySchemaUId",
              "A3": "d3021ca7-7450-4678-a117-060171eb2976",
              "A4": "d3021ca7-7450-4678-a117-060171eb2976",
              "A5": "66e9e705-64b4-4dda-925e-d1e05a389eb6",
              "IL2": "4cd5e036-ae5d-49f3-965b-eaf96e7b822b",
              "L1": "b295071f-7ea9-4e62-8d1a-919bf3732ff2",
              "L8": {
                "GS1": 1,
                "GS2": "af0894b6-378f-446f-8846-96b862887826",
                "GS5": "32c03794-3cf5-4052-856e-cbeeb0495e74"
              },
              "L9": "6c7394db-06ff-4050-91ef-8278e21dce15"
            },
            {
              "BL1": "Terrasoft.Core.Process.ProcessSchemaParameter",
              "UId": "d1724493-506f-4842-9757-2e4ab6ead4f7",
              "A2": "IsMatchConditions",
              "A3": "d3021ca7-7450-4678-a117-060171eb2976",
              "A4": "d3021ca7-7450-4678-a117-060171eb2976",
              "A5": "66e9e705-64b4-4dda-925e-d1e05a389eb6",
              "IL2": "4cd5e036-ae5d-49f3-965b-eaf96e7b822b",
              "L1": "90b65bf8-0ffc-4141-8779-2420877af907",
              "L8": {
                "GS1": 3,
                "GS2": "true",
                "GS5": "d3021ca7-7450-4678-a117-060171eb2976"
              }
            },
            {
              "BL1": "Terrasoft.Core.Process.ProcessSchemaParameter",
              "UId": "551dfd24-ff8f-4ae2-9a81-83fb44d71407",
              "A2": "DataSourceFilters",
              "A3": "d3021ca7-7450-4678-a117-060171eb2976",
              "A4": "d3021ca7-7450-4678-a117-060171eb2976",
              "A5": "66e9e705-64b4-4dda-925e-d1e05a389eb6",
              "IL2": "4cd5e036-ae5d-49f3-965b-eaf96e7b822b",
              "L1": "394e160f-c8e0-46fa-9c0d-75d97e9e9169",
              "L8": {
                "GS1": 1,
                "GS2": "{\"className\":\"Terrasoft.FilterGroup\",\"serializedFilterEditData\":\"{\\\"className\\\":\\\"Terrasoft.FilterGroup\\\",\\\"items\\\":{\\\"b9fb8fe7-7a2e-4476-9dcf-8a5fc026b68c\\\":{\\\"className\\\":\\\"Terrasoft.CompareFilter\\\",\\\"filterType\\\":1,\\\"comparisonType\\\":6,\\\"isEnabled\\\":true,\\\"trimDateTimeParameterToDate\\\":true,\\\"leftExpression\\\":{\\\"className\\\":\\\"Terrasoft.ColumnExpression\\\",\\\"expressionType\\\":0,\\\"columnPath\\\":\\\"WatWaitUntil\\\"},\\\"isAggregative\\\":false,\\\"key\\\":\\\"b9fb8fe7-7a2e-4476-9dcf-8a5fc026b68c\\\",\\\"dataValueType\\\":7,\\\"leftExpressionCaption\\\":\\\"Wait Until\\\",\\\"rightExpression\\\":{\\\"className\\\":\\\"Terrasoft.FunctionExpression\\\",\\\"expressionType\\\":1,\\\"functionType\\\":1,\\\"macrosType\\\":21}},\\\"d1dfec2d-1384-4b7b-ac6a-423c851b8058\\\":{\\\"className\\\":\\\"Terrasoft.CompareFilter\\\",\\\"filterType\\\":1,\\\"comparisonType\\\":3,\\\"isEnabled\\\":true,\\\"trimDateTimeParameterToDate\\\":false,\\\"leftExpression\\\":{\\\"className\\\":\\\"Terrasoft.ColumnExpression\\\",\\\"expressionType\\\":0,\\\"columnPath\\\":\\\"WatCompleted\\\"},\\\"isAggregative\\\":false,\\\"key\\\":\\\"d1dfec2d-1384-4b7b-ac6a-423c851b8058\\\",\\\"dataValueType\\\":12,\\\"leftExpressionCaption\\\":\\\"Completed\\\",\\\"rightExpression\\\":{\\\"className\\\":\\\"Terrasoft.ParameterExpression\\\",\\\"expressionType\\\":2,\\\"parameter\\\":{\\\"className\\\":\\\"Terrasoft.Parameter\\\",\\\"dataValueType\\\":12,\\\"value\\\":false}}}},\\\"logicalOperation\\\":0,\\\"isEnabled\\\":true,\\\"filterType\\\":6,\\\"rootSchemaName\\\":\\\"WatTimer\\\",\\\"key\\\":\\\"\\\"}\",\"dataSourceFilters\":\"{\\\"items\\\":{\\\"b9fb8fe7-7a2e-4476-9dcf-8a5fc026b68c\\\":{\\\"filterType\\\":1,\\\"comparisonType\\\":6,\\\"isEnabled\\\":true,\\\"trimDateTimeParameterToDate\\\":true,\\\"leftExpression\\\":{\\\"expressionType\\\":0,\\\"columnPath\\\":\\\"WatWaitUntil\\\"},\\\"rightExpression\\\":{\\\"expressionType\\\":1,\\\"functionType\\\":1,\\\"macrosType\\\":21}},\\\"d1dfec2d-1384-4b7b-ac6a-423c851b8058\\\":{\\\"filterType\\\":1,\\\"comparisonType\\\":3,\\\"isEnabled\\\":true,\\\"trimDateTimeParameterToDate\\\":false,\\\"leftExpression\\\":{\\\"expressionType\\\":0,\\\"columnPath\\\":\\\"WatCompleted\\\"},\\\"rightExpression\\\":{\\\"expressionType\\\":2,\\\"parameter\\\":{\\\"dataValueType\\\":12,\\\"value\\\":false}}}},\\\"logicalOperation\\\":0,\\\"isEnabled\\\":true,\\\"filterType\\\":6,\\\"rootSchemaName\\\":\\\"WatTimer\\\"}\"}",
                "GS5": "32c03794-3cf5-4052-856e-cbeeb0495e74"
              }
            },
            {
              "BL1": "Terrasoft.Core.Process.ProcessSchemaParameter",
              "UId": "cbe8f244-f3a4-4681-9040-81d568745c53",
              "A2": "RecordColumnValues",
              "A3": "d3021ca7-7450-4678-a117-060171eb2976",
              "A4": "d3021ca7-7450-4678-a117-060171eb2976",
              "A5": "66e9e705-64b4-4dda-925e-d1e05a389eb6",
              "IL2": "4cd5e036-ae5d-49f3-965b-eaf96e7b822b",
              "L1": "b53eaa2a-4bb7-4a6b-9f4f-58ccab293e31",
              "L8": {
                "GS1": 1,
                "GS2": "{\"$type\":\"Terrasoft.Core.Process.LocalizableParameterValuesList, Terrasoft.Core\",\"$values\":[{\"ItemUId\":\"9f1f7c29-9735-4b8d-8b7d-8f5e04c1016d\",\"columnMetaPath\":{\"value\":\"5722c995-86f3-437f-8a4b-fdf9603847fa\"},\"schemaUId\":{\"value\":\"af0894b6-378f-446f-8846-96b862887826\"},\"value\":{\"value\":\"[#BooleanValue.True#]\"},\"displayValue\":{\"value\":\"[#Boolean value.True#]\"},\"parameterValue\":{\"value\":\"{\\\"$type\\\":\\\"Terrasoft.Core.Process.ProcessSchemaParameterValue, Terrasoft.Core\\\",\\\"Source\\\":3,\\\"DisplayValue\\\":\\\"\\\",\\\"Value\\\":\\\"\\\",\\\"MetaPath\\\":null,\\\"MetaDataValue\\\":null,\\\"ModifiedInSchemaUId\\\":\\\"00000000-0000-0000-0000-000000000000\\\",\\\"SchemaUId\\\":\\\"00000000-0000-0000-0000-000000000000\\\",\\\"SchemaManagerName\\\":\\\"\\\",\\\"DataValueTypeUId\\\":\\\"90b65bf8-0ffc-4141-8779-2420877af907\\\",\\\"ReferenceSchemaUId\\\":\\\"00000000-0000-0000-0000-000000000000\\\",\\\"ResourceItemName\\\":null}\"}}]}",
                "GS5": "32c03794-3cf5-4052-856e-cbeeb0495e74"
              }
            }
          ],
          "CL2": "FFFFFFFF",
          "J6": "d3021ca7-7450-4678-a117-060171eb2976"
        },
        {
          "BL1": "Terrasoft.Core.Process.ProcessSchemaTerminateEvent",
          "UId": "e02b830f-5b10-4b3c-9db8-da9b1e298ce3",
          "A2": "TerminateEvent2",
          "A3": "32c03794-3cf5-4052-856e-cbeeb0495e74",
          "A4": "32c03794-3cf5-4052-856e-cbeeb0495e74",
          "A5": "75bcb584-5e36-448a-a4b7-140d2dd57696",
          "IL2": "7500b972-4fe4-4ada-bc28-fad836eaa38f",
          "BL3": "658;196",
          "BL7": "1bd93619-0574-454e-bb4e-cf53b9eb9470",
          "BL8": "32c03794-3cf5-4052-856e-cbeeb0495e74",
          "BN2": "31;31",
          "BO3": true,
          "FC1": []
        },
        {
          "BL1": "Terrasoft.Core.Process.ProcessSchemaUserTask",
          "UId": "b16cc708-d954-499c-bc22-af2476b2b5b2",
          "A2": "ChangeDataUserTask2",
          "A3": "32c03794-3cf5-4052-856e-cbeeb0495e74",
          "A4": "32c03794-3cf5-4052-856e-cbeeb0495e74",
          "A5": "80852c4e-6e90-4769-a5e6-c485d9bc7022",
          "IL2": "7500b972-4fe4-4ada-bc28-fad836eaa38f",
          "BL3": "493;184",
          "BL7": "d3021ca7-7450-4678-a117-060171eb2976",
          "BL8": "32c03794-3cf5-4052-856e-cbeeb0495e74",
          "BN2": "69;55",
          "BO3": true,
          "BP2": [
            {
              "BL1": "Terrasoft.Core.Process.ProcessSchemaParameter",
              "UId": "1344f99b-4b14-47b8-8c4f-cad51444a5bb",
              "A2": "EntitySchemaUId",
              "A3": "d3021ca7-7450-4678-a117-060171eb2976",
              "A4": "d3021ca7-7450-4678-a117-060171eb2976",
              "A5": "66e9e705-64b4-4dda-925e-d1e05a389eb6",
              "IL2": "b16cc708-d954-499c-bc22-af2476b2b5b2",
              "L1": "b295071f-7ea9-4e62-8d1a-919bf3732ff2",
              "L8": {
                "GS1": 1,
                "GS2": "4ae87426-a469-4452-a24b-46571f8a3419",
                "GS5": "32c03794-3cf5-4052-856e-cbeeb0495e74"
              }
            },
            {
              "BL1": "Terrasoft.Core.Process.ProcessSchemaParameter",
              "UId": "f11d4cc2-919b-4cd2-9e39-e4e274ae5310",
              "A2": "IsMatchConditions",
              "A3": "d3021ca7-7450-4678-a117-060171eb2976",
              "A4": "d3021ca7-7450-4678-a117-060171eb2976",
              "A5": "66e9e705-64b4-4dda-925e-d1e05a389eb6",
              "IL2": "b16cc708-d954-499c-bc22-af2476b2b5b2",
              "L1": "90b65bf8-0ffc-4141-8779-2420877af907",
              "L8": {
                "GS1": 3,
                "GS2": "true",
                "GS5": "d3021ca7-7450-4678-a117-060171eb2976"
              }
            },
            {
              "BL1": "Terrasoft.Core.Process.ProcessSchemaParameter",
              "UId": "673f2b8b-a3a3-4d89-8d51-a14903c92362",
              "A2": "DataSourceFilters",
              "A3": "d3021ca7-7450-4678-a117-060171eb2976",
              "A4": "d3021ca7-7450-4678-a117-060171eb2976",
              "A5": "66e9e705-64b4-4dda-925e-d1e05a389eb6",
              "IL2": "b16cc708-d954-499c-bc22-af2476b2b5b2",
              "L1": "394e160f-c8e0-46fa-9c0d-75d97e9e9169",
              "L8": {
                "GS1": 1,
                "GS2": "{\"className\":\"Terrasoft.FilterGroup\",\"serializedFilterEditData\":\"{\\\"className\\\":\\\"Terrasoft.FilterGroup\\\",\\\"items\\\":{\\\"3ca2b3bf-8203-4022-809b-2697c58334c0\\\":{\\\"className\\\":\\\"Terrasoft.IsNullFilter\\\",\\\"filterType\\\":2,\\\"comparisonType\\\":2,\\\"isEnabled\\\":true,\\\"trimDateTimeParameterToDate\\\":false,\\\"leftExpression\\\":{\\\"className\\\":\\\"Terrasoft.ColumnExpression\\\",\\\"expressionType\\\":0,\\\"columnPath\\\":\\\"WatAnvilExport\\\"},\\\"isAggregative\\\":false,\\\"key\\\":\\\"3ca2b3bf-8203-4022-809b-2697c58334c0\\\",\\\"dataValueType\\\":10,\\\"leftExpressionCaption\\\":\\\"Anvil Export\\\",\\\"referenceSchemaName\\\":\\\"WatAnvilExport\\\",\\\"isNull\\\":false},\\\"2f9edcc8-6d86-46dc-8405-727d39c5aaea\\\":{\\\"className\\\":\\\"Terrasoft.IsNullFilter\\\",\\\"filterType\\\":2,\\\"comparisonType\\\":1,\\\"isEnabled\\\":true,\\\"trimDateTimeParameterToDate\\\":false,\\\"leftExpression\\\":{\\\"className\\\":\\\"Terrasoft.ColumnExpression\\\",\\\"expressionType\\\":0,\\\"columnPath\\\":\\\"WatANVILReceivedInfo\\\"},\\\"isAggregative\\\":false,\\\"key\\\":\\\"2f9edcc8-6d86-46dc-8405-727d39c5aaea\\\",\\\"dataValueType\\\":1,\\\"leftExpressionCaption\\\":\\\"ANVIL Exported\\\",\\\"isNull\\\":true},\\\"efda4ea5-a7f5-40b3-8358-4b9df6ff729a\\\":{\\\"className\\\":\\\"Terrasoft.CompareFilter\\\",\\\"filterType\\\":1,\\\"comparisonType\\\":3,\\\"isEnabled\\\":true,\\\"trimDateTimeParameterToDate\\\":false,\\\"leftExpression\\\":{\\\"className\\\":\\\"Terrasoft.ColumnExpression\\\",\\\"expressionType\\\":0,\\\"columnPath\\\":\\\"WatAnvilReady\\\"},\\\"isAggregative\\\":false,\\\"key\\\":\\\"efda4ea5-a7f5-40b3-8358-4b9df6ff729a\\\",\\\"dataValueType\\\":12,\\\"leftExpressionCaption\\\":\\\"Anvil Ready\\\",\\\"rightExpression\\\":{\\\"className\\\":\\\"Terrasoft.ParameterExpression\\\",\\\"expressionType\\\":2,\\\"parameter\\\":{\\\"className\\\":\\\"Terrasoft.Parameter\\\",\\\"dataValueType\\\":12,\\\"value\\\":true}}}},\\\"logicalOperation\\\":0,\\\"isEnabled\\\":true,\\\"filterType\\\":6,\\\"rootSchemaName\\\":\\\"WatTraveler\\\",\\\"key\\\":\\\"\\\"}\",\"dataSourceFilters\":\"{\\\"items\\\":{\\\"3ca2b3bf-8203-4022-809b-2697c58334c0\\\":{\\\"filterType\\\":2,\\\"comparisonType\\\":2,\\\"isEnabled\\\":true,\\\"trimDateTimeParameterToDate\\\":false,\\\"leftExpression\\\":{\\\"expressionType\\\":0,\\\"columnPath\\\":\\\"WatAnvilExport\\\"},\\\"isNull\\\":false},\\\"2f9edcc8-6d86-46dc-8405-727d39c5aaea\\\":{\\\"filterType\\\":2,\\\"comparisonType\\\":1,\\\"isEnabled\\\":true,\\\"trimDateTimeParameterToDate\\\":false,\\\"leftExpression\\\":{\\\"expressionType\\\":0,\\\"columnPath\\\":\\\"WatANVILReceivedInfo\\\"},\\\"isNull\\\":true},\\\"efda4ea5-a7f5-40b3-8358-4b9df6ff729a\\\":{\\\"filterType\\\":1,\\\"comparisonType\\\":3,\\\"isEnabled\\\":true,\\\"trimDateTimeParameterToDate\\\":false,\\\"leftExpression\\\":{\\\"expressionType\\\":0,\\\"columnPath\\\":\\\"WatAnvilReady\\\"},\\\"rightExpression\\\":{\\\"expressionType\\\":2,\\\"parameter\\\":{\\\"dataValueType\\\":12,\\\"value\\\":true}}}},\\\"logicalOperation\\\":0,\\\"isEnabled\\\":true,\\\"filterType\\\":6,\\\"rootSchemaName\\\":\\\"WatTraveler\\\"}\"}",
                "GS5": "32c03794-3cf5-4052-856e-cbeeb0495e74"
              }
            },
            {
              "BL1": "Terrasoft.Core.Process.ProcessSchemaParameter",
              "UId": "ed792ba7-69a2-465a-90ad-9feda14bbf3d",
              "A2": "RecordColumnValues",
              "A3": "d3021ca7-7450-4678-a117-060171eb2976",
              "A4": "d3021ca7-7450-4678-a117-060171eb2976",
              "A5": "66e9e705-64b4-4dda-925e-d1e05a389eb6",
              "IL2": "b16cc708-d954-499c-bc22-af2476b2b5b2",
              "L1": "b53eaa2a-4bb7-4a6b-9f4f-58ccab293e31",
              "L8": {
                "GS1": 1,
                "GS2": "{\"$type\":\"Terrasoft.Core.Process.LocalizableParameterValuesList, Terrasoft.Core\",\"$values\":[{\"ItemUId\":\"43918072-ebfa-45d7-bfd3-cfe4b577b8b6\",\"columnMetaPath\":{\"value\":\"9fb4884c-6d82-4a34-b66e-2b86925c9e51\"},\"schemaUId\":{\"value\":\"4ae87426-a469-4452-a24b-46571f8a3419\"},\"value\":{\"isLczValue\":true},\"displayValue\":{\"isLczValue\":true},\"parameterValue\":{\"value\":\"{\\\"$type\\\":\\\"Terrasoft.Core.Process.ProcessSchemaParameterValue, Terrasoft.Core\\\",\\\"Source\\\":1,\\\"DisplayValue\\\":\\\"\\\",\\\"Value\\\":\\\"\\\",\\\"MetaPath\\\":null,\\\"MetaDataValue\\\":null,\\\"ModifiedInSchemaUId\\\":\\\"00000000-0000-0000-0000-000000000000\\\",\\\"SchemaUId\\\":\\\"00000000-0000-0000-0000-000000000000\\\",\\\"SchemaManagerName\\\":\\\"\\\",\\\"DataValueTypeUId\\\":\\\"8b3f29bb-ea14-4ce5-a5c5-293a929b6ba2\\\",\\\"ReferenceSchemaUId\\\":\\\"00000000-0000-0000-0000-000000000000\\\",\\\"ResourceItemName\\\":null}\"}}]}",
                "GS5": "32c03794-3cf5-4052-856e-cbeeb0495e74"
              }
            }
          ],
          "CL2": "FFFFFFFF",
          "J6": "d3021ca7-7450-4678-a117-060171eb2976"
        },
        {
          "BL1": "Terrasoft.Core.Process.ProcessSchemaSequenceFlow",
          "UId": "f9316a6f-9012-4fa5-93e6-90395e9ffb0a",
          "A2": "SequenceFlow1",
          "A3": "32c03794-3cf5-4052-856e-cbeeb0495e74",
          "A4": "32c03794-3cf5-4052-856e-cbeeb0495e74",
          "A5": "75bcb584-5e36-448a-a4b7-140d2dd57696",
          "BL7": "0d8351f6-c2f4-4737-bdd9-6fbfe0837fec",
          "BL8": "32c03794-3cf5-4052-856e-cbeeb0495e74",
          "CI1": "e17d10cb-c7f8-4946-9fc4-b17c35a6834a",
          "CI2": "4cd5e036-ae5d-49f3-965b-eaf96e7b822b",
          "CI3": "null",
          "CI5": "FF939598",
          "CI6": 1,
          "CI11": "199;212",
          "CI12": "313;212"
        },
        {
          "BL1": "Terrasoft.Core.Process.ProcessSchemaSequenceFlow",
          "UId": "c1b9ec32-80ed-450f-9dda-15743ffa7ef7",
          "A2": "SequenceFlow6",
          "A3": "32c03794-3cf5-4052-856e-cbeeb0495e74",
          "A4": "32c03794-3cf5-4052-856e-cbeeb0495e74",
          "A5": "75bcb584-5e36-448a-a4b7-140d2dd57696",
          "BL7": "0d8351f6-c2f4-4737-bdd9-6fbfe0837fec",
          "BL8": "32c03794-3cf5-4052-856e-cbeeb0495e74",
          "CI1": "4cd5e036-ae5d-49f3-965b-eaf96e7b822b",
          "CI2": "b16cc708-d954-499c-bc22-af2476b2b5b2",
          "CI3": "null",
          "CI5": "FF939598",
          "CI6": 1,
          "CI11": "382;212",
          "CI12": "493;212"
        },
        {
          "BL1": "Terrasoft.Core.Process.ProcessSchemaSequenceFlow",
          "UId": "5c94c74a-6c77-407c-a957-c0f280f47537",
          "A2": "SequenceFlow2",
          "A3": "32c03794-3cf5-4052-856e-cbeeb0495e74",
          "A4": "32c03794-3cf5-4052-856e-cbeeb0495e74",
          "A5": "80852c4e-6e90-4769-a5e6-c485d9bc7022",
          "BL7": "0d8351f6-c2f4-4737-bdd9-6fbfe0837fec",
          "BL8": "32c03794-3cf5-4052-856e-cbeeb0495e74",
          "CI1": "b16cc708-d954-499c-bc22-af2476b2b5b2",
          "CI2": "e02b830f-5b10-4b3c-9db8-da9b1e298ce3",
          "CI3": "null",
          "CI5": "FF939598",
          "CI6": 1,
          "CI11": "562;212",
          "CI12": "658;212"
        }
      ],
      "BK9": [],
      "BK18": "Business Process",
      "BK29": true,
      "BK30": true,
      "BK34": "en-US",
      "Labels": [
        {
          "BL1": "Terrasoft.Core.Process.ProcessSchemaLabel",
          "UId": "fce1824d-93d1-4b93-832f-c9df13a509a7",
          "A2": "StartTimerEvent1_label1",
          "A3": "32c03794-3cf5-4052-856e-cbeeb0495e74",
          "A4": "32c03794-3cf5-4052-856e-cbeeb0495e74",
          "ParentUId": "e17d10cb-c7f8-4946-9fc4-b17c35a6834a",
          "X": -47
        }
      ],
      "BK24": []
    }
  }
}