﻿{
  "Descriptor": {
    "UId": "b91c8a4f-09ab-4de6-a94e-3e75a0bf2efd",
    "Name": "WatProcess32_1SetIncidentTravellerCityName",
    "ModifiedOnUtc": "\/Date(1632177079000)\/",
    "ManagerName": "ProcessSchemaManager",
    "Caption": "SM#32-1 (Associated Traveller): Set City from Trip"
  }
}