﻿{
  "Descriptor": {
    "UId": "bf619f67-cfc8-4784-a4f2-85a28903b6d7",
    "Name": "WatGifts1MiniPage",
    "ModifiedOnUtc": "\/Date(1599070598000)\/",
    "Parent": {
      "UId": "8e06a577-08e4-424e-bd89-798a34e1b928",
      "Name": "BaseMiniPage"
    },
    "ManagerName": "ClientUnitSchemaManager",
    "Caption": "WatGifts1MiniPage"
  }
}