﻿{
  "Descriptor": {
    "UId": "ee9376ef-a3ed-4348-9999-d87b96ed9c01",
    "Name": "DocumentSectionV2",
    "ModifiedOnUtc": "\/Date(1602613504000)\/",
    "Parent": {
      "UId": "4ddb288e-abd7-48c3-b74b-002b805aa25e",
      "Name": "DocumentSectionV2"
    },
    "ExtendParent": true,
    "ManagerName": "ClientUnitSchemaManager",
    "Caption": "Section schema: \"Documents\""
  }
}