﻿{
  "Descriptor": {
    "UId": "7cc2cb50-e94d-4dbb-8b5d-cfb11b65117d",
    "Name": "WatTripFolder",
    "ModifiedOnUtc": "\/Date(1602768460000)\/",
    "Parent": {
      "UId": "d602bf96-d029-4b07-9755-63c8f5cb5ed5",
      "Name": "BaseFolder"
    },
    "ManagerName": "EntitySchemaManager",
    "Caption": "Trips folder"
  }
}