﻿{
  "SqlScript": {
    "UId": "85527ac4-519d-4ff2-b184-df692b7946b5",
    "Name": "SysSettings_LearnSessionId",
    "DBEngineType": 0,
    "InstallType": 2,
    "ModifiedOnUtc": "\/Date(1619467128000)\/",
    "DependsOn": []
  }
}