﻿{
  "Descriptor": {
    "UId": "1db98e44-58a3-4db6-9af5-dccbe3767bf9",
    "Name": "WatAssociatedTraveler1Page",
    "ModifiedOnUtc": "\/Date(1635028967000)\/",
    "Parent": {
      "UId": "d62293c0-7f14-44b1-b547-735fb40499cd",
      "Name": "BaseModulePageV2"
    },
    "ManagerName": "ClientUnitSchemaManager",
    "Caption": "Edit page: \"Associated Travelers\""
  }
}