﻿{
  "Descriptor": {
    "UId": "b6574fd5-99e8-4b41-ba2f-450b1985819e",
    "Name": "WatTravelSituationInTag",
    "ModifiedOnUtc": "\/Date(1604882923000)\/",
    "Parent": {
      "UId": "5894a2b0-51d5-419a-82bb-238674634270",
      "Name": "BaseEntityInTag"
    },
    "ManagerName": "EntitySchemaManager",
    "Caption": "Travel Situations section record tag"
  }
}