﻿{
  "Descriptor": {
    "UId": "de4948dd-c89e-4dbc-9fa8-f27e42af8563",
    "Name": "WatTripsStandardCase",
    "ModifiedOnUtc": "\/Date(1628707938000)\/",
    "ManagerName": "DcmSchemaManager",
    "Caption": "Trips Standard Case"
  }
}