﻿{
  "Properties": {
    "CreatedInVersion": "7.16.3.1473",
    "Enabled": "True",
    "EntitySchemaUId": "2ac3229e-4b9b-44ed-876b-bbc0de5a2134",
    "IsActiveVersion": "True",
    "IsTracing": "False",
    "StageColumnUId": "851be4a1-98d0-48bd-9e38-8af25f6e3a39",
    "Version": "0"
  }
}