﻿{
  "Descriptor": {
    "UId": "964df898-6151-4347-96b9-2bb4f1f2b145",
    "Name": "SMNewConsultedFacultiesFile",
    "ModifiedOnUtc": "\/Date(1678801514000)\/",
    "Parent": {
      "UId": "556c5867-60a7-4456-aae1-a57a122bef70",
      "Name": "File"
    },
    "ManagerName": "EntitySchemaManager",
    "Caption": "Consulted Faculties (new) attachment",
    "DependsOn": []
  }
}