﻿{
  "Descriptor": {
    "UId": "fa90b1b4-55e2-4a4d-9122-4f6e6fa26273",
    "Name": "WatProcess46ArrivalNoticeRequest",
    "ModifiedOnUtc": "\/Date(1681829251000)\/",
    "ManagerName": "ProcessSchemaManager",
    "Caption": "SM#46 (Trip): Send Arrival Notice Request",
    "DependsOn": []
  }
}