﻿{
  "Descriptor": {
    "UId": "a56cdb4b-0e98-4cc9-a34b-4e67e74e058e",
    "Name": "WatDelegationMembers",
    "ModifiedOnUtc": "\/Date(1622140788000)\/",
    "Parent": {
      "UId": "1bab9dcf-17d5-49f8-9536-8e0064f1dce0",
      "Name": "BaseEntity"
    },
    "ManagerName": "EntitySchemaManager",
    "Caption": "Delegation Members"
  }
}