{
  "MetaData": {
    "Schema": {
      "ManagerName": "ProcessSchemaManager",
      "UId": "74335067-ef0a-456b-924c-c9e0dd308126",
      "A2": "WatProcess24_2SubPNRMasterProcess",
      "A5": "d6be1b0c-5d1a-461d-a7e8-b336e40dcd12",
      "B1": [],
      "B2": [],
      "B3": [],
      "B6": "80852c4e-6e90-4769-a5e6-c485d9bc7022",
      "B8": "8.0.4.1870",
      "FJ1": [],
      "IJ1": true,
      "BK8": "bb4d6607-026b-4b27-b640-8f5c77c1e89d",
      "IJ10": true,
      "BK15": [
        {
          "BL1": "Terrasoft.Core.Process.ProcessSchemaMapping",
          "UId": "3c297168-f6ff-4a49-a60e-6249ea45efb6",
          "A2": "AddDataUserTask1",
          "A3": "74335067-ef0a-456b-924c-c9e0dd308126",
          "A4": "74335067-ef0a-456b-924c-c9e0dd308126",
          "GT2": "[Element:{845ddfba-2eb2-4c4d-bc0a-18712838b111}].[Parameter:{8e302e57-af77-4b4d-823b-846b21e87ab5}]",
          "GT3": "8e302e57-af77-4b4d-823b-846b21e87ab5",
          "GT5": "4573b9c8-b4d4-442e-a499-682e7b31ab10",
          "GT4": "db6abed1-0c5f-455b-8053-2665378cdb71",
          "GT1": {
            "GS1": 1,
            "GS2": "af0894b6-378f-446f-8846-96b862887826"
          }
        },
        {
          "BL1": "Terrasoft.Core.Process.ProcessSchemaMapping",
          "UId": "c60cc5f5-4d14-4e7e-9c09-8216be98a84b",
          "A2": "AddDataUserTask1",
          "A3": "74335067-ef0a-456b-924c-c9e0dd308126",
          "A4": "74335067-ef0a-456b-924c-c9e0dd308126",
          "GT2": "[Element:{845ddfba-2eb2-4c4d-bc0a-18712838b111}].[Parameter:{01f3f8d6-03bb-49ef-ba56-47292db5efeb}]",
          "GT3": "01f3f8d6-03bb-49ef-ba56-47292db5efeb",
          "GT5": "24151caf-0cf3-48bb-862c-ba9a0ddc4b29",
          "GT4": "db6abed1-0c5f-455b-8053-2665378cdb71",
          "GT1": {}
        },
        {
          "BL1": "Terrasoft.Core.Process.ProcessSchemaMapping",
          "UId": "879b49f2-2cdd-49a3-b7f6-f0568eab115a",
          "A2": "AddDataUserTask1",
          "A3": "74335067-ef0a-456b-924c-c9e0dd308126",
          "A4": "74335067-ef0a-456b-924c-c9e0dd308126",
          "GT2": "[Element:{845ddfba-2eb2-4c4d-bc0a-18712838b111}].[Parameter:{1253b5d2-e1b3-446e-a8b2-cd1f3657aeb9}]",
          "GT3": "1253b5d2-e1b3-446e-a8b2-cd1f3657aeb9",
          "GT5": "06ad8e3f-90fc-4aa2-922d-3fa9c386f7fc",
          "GT4": "db6abed1-0c5f-455b-8053-2665378cdb71",
          "GT1": {
            "GS1": 1,
            "GS2": "0"
          }
        },
        {
          "BL1": "Terrasoft.Core.Process.ProcessSchemaMapping",
          "UId": "2e7d8f64-b2c6-4f91-879c-e7237b6e0935",
          "A2": "AddDataUserTask1",
          "A3": "74335067-ef0a-456b-924c-c9e0dd308126",
          "A4": "74335067-ef0a-456b-924c-c9e0dd308126",
          "GT2": "[Element:{845ddfba-2eb2-4c4d-bc0a-18712838b111}].[Parameter:{2406950a-5039-4d01-98cd-3cf49dab72d3}]",
          "GT3": "2406950a-5039-4d01-98cd-3cf49dab72d3",
          "GT5": "cb4a4921-dd8e-4b41-b4f9-539408697296",
          "GT4": "db6abed1-0c5f-455b-8053-2665378cdb71",
          "GT1": {}
        },
        {
          "BL1": "Terrasoft.Core.Process.ProcessSchemaMapping",
          "UId": "ee2b4193-99c5-47f7-9d01-bff5987c6e6e",
          "A2": "AddDataUserTask1",
          "A3": "74335067-ef0a-456b-924c-c9e0dd308126",
          "A4": "74335067-ef0a-456b-924c-c9e0dd308126",
          "GT2": "[Element:{845ddfba-2eb2-4c4d-bc0a-18712838b111}].[Parameter:{f8f40ac3-271a-4530-ab24-785de12ec0e3}]",
          "GT3": "f8f40ac3-271a-4530-ab24-785de12ec0e3",
          "GT5": "f1b0cf15-8edd-4df1-948f-7dd046622d22",
          "GT4": "db6abed1-0c5f-455b-8053-2665378cdb71",
          "GT1": {
            "GS1": 1,
            "GS2": "{\"$type\":\"Terrasoft.Core.Process.LocalizableParameterValuesList, Terrasoft.Core\",\"$values\":[{\"ItemUId\":\"c38ce376-20d1-4411-9b5c-0c6474c879cd\",\"columnMetaPath\":{\"value\":\"5722c995-86f3-437f-8a4b-fdf9603847fa\"},\"schemaUId\":{\"value\":\"af0894b6-378f-446f-8846-96b862887826\"},\"value\":{\"value\":\"[#BooleanValue.False#]\"},\"displayValue\":{\"value\":\"[#Boolean value.False#]\"},\"parameterValue\":{\"value\":\"{\\\"$type\\\":\\\"Terrasoft.Core.Process.ProcessSchemaParameterValue, Terrasoft.Core\\\",\\\"Source\\\":3,\\\"DisplayValue\\\":\\\"\\\",\\\"Value\\\":\\\"\\\",\\\"MetaPath\\\":null,\\\"MetaDataValue\\\":null,\\\"ModifiedInSchemaUId\\\":\\\"00000000-0000-0000-0000-000000000000\\\",\\\"SchemaUId\\\":\\\"00000000-0000-0000-0000-000000000000\\\",\\\"SchemaManagerName\\\":\\\"\\\",\\\"DataValueTypeUId\\\":\\\"90b65bf8-0ffc-4141-8779-2420877af907\\\",\\\"ReferenceSchemaUId\\\":\\\"00000000-0000-0000-0000-000000000000\\\",\\\"ResourceItemName\\\":null}\"}},{\"ItemUId\":\"23a8ddc7-4a18-40e6-bf4b-e9512928e56f\",\"columnMetaPath\":{\"value\":\"50c06330-1995-42a7-9c92-d68a1e4a16d9\"},\"schemaUId\":{\"value\":\"af0894b6-378f-446f-8846-96b862887826\"},\"value\":{\"isLczValue\":true,\"value\":\"WF#24-2 Wait to assign PNR (2min)\"},\"displayValue\":{\"isLczValue\":true,\"value\":\"WF#24-2 Wait to assign PNR (2min)\"},\"parameterValue\":{\"value\":\"{\\\"$type\\\":\\\"Terrasoft.Core.Process.ProcessSchemaParameterValue, Terrasoft.Core\\\",\\\"Source\\\":1,\\\"DisplayValue\\\":\\\"\\\",\\\"Value\\\":\\\"\\\",\\\"MetaPath\\\":null,\\\"MetaDataValue\\\":null,\\\"ModifiedInSchemaUId\\\":\\\"00000000-0000-0000-0000-000000000000\\\",\\\"SchemaUId\\\":\\\"00000000-0000-0000-0000-000000000000\\\",\\\"SchemaManagerName\\\":\\\"\\\",\\\"DataValueTypeUId\\\":\\\"8b3f29bb-ea14-4ce5-a5c5-293a929b6ba2\\\",\\\"ReferenceSchemaUId\\\":\\\"00000000-0000-0000-0000-000000000000\\\",\\\"ResourceItemName\\\":null}\"}},{\"ItemUId\":\"c6f3f7e1-7e24-4815-a9bb-67405112f297\",\"columnMetaPath\":{\"value\":\"b6c373d9-2df4-432a-a6f7-21797b486ae3\"},\"schemaUId\":{\"value\":\"af0894b6-378f-446f-8846-96b862887826\"},\"value\":{\"value\":\"[#[IsOwnerSchema:false].[IsSchema:false].[Element:{68efe4b1-7517-45ed-89ce-8973b93dc0bf}].[Parameter:{85322478-88ba-4941-8799-c7be7e8695bb}]#]\"},\"displayValue\":{\"value\":\"[#Trigger PNR.Unique identifier of record#]\"},\"parameterValue\":{\"value\":\"{\\\"$type\\\":\\\"Terrasoft.Core.Process.ProcessSchemaParameterValue, Terrasoft.Core\\\",\\\"Source\\\":3,\\\"DisplayValue\\\":\\\"\\\",\\\"Value\\\":\\\"\\\",\\\"MetaPath\\\":null,\\\"MetaDataValue\\\":null,\\\"ModifiedInSchemaUId\\\":\\\"00000000-0000-0000-0000-000000000000\\\",\\\"SchemaUId\\\":\\\"00000000-0000-0000-0000-000000000000\\\",\\\"SchemaManagerName\\\":\\\"\\\",\\\"DataValueTypeUId\\\":\\\"b295071f-7ea9-4e62-8d1a-919bf3732ff2\\\",\\\"ReferenceSchemaUId\\\":\\\"2ac3229e-4b9b-44ed-876b-bbc0de5a2134\\\",\\\"ResourceItemName\\\":null}\"}},{\"ItemUId\":\"a6246b0e-0e44-48bc-bfb8-0b062a46a1b8\",\"columnMetaPath\":{\"value\":\"3669248d-f8db-4c70-81b2-2f8f5f0fe308\"},\"schemaUId\":{\"value\":\"af0894b6-378f-446f-8846-96b862887826\"},\"value\":{\"value\":\"[#SysVariable.CurrentDateTime#].AddMinutes(2)\"},\"displayValue\":{\"value\":\"[#System variable.Current Time and Date#].AddMinutes(2)\"},\"parameterValue\":{\"value\":\"{\\\"$type\\\":\\\"Terrasoft.Core.Process.ProcessSchemaParameterValue, Terrasoft.Core\\\",\\\"Source\\\":3,\\\"DisplayValue\\\":\\\"\\\",\\\"Value\\\":\\\"\\\",\\\"MetaPath\\\":null,\\\"MetaDataValue\\\":null,\\\"ModifiedInSchemaUId\\\":\\\"00000000-0000-0000-0000-000000000000\\\",\\\"SchemaUId\\\":\\\"00000000-0000-0000-0000-000000000000\\\",\\\"SchemaManagerName\\\":\\\"\\\",\\\"DataValueTypeUId\\\":\\\"d21e9ef4-c064-4012-b286-fa1a8171da44\\\",\\\"ReferenceSchemaUId\\\":\\\"00000000-0000-0000-0000-000000000000\\\",\\\"ResourceItemName\\\":null}\"}}]}"
          }
        },
        {
          "BL1": "Terrasoft.Core.Process.ProcessSchemaMapping",
          "UId": "40fec6ed-67fe-4909-b844-228814d08d8a",
          "A2": "AddDataUserTask1",
          "A3": "74335067-ef0a-456b-924c-c9e0dd308126",
          "A4": "74335067-ef0a-456b-924c-c9e0dd308126",
          "GT2": "[Element:{845ddfba-2eb2-4c4d-bc0a-18712838b111}].[Parameter:{33d3a545-ee44-4d1d-9e17-c4f355b05e61}]",
          "GT3": "33d3a545-ee44-4d1d-9e17-c4f355b05e61",
          "GT5": "01b58ce0-aa7f-40c5-a5c6-b4ddffb5d0c7",
          "GT4": "db6abed1-0c5f-455b-8053-2665378cdb71",
          "GT1": {}
        },
        {
          "BL1": "Terrasoft.Core.Process.ProcessSchemaMapping",
          "UId": "759fc628-40fb-4645-a66d-ca78abce6d11",
          "A2": "AddDataUserTask1",
          "A3": "74335067-ef0a-456b-924c-c9e0dd308126",
          "A4": "74335067-ef0a-456b-924c-c9e0dd308126",
          "GT2": "[Element:{845ddfba-2eb2-4c4d-bc0a-18712838b111}].[Parameter:{e03e76a0-b939-4b39-949e-9d132d158a6b}]",
          "GT3": "e03e76a0-b939-4b39-949e-9d132d158a6b",
          "GT5": "01eaeba6-132f-7d0d-4ecc-67b990f6bd5a",
          "GT4": "db6abed1-0c5f-455b-8053-2665378cdb71",
          "GT1": {
            "GS1": 3,
            "GS2": "true",
            "GS5": "db6abed1-0c5f-455b-8053-2665378cdb71",
            "GS8": "false"
          }
        },
        {
          "BL1": "Terrasoft.Core.Process.ProcessSchemaMapping",
          "UId": "0edaf93f-1f49-4577-bdff-103f81295027",
          "A2": "SubProcess1",
          "A3": "74335067-ef0a-456b-924c-c9e0dd308126",
          "A4": "74335067-ef0a-456b-924c-c9e0dd308126",
          "GT2": "[Element:{7d5a5489-978e-4a86-a855-c8129e2efcc9}].[Parameter:{0ae513d8-30ff-4e84-a6b6-1c25fad6bc67}]",
          "GT3": "0ae513d8-30ff-4e84-a6b6-1c25fad6bc67",
          "GT5": "91762e42-25ae-4b0c-aed4-5741e70bb857",
          "GT4": "6d01a302-99ed-4e0e-a1e0-2c65f1eda874",
          "GT1": {
            "GS5": "6d01a302-99ed-4e0e-a1e0-2c65f1eda874"
          }
        },
        {
          "BL1": "Terrasoft.Core.Process.ProcessSchemaMapping",
          "UId": "4b7cd824-ee14-4c46-b278-2a107367d450",
          "A2": "SubProcess1",
          "A3": "74335067-ef0a-456b-924c-c9e0dd308126",
          "A4": "74335067-ef0a-456b-924c-c9e0dd308126",
          "GT2": "[Element:{7d5a5489-978e-4a86-a855-c8129e2efcc9}].[Parameter:{cf145d53-8004-45c2-b988-b76ed1beb101}]",
          "GT3": "cf145d53-8004-45c2-b988-b76ed1beb101",
          "GT5": "d9d27235-8830-4522-8bfe-083ccb7be00d",
          "GT4": "6d01a302-99ed-4e0e-a1e0-2c65f1eda874",
          "GT1": {
            "GS5": "6d01a302-99ed-4e0e-a1e0-2c65f1eda874"
          }
        }
      ],
      "BK37": {
        "BL1": "Terrasoft.Core.Process.ProcessSchemaParameter",
        "UId": "cdd58be7-2dba-4a5e-869b-1ad5d6d7513a",
        "A2": "NotificationCaption",
        "A3": "74335067-ef0a-456b-924c-c9e0dd308126",
        "A4": "74335067-ef0a-456b-924c-c9e0dd308126",
        "L1": "8b3f29bb-ea14-4ce5-a5c5-293a929b6ba2",
        "L8": {
          "GS1": 3,
          "GS2": "[#[PropertyValue:Caption]#]"
        }
      },
      "BK1": "FFFFFFFF",
      "BK2": "FFBBBBBB",
      "BK3": [
        {
          "BL1": "Terrasoft.Core.Process.ProcessSchemaLaneSet",
          "UId": "b9e4bd52-f3e0-43d9-a248-83d7937ddfcf",
          "A2": "LaneSet1",
          "A3": "74335067-ef0a-456b-924c-c9e0dd308126",
          "A4": "74335067-ef0a-456b-924c-c9e0dd308126",
          "A5": "80852c4e-6e90-4769-a5e6-c485d9bc7022",
          "BL7": "11a47caf-a0d5-41fa-a274-a0b11f77447a",
          "BL8": "74335067-ef0a-456b-924c-c9e0dd308126",
          "BM4": [
            {
              "BL1": "Terrasoft.Core.Process.ProcessSchemaLane",
              "UId": "eef6519b-60b4-427b-a827-6f974c9ebf53",
              "A2": "Lane1",
              "A3": "74335067-ef0a-456b-924c-c9e0dd308126",
              "A4": "74335067-ef0a-456b-924c-c9e0dd308126",
              "A5": "80852c4e-6e90-4769-a5e6-c485d9bc7022",
              "IL2": "b9e4bd52-f3e0-43d9-a248-83d7937ddfcf",
              "BL7": "abcd74b9-5912-414b-82ac-f1aa4dcd554e",
              "BL8": "74335067-ef0a-456b-924c-c9e0dd308126",
              "CD1": [],
              "CD2": [],
              "CD4": "b9e4bd52-f3e0-43d9-a248-83d7937ddfcf",
              "CD7": []
            }
          ]
        }
      ],
      "BK5": [],
      "BK4": [
        {
          "BL1": "Terrasoft.Core.Process.ProcessSchemaTerminateEvent",
          "UId": "7b35d617-a697-41bc-9451-deebae1f3df4",
          "A2": "TerminateEvent1",
          "A3": "74335067-ef0a-456b-924c-c9e0dd308126",
          "A4": "74335067-ef0a-456b-924c-c9e0dd308126",
          "A5": "80852c4e-6e90-4769-a5e6-c485d9bc7022",
          "IL2": "eef6519b-60b4-427b-a827-6f974c9ebf53",
          "BL3": "567;184",
          "BL7": "1bd93619-0574-454e-bb4e-cf53b9eb9470",
          "BL8": "74335067-ef0a-456b-924c-c9e0dd308126",
          "BN2": "31;31",
          "BO3": true,
          "FC1": []
        },
        {
          "BL1": "Terrasoft.Core.Process.ProcessSchemaStartSignalEvent",
          "UId": "68efe4b1-7517-45ed-89ce-8973b93dc0bf",
          "A2": "StartSignal1",
          "A3": "74335067-ef0a-456b-924c-c9e0dd308126",
          "A4": "74335067-ef0a-456b-924c-c9e0dd308126",
          "A5": "80852c4e-6e90-4769-a5e6-c485d9bc7022",
          "IL2": "eef6519b-60b4-427b-a827-6f974c9ebf53",
          "IL3": true,
          "BL3": "-6;184",
          "BL7": "1129e72f-0e8c-445a-b2ea-463517e86395",
          "BL8": "74335067-ef0a-456b-924c-c9e0dd308126",
          "BN2": "31;31",
          "BO3": true,
          "FC1": [
            {
              "BL1": "Terrasoft.Core.Process.ProcessSchemaParameter",
              "UId": "85322478-88ba-4941-8799-c7be7e8695bb",
              "A2": "RecordId",
              "A3": "74335067-ef0a-456b-924c-c9e0dd308126",
              "A4": "74335067-ef0a-456b-924c-c9e0dd308126",
              "IL2": "68efe4b1-7517-45ed-89ce-8973b93dc0bf",
              "L1": "23018567-a13c-4320-8687-fd6f9e3699bd",
              "L8": {
                "GS1": 1,
                "GS2": ""
              }
            }
          ],
          "FC2": "2ac3229e-4b9b-44ed-876b-bbc0de5a2134",
          "ED1": false,
          "DZ1": "null",
          "DZ2": false,
          "DZ3": true,
          "DZ5": 1,
          "DZ8": true,
          "DZ12": "{\"$type\":\"System.Collections.ObjectModel.Collection`1[[System.String, mscorlib]], mscorlib\",\"$values\":[]}",
          "DZ13": "{\"className\":\"Terrasoft.FilterGroup\",\"serializedFilterEditData\":\"{\\\"className\\\":\\\"Terrasoft.FilterGroup\\\",\\\"items\\\":{\\\"315e429a-5116-4faa-bfa9-7ea6028e029b\\\":{\\\"className\\\":\\\"Terrasoft.CompareFilter\\\",\\\"filterType\\\":1,\\\"comparisonType\\\":11,\\\"isEnabled\\\":true,\\\"trimDateTimeParameterToDate\\\":false,\\\"leftExpression\\\":{\\\"className\\\":\\\"Terrasoft.ColumnExpression\\\",\\\"expressionType\\\":0,\\\"columnPath\\\":\\\"WatSysFieldTriggerPNR\\\"},\\\"isAggregative\\\":false,\\\"key\\\":\\\"315e429a-5116-4faa-bfa9-7ea6028e029b\\\",\\\"dataValueType\\\":1,\\\"leftExpressionCaption\\\":\\\"SysField Trigger PNR\\\",\\\"rightExpression\\\":{\\\"className\\\":\\\"Terrasoft.ParameterExpression\\\",\\\"expressionType\\\":2,\\\"parameter\\\":{\\\"className\\\":\\\"Terrasoft.Parameter\\\",\\\"dataValueType\\\":1,\\\"value\\\":\\\"Y\\\"}}},\\\"71d73ef6-b437-4f9f-ba86-377a3daad699\\\":{\\\"className\\\":\\\"Terrasoft.CompareFilter\\\",\\\"filterType\\\":1,\\\"comparisonType\\\":12,\\\"isEnabled\\\":true,\\\"trimDateTimeParameterToDate\\\":false,\\\"leftExpression\\\":{\\\"className\\\":\\\"Terrasoft.ColumnExpression\\\",\\\"expressionType\\\":0,\\\"columnPath\\\":\\\"WatSysFieldTriggerPNR\\\"},\\\"isAggregative\\\":false,\\\"key\\\":\\\"71d73ef6-b437-4f9f-ba86-377a3daad699\\\",\\\"dataValueType\\\":1,\\\"leftExpressionCaption\\\":\\\"SysField Trigger PNR\\\",\\\"rightExpression\\\":{\\\"className\\\":\\\"Terrasoft.ParameterExpression\\\",\\\"expressionType\\\":2,\\\"parameter\\\":{\\\"className\\\":\\\"Terrasoft.Parameter\\\",\\\"dataValueType\\\":1,\\\"value\\\":\\\"N\\\"}}},\\\"fe486f15-6ee3-43a2-84a1-dd5ba9ea5287\\\":{\\\"className\\\":\\\"Terrasoft.IsNullFilter\\\",\\\"filterType\\\":2,\\\"comparisonType\\\":2,\\\"isEnabled\\\":true,\\\"trimDateTimeParameterToDate\\\":false,\\\"leftExpression\\\":{\\\"className\\\":\\\"Terrasoft.ColumnExpression\\\",\\\"expressionType\\\":0,\\\"columnPath\\\":\\\"WatSysFieldTriggerPNR\\\"},\\\"isAggregative\\\":false,\\\"key\\\":\\\"fe486f15-6ee3-43a2-84a1-dd5ba9ea5287\\\",\\\"dataValueType\\\":1,\\\"leftExpressionCaption\\\":\\\"SysField Trigger PNR\\\",\\\"isNull\\\":false}},\\\"logicalOperation\\\":0,\\\"isEnabled\\\":true,\\\"filterType\\\":6,\\\"rootSchemaName\\\":\\\"WatTrip\\\",\\\"key\\\":\\\"\\\"}\",\"dataSourceFilters\":\"{\\\"items\\\":{\\\"315e429a-5116-4faa-bfa9-7ea6028e029b\\\":{\\\"filterType\\\":1,\\\"comparisonType\\\":11,\\\"isEnabled\\\":true,\\\"trimDateTimeParameterToDate\\\":false,\\\"leftExpression\\\":{\\\"expressionType\\\":0,\\\"columnPath\\\":\\\"WatSysFieldTriggerPNR\\\"},\\\"rightExpression\\\":{\\\"expressionType\\\":2,\\\"parameter\\\":{\\\"dataValueType\\\":1,\\\"value\\\":\\\"Y\\\"}}},\\\"71d73ef6-b437-4f9f-ba86-377a3daad699\\\":{\\\"filterType\\\":1,\\\"comparisonType\\\":12,\\\"isEnabled\\\":true,\\\"trimDateTimeParameterToDate\\\":false,\\\"leftExpression\\\":{\\\"expressionType\\\":0,\\\"columnPath\\\":\\\"WatSysFieldTriggerPNR\\\"},\\\"rightExpression\\\":{\\\"expressionType\\\":2,\\\"parameter\\\":{\\\"dataValueType\\\":1,\\\"value\\\":\\\"N\\\"}}},\\\"fe486f15-6ee3-43a2-84a1-dd5ba9ea5287\\\":{\\\"filterType\\\":2,\\\"comparisonType\\\":2,\\\"isEnabled\\\":true,\\\"trimDateTimeParameterToDate\\\":false,\\\"leftExpression\\\":{\\\"expressionType\\\":0,\\\"columnPath\\\":\\\"WatSysFieldTriggerPNR\\\"},\\\"isNull\\\":false}},\\\"logicalOperation\\\":0,\\\"isEnabled\\\":true,\\\"filterType\\\":6,\\\"rootSchemaName\\\":\\\"WatTrip\\\"}\"}"
        },
        {
          "BL1": "Terrasoft.Core.Process.ProcessSchemaUserTask",
          "UId": "845ddfba-2eb2-4c4d-bc0a-18712838b111",
          "A2": "AddDataUserTask1",
          "A3": "74335067-ef0a-456b-924c-c9e0dd308126",
          "A4": "74335067-ef0a-456b-924c-c9e0dd308126",
          "A5": "80852c4e-6e90-4769-a5e6-c485d9bc7022",
          "IL2": "eef6519b-60b4-427b-a827-6f974c9ebf53",
          "BL3": "128;172",
          "BL7": "db6abed1-0c5f-455b-8053-2665378cdb71",
          "BL8": "74335067-ef0a-456b-924c-c9e0dd308126",
          "BN2": "69;55",
          "BO2": true,
          "BO3": true,
          "BP2": [
            {
              "BL1": "Terrasoft.Core.Process.ProcessSchemaParameter",
              "UId": "8e302e57-af77-4b4d-823b-846b21e87ab5",
              "A2": "EntitySchemaId",
              "A3": "db6abed1-0c5f-455b-8053-2665378cdb71",
              "A4": "db6abed1-0c5f-455b-8053-2665378cdb71",
              "IL2": "845ddfba-2eb2-4c4d-bc0a-18712838b111",
              "L1": "b295071f-7ea9-4e62-8d1a-919bf3732ff2",
              "L8": {
                "GS1": 1,
                "GS2": "af0894b6-378f-446f-8846-96b862887826",
                "GS5": "74335067-ef0a-456b-924c-c9e0dd308126"
              }
            },
            {
              "BL1": "Terrasoft.Core.Process.ProcessSchemaParameter",
              "UId": "01f3f8d6-03bb-49ef-ba56-47292db5efeb",
              "A2": "DataSourceFilters",
              "A3": "db6abed1-0c5f-455b-8053-2665378cdb71",
              "A4": "db6abed1-0c5f-455b-8053-2665378cdb71",
              "IL2": "845ddfba-2eb2-4c4d-bc0a-18712838b111",
              "L1": "394e160f-c8e0-46fa-9c0d-75d97e9e9169",
              "L8": {}
            },
            {
              "BL1": "Terrasoft.Core.Process.ProcessSchemaParameter",
              "UId": "1253b5d2-e1b3-446e-a8b2-cd1f3657aeb9",
              "A2": "RecordAddMode",
              "A3": "db6abed1-0c5f-455b-8053-2665378cdb71",
              "A4": "db6abed1-0c5f-455b-8053-2665378cdb71",
              "IL2": "845ddfba-2eb2-4c4d-bc0a-18712838b111",
              "L1": "394e160f-c8e0-46fa-9c0d-75d97e9e9169",
              "L8": {
                "GS1": 1,
                "GS2": "0",
                "GS5": "74335067-ef0a-456b-924c-c9e0dd308126"
              }
            },
            {
              "BL1": "Terrasoft.Core.Process.ProcessSchemaParameter",
              "UId": "2406950a-5039-4d01-98cd-3cf49dab72d3",
              "A2": "FilterEntitySchemaId",
              "A3": "db6abed1-0c5f-455b-8053-2665378cdb71",
              "A4": "db6abed1-0c5f-455b-8053-2665378cdb71",
              "IL2": "845ddfba-2eb2-4c4d-bc0a-18712838b111",
              "L1": "b295071f-7ea9-4e62-8d1a-919bf3732ff2",
              "L8": {},
              "L9": "2e155463-3ff1-4ccf-8584-4ec8d7233111"
            },
            {
              "BL1": "Terrasoft.Core.Process.ProcessSchemaParameter",
              "UId": "f8f40ac3-271a-4530-ab24-785de12ec0e3",
              "A2": "RecordDefValues",
              "A3": "db6abed1-0c5f-455b-8053-2665378cdb71",
              "A4": "db6abed1-0c5f-455b-8053-2665378cdb71",
              "IL2": "845ddfba-2eb2-4c4d-bc0a-18712838b111",
              "L1": "b53eaa2a-4bb7-4a6b-9f4f-58ccab293e31",
              "L8": {
                "GS1": 1,
                "GS2": "{\"$type\":\"Terrasoft.Core.Process.LocalizableParameterValuesList, Terrasoft.Core\",\"$values\":[{\"ItemUId\":\"c38ce376-20d1-4411-9b5c-0c6474c879cd\",\"columnMetaPath\":{\"value\":\"5722c995-86f3-437f-8a4b-fdf9603847fa\"},\"schemaUId\":{\"value\":\"af0894b6-378f-446f-8846-96b862887826\"},\"value\":{\"value\":\"[#BooleanValue.False#]\"},\"displayValue\":{\"value\":\"[#Boolean value.False#]\"},\"parameterValue\":{\"value\":\"{\\\"$type\\\":\\\"Terrasoft.Core.Process.ProcessSchemaParameterValue, Terrasoft.Core\\\",\\\"Source\\\":3,\\\"DisplayValue\\\":\\\"\\\",\\\"Value\\\":\\\"\\\",\\\"MetaPath\\\":null,\\\"MetaDataValue\\\":null,\\\"ModifiedInSchemaUId\\\":\\\"00000000-0000-0000-0000-000000000000\\\",\\\"SchemaUId\\\":\\\"00000000-0000-0000-0000-000000000000\\\",\\\"SchemaManagerName\\\":\\\"\\\",\\\"DataValueTypeUId\\\":\\\"90b65bf8-0ffc-4141-8779-2420877af907\\\",\\\"ReferenceSchemaUId\\\":\\\"00000000-0000-0000-0000-000000000000\\\",\\\"ResourceItemName\\\":null}\"}},{\"ItemUId\":\"23a8ddc7-4a18-40e6-bf4b-e9512928e56f\",\"columnMetaPath\":{\"value\":\"50c06330-1995-42a7-9c92-d68a1e4a16d9\"},\"schemaUId\":{\"value\":\"af0894b6-378f-446f-8846-96b862887826\"},\"value\":{\"isLczValue\":true},\"displayValue\":{\"isLczValue\":true},\"parameterValue\":{\"value\":\"{\\\"$type\\\":\\\"Terrasoft.Core.Process.ProcessSchemaParameterValue, Terrasoft.Core\\\",\\\"Source\\\":1,\\\"DisplayValue\\\":\\\"\\\",\\\"Value\\\":\\\"\\\",\\\"MetaPath\\\":null,\\\"MetaDataValue\\\":null,\\\"ModifiedInSchemaUId\\\":\\\"00000000-0000-0000-0000-000000000000\\\",\\\"SchemaUId\\\":\\\"00000000-0000-0000-0000-000000000000\\\",\\\"SchemaManagerName\\\":\\\"\\\",\\\"DataValueTypeUId\\\":\\\"8b3f29bb-ea14-4ce5-a5c5-293a929b6ba2\\\",\\\"ReferenceSchemaUId\\\":\\\"00000000-0000-0000-0000-000000000000\\\",\\\"ResourceItemName\\\":null}\"}},{\"ItemUId\":\"c6f3f7e1-7e24-4815-a9bb-67405112f297\",\"columnMetaPath\":{\"value\":\"b6c373d9-2df4-432a-a6f7-21797b486ae3\"},\"schemaUId\":{\"value\":\"af0894b6-378f-446f-8846-96b862887826\"},\"value\":{\"value\":\"[#[IsOwnerSchema:false].[IsSchema:false].[Element:{68efe4b1-7517-45ed-89ce-8973b93dc0bf}].[Parameter:{85322478-88ba-4941-8799-c7be7e8695bb}]#]\"},\"displayValue\":{\"value\":\"[#Trigger PNR.Unique identifier of record#]\"},\"parameterValue\":{\"value\":\"{\\\"$type\\\":\\\"Terrasoft.Core.Process.ProcessSchemaParameterValue, Terrasoft.Core\\\",\\\"Source\\\":3,\\\"DisplayValue\\\":\\\"\\\",\\\"Value\\\":\\\"\\\",\\\"MetaPath\\\":null,\\\"MetaDataValue\\\":null,\\\"ModifiedInSchemaUId\\\":\\\"00000000-0000-0000-0000-000000000000\\\",\\\"SchemaUId\\\":\\\"00000000-0000-0000-0000-000000000000\\\",\\\"SchemaManagerName\\\":\\\"\\\",\\\"DataValueTypeUId\\\":\\\"b295071f-7ea9-4e62-8d1a-919bf3732ff2\\\",\\\"ReferenceSchemaUId\\\":\\\"2ac3229e-4b9b-44ed-876b-bbc0de5a2134\\\",\\\"ResourceItemName\\\":null}\"}},{\"ItemUId\":\"a6246b0e-0e44-48bc-bfb8-0b062a46a1b8\",\"columnMetaPath\":{\"value\":\"3669248d-f8db-4c70-81b2-2f8f5f0fe308\"},\"schemaUId\":{\"value\":\"af0894b6-378f-446f-8846-96b862887826\"},\"value\":{\"value\":\"[#SysVariable.CurrentDateTime#].AddMinutes(2)\"},\"displayValue\":{\"value\":\"[#System variable.Current Time and Date#].AddMinutes(2)\"},\"parameterValue\":{\"value\":\"{\\\"$type\\\":\\\"Terrasoft.Core.Process.ProcessSchemaParameterValue, Terrasoft.Core\\\",\\\"Source\\\":3,\\\"DisplayValue\\\":\\\"\\\",\\\"Value\\\":\\\"\\\",\\\"MetaPath\\\":null,\\\"MetaDataValue\\\":null,\\\"ModifiedInSchemaUId\\\":\\\"00000000-0000-0000-0000-000000000000\\\",\\\"SchemaUId\\\":\\\"00000000-0000-0000-0000-000000000000\\\",\\\"SchemaManagerName\\\":\\\"\\\",\\\"DataValueTypeUId\\\":\\\"d21e9ef4-c064-4012-b286-fa1a8171da44\\\",\\\"ReferenceSchemaUId\\\":\\\"00000000-0000-0000-0000-000000000000\\\",\\\"ResourceItemName\\\":null}\"}}]}",
                "GS5": "74335067-ef0a-456b-924c-c9e0dd308126"
              }
            },
            {
              "BL1": "Terrasoft.Core.Process.ProcessSchemaParameter",
              "UId": "33d3a545-ee44-4d1d-9e17-c4f355b05e61",
              "A2": "RecordId",
              "A3": "db6abed1-0c5f-455b-8053-2665378cdb71",
              "A4": "db6abed1-0c5f-455b-8053-2665378cdb71",
              "IL2": "845ddfba-2eb2-4c4d-bc0a-18712838b111",
              "L1": "23018567-a13c-4320-8687-fd6f9e3699bd",
              "L8": {}
            },
            {
              "BL1": "Terrasoft.Core.Process.ProcessSchemaParameter",
              "UId": "e03e76a0-b939-4b39-949e-9d132d158a6b",
              "A2": "ConsiderTimeInFilter",
              "A3": "db6abed1-0c5f-455b-8053-2665378cdb71",
              "A4": "db6abed1-0c5f-455b-8053-2665378cdb71",
              "IL2": "845ddfba-2eb2-4c4d-bc0a-18712838b111",
              "L1": "90b65bf8-0ffc-4141-8779-2420877af907",
              "L8": {
                "GS1": 3,
                "GS2": "true",
                "GS5": "db6abed1-0c5f-455b-8053-2665378cdb71",
                "GS8": "false"
              }
            }
          ],
          "CL2": "FFFFFFFF",
          "J6": "db6abed1-0c5f-455b-8053-2665378cdb71"
        },
        {
          "BL1": "Terrasoft.Core.Process.ProcessSchemaIntermediateCatchSignalEvent",
          "UId": "9e8f1253-e185-4fc3-86a2-5f1389238b49",
          "A2": "IntermediateCatchSignal1",
          "A3": "74335067-ef0a-456b-924c-c9e0dd308126",
          "A4": "74335067-ef0a-456b-924c-c9e0dd308126",
          "A5": "80852c4e-6e90-4769-a5e6-c485d9bc7022",
          "IL2": "eef6519b-60b4-427b-a827-6f974c9ebf53",
          "IL3": true,
          "BL3": "276;184",
          "BL7": "5ccad23d-fc4b-4ec7-8051-e3a825b698fc",
          "BL8": "74335067-ef0a-456b-924c-c9e0dd308126",
          "BN2": "31;31",
          "BO3": true,
          "FC1": [
            {
              "BL1": "Terrasoft.Core.Process.ProcessSchemaParameter",
              "UId": "5bb27c42-3e26-4390-a64c-53f7292ba2eb",
              "A2": "RecordId",
              "A3": "74335067-ef0a-456b-924c-c9e0dd308126",
              "A4": "74335067-ef0a-456b-924c-c9e0dd308126",
              "IL2": "9e8f1253-e185-4fc3-86a2-5f1389238b49",
              "L1": "23018567-a13c-4320-8687-fd6f9e3699bd",
              "L8": {
                "GS1": 3,
                "GS2": "[#[IsOwnerSchema:false].[IsSchema:false].[Element:{845ddfba-2eb2-4c4d-bc0a-18712838b111}].[Parameter:{33d3a545-ee44-4d1d-9e17-c4f355b05e61}]#]",
                "GS5": "74335067-ef0a-456b-924c-c9e0dd308126"
              }
            }
          ],
          "FC2": "af0894b6-378f-446f-8846-96b862887826",
          "BY3": 0,
          "CA1": "null",
          "CA2": false,
          "CA3": true,
          "CA5": 2,
          "CA6": "af0894b6-378f-446f-8846-96b862887826",
          "CA7": true,
          "CA8": true,
          "CA11": "{\"$type\":\"System.Collections.ObjectModel.Collection`1[[System.String, mscorlib]], mscorlib\",\"$values\":[\"5722c995-86f3-437f-8a4b-fdf9603847fa\"]}",
          "CA13": "{\"className\":\"Terrasoft.FilterGroup\",\"serializedFilterEditData\":\"{\\\"className\\\":\\\"Terrasoft.FilterGroup\\\",\\\"items\\\":{\\\"5d026ee0-9d68-4513-8176-4bd066afaaab\\\":{\\\"className\\\":\\\"Terrasoft.CompareFilter\\\",\\\"filterType\\\":1,\\\"comparisonType\\\":3,\\\"isEnabled\\\":true,\\\"trimDateTimeParameterToDate\\\":false,\\\"leftExpression\\\":{\\\"className\\\":\\\"Terrasoft.ColumnExpression\\\",\\\"expressionType\\\":0,\\\"columnPath\\\":\\\"WatCompleted\\\"},\\\"isAggregative\\\":false,\\\"key\\\":\\\"5d026ee0-9d68-4513-8176-4bd066afaaab\\\",\\\"dataValueType\\\":12,\\\"leftExpressionCaption\\\":\\\"Completed\\\",\\\"rightExpression\\\":{\\\"className\\\":\\\"Terrasoft.ParameterExpression\\\",\\\"expressionType\\\":2,\\\"parameter\\\":{\\\"className\\\":\\\"Terrasoft.Parameter\\\",\\\"dataValueType\\\":12,\\\"value\\\":true}}}},\\\"logicalOperation\\\":0,\\\"isEnabled\\\":true,\\\"filterType\\\":6,\\\"rootSchemaName\\\":\\\"WatTimer\\\",\\\"key\\\":\\\"\\\"}\",\"dataSourceFilters\":\"{\\\"items\\\":{\\\"5d026ee0-9d68-4513-8176-4bd066afaaab\\\":{\\\"filterType\\\":1,\\\"comparisonType\\\":3,\\\"isEnabled\\\":true,\\\"trimDateTimeParameterToDate\\\":false,\\\"leftExpression\\\":{\\\"expressionType\\\":0,\\\"columnPath\\\":\\\"WatCompleted\\\"},\\\"rightExpression\\\":{\\\"expressionType\\\":2,\\\"parameter\\\":{\\\"dataValueType\\\":12,\\\"value\\\":true}}}},\\\"logicalOperation\\\":0,\\\"isEnabled\\\":true,\\\"filterType\\\":6,\\\"rootSchemaName\\\":\\\"WatTimer\\\"}\"}"
        },
        {
          "BL1": "Terrasoft.Core.Process.ProcessSchemaSubProcess",
          "UId": "7d5a5489-978e-4a86-a855-c8129e2efcc9",
          "A2": "SubProcess1",
          "A3": "74335067-ef0a-456b-924c-c9e0dd308126",
          "A4": "74335067-ef0a-456b-924c-c9e0dd308126",
          "A5": "80852c4e-6e90-4769-a5e6-c485d9bc7022",
          "IL2": "eef6519b-60b4-427b-a827-6f974c9ebf53",
          "BL3": "400;172",
          "BL7": "49eafdbb-a89e-4bdf-a29d-7f17b1670a45",
          "BL8": "74335067-ef0a-456b-924c-c9e0dd308126",
          "BN2": "69;55",
          "BO2": true,
          "BO3": true,
          "BP2": [
            {
              "BL1": "Terrasoft.Core.Process.ProcessSchemaParameter",
              "UId": "0ae513d8-30ff-4e84-a6b6-1c25fad6bc67",
              "A2": "TripId",
              "A3": "6d01a302-99ed-4e0e-a1e0-2c65f1eda874",
              "A4": "6d01a302-99ed-4e0e-a1e0-2c65f1eda874",
              "IL2": "7d5a5489-978e-4a86-a855-c8129e2efcc9",
              "L1": "23018567-a13c-4320-8687-fd6f9e3699bd",
              "L8": {
                "GS5": "6d01a302-99ed-4e0e-a1e0-2c65f1eda874"
              }
            },
            {
              "BL1": "Terrasoft.Core.Process.ProcessSchemaParameter",
              "UId": "cf145d53-8004-45c2-b988-b76ed1beb101",
              "A2": "PNRNbr",
              "A3": "6d01a302-99ed-4e0e-a1e0-2c65f1eda874",
              "A4": "6d01a302-99ed-4e0e-a1e0-2c65f1eda874",
              "IL2": "7d5a5489-978e-4a86-a855-c8129e2efcc9",
              "L1": "6b6b74e2-820d-490e-a017-2b73d4ccf2b0",
              "L8": {
                "GS5": "6d01a302-99ed-4e0e-a1e0-2c65f1eda874"
              }
            }
          ],
          "CK4": "6d01a302-99ed-4e0e-a1e0-2c65f1eda874",
          "CK2": [],
          "CK3": []
        },
        {
          "BL1": "Terrasoft.Core.Process.ProcessSchemaSequenceFlow",
          "UId": "5aa2d31b-3d63-4b34-8eed-f1d326e97c1f",
          "A2": "SequenceFlow1",
          "A3": "74335067-ef0a-456b-924c-c9e0dd308126",
          "A4": "74335067-ef0a-456b-924c-c9e0dd308126",
          "A5": "80852c4e-6e90-4769-a5e6-c485d9bc7022",
          "BL7": "0d8351f6-c2f4-4737-bdd9-6fbfe0837fec",
          "BL8": "74335067-ef0a-456b-924c-c9e0dd308126",
          "CI1": "68efe4b1-7517-45ed-89ce-8973b93dc0bf",
          "CI2": "845ddfba-2eb2-4c4d-bc0a-18712838b111",
          "CI3": "null",
          "CI5": "FF939598",
          "CI6": 1,
          "CI11": "25;200",
          "CI12": "128;200"
        },
        {
          "BL1": "Terrasoft.Core.Process.ProcessSchemaSequenceFlow",
          "UId": "156a98a8-5d48-49d3-9272-bc625e824892",
          "A2": "SequenceFlow2",
          "A3": "74335067-ef0a-456b-924c-c9e0dd308126",
          "A4": "74335067-ef0a-456b-924c-c9e0dd308126",
          "A5": "80852c4e-6e90-4769-a5e6-c485d9bc7022",
          "BL7": "0d8351f6-c2f4-4737-bdd9-6fbfe0837fec",
          "BL8": "74335067-ef0a-456b-924c-c9e0dd308126",
          "CI1": "7d5a5489-978e-4a86-a855-c8129e2efcc9",
          "CI2": "7b35d617-a697-41bc-9451-deebae1f3df4",
          "CI3": "null",
          "CI5": "FF939598",
          "CI6": 1,
          "CI11": "469;200",
          "CI12": "567;200"
        },
        {
          "BL1": "Terrasoft.Core.Process.ProcessSchemaSequenceFlow",
          "UId": "840d208a-e72a-4c8b-abbe-2af8069581ac",
          "A2": "SequenceFlow4",
          "A3": "74335067-ef0a-456b-924c-c9e0dd308126",
          "A4": "74335067-ef0a-456b-924c-c9e0dd308126",
          "A5": "80852c4e-6e90-4769-a5e6-c485d9bc7022",
          "BL7": "0d8351f6-c2f4-4737-bdd9-6fbfe0837fec",
          "BL8": "74335067-ef0a-456b-924c-c9e0dd308126",
          "CI1": "845ddfba-2eb2-4c4d-bc0a-18712838b111",
          "CI2": "9e8f1253-e185-4fc3-86a2-5f1389238b49",
          "CI3": "null",
          "CI5": "FF939598",
          "CI6": 1,
          "CI11": "197;200",
          "CI12": "276;200"
        },
        {
          "BL1": "Terrasoft.Core.Process.ProcessSchemaSequenceFlow",
          "UId": "70d2bcb6-e070-44df-b505-38a03a3fb09b",
          "A2": "SequenceFlow5",
          "A3": "74335067-ef0a-456b-924c-c9e0dd308126",
          "A4": "74335067-ef0a-456b-924c-c9e0dd308126",
          "A5": "80852c4e-6e90-4769-a5e6-c485d9bc7022",
          "BL7": "0d8351f6-c2f4-4737-bdd9-6fbfe0837fec",
          "BL8": "74335067-ef0a-456b-924c-c9e0dd308126",
          "CI1": "9e8f1253-e185-4fc3-86a2-5f1389238b49",
          "CI2": "7d5a5489-978e-4a86-a855-c8129e2efcc9",
          "CI3": "null",
          "CI5": "FF939598",
          "CI6": 1,
          "CI11": "307;200",
          "CI12": "400;200"
        }
      ],
      "BK9": [],
      "BK18": "Business Process",
      "BK29": true,
      "BK30": true,
      "BK34": "en-US",
      "Labels": [],
      "BK24": []
    }
  }
}