﻿{
  "SqlScript": {
    "UId": "aa3bdc66-72e2-4374-a88c-87767a9d7004",
    "Name": "SysImage_EmailTemplate_Wat1_DelegationHospitalityRequestUpdate",
    "DBEngineType": 0,
    "InstallType": 2,
    "ModifiedOnUtc": "\/Date(1615487579000)\/",
    "DependsOn": []
  }
}