﻿{
  "Descriptor": {
    "UId": "f41306c7-99c7-4de9-999c-17d2804420c7",
    "Name": "WatReceivedGiftf5d8812aSection",
    "ModifiedOnUtc": "\/Date(1616011973000)\/",
    "Parent": {
      "UId": "7912fb69-4fee-429f-8b23-93943c35d66d",
      "Name": "BaseSectionV2"
    },
    "ManagerName": "ClientUnitSchemaManager",
    "Caption": "Section schema: \"Received Gifts\""
  }
}