﻿{
  "Descriptor": {
    "UId": "450a30f2-d3f4-43d7-9272-dfeee3c94073",
    "Name": "Wat43_1ScheduledLEARNCompletionCheckTriggerV1",
    "ModifiedOnUtc": "\/Date(1693446631000)\/",
    "Parent": {
      "UId": "81ead677-0f6b-4f11-a876-e9b5433fe727",
      "Name": "Wat43_1ScheduledLEARNCompletionCheckTrigger"
    },
    "ManagerName": "ProcessSchemaManager",
    "Caption": "SM#43-1 S-(LEARN): LEARN Completion Check Trigger",
    "DependsOn": []
  }
}