﻿{
  "PackageData": [
    {
      "Row": [
        {
          "SchemaColumnUId": "ae0e45ca-c495-4fe7-a39d-3ab7278e1617",
          "ColumnName": "Id",
          "Value": "374c0f30-4319-405b-a13f-ff6f500408c2"
        },
        {
          "SchemaColumnUId": "ca53e2c8-0767-4f2c-8a18-2ee5821f134e",
          "ColumnName": "Name",
          "Value": ""
        }
      ]
    },
    {
      "Row": [
        {
          "SchemaColumnUId": "ae0e45ca-c495-4fe7-a39d-3ab7278e1617",
          "ColumnName": "Id",
          "Value": "459b5ceb-8f4a-4893-b57e-9c4cac1f44f3"
        },
        {
          "SchemaColumnUId": "ca53e2c8-0767-4f2c-8a18-2ee5821f134e",
          "ColumnName": "Name",
          "Value": ""
        }
      ]
    },
    {
      "Row": [
        {
          "SchemaColumnUId": "ae0e45ca-c495-4fe7-a39d-3ab7278e1617",
          "ColumnName": "Id",
          "Value": "567fe908-464a-4bc7-a421-b9fe6bd6fd31"
        },
        {
          "SchemaColumnUId": "ca53e2c8-0767-4f2c-8a18-2ee5821f134e",
          "ColumnName": "Name",
          "Value": ""
        }
      ]
    },
    {
      "Row": [
        {
          "SchemaColumnUId": "ae0e45ca-c495-4fe7-a39d-3ab7278e1617",
          "ColumnName": "Id",
          "Value": "5ac04b10-637f-4f57-9cd0-54da8605f3a6"
        },
        {
          "SchemaColumnUId": "ca53e2c8-0767-4f2c-8a18-2ee5821f134e",
          "ColumnName": "Name",
          "Value": ""
        }
      ]
    }
  ]
}