﻿{
  "Descriptor": {
    "UId": "4e933de7-d5db-40d1-9ab5-9c432105d6a1",
    "Name": "WatLEARNRegistrationInFolder",
    "ModifiedOnUtc": "\/Date(1620920594000)\/",
    "Parent": {
      "UId": "4f63bafb-e9e7-4082-b92e-66b97c14017c",
      "Name": "BaseItemInFolder"
    },
    "ManagerName": "EntitySchemaManager",
    "Caption": "LEARN Registrations in Folder"
  }
}