﻿{
  "PackageData": [
    {
      "Row": [
        {
          "SchemaColumnUId": "ae0e45ca-c495-4fe7-a39d-3ab7278e1617",
          "Value": "ec386a97-4b9e-4109-bcbb-096dae960475"
        },
        {
          "SchemaColumnUId": "3205952e-7126-45fa-b720-9cd99f7875ae",
          "Value": "a5528d36-af4a-45ec-a586-43459e8055b9",
          "DisplayValue": "Documents"
        },
        {
          "SchemaColumnUId": "8f11220c-7647-4c8c-90b9-b79e03e8f6ee",
          "Value": "8b33b6b2-19f7-4222-9161-b4054b3fbb09"
        },
        {
          "SchemaColumnUId": "f8cd1f5c-b6e0-4a37-88ee-05929d09b2e8",
          "Value": "7da7ceef-03d7-43d8-a021-ffc5f5bb5e3c"
        }
      ]
    }
  ]
}