﻿{
  "Descriptor": {
    "UId": "7c14b78c-5a7b-4448-8920-e7135d7db451",
    "Name": "WatDelegationPurposeInFolder",
    "ModifiedOnUtc": "\/Date(1598995240000)\/",
    "Parent": {
      "UId": "4f63bafb-e9e7-4082-b92e-66b97c14017c",
      "Name": "BaseItemInFolder"
    },
    "ManagerName": "EntitySchemaManager",
    "Caption": "Delegation Purpose in Folder"
  }
}