﻿{
  "Descriptor": {
    "UId": "4d2f39f1-2479-4786-ab03-ff6d4aa00841",
    "Name": "SMNewConsultedFacultiesFolder",
    "ModifiedOnUtc": "\/Date(1678801523000)\/",
    "Parent": {
      "UId": "d602bf96-d029-4b07-9755-63c8f5cb5ed5",
      "Name": "BaseFolder"
    },
    "ManagerName": "EntitySchemaManager",
    "Caption": "Consulted Faculties (new) folder",
    "DependsOn": []
  }
}