﻿{
  "Descriptor": {
    "UId": "924fa943-0ace-461c-988b-8355b0ca85b8",
    "Name": "WatProcess24_1SetTripPNRScheduledV1",
    "ModifiedOnUtc": "\/Date(1705969358000)\/",
    "Parent": {
      "UId": "6d01a302-99ed-4e0e-a1e0-2c65f1eda874",
      "Name": "WatProcess24_1SetTripPNRScheduled"
    },
    "ManagerName": "ProcessSchemaManager",
    "Caption": "SM#24_1 S-(Trip): Set Trip PNR (Scheduled)",
    "DependsOn": []
  }
}