﻿{
  "Descriptor": {
    "UId": "1064c1b4-9f68-4768-ab74-f79718d9aa8e",
    "Name": "WatEFASELAS",
    "ModifiedOnUtc": "\/Date(1677246821000)\/",
    "Parent": {
      "UId": "df16dae7-7c4e-4679-b45c-c8d7644d5ff5",
      "Name": "WatEFASELAS"
    },
    "ExtendParent": true,
    "ManagerName": "EntitySchemaManager",
    "Caption": "EFAS/ELAS",
    "DependsOn": []
  }
}