﻿{
  "Descriptor": {
    "UId": "d74f1594-3400-4fe1-a686-2d91309622df",
    "Name": "WatHospitalityChangeFolder",
    "ModifiedOnUtc": "\/Date(1599412064000)\/",
    "Parent": {
      "UId": "d602bf96-d029-4b07-9755-63c8f5cb5ed5",
      "Name": "BaseFolder"
    },
    "ManagerName": "EntitySchemaManager",
    "Caption": "Hospitality Change folder"
  }
}