﻿{
  "PackageData": [
    {
      "Row": [
        {
          "SchemaColumnUId": "ae0e45ca-c495-4fe7-a39d-3ab7278e1617",
          "Value": "064a960b-cc33-4301-b753-ac27af92e17b"
        },
        {
          "SchemaColumnUId": "a18861e7-c840-4cae-9dd6-30277b513dc9",
          "Value": "7a6e9e09-e428-4ec6-b8a8-d68fa80daf65",
          "DisplayValue": "null"
        },
        {
          "SchemaColumnUId": "cec2ae4b-d2de-4c80-99a0-a59dc2a154cd",
          "Value": "ff67ae30-1263-436c-87a0-d6a7318cf879"
        }
      ]
    }
  ]
}