﻿{
  "PackageData": [
    {
      "Row": [
        {
          "SchemaColumnUId": "ae0e45ca-c495-4fe7-a39d-3ab7278e1617",
          "Value": "5433a34e-b59f-4a7e-8bc2-0c24ff6758e7"
        },
        {
          "SchemaColumnUId": "a18861e7-c840-4cae-9dd6-30277b513dc9",
          "Value": "c0d7f01d-921c-4743-b457-531f9d265a03",
          "DisplayValue": "null"
        },
        {
          "SchemaColumnUId": "cec2ae4b-d2de-4c80-99a0-a59dc2a154cd",
          "Value": "c151b276-445f-41b2-8c30-2012da3225fa"
        }
      ]
    }
  ]
}