﻿{
  "Descriptor": {
    "UId": "2cf2c9a7-63f9-4eac-a87f-be772851b671",
    "Name": "Country",
    "ModifiedOnUtc": "\/Date(1684524364000)\/",
    "Parent": {
      "UId": "09fce1f8-515c-4296-95cd-8cd93f79a6cf",
      "Name": "Country"
    },
    "ExtendParent": true,
    "ManagerName": "EntitySchemaManager",
    "Caption": "Country",
    "DependsOn": []
  }
}