﻿{
  "Descriptor": {
    "UId": "837b8f5e-fe22-43ec-94ee-2ec296f0c230",
    "Name": "WatMasterAgreement",
    "ModifiedOnUtc": "\/Date(1677801825000)\/",
    "Parent": {
      "UId": "0355dc75-42f0-413d-943d-9311aab086ab",
      "Name": "WatMasterAgreement"
    },
    "ExtendParent": true,
    "ManagerName": "EntitySchemaManager",
    "Caption": "Master Agreement",
    "DependsOn": []
  }
}