﻿{
  "PackageData": [
    {
      "Row": [
        {
          "SchemaColumnUId": "ae0e45ca-c495-4fe7-a39d-3ab7278e1617",
          "Value": "06b2aa2e-499e-4d77-a613-269a37394a82"
        },
        {
          "SchemaColumnUId": "3107ef98-a02e-4ea8-809a-67dc3025ef4a",
          "Value": "null"
        },
        {
          "SchemaColumnUId": "0c59594b-490a-4b55-a564-5841cfae3c19",
          "Value": "189bce67-a5b3-4170-833b-916dba793b29"
        }
      ]
    }
  ]
}