﻿{
  "PackageData": [
    {
      "Row": [
        {
          "SchemaColumnUId": "ae0e45ca-c495-4fe7-a39d-3ab7278e1617",
          "Value": "73aace5d-e281-438a-a6cb-40e2f114c2be"
        },
        {
          "SchemaColumnUId": "bd12ea8e-2bc2-42bf-925a-3ab766cc0b9f",
          "Value": 73
        },
        {
          "SchemaColumnUId": "0e3d3857-2203-40e4-b1ec-8e972007650e",
          "Value": "f3ec7ec0-ae93-4488-b97a-4db29361791e",
          "DisplayValue": "Admin"
        },
        {
          "SchemaColumnUId": "991cf5ef-ffb8-49a5-add3-074a595f6c43",
          "Value": "929992dc-7a0d-48bc-b868-76f38a2cc0b4",
          "DisplayValue": "Country Statistics"
        }
      ]
    }
  ]
}