﻿{
  "Descriptor": {
    "UId": "ff6c912c-b2f1-44de-9f46-3e52571bd151",
    "Name": "WatPartnershipRequest1Page",
    "ModifiedOnUtc": "\/Date(1626196345000)\/",
    "Parent": {
      "UId": "d62293c0-7f14-44b1-b547-735fb40499cd",
      "Name": "BaseModulePageV2"
    },
    "ManagerName": "ClientUnitSchemaManager",
    "Caption": "Edit page: \"Partnership Requests\""
  }
}