﻿{
  "Descriptor": {
    "UId": "1028c3e9-93f8-4910-94b6-4032a496f28d",
    "Name": "WatAgreementInFolder",
    "ModifiedOnUtc": "\/Date(1600269217000)\/",
    "Parent": {
      "UId": "4f63bafb-e9e7-4082-b92e-66b97c14017c",
      "Name": "BaseItemInFolder"
    },
    "ManagerName": "EntitySchemaManager",
    "Caption": "Agreements in Folder"
  }
}