﻿{
  "Descriptor": {
    "UId": "6c8931dd-ccc6-4c10-9903-9ba119b1babd",
    "Name": "WatDelegationInstitutionsInTag",
    "ModifiedOnUtc": "\/Date(1598995631000)\/",
    "Parent": {
      "UId": "5894a2b0-51d5-419a-82bb-238674634270",
      "Name": "BaseEntityInTag"
    },
    "ManagerName": "EntitySchemaManager",
    "Caption": "Delegation Institutions section record tag"
  }
}