﻿{
  "Descriptor": {
    "UId": "c97ed206-624b-4581-adaf-ca690034c0a4",
    "Name": "WatSchemaArrivalNoticeDetail",
    "ModifiedOnUtc": "\/Date(1605835677000)\/",
    "Parent": {
      "UId": "01eb38ee-668a-42f0-999d-c2534f979089",
      "Name": "BaseGridDetailV2"
    },
    "ManagerName": "ClientUnitSchemaManager",
    "Caption": "Detail schema: \"Arrival Notices\""
  }
}