﻿{
  "Descriptor": {
    "UId": "9fe75793-c76b-4859-99fe-45161306b6b6",
    "Name": "WatAgreementStatus",
    "ModifiedOnUtc": "\/Date(1600270266000)\/",
    "Parent": {
      "UId": "11ab4bcb-9b23-4b6d-9c86-520fae925d75",
      "Name": "BaseLookup"
    },
    "ManagerName": "EntitySchemaManager",
    "Caption": "Agreement Status"
  }
}