﻿{
  "SqlScript": {
    "UId": "f18ddf49-9d9d-4d5b-8085-b6d07900d5aa",
    "Name": "SysDashboard",
    "DBEngineType": 0,
    "InstallType": 2,
    "ModifiedOnUtc": "\/Date(1667412918000)\/",
    "BackwardCompatibilityConfirmed": false,
    "DependsOn": []
  }
}