﻿{
  "Descriptor": {
    "UId": "1fc0bf0b-844f-4611-9453-07809de57345",
    "Name": "WatDelegation",
    "ModifiedOnUtc": "\/Date(1622056697000)\/",
    "Parent": {
      "UId": "1bab9dcf-17d5-49f8-9536-8e0064f1dce0",
      "Name": "BaseEntity"
    },
    "ManagerName": "EntitySchemaManager",
    "Caption": "Delegation"
  }
}