﻿{
  "Descriptor": {
    "UId": "2ac3229e-4b9b-44ed-876b-bbc0de5a2134",
    "Name": "WatTrip",
    "ModifiedOnUtc": "\/Date(1693447540000)\/",
    "Parent": {
      "UId": "1bab9dcf-17d5-49f8-9536-8e0064f1dce0",
      "Name": "BaseEntity"
    },
    "ManagerName": "EntitySchemaManager",
    "Caption": "Trips",
    "DependsOn": []
  }
}