﻿{
  "Descriptor": {
    "UId": "ca215fdc-4e69-4ef5-b283-6e734a5d576b",
    "Name": "WatSchemacc896fb3Detail",
    "ModifiedOnUtc": "\/Date(1601434145000)\/",
    "Parent": {
      "UId": "01eb38ee-668a-42f0-999d-c2534f979089",
      "Name": "BaseGridDetailV2"
    },
    "ManagerName": "ClientUnitSchemaManager",
    "Caption": "Detail schema: \"Agreement Stakeholders\""
  }
}