﻿{
  "Descriptor": {
    "UId": "199502d7-37d1-404f-b521-924de06dc131",
    "Name": "SysSettings_WatTier1TravelApprover",
    "ModifiedOnUtc": "\/Date(1681835955000)\/",
    "InstallType": 0,
    "Schema": {
      "UId": "27aeadd6-d508-4572-8061-5b55b667c902",
      "Name": "SysSettings"
    },
    "Columns": [
      {
        "ColumnUId": "764cd95a-59b3-4060-b17f-2797d5c76aaa",
        "IsForceUpdate": true,
        "IsKey": false,
        "ColumnName": "IsPersonal",
        "DataTypeValueUId": "90b65bf8-0ffc-4141-8779-2420877af907"
      },
      {
        "ColumnUId": "b2280617-35f9-4006-8634-c557a2e121c2",
        "IsForceUpdate": true,
        "IsKey": false,
        "ColumnName": "ReferenceSchemaUId",
        "DataTypeValueUId": "23018567-a13c-4320-8687-fd6f9e3699bd"
      },
      {
        "ColumnUId": "64fadca1-ab7c-4471-9d25-68599acc729b",
        "IsForceUpdate": true,
        "IsKey": false,
        "ColumnName": "IsSSPAvailable",
        "DataTypeValueUId": "90b65bf8-0ffc-4141-8779-2420877af907"
      },
      {
        "ColumnUId": "13aad544-ec30-4e76-a373-f0cff3202e24",
        "IsForceUpdate": true,
        "IsKey": false,
        "ColumnName": "Code",
        "DataTypeValueUId": "325a73b8-0f47-44a0-8412-7606f78003ac"
      },
      {
        "ColumnUId": "eb971f1a-dd41-4668-99aa-1f2a6b61a1b9",
        "IsForceUpdate": true,
        "IsKey": false,
        "ColumnName": "IsCacheable",
        "DataTypeValueUId": "90b65bf8-0ffc-4141-8779-2420877af907"
      },
      {
        "ColumnUId": "3fd9f15d-37f4-4f91-a6cf-f222d54e342d",
        "IsForceUpdate": false,
        "IsKey": false,
        "ColumnName": "SysFolder",
        "DataTypeValueUId": "b295071f-7ea9-4e62-8d1a-919bf3732ff2"
      },
      {
        "ColumnUId": "9e53fd7c-dde4-4502-a64c-b9e34148108b",
        "IsForceUpdate": true,
        "IsKey": false,
        "ColumnName": "Description",
        "DataTypeValueUId": "c0f04627-4620-4bc0-84e5-9419dc8516b1"
      },
      {
        "ColumnUId": "736c30a7-c0ec-4fa9-b034-2552b319b633",
        "IsForceUpdate": true,
        "IsKey": false,
        "ColumnName": "Name",
        "DataTypeValueUId": "ddb3a1ee-07e8-4d62-b7a9-d0e618b00fbd"
      },
      {
        "ColumnUId": "9928edec-4272-425a-93bb-48743fee4b04",
        "IsForceUpdate": true,
        "IsKey": false,
        "ColumnName": "ModifiedOn",
        "DataTypeValueUId": "d21e9ef4-c064-4012-b286-fa1a8171da44"
      },
      {
        "ColumnUId": "e80190a5-03b2-4095-90f7-a193a960adee",
        "IsForceUpdate": true,
        "IsKey": false,
        "ColumnName": "CreatedOn",
        "DataTypeValueUId": "d21e9ef4-c064-4012-b286-fa1a8171da44"
      },
      {
        "ColumnUId": "ae0e45ca-c495-4fe7-a39d-3ab7278e1617",
        "IsForceUpdate": false,
        "IsKey": true,
        "ColumnName": "Id",
        "DataTypeValueUId": "23018567-a13c-4320-8687-fd6f9e3699bd"
      },
      {
        "ColumnUId": "f7960a8a-1fd4-41d2-997a-fd78ea60075f",
        "IsForceUpdate": true,
        "IsKey": false,
        "ColumnName": "ValueTypeName",
        "DataTypeValueUId": "ddb3a1ee-07e8-4d62-b7a9-d0e618b00fbd"
      }
    ]
  }
}