﻿{
  "PackageData": [
    {
      "Row": [
        {
          "SchemaColumnUId": "ae0e45ca-c495-4fe7-a39d-3ab7278e1617",
          "Value": "c47601cd-c8d7-4a03-a523-dbb7f92cb9a4"
        },
        {
          "SchemaColumnUId": "3107ef98-a02e-4ea8-809a-67dc3025ef4a",
          "Value": "null"
        },
        {
          "SchemaColumnUId": "0c59594b-490a-4b55-a564-5841cfae3c19",
          "Value": "ccb57b92-b7ef-4c06-815e-74d671410716"
        }
      ]
    }
  ]
}