﻿{
  "Descriptor": {
    "UId": "77774018-b932-480e-a942-707e6638df48",
    "Name": "BasePageV2",
    "ModifiedOnUtc": "\/Date(1601952483000)\/",
    "Parent": {
      "UId": "d3cc497c-f286-4f13-99c1-751c468733c0",
      "Name": "BasePageV2"
    },
    "ExtendParent": true,
    "ManagerName": "ClientUnitSchemaManager",
    "Caption": "Base card schema"
  }
}