﻿{
  "Descriptor": {
    "UId": "8b379c27-61f0-4470-812d-4b29d394de27",
    "Name": "WatDelegationGifts",
    "ModifiedOnUtc": "\/Date(1606354198000)\/",
    "Parent": {
      "UId": "1bab9dcf-17d5-49f8-9536-8e0064f1dce0",
      "Name": "BaseEntity"
    },
    "ManagerName": "EntitySchemaManager",
    "Caption": "Delegation Gifts"
  }
}