﻿{
  "PackageData": [
    {
      "Row": [
        {
          "SchemaColumnUId": "ae0e45ca-c495-4fe7-a39d-3ab7278e1617",
          "Value": "02de8826-e9c1-4b8f-a465-f57253ca000b"
        },
        {
          "SchemaColumnUId": "1e6fcaf1-3eef-559c-6a76-b94b8903d94e",
          "Value": "dc3fe619-09ee-4a6b-98b0-6e5581ff34d0",
          "DisplayValue": "If no, please provide rational for why? (operational feasibility, research alignment, academic alignment, student interest etc.)"
        },
        {
          "SchemaColumnUId": "a75734b7-048c-d8ab-578d-cf7a604b725a",
          "Value": "2-MOU"
        },
        {
          "SchemaColumnUId": "df5d4044-b766-c589-e1b6-8281b12fc950",
          "Value": "16257282-5967-4b4e-ab6c-9805cf300fdb",
          "DisplayValue": "MOU"
        }
      ]
    },
    {
      "Row": [
        {
          "SchemaColumnUId": "ae0e45ca-c495-4fe7-a39d-3ab7278e1617",
          "Value": "04090300-10c7-4de4-af52-ab79418779eb"
        },
        {
          "SchemaColumnUId": "1e6fcaf1-3eef-559c-6a76-b94b8903d94e",
          "Value": "9a029a81-6cf2-4bf9-9386-0e1c794bcc09",
          "DisplayValue": "Comment on the research alignment and quality of the proposed agreement and partner."
        },
        {
          "SchemaColumnUId": "a75734b7-048c-d8ab-578d-cf7a604b725a",
          "Value": "8-MOU"
        },
        {
          "SchemaColumnUId": "df5d4044-b766-c589-e1b6-8281b12fc950",
          "Value": "16257282-5967-4b4e-ab6c-9805cf300fdb",
          "DisplayValue": "MOU"
        }
      ]
    },
    {
      "Row": [
        {
          "SchemaColumnUId": "ae0e45ca-c495-4fe7-a39d-3ab7278e1617",
          "Value": "0444b51f-eeaf-4bbc-9474-7a8b15440084"
        },
        {
          "SchemaColumnUId": "1e6fcaf1-3eef-559c-6a76-b94b8903d94e",
          "Value": "da4d5264-4cca-4e22-a224-90424aa2360a",
          "DisplayValue": "Advise on the anticipated faculty member interest and engagement in the proposed agreement"
        },
        {
          "SchemaColumnUId": "a75734b7-048c-d8ab-578d-cf7a604b725a",
          "Value": "5-Joint Academic"
        },
        {
          "SchemaColumnUId": "df5d4044-b766-c589-e1b6-8281b12fc950",
          "Value": "22f47e79-2f60-404a-a4de-20ee3e9834fb",
          "DisplayValue": "Joint Academic"
        }
      ]
    },
    {
      "Row": [
        {
          "SchemaColumnUId": "ae0e45ca-c495-4fe7-a39d-3ab7278e1617",
          "Value": "0cae4fb3-e5fe-419f-b330-1f5bb0f47e1b"
        },
        {
          "SchemaColumnUId": "1e6fcaf1-3eef-559c-6a76-b94b8903d94e",
          "Value": "765e0d1d-1146-492b-ad2e-5efd17d2ff1c",
          "DisplayValue": "Advise on the anticipated interest from Co-op students to participate in the proposed hybrid student mobility agreement"
        },
        {
          "SchemaColumnUId": "a75734b7-048c-d8ab-578d-cf7a604b725a",
          "Value": "6-Pathways"
        },
        {
          "SchemaColumnUId": "df5d4044-b766-c589-e1b6-8281b12fc950",
          "Value": "14d10e70-49a9-43a7-b83f-658549383b36",
          "DisplayValue": "Pathways"
        }
      ]
    },
    {
      "Row": [
        {
          "SchemaColumnUId": "ae0e45ca-c495-4fe7-a39d-3ab7278e1617",
          "Value": "0e158f26-5335-47f2-b878-55385656ed63"
        },
        {
          "SchemaColumnUId": "1e6fcaf1-3eef-559c-6a76-b94b8903d94e",
          "Value": "a5f6fdf6-aaeb-4830-8c24-e8c7189577c1",
          "DisplayValue": "Would your faculty like to participate in this partnership (yes/no)?"
        },
        {
          "SchemaColumnUId": "a75734b7-048c-d8ab-578d-cf7a604b725a",
          "Value": "1-Strategic Partnership"
        },
        {
          "SchemaColumnUId": "df5d4044-b766-c589-e1b6-8281b12fc950",
          "Value": "ab7596e6-5575-454d-bef6-57be8fa484bd",
          "DisplayValue": "Strategic Partnership"
        }
      ]
    },
    {
      "Row": [
        {
          "SchemaColumnUId": "ae0e45ca-c495-4fe7-a39d-3ab7278e1617",
          "Value": "13d54656-dcc1-46bc-b66e-873c6e8cfa6a"
        },
        {
          "SchemaColumnUId": "1e6fcaf1-3eef-559c-6a76-b94b8903d94e",
          "Value": "a5f6fdf6-aaeb-4830-8c24-e8c7189577c1",
          "DisplayValue": "Would your faculty like to participate in this partnership (yes/no)?"
        },
        {
          "SchemaColumnUId": "a75734b7-048c-d8ab-578d-cf7a604b725a",
          "Value": "1-Other"
        },
        {
          "SchemaColumnUId": "df5d4044-b766-c589-e1b6-8281b12fc950",
          "Value": "2f6032a4-58ae-470e-967d-2af7578165f5",
          "DisplayValue": "Other"
        }
      ]
    },
    {
      "Row": [
        {
          "SchemaColumnUId": "ae0e45ca-c495-4fe7-a39d-3ab7278e1617",
          "Value": "15983beb-6caa-4456-b704-23236da1fe3e"
        },
        {
          "SchemaColumnUId": "1e6fcaf1-3eef-559c-6a76-b94b8903d94e",
          "Value": "a2916a6a-8f46-4f56-8d21-18293861d254",
          "DisplayValue": "Please provide any relevant feedback for Waterloo International's consideration."
        },
        {
          "SchemaColumnUId": "a75734b7-048c-d8ab-578d-cf7a604b725a",
          "Value": "12-Joint Academic"
        },
        {
          "SchemaColumnUId": "df5d4044-b766-c589-e1b6-8281b12fc950",
          "Value": "22f47e79-2f60-404a-a4de-20ee3e9834fb",
          "DisplayValue": "Joint Academic"
        }
      ]
    },
    {
      "Row": [
        {
          "SchemaColumnUId": "ae0e45ca-c495-4fe7-a39d-3ab7278e1617",
          "Value": "191e16ac-5773-4097-a9ac-396e61aa5eb0"
        },
        {
          "SchemaColumnUId": "1e6fcaf1-3eef-559c-6a76-b94b8903d94e",
          "Value": "a2916a6a-8f46-4f56-8d21-18293861d254",
          "DisplayValue": "Please provide any relevant feedback for Waterloo International's consideration."
        },
        {
          "SchemaColumnUId": "a75734b7-048c-d8ab-578d-cf7a604b725a",
          "Value": "14-Student Mobility"
        },
        {
          "SchemaColumnUId": "df5d4044-b766-c589-e1b6-8281b12fc950",
          "Value": "9da17d88-7f99-4cab-a609-9928c0a69261",
          "DisplayValue": "Student Mobility"
        }
      ]
    },
    {
      "Row": [
        {
          "SchemaColumnUId": "ae0e45ca-c495-4fe7-a39d-3ab7278e1617",
          "Value": "1c2ac27f-7dc0-4d9c-a019-aa007c65e2b5"
        },
        {
          "SchemaColumnUId": "1e6fcaf1-3eef-559c-6a76-b94b8903d94e",
          "Value": "63085037-b87a-4752-bce4-fe78286a93ac",
          "DisplayValue": "Does your faculty agree with the recommendation that this agreement be concluded (yes/no)?"
        },
        {
          "SchemaColumnUId": "a75734b7-048c-d8ab-578d-cf7a604b725a",
          "Value": "11-Strategic Partnership"
        },
        {
          "SchemaColumnUId": "df5d4044-b766-c589-e1b6-8281b12fc950",
          "Value": "ab7596e6-5575-454d-bef6-57be8fa484bd",
          "DisplayValue": "Strategic Partnership"
        }
      ]
    },
    {
      "Row": [
        {
          "SchemaColumnUId": "ae0e45ca-c495-4fe7-a39d-3ab7278e1617",
          "Value": "226ee122-7f24-4088-ad8f-4b84d4fc8741"
        },
        {
          "SchemaColumnUId": "1e6fcaf1-3eef-559c-6a76-b94b8903d94e",
          "Value": "273079dd-8c18-4689-b557-60b5db5984ea",
          "DisplayValue": "Please advise on the anticipated student interest and engagement in proposed partnership"
        },
        {
          "SchemaColumnUId": "a75734b7-048c-d8ab-578d-cf7a604b725a",
          "Value": "4-Student Mobility"
        },
        {
          "SchemaColumnUId": "df5d4044-b766-c589-e1b6-8281b12fc950",
          "Value": "9da17d88-7f99-4cab-a609-9928c0a69261",
          "DisplayValue": "Student Mobility"
        }
      ]
    },
    {
      "Row": [
        {
          "SchemaColumnUId": "ae0e45ca-c495-4fe7-a39d-3ab7278e1617",
          "Value": "22d91582-e669-468a-967b-887f7f0df15f"
        },
        {
          "SchemaColumnUId": "1e6fcaf1-3eef-559c-6a76-b94b8903d94e",
          "Value": "dc3fe619-09ee-4a6b-98b0-6e5581ff34d0",
          "DisplayValue": "If no, please provide rational for why? (operational feasibility, research alignment, academic alignment, student interest etc.)"
        },
        {
          "SchemaColumnUId": "a75734b7-048c-d8ab-578d-cf7a604b725a",
          "Value": "2-Student Mobility"
        },
        {
          "SchemaColumnUId": "df5d4044-b766-c589-e1b6-8281b12fc950",
          "Value": "9da17d88-7f99-4cab-a609-9928c0a69261",
          "DisplayValue": "Student Mobility"
        }
      ]
    },
    {
      "Row": [
        {
          "SchemaColumnUId": "ae0e45ca-c495-4fe7-a39d-3ab7278e1617",
          "Value": "2380a110-3aff-4eec-b143-e1196301ea34"
        },
        {
          "SchemaColumnUId": "1e6fcaf1-3eef-559c-6a76-b94b8903d94e",
          "Value": "8471f954-22cd-4e0d-a3e8-e2688c09201e",
          "DisplayValue": "Does your unit agree with the recommendation that this agreement be concluded (yes/no)?"
        },
        {
          "SchemaColumnUId": "a75734b7-048c-d8ab-578d-cf7a604b725a",
          "Value": "13-MOU"
        },
        {
          "SchemaColumnUId": "df5d4044-b766-c589-e1b6-8281b12fc950",
          "Value": "16257282-5967-4b4e-ab6c-9805cf300fdb",
          "DisplayValue": "MOU"
        }
      ]
    },
    {
      "Row": [
        {
          "SchemaColumnUId": "ae0e45ca-c495-4fe7-a39d-3ab7278e1617",
          "Value": "273b9e26-b486-46a5-87e0-18aa3948b224"
        },
        {
          "SchemaColumnUId": "1e6fcaf1-3eef-559c-6a76-b94b8903d94e",
          "Value": "63085037-b87a-4752-bce4-fe78286a93ac",
          "DisplayValue": "Does your faculty agree with the recommendation that this agreement be concluded (yes/no)?"
        },
        {
          "SchemaColumnUId": "a75734b7-048c-d8ab-578d-cf7a604b725a",
          "Value": "11-Other"
        },
        {
          "SchemaColumnUId": "df5d4044-b766-c589-e1b6-8281b12fc950",
          "Value": "2f6032a4-58ae-470e-967d-2af7578165f5",
          "DisplayValue": "Other"
        }
      ]
    },
    {
      "Row": [
        {
          "SchemaColumnUId": "ae0e45ca-c495-4fe7-a39d-3ab7278e1617",
          "Value": "29cd712d-8f75-4b58-86ad-99938fed6652"
        },
        {
          "SchemaColumnUId": "1e6fcaf1-3eef-559c-6a76-b94b8903d94e",
          "Value": "839452bc-54ce-465a-8aea-468289b40de1",
          "DisplayValue": "Comment on the academic alignment and quality of the proposed agreement and partner."
        },
        {
          "SchemaColumnUId": "a75734b7-048c-d8ab-578d-cf7a604b725a",
          "Value": "7-Joint Academic"
        },
        {
          "SchemaColumnUId": "df5d4044-b766-c589-e1b6-8281b12fc950",
          "Value": "22f47e79-2f60-404a-a4de-20ee3e9834fb",
          "DisplayValue": "Joint Academic"
        }
      ]
    },
    {
      "Row": [
        {
          "SchemaColumnUId": "ae0e45ca-c495-4fe7-a39d-3ab7278e1617",
          "Value": "2a09c057-0416-4570-bcb2-4b9480e55a5d"
        },
        {
          "SchemaColumnUId": "1e6fcaf1-3eef-559c-6a76-b94b8903d94e",
          "Value": "5e3f3a51-89f4-47be-a5a8-f5e5303e1292",
          "DisplayValue": "what Current/expected outcomes and strategic alignment"
        },
        {
          "SchemaColumnUId": "a75734b7-048c-d8ab-578d-cf7a604b725a",
          "Value": "9-Student Mobility"
        },
        {
          "SchemaColumnUId": "df5d4044-b766-c589-e1b6-8281b12fc950",
          "Value": "9da17d88-7f99-4cab-a609-9928c0a69261",
          "DisplayValue": "Student Mobility"
        }
      ]
    },
    {
      "Row": [
        {
          "SchemaColumnUId": "ae0e45ca-c495-4fe7-a39d-3ab7278e1617",
          "Value": "2c236b4a-8c6f-4151-945e-1d4443445e62"
        },
        {
          "SchemaColumnUId": "1e6fcaf1-3eef-559c-6a76-b94b8903d94e",
          "Value": "a5f6fdf6-aaeb-4830-8c24-e8c7189577c1",
          "DisplayValue": "Would your faculty like to participate in this partnership (yes/no)?"
        },
        {
          "SchemaColumnUId": "a75734b7-048c-d8ab-578d-cf7a604b725a",
          "Value": "1-Student Mobility"
        },
        {
          "SchemaColumnUId": "df5d4044-b766-c589-e1b6-8281b12fc950",
          "Value": "9da17d88-7f99-4cab-a609-9928c0a69261",
          "DisplayValue": "Student Mobility"
        }
      ]
    },
    {
      "Row": [
        {
          "SchemaColumnUId": "ae0e45ca-c495-4fe7-a39d-3ab7278e1617",
          "Value": "2c24ea02-9ea8-4c3e-ae8c-4b21f9f9a6cf"
        },
        {
          "SchemaColumnUId": "1e6fcaf1-3eef-559c-6a76-b94b8903d94e",
          "Value": "a5f6fdf6-aaeb-4830-8c24-e8c7189577c1",
          "DisplayValue": "Would your faculty like to participate in this partnership (yes/no)?"
        },
        {
          "SchemaColumnUId": "a75734b7-048c-d8ab-578d-cf7a604b725a",
          "Value": "1-Joint Academic"
        },
        {
          "SchemaColumnUId": "df5d4044-b766-c589-e1b6-8281b12fc950",
          "Value": "22f47e79-2f60-404a-a4de-20ee3e9834fb",
          "DisplayValue": "Joint Academic"
        }
      ]
    },
    {
      "Row": [
        {
          "SchemaColumnUId": "ae0e45ca-c495-4fe7-a39d-3ab7278e1617",
          "Value": "33a3e6c2-9683-40b6-b4b0-48ff4ec64572"
        },
        {
          "SchemaColumnUId": "1e6fcaf1-3eef-559c-6a76-b94b8903d94e",
          "Value": "839452bc-54ce-465a-8aea-468289b40de1",
          "DisplayValue": "Comment on the academic alignment and quality of the proposed agreement and partner."
        },
        {
          "SchemaColumnUId": "a75734b7-048c-d8ab-578d-cf7a604b725a",
          "Value": "7-MOU"
        },
        {
          "SchemaColumnUId": "df5d4044-b766-c589-e1b6-8281b12fc950",
          "Value": "16257282-5967-4b4e-ab6c-9805cf300fdb",
          "DisplayValue": "MOU"
        }
      ]
    },
    {
      "Row": [
        {
          "SchemaColumnUId": "ae0e45ca-c495-4fe7-a39d-3ab7278e1617",
          "Value": "3d5d6e64-e9be-4195-a021-44837bf38284"
        },
        {
          "SchemaColumnUId": "1e6fcaf1-3eef-559c-6a76-b94b8903d94e",
          "Value": "f335cf9e-041d-4558-b01f-bbc254c99c4f",
          "DisplayValue": "Please provide any comment on the operational feasibility (programming type, academic level, proposed faculties, term alignment, etc.) of the proposed partnership"
        },
        {
          "SchemaColumnUId": "a75734b7-048c-d8ab-578d-cf7a604b725a",
          "Value": "3-Joint Academic"
        },
        {
          "SchemaColumnUId": "df5d4044-b766-c589-e1b6-8281b12fc950",
          "Value": "22f47e79-2f60-404a-a4de-20ee3e9834fb",
          "DisplayValue": "Joint Academic"
        }
      ]
    },
    {
      "Row": [
        {
          "SchemaColumnUId": "ae0e45ca-c495-4fe7-a39d-3ab7278e1617",
          "Value": "516afdd0-fcc0-42c1-86ab-c81357b3f0a7"
        },
        {
          "SchemaColumnUId": "1e6fcaf1-3eef-559c-6a76-b94b8903d94e",
          "Value": "null",
          "DisplayValue": ""
        },
        {
          "SchemaColumnUId": "a75734b7-048c-d8ab-578d-cf7a604b725a",
          "Value": "12-MOU"
        },
        {
          "SchemaColumnUId": "df5d4044-b766-c589-e1b6-8281b12fc950",
          "Value": "16257282-5967-4b4e-ab6c-9805cf300fdb",
          "DisplayValue": "MOU"
        }
      ]
    },
    {
      "Row": [
        {
          "SchemaColumnUId": "ae0e45ca-c495-4fe7-a39d-3ab7278e1617",
          "Value": "54d336f8-0211-48bf-a3ba-613f35388805"
        },
        {
          "SchemaColumnUId": "1e6fcaf1-3eef-559c-6a76-b94b8903d94e",
          "Value": "9a029a81-6cf2-4bf9-9386-0e1c794bcc09",
          "DisplayValue": "Comment on the research alignment and quality of the proposed agreement and partner."
        },
        {
          "SchemaColumnUId": "a75734b7-048c-d8ab-578d-cf7a604b725a",
          "Value": "8-Strategic Partnership"
        },
        {
          "SchemaColumnUId": "df5d4044-b766-c589-e1b6-8281b12fc950",
          "Value": "ab7596e6-5575-454d-bef6-57be8fa484bd",
          "DisplayValue": "Strategic Partnership"
        }
      ]
    },
    {
      "Row": [
        {
          "SchemaColumnUId": "ae0e45ca-c495-4fe7-a39d-3ab7278e1617",
          "Value": "5bd156c8-2695-40eb-9bb4-015cd9269286"
        },
        {
          "SchemaColumnUId": "1e6fcaf1-3eef-559c-6a76-b94b8903d94e",
          "Value": "f335cf9e-041d-4558-b01f-bbc254c99c4f",
          "DisplayValue": "Please provide any comment on the operational feasibility (programming type, academic level, proposed faculties, term alignment, etc.) of the proposed partnership"
        },
        {
          "SchemaColumnUId": "a75734b7-048c-d8ab-578d-cf7a604b725a",
          "Value": "3-Strategic Partnership"
        },
        {
          "SchemaColumnUId": "df5d4044-b766-c589-e1b6-8281b12fc950",
          "Value": "ab7596e6-5575-454d-bef6-57be8fa484bd",
          "DisplayValue": "Strategic Partnership"
        }
      ]
    },
    {
      "Row": [
        {
          "SchemaColumnUId": "ae0e45ca-c495-4fe7-a39d-3ab7278e1617",
          "Value": "66d2fb6b-ed24-4931-bf58-e8b9c3e99df5"
        },
        {
          "SchemaColumnUId": "1e6fcaf1-3eef-559c-6a76-b94b8903d94e",
          "Value": "a2916a6a-8f46-4f56-8d21-18293861d254",
          "DisplayValue": "Please provide any relevant feedback for Waterloo International's consideration."
        },
        {
          "SchemaColumnUId": "a75734b7-048c-d8ab-578d-cf7a604b725a",
          "Value": "12-Strategic Partnership"
        },
        {
          "SchemaColumnUId": "df5d4044-b766-c589-e1b6-8281b12fc950",
          "Value": "ab7596e6-5575-454d-bef6-57be8fa484bd",
          "DisplayValue": "Strategic Partnership"
        }
      ]
    },
    {
      "Row": [
        {
          "SchemaColumnUId": "ae0e45ca-c495-4fe7-a39d-3ab7278e1617",
          "Value": "68ea01d6-49f7-495c-abe0-2dfd1bd4665f"
        },
        {
          "SchemaColumnUId": "1e6fcaf1-3eef-559c-6a76-b94b8903d94e",
          "Value": "5e3f3a51-89f4-47be-a5a8-f5e5303e1292",
          "DisplayValue": "what Current/expected outcomes and strategic alignment"
        },
        {
          "SchemaColumnUId": "a75734b7-048c-d8ab-578d-cf7a604b725a",
          "Value": "9-MOU"
        },
        {
          "SchemaColumnUId": "df5d4044-b766-c589-e1b6-8281b12fc950",
          "Value": "16257282-5967-4b4e-ab6c-9805cf300fdb",
          "DisplayValue": "MOU"
        }
      ]
    },
    {
      "Row": [
        {
          "SchemaColumnUId": "ae0e45ca-c495-4fe7-a39d-3ab7278e1617",
          "Value": "690b6aed-876f-45a6-b5ab-5cb2833073d5"
        },
        {
          "SchemaColumnUId": "1e6fcaf1-3eef-559c-6a76-b94b8903d94e",
          "Value": "5e3f3a51-89f4-47be-a5a8-f5e5303e1292",
          "DisplayValue": "what Current/expected outcomes and strategic alignment"
        },
        {
          "SchemaColumnUId": "a75734b7-048c-d8ab-578d-cf7a604b725a",
          "Value": "9-Other"
        },
        {
          "SchemaColumnUId": "df5d4044-b766-c589-e1b6-8281b12fc950",
          "Value": "2f6032a4-58ae-470e-967d-2af7578165f5",
          "DisplayValue": "Other"
        }
      ]
    },
    {
      "Row": [
        {
          "SchemaColumnUId": "ae0e45ca-c495-4fe7-a39d-3ab7278e1617",
          "Value": "6ae03b40-fb2a-4cf2-807b-960967cc12af"
        },
        {
          "SchemaColumnUId": "1e6fcaf1-3eef-559c-6a76-b94b8903d94e",
          "Value": "a2916a6a-8f46-4f56-8d21-18293861d254",
          "DisplayValue": "Please provide any relevant feedback for Waterloo International's consideration."
        },
        {
          "SchemaColumnUId": "a75734b7-048c-d8ab-578d-cf7a604b725a",
          "Value": "14-Strategic Partnership"
        },
        {
          "SchemaColumnUId": "df5d4044-b766-c589-e1b6-8281b12fc950",
          "Value": "ab7596e6-5575-454d-bef6-57be8fa484bd",
          "DisplayValue": "Strategic Partnership"
        }
      ]
    },
    {
      "Row": [
        {
          "SchemaColumnUId": "ae0e45ca-c495-4fe7-a39d-3ab7278e1617",
          "Value": "6c2d396e-ea0d-40c1-9296-e6ad0cd6bc42"
        },
        {
          "SchemaColumnUId": "1e6fcaf1-3eef-559c-6a76-b94b8903d94e",
          "Value": "c7415949-e59a-4773-98a5-931ed1bf262e",
          "DisplayValue": "Please advise if there are any other relevant factors that Waterloo International should be aware when considering this proposed partnership related to the scope of your department and role."
        },
        {
          "SchemaColumnUId": "a75734b7-048c-d8ab-578d-cf7a604b725a",
          "Value": "10-Student Mobility"
        },
        {
          "SchemaColumnUId": "df5d4044-b766-c589-e1b6-8281b12fc950",
          "Value": "9da17d88-7f99-4cab-a609-9928c0a69261",
          "DisplayValue": "Student Mobility"
        }
      ]
    },
    {
      "Row": [
        {
          "SchemaColumnUId": "ae0e45ca-c495-4fe7-a39d-3ab7278e1617",
          "Value": "6ef76617-2905-485a-b560-45bea638a232"
        },
        {
          "SchemaColumnUId": "1e6fcaf1-3eef-559c-6a76-b94b8903d94e",
          "Value": "839452bc-54ce-465a-8aea-468289b40de1",
          "DisplayValue": "Comment on the academic alignment and quality of the proposed agreement and partner."
        },
        {
          "SchemaColumnUId": "a75734b7-048c-d8ab-578d-cf7a604b725a",
          "Value": "7-Student Mobility"
        },
        {
          "SchemaColumnUId": "df5d4044-b766-c589-e1b6-8281b12fc950",
          "Value": "9da17d88-7f99-4cab-a609-9928c0a69261",
          "DisplayValue": "Student Mobility"
        }
      ]
    },
    {
      "Row": [
        {
          "SchemaColumnUId": "ae0e45ca-c495-4fe7-a39d-3ab7278e1617",
          "Value": "706a0e0d-6d61-4cae-adbd-64f75c431bcf"
        },
        {
          "SchemaColumnUId": "1e6fcaf1-3eef-559c-6a76-b94b8903d94e",
          "Value": "8471f954-22cd-4e0d-a3e8-e2688c09201e",
          "DisplayValue": "Does your unit agree with the recommendation that this agreement be concluded (yes/no)?"
        },
        {
          "SchemaColumnUId": "a75734b7-048c-d8ab-578d-cf7a604b725a",
          "Value": "13-Student Mobility"
        },
        {
          "SchemaColumnUId": "df5d4044-b766-c589-e1b6-8281b12fc950",
          "Value": "9da17d88-7f99-4cab-a609-9928c0a69261",
          "DisplayValue": "Student Mobility"
        }
      ]
    },
    {
      "Row": [
        {
          "SchemaColumnUId": "ae0e45ca-c495-4fe7-a39d-3ab7278e1617",
          "Value": "72973edc-bf81-4503-ba91-17449c651c05"
        },
        {
          "SchemaColumnUId": "1e6fcaf1-3eef-559c-6a76-b94b8903d94e",
          "Value": "839452bc-54ce-465a-8aea-468289b40de1",
          "DisplayValue": "Comment on the academic alignment and quality of the proposed agreement and partner."
        },
        {
          "SchemaColumnUId": "a75734b7-048c-d8ab-578d-cf7a604b725a",
          "Value": "7-Strategic Partnership"
        },
        {
          "SchemaColumnUId": "df5d4044-b766-c589-e1b6-8281b12fc950",
          "Value": "ab7596e6-5575-454d-bef6-57be8fa484bd",
          "DisplayValue": "Strategic Partnership"
        }
      ]
    },
    {
      "Row": [
        {
          "SchemaColumnUId": "ae0e45ca-c495-4fe7-a39d-3ab7278e1617",
          "Value": "737d3b41-33b0-4a87-8995-d0f9d2fe3f06"
        },
        {
          "SchemaColumnUId": "1e6fcaf1-3eef-559c-6a76-b94b8903d94e",
          "Value": "8471f954-22cd-4e0d-a3e8-e2688c09201e",
          "DisplayValue": "Does your unit agree with the recommendation that this agreement be concluded (yes/no)?"
        },
        {
          "SchemaColumnUId": "a75734b7-048c-d8ab-578d-cf7a604b725a",
          "Value": "13-Joint Academic"
        },
        {
          "SchemaColumnUId": "df5d4044-b766-c589-e1b6-8281b12fc950",
          "Value": "22f47e79-2f60-404a-a4de-20ee3e9834fb",
          "DisplayValue": "Joint Academic"
        }
      ]
    },
    {
      "Row": [
        {
          "SchemaColumnUId": "ae0e45ca-c495-4fe7-a39d-3ab7278e1617",
          "Value": "74452708-f1b4-47a2-bc9f-b888a5c65fd8"
        },
        {
          "SchemaColumnUId": "1e6fcaf1-3eef-559c-6a76-b94b8903d94e",
          "Value": "273079dd-8c18-4689-b557-60b5db5984ea",
          "DisplayValue": "Please advise on the anticipated student interest and engagement in proposed partnership"
        },
        {
          "SchemaColumnUId": "a75734b7-048c-d8ab-578d-cf7a604b725a",
          "Value": "4-Joint Academic"
        },
        {
          "SchemaColumnUId": "df5d4044-b766-c589-e1b6-8281b12fc950",
          "Value": "22f47e79-2f60-404a-a4de-20ee3e9834fb",
          "DisplayValue": "Joint Academic"
        }
      ]
    },
    {
      "Row": [
        {
          "SchemaColumnUId": "ae0e45ca-c495-4fe7-a39d-3ab7278e1617",
          "Value": "7b4dc7e8-b430-4d47-b496-dd0f578616e1"
        },
        {
          "SchemaColumnUId": "1e6fcaf1-3eef-559c-6a76-b94b8903d94e",
          "Value": "a2916a6a-8f46-4f56-8d21-18293861d254",
          "DisplayValue": "Please provide any relevant feedback for Waterloo International's consideration."
        },
        {
          "SchemaColumnUId": "a75734b7-048c-d8ab-578d-cf7a604b725a",
          "Value": "12-Other"
        },
        {
          "SchemaColumnUId": "df5d4044-b766-c589-e1b6-8281b12fc950",
          "Value": "2f6032a4-58ae-470e-967d-2af7578165f5",
          "DisplayValue": "Other"
        }
      ]
    },
    {
      "Row": [
        {
          "SchemaColumnUId": "ae0e45ca-c495-4fe7-a39d-3ab7278e1617",
          "Value": "864f4bdb-2115-41bc-a558-4140acff0f9f"
        },
        {
          "SchemaColumnUId": "1e6fcaf1-3eef-559c-6a76-b94b8903d94e",
          "Value": "8471f954-22cd-4e0d-a3e8-e2688c09201e",
          "DisplayValue": "Does your unit agree with the recommendation that this agreement be concluded (yes/no)?"
        },
        {
          "SchemaColumnUId": "a75734b7-048c-d8ab-578d-cf7a604b725a",
          "Value": "13-Other"
        },
        {
          "SchemaColumnUId": "df5d4044-b766-c589-e1b6-8281b12fc950",
          "Value": "2f6032a4-58ae-470e-967d-2af7578165f5",
          "DisplayValue": "Other"
        }
      ]
    },
    {
      "Row": [
        {
          "SchemaColumnUId": "ae0e45ca-c495-4fe7-a39d-3ab7278e1617",
          "Value": "904b00a0-721c-4176-ad1b-ac92a16eddd7"
        },
        {
          "SchemaColumnUId": "1e6fcaf1-3eef-559c-6a76-b94b8903d94e",
          "Value": "63085037-b87a-4752-bce4-fe78286a93ac",
          "DisplayValue": "Does your faculty agree with the recommendation that this agreement be concluded (yes/no)?"
        },
        {
          "SchemaColumnUId": "a75734b7-048c-d8ab-578d-cf7a604b725a",
          "Value": "11-MOU"
        },
        {
          "SchemaColumnUId": "df5d4044-b766-c589-e1b6-8281b12fc950",
          "Value": "16257282-5967-4b4e-ab6c-9805cf300fdb",
          "DisplayValue": "MOU"
        }
      ]
    },
    {
      "Row": [
        {
          "SchemaColumnUId": "ae0e45ca-c495-4fe7-a39d-3ab7278e1617",
          "Value": "90cfa68a-5a75-41e5-9ad5-8e6a72940333"
        },
        {
          "SchemaColumnUId": "1e6fcaf1-3eef-559c-6a76-b94b8903d94e",
          "Value": "273079dd-8c18-4689-b557-60b5db5984ea",
          "DisplayValue": "Please advise on the anticipated student interest and engagement in proposed partnership"
        },
        {
          "SchemaColumnUId": "a75734b7-048c-d8ab-578d-cf7a604b725a",
          "Value": "4-Other"
        },
        {
          "SchemaColumnUId": "df5d4044-b766-c589-e1b6-8281b12fc950",
          "Value": "2f6032a4-58ae-470e-967d-2af7578165f5",
          "DisplayValue": "Other"
        }
      ]
    },
    {
      "Row": [
        {
          "SchemaColumnUId": "ae0e45ca-c495-4fe7-a39d-3ab7278e1617",
          "Value": "a4426808-5b6d-453a-8474-068c10e2c390"
        },
        {
          "SchemaColumnUId": "1e6fcaf1-3eef-559c-6a76-b94b8903d94e",
          "Value": "c7415949-e59a-4773-98a5-931ed1bf262e",
          "DisplayValue": "Please advise if there are any other relevant factors that Waterloo International should be aware when considering this proposed partnership related to the scope of your department and role."
        },
        {
          "SchemaColumnUId": "a75734b7-048c-d8ab-578d-cf7a604b725a",
          "Value": "10-Joint Academic"
        },
        {
          "SchemaColumnUId": "df5d4044-b766-c589-e1b6-8281b12fc950",
          "Value": "22f47e79-2f60-404a-a4de-20ee3e9834fb",
          "DisplayValue": "Joint Academic"
        }
      ]
    },
    {
      "Row": [
        {
          "SchemaColumnUId": "ae0e45ca-c495-4fe7-a39d-3ab7278e1617",
          "Value": "af54893d-1e18-40fc-9c14-801fe3b7ef9e"
        },
        {
          "SchemaColumnUId": "1e6fcaf1-3eef-559c-6a76-b94b8903d94e",
          "Value": "a2916a6a-8f46-4f56-8d21-18293861d254",
          "DisplayValue": "Please provide any relevant feedback for Waterloo International's consideration."
        },
        {
          "SchemaColumnUId": "a75734b7-048c-d8ab-578d-cf7a604b725a",
          "Value": "14-Joint Academic"
        },
        {
          "SchemaColumnUId": "df5d4044-b766-c589-e1b6-8281b12fc950",
          "Value": "22f47e79-2f60-404a-a4de-20ee3e9834fb",
          "DisplayValue": "Joint Academic"
        }
      ]
    },
    {
      "Row": [
        {
          "SchemaColumnUId": "ae0e45ca-c495-4fe7-a39d-3ab7278e1617",
          "Value": "b0a869de-60e9-48da-b309-039e33840cc6"
        },
        {
          "SchemaColumnUId": "1e6fcaf1-3eef-559c-6a76-b94b8903d94e",
          "Value": "dc3fe619-09ee-4a6b-98b0-6e5581ff34d0",
          "DisplayValue": "If no, please provide rational for why? (operational feasibility, research alignment, academic alignment, student interest etc.)"
        },
        {
          "SchemaColumnUId": "a75734b7-048c-d8ab-578d-cf7a604b725a",
          "Value": "2-Other"
        },
        {
          "SchemaColumnUId": "df5d4044-b766-c589-e1b6-8281b12fc950",
          "Value": "2f6032a4-58ae-470e-967d-2af7578165f5",
          "DisplayValue": "Other"
        }
      ]
    },
    {
      "Row": [
        {
          "SchemaColumnUId": "ae0e45ca-c495-4fe7-a39d-3ab7278e1617",
          "Value": "c5d267b3-9288-45cd-8f69-6e25e748d81a"
        },
        {
          "SchemaColumnUId": "1e6fcaf1-3eef-559c-6a76-b94b8903d94e",
          "Value": "5e3f3a51-89f4-47be-a5a8-f5e5303e1292",
          "DisplayValue": "what Current/expected outcomes and strategic alignment"
        },
        {
          "SchemaColumnUId": "a75734b7-048c-d8ab-578d-cf7a604b725a",
          "Value": "9-Joint Academic"
        },
        {
          "SchemaColumnUId": "df5d4044-b766-c589-e1b6-8281b12fc950",
          "Value": "22f47e79-2f60-404a-a4de-20ee3e9834fb",
          "DisplayValue": "Joint Academic"
        }
      ]
    },
    {
      "Row": [
        {
          "SchemaColumnUId": "ae0e45ca-c495-4fe7-a39d-3ab7278e1617",
          "Value": "ce5fa36f-2b89-4522-9be7-bcf6d2667e46"
        },
        {
          "SchemaColumnUId": "1e6fcaf1-3eef-559c-6a76-b94b8903d94e",
          "Value": "a2916a6a-8f46-4f56-8d21-18293861d254",
          "DisplayValue": "Please provide any relevant feedback for Waterloo International's consideration."
        },
        {
          "SchemaColumnUId": "a75734b7-048c-d8ab-578d-cf7a604b725a",
          "Value": "12-Student Mobility"
        },
        {
          "SchemaColumnUId": "df5d4044-b766-c589-e1b6-8281b12fc950",
          "Value": "9da17d88-7f99-4cab-a609-9928c0a69261",
          "DisplayValue": "Student Mobility"
        }
      ]
    },
    {
      "Row": [
        {
          "SchemaColumnUId": "ae0e45ca-c495-4fe7-a39d-3ab7278e1617",
          "Value": "d687ab2c-e9ab-4402-b2cf-b2fd376fc13f"
        },
        {
          "SchemaColumnUId": "1e6fcaf1-3eef-559c-6a76-b94b8903d94e",
          "Value": "da4d5264-4cca-4e22-a224-90424aa2360a",
          "DisplayValue": "Advise on the anticipated faculty member interest and engagement in the proposed agreement"
        },
        {
          "SchemaColumnUId": "a75734b7-048c-d8ab-578d-cf7a604b725a",
          "Value": "5-MOU"
        },
        {
          "SchemaColumnUId": "df5d4044-b766-c589-e1b6-8281b12fc950",
          "Value": "16257282-5967-4b4e-ab6c-9805cf300fdb",
          "DisplayValue": "MOU"
        }
      ]
    },
    {
      "Row": [
        {
          "SchemaColumnUId": "ae0e45ca-c495-4fe7-a39d-3ab7278e1617",
          "Value": "d993175e-36a5-4be8-8d34-6202c6f3a335"
        },
        {
          "SchemaColumnUId": "1e6fcaf1-3eef-559c-6a76-b94b8903d94e",
          "Value": "c7415949-e59a-4773-98a5-931ed1bf262e",
          "DisplayValue": "Please advise if there are any other relevant factors that Waterloo International should be aware when considering this proposed partnership related to the scope of your department and role."
        },
        {
          "SchemaColumnUId": "a75734b7-048c-d8ab-578d-cf7a604b725a",
          "Value": "10-Strategic Partnership"
        },
        {
          "SchemaColumnUId": "df5d4044-b766-c589-e1b6-8281b12fc950",
          "Value": "ab7596e6-5575-454d-bef6-57be8fa484bd",
          "DisplayValue": "Strategic Partnership"
        }
      ]
    },
    {
      "Row": [
        {
          "SchemaColumnUId": "ae0e45ca-c495-4fe7-a39d-3ab7278e1617",
          "Value": "d9f397d8-6806-4aa6-bbe4-ceb7f566c127"
        },
        {
          "SchemaColumnUId": "1e6fcaf1-3eef-559c-6a76-b94b8903d94e",
          "Value": "a2916a6a-8f46-4f56-8d21-18293861d254",
          "DisplayValue": "Please provide any relevant feedback for Waterloo International's consideration."
        },
        {
          "SchemaColumnUId": "a75734b7-048c-d8ab-578d-cf7a604b725a",
          "Value": "14-MOU"
        },
        {
          "SchemaColumnUId": "df5d4044-b766-c589-e1b6-8281b12fc950",
          "Value": "16257282-5967-4b4e-ab6c-9805cf300fdb",
          "DisplayValue": "MOU"
        }
      ]
    },
    {
      "Row": [
        {
          "SchemaColumnUId": "ae0e45ca-c495-4fe7-a39d-3ab7278e1617",
          "Value": "dd46b8e6-8c4a-4562-8cde-696a248d209a"
        },
        {
          "SchemaColumnUId": "1e6fcaf1-3eef-559c-6a76-b94b8903d94e",
          "Value": "f335cf9e-041d-4558-b01f-bbc254c99c4f",
          "DisplayValue": "Please provide any comment on the operational feasibility (programming type, academic level, proposed faculties, term alignment, etc.) of the proposed partnership"
        },
        {
          "SchemaColumnUId": "a75734b7-048c-d8ab-578d-cf7a604b725a",
          "Value": "3-Other"
        },
        {
          "SchemaColumnUId": "df5d4044-b766-c589-e1b6-8281b12fc950",
          "Value": "2f6032a4-58ae-470e-967d-2af7578165f5",
          "DisplayValue": "Other"
        }
      ]
    },
    {
      "Row": [
        {
          "SchemaColumnUId": "ae0e45ca-c495-4fe7-a39d-3ab7278e1617",
          "Value": "e2ea4941-66a3-46e0-8f75-5117f4bb7600"
        },
        {
          "SchemaColumnUId": "1e6fcaf1-3eef-559c-6a76-b94b8903d94e",
          "Value": "8471f954-22cd-4e0d-a3e8-e2688c09201e",
          "DisplayValue": "Does your unit agree with the recommendation that this agreement be concluded (yes/no)?"
        },
        {
          "SchemaColumnUId": "a75734b7-048c-d8ab-578d-cf7a604b725a",
          "Value": "13-Strategic Partnership"
        },
        {
          "SchemaColumnUId": "df5d4044-b766-c589-e1b6-8281b12fc950",
          "Value": "ab7596e6-5575-454d-bef6-57be8fa484bd",
          "DisplayValue": "Strategic Partnership"
        }
      ]
    },
    {
      "Row": [
        {
          "SchemaColumnUId": "ae0e45ca-c495-4fe7-a39d-3ab7278e1617",
          "Value": "e5f72395-d00c-4b2c-82b0-992ae84b0c84"
        },
        {
          "SchemaColumnUId": "1e6fcaf1-3eef-559c-6a76-b94b8903d94e",
          "Value": "c7415949-e59a-4773-98a5-931ed1bf262e",
          "DisplayValue": "Please advise if there are any other relevant factors that Waterloo International should be aware when considering this proposed partnership related to the scope of your department and role."
        },
        {
          "SchemaColumnUId": "a75734b7-048c-d8ab-578d-cf7a604b725a",
          "Value": "10-MOU"
        },
        {
          "SchemaColumnUId": "df5d4044-b766-c589-e1b6-8281b12fc950",
          "Value": "16257282-5967-4b4e-ab6c-9805cf300fdb",
          "DisplayValue": "MOU"
        }
      ]
    },
    {
      "Row": [
        {
          "SchemaColumnUId": "ae0e45ca-c495-4fe7-a39d-3ab7278e1617",
          "Value": "e87bc1c4-9e12-4885-bcf1-e43437f99b23"
        },
        {
          "SchemaColumnUId": "1e6fcaf1-3eef-559c-6a76-b94b8903d94e",
          "Value": "63085037-b87a-4752-bce4-fe78286a93ac",
          "DisplayValue": "Does your faculty agree with the recommendation that this agreement be concluded (yes/no)?"
        },
        {
          "SchemaColumnUId": "a75734b7-048c-d8ab-578d-cf7a604b725a",
          "Value": "11-Joint Academic"
        },
        {
          "SchemaColumnUId": "df5d4044-b766-c589-e1b6-8281b12fc950",
          "Value": "22f47e79-2f60-404a-a4de-20ee3e9834fb",
          "DisplayValue": "Joint Academic"
        }
      ]
    },
    {
      "Row": [
        {
          "SchemaColumnUId": "ae0e45ca-c495-4fe7-a39d-3ab7278e1617",
          "Value": "ecc2d184-6e5a-4109-8100-9f508769aac4"
        },
        {
          "SchemaColumnUId": "1e6fcaf1-3eef-559c-6a76-b94b8903d94e",
          "Value": "c7415949-e59a-4773-98a5-931ed1bf262e",
          "DisplayValue": "Please advise if there are any other relevant factors that Waterloo International should be aware when considering this proposed partnership related to the scope of your department and role."
        },
        {
          "SchemaColumnUId": "a75734b7-048c-d8ab-578d-cf7a604b725a",
          "Value": "10-Other"
        },
        {
          "SchemaColumnUId": "df5d4044-b766-c589-e1b6-8281b12fc950",
          "Value": "2f6032a4-58ae-470e-967d-2af7578165f5",
          "DisplayValue": "Other"
        }
      ]
    },
    {
      "Row": [
        {
          "SchemaColumnUId": "ae0e45ca-c495-4fe7-a39d-3ab7278e1617",
          "Value": "f3426859-43d4-4933-a384-53f8a8c0d4c1"
        },
        {
          "SchemaColumnUId": "1e6fcaf1-3eef-559c-6a76-b94b8903d94e",
          "Value": "63085037-b87a-4752-bce4-fe78286a93ac",
          "DisplayValue": "Does your faculty agree with the recommendation that this agreement be concluded (yes/no)?"
        },
        {
          "SchemaColumnUId": "a75734b7-048c-d8ab-578d-cf7a604b725a",
          "Value": "11-Student Mobility"
        },
        {
          "SchemaColumnUId": "df5d4044-b766-c589-e1b6-8281b12fc950",
          "Value": "9da17d88-7f99-4cab-a609-9928c0a69261",
          "DisplayValue": "Student Mobility"
        }
      ]
    },
    {
      "Row": [
        {
          "SchemaColumnUId": "ae0e45ca-c495-4fe7-a39d-3ab7278e1617",
          "Value": "f59eddaf-0355-4a9a-8b86-693df8618301"
        },
        {
          "SchemaColumnUId": "1e6fcaf1-3eef-559c-6a76-b94b8903d94e",
          "Value": "f335cf9e-041d-4558-b01f-bbc254c99c4f",
          "DisplayValue": "Please provide any comment on the operational feasibility (programming type, academic level, proposed faculties, term alignment, etc.) of the proposed partnership"
        },
        {
          "SchemaColumnUId": "a75734b7-048c-d8ab-578d-cf7a604b725a",
          "Value": "3-Student Mobility"
        },
        {
          "SchemaColumnUId": "df5d4044-b766-c589-e1b6-8281b12fc950",
          "Value": "9da17d88-7f99-4cab-a609-9928c0a69261",
          "DisplayValue": "Student Mobility"
        }
      ]
    },
    {
      "Row": [
        {
          "SchemaColumnUId": "ae0e45ca-c495-4fe7-a39d-3ab7278e1617",
          "Value": "f8ace2a0-fdb4-4046-af3c-8ca488cb848c"
        },
        {
          "SchemaColumnUId": "1e6fcaf1-3eef-559c-6a76-b94b8903d94e",
          "Value": "5e3f3a51-89f4-47be-a5a8-f5e5303e1292",
          "DisplayValue": "what Current/expected outcomes and strategic alignment"
        },
        {
          "SchemaColumnUId": "a75734b7-048c-d8ab-578d-cf7a604b725a",
          "Value": "9-Strategic Partnership"
        },
        {
          "SchemaColumnUId": "df5d4044-b766-c589-e1b6-8281b12fc950",
          "Value": "ab7596e6-5575-454d-bef6-57be8fa484bd",
          "DisplayValue": "Strategic Partnership"
        }
      ]
    },
    {
      "Row": [
        {
          "SchemaColumnUId": "ae0e45ca-c495-4fe7-a39d-3ab7278e1617",
          "Value": "f8f50f3f-62ad-4164-bc8f-92318ea99b20"
        },
        {
          "SchemaColumnUId": "1e6fcaf1-3eef-559c-6a76-b94b8903d94e",
          "Value": "a2916a6a-8f46-4f56-8d21-18293861d254",
          "DisplayValue": "Please provide any relevant feedback for Waterloo International's consideration."
        },
        {
          "SchemaColumnUId": "a75734b7-048c-d8ab-578d-cf7a604b725a",
          "Value": "14-Other"
        },
        {
          "SchemaColumnUId": "df5d4044-b766-c589-e1b6-8281b12fc950",
          "Value": "2f6032a4-58ae-470e-967d-2af7578165f5",
          "DisplayValue": "Other"
        }
      ]
    },
    {
      "Row": [
        {
          "SchemaColumnUId": "ae0e45ca-c495-4fe7-a39d-3ab7278e1617",
          "Value": "fb6e917d-e7ee-4830-8d8d-d9065acb703b"
        },
        {
          "SchemaColumnUId": "1e6fcaf1-3eef-559c-6a76-b94b8903d94e",
          "Value": "a5f6fdf6-aaeb-4830-8c24-e8c7189577c1",
          "DisplayValue": "Would your faculty like to participate in this partnership (yes/no)?"
        },
        {
          "SchemaColumnUId": "a75734b7-048c-d8ab-578d-cf7a604b725a",
          "Value": "1-MOU"
        },
        {
          "SchemaColumnUId": "df5d4044-b766-c589-e1b6-8281b12fc950",
          "Value": "16257282-5967-4b4e-ab6c-9805cf300fdb",
          "DisplayValue": "MOU"
        }
      ]
    },
    {
      "Row": [
        {
          "SchemaColumnUId": "ae0e45ca-c495-4fe7-a39d-3ab7278e1617",
          "Value": "fd62e822-a1c1-40b1-9391-6187737245f2"
        },
        {
          "SchemaColumnUId": "1e6fcaf1-3eef-559c-6a76-b94b8903d94e",
          "Value": "dc3fe619-09ee-4a6b-98b0-6e5581ff34d0",
          "DisplayValue": "If no, please provide rational for why? (operational feasibility, research alignment, academic alignment, student interest etc.)"
        },
        {
          "SchemaColumnUId": "a75734b7-048c-d8ab-578d-cf7a604b725a",
          "Value": "2-Strategic Partnership"
        },
        {
          "SchemaColumnUId": "df5d4044-b766-c589-e1b6-8281b12fc950",
          "Value": "ab7596e6-5575-454d-bef6-57be8fa484bd",
          "DisplayValue": "Strategic Partnership"
        }
      ]
    },
    {
      "Row": [
        {
          "SchemaColumnUId": "ae0e45ca-c495-4fe7-a39d-3ab7278e1617",
          "Value": "fe20c407-d18d-4ca2-b0d6-bdf791055729"
        },
        {
          "SchemaColumnUId": "1e6fcaf1-3eef-559c-6a76-b94b8903d94e",
          "Value": "dc3fe619-09ee-4a6b-98b0-6e5581ff34d0",
          "DisplayValue": "If no, please provide rational for why? (operational feasibility, research alignment, academic alignment, student interest etc.)"
        },
        {
          "SchemaColumnUId": "a75734b7-048c-d8ab-578d-cf7a604b725a",
          "Value": "2-Joint Academic"
        },
        {
          "SchemaColumnUId": "df5d4044-b766-c589-e1b6-8281b12fc950",
          "Value": "22f47e79-2f60-404a-a4de-20ee3e9834fb",
          "DisplayValue": "Joint Academic"
        }
      ]
    }
  ]
}