﻿{
  "PackageData": [
    {
      "Row": [
        {
          "SchemaColumnUId": "ae0e45ca-c495-4fe7-a39d-3ab7278e1617",
          "Value": "0a9683a1-a5a8-4bb0-802e-593d55619ed0"
        },
        {
          "SchemaColumnUId": "134c280f-f7a7-4ac5-beeb-4ab1ed9e4ff5",
          "Value": "5bff9d6c-9d07-4b73-b4fa-d2943f1b1b68"
        },
        {
          "SchemaColumnUId": "21a61238-45dc-4089-9882-cc1be097cbf8",
          "Value": true
        },
        {
          "SchemaColumnUId": "2cda2c20-d48a-44d0-b266-5542730b1ad9",
          "Value": true
        },
        {
          "SchemaColumnUId": "379b41a2-dfb5-4069-a267-88ec0653e391",
          "Value": true
        },
        {
          "SchemaColumnUId": "a3dc68d6-f74e-4a57-8411-77a88dfe0bbb",
          "Value": true
        },
        {
          "SchemaColumnUId": "a72532ba-4755-4b2f-8079-c382ae6d0e9a",
          "Value": 0
        },
        {
          "SchemaColumnUId": "d27e9964-a7a6-46dd-9f9a-7cb470c33b98",
          "Value": "720b771c-e7a7-4f31-9cfb-52cd21c3739f",
          "DisplayValue": "All portal users"
        }
      ]
    },
    {
      "Row": [
        {
          "SchemaColumnUId": "ae0e45ca-c495-4fe7-a39d-3ab7278e1617",
          "Value": "0c508fde-1fe1-4de8-a8cc-3eb644172744"
        },
        {
          "SchemaColumnUId": "134c280f-f7a7-4ac5-beeb-4ab1ed9e4ff5",
          "Value": "35cb9575-002b-42c5-bd5c-44b1cbf1583c"
        },
        {
          "SchemaColumnUId": "21a61238-45dc-4089-9882-cc1be097cbf8",
          "Value": true
        },
        {
          "SchemaColumnUId": "2cda2c20-d48a-44d0-b266-5542730b1ad9",
          "Value": true
        },
        {
          "SchemaColumnUId": "379b41a2-dfb5-4069-a267-88ec0653e391",
          "Value": true
        },
        {
          "SchemaColumnUId": "a3dc68d6-f74e-4a57-8411-77a88dfe0bbb",
          "Value": true
        },
        {
          "SchemaColumnUId": "a72532ba-4755-4b2f-8079-c382ae6d0e9a",
          "Value": 1
        },
        {
          "SchemaColumnUId": "d27e9964-a7a6-46dd-9f9a-7cb470c33b98",
          "Value": "a29a3ba5-4b0d-de11-9a51-005056c00008",
          "DisplayValue": "All employees"
        }
      ]
    },
    {
      "Row": [
        {
          "SchemaColumnUId": "ae0e45ca-c495-4fe7-a39d-3ab7278e1617",
          "Value": "11589071-7f7f-4084-8f0c-e5eeedfe0bd5"
        },
        {
          "SchemaColumnUId": "134c280f-f7a7-4ac5-beeb-4ab1ed9e4ff5",
          "Value": "964df898-6151-4347-96b9-2bb4f1f2b145"
        },
        {
          "SchemaColumnUId": "21a61238-45dc-4089-9882-cc1be097cbf8",
          "Value": true
        },
        {
          "SchemaColumnUId": "2cda2c20-d48a-44d0-b266-5542730b1ad9",
          "Value": true
        },
        {
          "SchemaColumnUId": "379b41a2-dfb5-4069-a267-88ec0653e391",
          "Value": true
        },
        {
          "SchemaColumnUId": "a3dc68d6-f74e-4a57-8411-77a88dfe0bbb",
          "Value": true
        },
        {
          "SchemaColumnUId": "a72532ba-4755-4b2f-8079-c382ae6d0e9a",
          "Value": 0
        },
        {
          "SchemaColumnUId": "d27e9964-a7a6-46dd-9f9a-7cb470c33b98",
          "Value": "720b771c-e7a7-4f31-9cfb-52cd21c3739f",
          "DisplayValue": "All portal users"
        }
      ]
    },
    {
      "Row": [
        {
          "SchemaColumnUId": "ae0e45ca-c495-4fe7-a39d-3ab7278e1617",
          "Value": "12131d44-c8c7-47c5-a722-c86ef459fd84"
        },
        {
          "SchemaColumnUId": "134c280f-f7a7-4ac5-beeb-4ab1ed9e4ff5",
          "Value": "98ff7e0c-79a2-4e0e-83ce-41649a2c0b66"
        },
        {
          "SchemaColumnUId": "21a61238-45dc-4089-9882-cc1be097cbf8",
          "Value": true
        },
        {
          "SchemaColumnUId": "2cda2c20-d48a-44d0-b266-5542730b1ad9",
          "Value": true
        },
        {
          "SchemaColumnUId": "379b41a2-dfb5-4069-a267-88ec0653e391",
          "Value": true
        },
        {
          "SchemaColumnUId": "a3dc68d6-f74e-4a57-8411-77a88dfe0bbb",
          "Value": true
        },
        {
          "SchemaColumnUId": "a72532ba-4755-4b2f-8079-c382ae6d0e9a",
          "Value": 0
        },
        {
          "SchemaColumnUId": "d27e9964-a7a6-46dd-9f9a-7cb470c33b98",
          "Value": "720b771c-e7a7-4f31-9cfb-52cd21c3739f",
          "DisplayValue": "All portal users"
        }
      ]
    },
    {
      "Row": [
        {
          "SchemaColumnUId": "ae0e45ca-c495-4fe7-a39d-3ab7278e1617",
          "Value": "15fc8783-56a2-43b6-b05b-74c9e3750089"
        },
        {
          "SchemaColumnUId": "134c280f-f7a7-4ac5-beeb-4ab1ed9e4ff5",
          "Value": "30398d81-7a67-48d4-a60b-840274dd9929"
        },
        {
          "SchemaColumnUId": "21a61238-45dc-4089-9882-cc1be097cbf8",
          "Value": true
        },
        {
          "SchemaColumnUId": "2cda2c20-d48a-44d0-b266-5542730b1ad9",
          "Value": true
        },
        {
          "SchemaColumnUId": "379b41a2-dfb5-4069-a267-88ec0653e391",
          "Value": true
        },
        {
          "SchemaColumnUId": "a3dc68d6-f74e-4a57-8411-77a88dfe0bbb",
          "Value": true
        },
        {
          "SchemaColumnUId": "a72532ba-4755-4b2f-8079-c382ae6d0e9a",
          "Value": 1
        },
        {
          "SchemaColumnUId": "d27e9964-a7a6-46dd-9f9a-7cb470c33b98",
          "Value": "a29a3ba5-4b0d-de11-9a51-005056c00008",
          "DisplayValue": "All employees"
        }
      ]
    },
    {
      "Row": [
        {
          "SchemaColumnUId": "ae0e45ca-c495-4fe7-a39d-3ab7278e1617",
          "Value": "2112258a-7a0e-4808-ad6c-2c1dabf48f16"
        },
        {
          "SchemaColumnUId": "134c280f-f7a7-4ac5-beeb-4ab1ed9e4ff5",
          "Value": "964df898-6151-4347-96b9-2bb4f1f2b145"
        },
        {
          "SchemaColumnUId": "21a61238-45dc-4089-9882-cc1be097cbf8",
          "Value": true
        },
        {
          "SchemaColumnUId": "2cda2c20-d48a-44d0-b266-5542730b1ad9",
          "Value": true
        },
        {
          "SchemaColumnUId": "379b41a2-dfb5-4069-a267-88ec0653e391",
          "Value": true
        },
        {
          "SchemaColumnUId": "a3dc68d6-f74e-4a57-8411-77a88dfe0bbb",
          "Value": true
        },
        {
          "SchemaColumnUId": "a72532ba-4755-4b2f-8079-c382ae6d0e9a",
          "Value": 1
        },
        {
          "SchemaColumnUId": "d27e9964-a7a6-46dd-9f9a-7cb470c33b98",
          "Value": "a29a3ba5-4b0d-de11-9a51-005056c00008",
          "DisplayValue": "All employees"
        }
      ]
    },
    {
      "Row": [
        {
          "SchemaColumnUId": "ae0e45ca-c495-4fe7-a39d-3ab7278e1617",
          "Value": "21b48980-0ff6-4199-817f-73400ea8af93"
        },
        {
          "SchemaColumnUId": "134c280f-f7a7-4ac5-beeb-4ab1ed9e4ff5",
          "Value": "1752cfaa-dfe3-44b4-ad98-44b186f2e115"
        },
        {
          "SchemaColumnUId": "21a61238-45dc-4089-9882-cc1be097cbf8",
          "Value": true
        },
        {
          "SchemaColumnUId": "2cda2c20-d48a-44d0-b266-5542730b1ad9",
          "Value": true
        },
        {
          "SchemaColumnUId": "379b41a2-dfb5-4069-a267-88ec0653e391",
          "Value": true
        },
        {
          "SchemaColumnUId": "a3dc68d6-f74e-4a57-8411-77a88dfe0bbb",
          "Value": true
        },
        {
          "SchemaColumnUId": "a72532ba-4755-4b2f-8079-c382ae6d0e9a",
          "Value": 1
        },
        {
          "SchemaColumnUId": "d27e9964-a7a6-46dd-9f9a-7cb470c33b98",
          "Value": "a29a3ba5-4b0d-de11-9a51-005056c00008",
          "DisplayValue": "All employees"
        }
      ]
    },
    {
      "Row": [
        {
          "SchemaColumnUId": "ae0e45ca-c495-4fe7-a39d-3ab7278e1617",
          "Value": "2451e854-03eb-40e2-af33-dea05bdfb8e0"
        },
        {
          "SchemaColumnUId": "134c280f-f7a7-4ac5-beeb-4ab1ed9e4ff5",
          "Value": "320df743-3859-42ab-846e-d598464cd4c4"
        },
        {
          "SchemaColumnUId": "21a61238-45dc-4089-9882-cc1be097cbf8",
          "Value": true
        },
        {
          "SchemaColumnUId": "2cda2c20-d48a-44d0-b266-5542730b1ad9",
          "Value": true
        },
        {
          "SchemaColumnUId": "379b41a2-dfb5-4069-a267-88ec0653e391",
          "Value": true
        },
        {
          "SchemaColumnUId": "a3dc68d6-f74e-4a57-8411-77a88dfe0bbb",
          "Value": true
        },
        {
          "SchemaColumnUId": "a72532ba-4755-4b2f-8079-c382ae6d0e9a",
          "Value": 1
        },
        {
          "SchemaColumnUId": "d27e9964-a7a6-46dd-9f9a-7cb470c33b98",
          "Value": "720b771c-e7a7-4f31-9cfb-52cd21c3739f",
          "DisplayValue": "All portal users"
        }
      ]
    },
    {
      "Row": [
        {
          "SchemaColumnUId": "ae0e45ca-c495-4fe7-a39d-3ab7278e1617",
          "Value": "30c5a40a-6044-4f50-91ba-525c96aaa42a"
        },
        {
          "SchemaColumnUId": "134c280f-f7a7-4ac5-beeb-4ab1ed9e4ff5",
          "Value": "29492702-cbc6-4e76-9d0e-fb12535b2008"
        },
        {
          "SchemaColumnUId": "21a61238-45dc-4089-9882-cc1be097cbf8",
          "Value": true
        },
        {
          "SchemaColumnUId": "2cda2c20-d48a-44d0-b266-5542730b1ad9",
          "Value": true
        },
        {
          "SchemaColumnUId": "379b41a2-dfb5-4069-a267-88ec0653e391",
          "Value": true
        },
        {
          "SchemaColumnUId": "a3dc68d6-f74e-4a57-8411-77a88dfe0bbb",
          "Value": true
        },
        {
          "SchemaColumnUId": "a72532ba-4755-4b2f-8079-c382ae6d0e9a",
          "Value": 1
        },
        {
          "SchemaColumnUId": "d27e9964-a7a6-46dd-9f9a-7cb470c33b98",
          "Value": "720b771c-e7a7-4f31-9cfb-52cd21c3739f",
          "DisplayValue": "All portal users"
        }
      ]
    },
    {
      "Row": [
        {
          "SchemaColumnUId": "ae0e45ca-c495-4fe7-a39d-3ab7278e1617",
          "Value": "40243271-bbf4-4f84-9545-5987db40a505"
        },
        {
          "SchemaColumnUId": "134c280f-f7a7-4ac5-beeb-4ab1ed9e4ff5",
          "Value": "4d2f39f1-2479-4786-ab03-ff6d4aa00841"
        },
        {
          "SchemaColumnUId": "21a61238-45dc-4089-9882-cc1be097cbf8",
          "Value": true
        },
        {
          "SchemaColumnUId": "2cda2c20-d48a-44d0-b266-5542730b1ad9",
          "Value": true
        },
        {
          "SchemaColumnUId": "379b41a2-dfb5-4069-a267-88ec0653e391",
          "Value": true
        },
        {
          "SchemaColumnUId": "a3dc68d6-f74e-4a57-8411-77a88dfe0bbb",
          "Value": true
        },
        {
          "SchemaColumnUId": "a72532ba-4755-4b2f-8079-c382ae6d0e9a",
          "Value": 0
        },
        {
          "SchemaColumnUId": "d27e9964-a7a6-46dd-9f9a-7cb470c33b98",
          "Value": "720b771c-e7a7-4f31-9cfb-52cd21c3739f",
          "DisplayValue": "All portal users"
        }
      ]
    },
    {
      "Row": [
        {
          "SchemaColumnUId": "ae0e45ca-c495-4fe7-a39d-3ab7278e1617",
          "Value": "479aea2e-0008-4433-9bab-d0425b5c8425"
        },
        {
          "SchemaColumnUId": "134c280f-f7a7-4ac5-beeb-4ab1ed9e4ff5",
          "Value": "f14221ba-b009-4e40-bc36-de79c936856e"
        },
        {
          "SchemaColumnUId": "21a61238-45dc-4089-9882-cc1be097cbf8",
          "Value": true
        },
        {
          "SchemaColumnUId": "2cda2c20-d48a-44d0-b266-5542730b1ad9",
          "Value": true
        },
        {
          "SchemaColumnUId": "379b41a2-dfb5-4069-a267-88ec0653e391",
          "Value": true
        },
        {
          "SchemaColumnUId": "a3dc68d6-f74e-4a57-8411-77a88dfe0bbb",
          "Value": true
        },
        {
          "SchemaColumnUId": "a72532ba-4755-4b2f-8079-c382ae6d0e9a",
          "Value": 0
        },
        {
          "SchemaColumnUId": "d27e9964-a7a6-46dd-9f9a-7cb470c33b98",
          "Value": "720b771c-e7a7-4f31-9cfb-52cd21c3739f",
          "DisplayValue": "All portal users"
        }
      ]
    },
    {
      "Row": [
        {
          "SchemaColumnUId": "ae0e45ca-c495-4fe7-a39d-3ab7278e1617",
          "Value": "48aa84ca-7b53-4e98-9ee5-4faaf154940d"
        },
        {
          "SchemaColumnUId": "134c280f-f7a7-4ac5-beeb-4ab1ed9e4ff5",
          "Value": "7b72d7ec-6a94-4a69-8d74-077db4820706"
        },
        {
          "SchemaColumnUId": "21a61238-45dc-4089-9882-cc1be097cbf8",
          "Value": true
        },
        {
          "SchemaColumnUId": "2cda2c20-d48a-44d0-b266-5542730b1ad9",
          "Value": true
        },
        {
          "SchemaColumnUId": "379b41a2-dfb5-4069-a267-88ec0653e391",
          "Value": true
        },
        {
          "SchemaColumnUId": "a3dc68d6-f74e-4a57-8411-77a88dfe0bbb",
          "Value": true
        },
        {
          "SchemaColumnUId": "a72532ba-4755-4b2f-8079-c382ae6d0e9a",
          "Value": 0
        },
        {
          "SchemaColumnUId": "d27e9964-a7a6-46dd-9f9a-7cb470c33b98",
          "Value": "a29a3ba5-4b0d-de11-9a51-005056c00008",
          "DisplayValue": "All employees"
        }
      ]
    },
    {
      "Row": [
        {
          "SchemaColumnUId": "ae0e45ca-c495-4fe7-a39d-3ab7278e1617",
          "Value": "54042c3c-4f69-426b-af81-95b2e99a23e3"
        },
        {
          "SchemaColumnUId": "134c280f-f7a7-4ac5-beeb-4ab1ed9e4ff5",
          "Value": "320df743-3859-42ab-846e-d598464cd4c4"
        },
        {
          "SchemaColumnUId": "21a61238-45dc-4089-9882-cc1be097cbf8",
          "Value": true
        },
        {
          "SchemaColumnUId": "2cda2c20-d48a-44d0-b266-5542730b1ad9",
          "Value": true
        },
        {
          "SchemaColumnUId": "379b41a2-dfb5-4069-a267-88ec0653e391",
          "Value": true
        },
        {
          "SchemaColumnUId": "a3dc68d6-f74e-4a57-8411-77a88dfe0bbb",
          "Value": true
        },
        {
          "SchemaColumnUId": "a72532ba-4755-4b2f-8079-c382ae6d0e9a",
          "Value": 0
        },
        {
          "SchemaColumnUId": "d27e9964-a7a6-46dd-9f9a-7cb470c33b98",
          "Value": "a29a3ba5-4b0d-de11-9a51-005056c00008",
          "DisplayValue": "All employees"
        }
      ]
    },
    {
      "Row": [
        {
          "SchemaColumnUId": "ae0e45ca-c495-4fe7-a39d-3ab7278e1617",
          "Value": "57f7b3a3-c3be-46f7-b73f-a07f0f5fe7cd"
        },
        {
          "SchemaColumnUId": "134c280f-f7a7-4ac5-beeb-4ab1ed9e4ff5",
          "Value": "4d2f39f1-2479-4786-ab03-ff6d4aa00841"
        },
        {
          "SchemaColumnUId": "21a61238-45dc-4089-9882-cc1be097cbf8",
          "Value": true
        },
        {
          "SchemaColumnUId": "2cda2c20-d48a-44d0-b266-5542730b1ad9",
          "Value": true
        },
        {
          "SchemaColumnUId": "379b41a2-dfb5-4069-a267-88ec0653e391",
          "Value": true
        },
        {
          "SchemaColumnUId": "a3dc68d6-f74e-4a57-8411-77a88dfe0bbb",
          "Value": true
        },
        {
          "SchemaColumnUId": "a72532ba-4755-4b2f-8079-c382ae6d0e9a",
          "Value": 1
        },
        {
          "SchemaColumnUId": "d27e9964-a7a6-46dd-9f9a-7cb470c33b98",
          "Value": "a29a3ba5-4b0d-de11-9a51-005056c00008",
          "DisplayValue": "All employees"
        }
      ]
    },
    {
      "Row": [
        {
          "SchemaColumnUId": "ae0e45ca-c495-4fe7-a39d-3ab7278e1617",
          "Value": "74bbdc5a-d549-405f-90de-f2cb77a3f243"
        },
        {
          "SchemaColumnUId": "134c280f-f7a7-4ac5-beeb-4ab1ed9e4ff5",
          "Value": "217e8ae5-f625-4908-85fa-9855cb8c2556"
        },
        {
          "SchemaColumnUId": "21a61238-45dc-4089-9882-cc1be097cbf8",
          "Value": true
        },
        {
          "SchemaColumnUId": "2cda2c20-d48a-44d0-b266-5542730b1ad9",
          "Value": true
        },
        {
          "SchemaColumnUId": "379b41a2-dfb5-4069-a267-88ec0653e391",
          "Value": true
        },
        {
          "SchemaColumnUId": "a3dc68d6-f74e-4a57-8411-77a88dfe0bbb",
          "Value": true
        },
        {
          "SchemaColumnUId": "a72532ba-4755-4b2f-8079-c382ae6d0e9a",
          "Value": 0
        },
        {
          "SchemaColumnUId": "d27e9964-a7a6-46dd-9f9a-7cb470c33b98",
          "Value": "a29a3ba5-4b0d-de11-9a51-005056c00008",
          "DisplayValue": "All employees"
        }
      ]
    },
    {
      "Row": [
        {
          "SchemaColumnUId": "ae0e45ca-c495-4fe7-a39d-3ab7278e1617",
          "Value": "752609e8-97c3-4e95-9f4c-7d2ae0c529cc"
        },
        {
          "SchemaColumnUId": "134c280f-f7a7-4ac5-beeb-4ab1ed9e4ff5",
          "Value": "5bff9d6c-9d07-4b73-b4fa-d2943f1b1b68"
        },
        {
          "SchemaColumnUId": "21a61238-45dc-4089-9882-cc1be097cbf8",
          "Value": true
        },
        {
          "SchemaColumnUId": "2cda2c20-d48a-44d0-b266-5542730b1ad9",
          "Value": true
        },
        {
          "SchemaColumnUId": "379b41a2-dfb5-4069-a267-88ec0653e391",
          "Value": true
        },
        {
          "SchemaColumnUId": "a3dc68d6-f74e-4a57-8411-77a88dfe0bbb",
          "Value": true
        },
        {
          "SchemaColumnUId": "a72532ba-4755-4b2f-8079-c382ae6d0e9a",
          "Value": 1
        },
        {
          "SchemaColumnUId": "d27e9964-a7a6-46dd-9f9a-7cb470c33b98",
          "Value": "a29a3ba5-4b0d-de11-9a51-005056c00008",
          "DisplayValue": "All employees"
        }
      ]
    },
    {
      "Row": [
        {
          "SchemaColumnUId": "ae0e45ca-c495-4fe7-a39d-3ab7278e1617",
          "Value": "8ab321c1-780c-4509-8f84-1fa6bed9bdd0"
        },
        {
          "SchemaColumnUId": "134c280f-f7a7-4ac5-beeb-4ab1ed9e4ff5",
          "Value": "b563ffc4-8577-42d6-a013-21137618d255"
        },
        {
          "SchemaColumnUId": "21a61238-45dc-4089-9882-cc1be097cbf8",
          "Value": true
        },
        {
          "SchemaColumnUId": "2cda2c20-d48a-44d0-b266-5542730b1ad9",
          "Value": true
        },
        {
          "SchemaColumnUId": "379b41a2-dfb5-4069-a267-88ec0653e391",
          "Value": true
        },
        {
          "SchemaColumnUId": "a3dc68d6-f74e-4a57-8411-77a88dfe0bbb",
          "Value": true
        },
        {
          "SchemaColumnUId": "a72532ba-4755-4b2f-8079-c382ae6d0e9a",
          "Value": 1
        },
        {
          "SchemaColumnUId": "d27e9964-a7a6-46dd-9f9a-7cb470c33b98",
          "Value": "720b771c-e7a7-4f31-9cfb-52cd21c3739f",
          "DisplayValue": "All portal users"
        }
      ]
    },
    {
      "Row": [
        {
          "SchemaColumnUId": "ae0e45ca-c495-4fe7-a39d-3ab7278e1617",
          "Value": "8b0a9c3e-8631-4c39-8eba-f9506d92efa4"
        },
        {
          "SchemaColumnUId": "134c280f-f7a7-4ac5-beeb-4ab1ed9e4ff5",
          "Value": "7b72d7ec-6a94-4a69-8d74-077db4820706"
        },
        {
          "SchemaColumnUId": "21a61238-45dc-4089-9882-cc1be097cbf8",
          "Value": true
        },
        {
          "SchemaColumnUId": "2cda2c20-d48a-44d0-b266-5542730b1ad9",
          "Value": true
        },
        {
          "SchemaColumnUId": "379b41a2-dfb5-4069-a267-88ec0653e391",
          "Value": true
        },
        {
          "SchemaColumnUId": "a3dc68d6-f74e-4a57-8411-77a88dfe0bbb",
          "Value": true
        },
        {
          "SchemaColumnUId": "a72532ba-4755-4b2f-8079-c382ae6d0e9a",
          "Value": 1
        },
        {
          "SchemaColumnUId": "d27e9964-a7a6-46dd-9f9a-7cb470c33b98",
          "Value": "720b771c-e7a7-4f31-9cfb-52cd21c3739f",
          "DisplayValue": "All portal users"
        }
      ]
    },
    {
      "Row": [
        {
          "SchemaColumnUId": "ae0e45ca-c495-4fe7-a39d-3ab7278e1617",
          "Value": "8d237e89-2c74-43a4-acb7-eccecd3f9af9"
        },
        {
          "SchemaColumnUId": "134c280f-f7a7-4ac5-beeb-4ab1ed9e4ff5",
          "Value": "f14221ba-b009-4e40-bc36-de79c936856e"
        },
        {
          "SchemaColumnUId": "21a61238-45dc-4089-9882-cc1be097cbf8",
          "Value": true
        },
        {
          "SchemaColumnUId": "2cda2c20-d48a-44d0-b266-5542730b1ad9",
          "Value": true
        },
        {
          "SchemaColumnUId": "379b41a2-dfb5-4069-a267-88ec0653e391",
          "Value": true
        },
        {
          "SchemaColumnUId": "a3dc68d6-f74e-4a57-8411-77a88dfe0bbb",
          "Value": true
        },
        {
          "SchemaColumnUId": "a72532ba-4755-4b2f-8079-c382ae6d0e9a",
          "Value": 1
        },
        {
          "SchemaColumnUId": "d27e9964-a7a6-46dd-9f9a-7cb470c33b98",
          "Value": "a29a3ba5-4b0d-de11-9a51-005056c00008",
          "DisplayValue": "All employees"
        }
      ]
    },
    {
      "Row": [
        {
          "SchemaColumnUId": "ae0e45ca-c495-4fe7-a39d-3ab7278e1617",
          "Value": "903109b5-9613-4bb3-8b7c-334fb1f30986"
        },
        {
          "SchemaColumnUId": "134c280f-f7a7-4ac5-beeb-4ab1ed9e4ff5",
          "Value": "30398d81-7a67-48d4-a60b-840274dd9929"
        },
        {
          "SchemaColumnUId": "21a61238-45dc-4089-9882-cc1be097cbf8",
          "Value": true
        },
        {
          "SchemaColumnUId": "2cda2c20-d48a-44d0-b266-5542730b1ad9",
          "Value": true
        },
        {
          "SchemaColumnUId": "379b41a2-dfb5-4069-a267-88ec0653e391",
          "Value": true
        },
        {
          "SchemaColumnUId": "a3dc68d6-f74e-4a57-8411-77a88dfe0bbb",
          "Value": true
        },
        {
          "SchemaColumnUId": "a72532ba-4755-4b2f-8079-c382ae6d0e9a",
          "Value": 0
        },
        {
          "SchemaColumnUId": "d27e9964-a7a6-46dd-9f9a-7cb470c33b98",
          "Value": "720b771c-e7a7-4f31-9cfb-52cd21c3739f",
          "DisplayValue": "All portal users"
        }
      ]
    },
    {
      "Row": [
        {
          "SchemaColumnUId": "ae0e45ca-c495-4fe7-a39d-3ab7278e1617",
          "Value": "919effd2-4613-4af9-abc5-71fda9604caf"
        },
        {
          "SchemaColumnUId": "134c280f-f7a7-4ac5-beeb-4ab1ed9e4ff5",
          "Value": "2b1b2cfb-7dd9-4d60-956d-3696601f1f77"
        },
        {
          "SchemaColumnUId": "21a61238-45dc-4089-9882-cc1be097cbf8",
          "Value": true
        },
        {
          "SchemaColumnUId": "2cda2c20-d48a-44d0-b266-5542730b1ad9",
          "Value": true
        },
        {
          "SchemaColumnUId": "379b41a2-dfb5-4069-a267-88ec0653e391",
          "Value": true
        },
        {
          "SchemaColumnUId": "a3dc68d6-f74e-4a57-8411-77a88dfe0bbb",
          "Value": true
        },
        {
          "SchemaColumnUId": "a72532ba-4755-4b2f-8079-c382ae6d0e9a",
          "Value": 0
        },
        {
          "SchemaColumnUId": "d27e9964-a7a6-46dd-9f9a-7cb470c33b98",
          "Value": "a29a3ba5-4b0d-de11-9a51-005056c00008",
          "DisplayValue": "All employees"
        }
      ]
    },
    {
      "Row": [
        {
          "SchemaColumnUId": "ae0e45ca-c495-4fe7-a39d-3ab7278e1617",
          "Value": "d507f457-a9a6-4a0d-9e91-2618b30f6830"
        },
        {
          "SchemaColumnUId": "134c280f-f7a7-4ac5-beeb-4ab1ed9e4ff5",
          "Value": "98ff7e0c-79a2-4e0e-83ce-41649a2c0b66"
        },
        {
          "SchemaColumnUId": "21a61238-45dc-4089-9882-cc1be097cbf8",
          "Value": true
        },
        {
          "SchemaColumnUId": "2cda2c20-d48a-44d0-b266-5542730b1ad9",
          "Value": true
        },
        {
          "SchemaColumnUId": "379b41a2-dfb5-4069-a267-88ec0653e391",
          "Value": true
        },
        {
          "SchemaColumnUId": "a3dc68d6-f74e-4a57-8411-77a88dfe0bbb",
          "Value": true
        },
        {
          "SchemaColumnUId": "a72532ba-4755-4b2f-8079-c382ae6d0e9a",
          "Value": 1
        },
        {
          "SchemaColumnUId": "d27e9964-a7a6-46dd-9f9a-7cb470c33b98",
          "Value": "a29a3ba5-4b0d-de11-9a51-005056c00008",
          "DisplayValue": "All employees"
        }
      ]
    },
    {
      "Row": [
        {
          "SchemaColumnUId": "ae0e45ca-c495-4fe7-a39d-3ab7278e1617",
          "Value": "d6aaf6be-c1a4-47f0-b46a-7791e92df34e"
        },
        {
          "SchemaColumnUId": "134c280f-f7a7-4ac5-beeb-4ab1ed9e4ff5",
          "Value": "2b1b2cfb-7dd9-4d60-956d-3696601f1f77"
        },
        {
          "SchemaColumnUId": "21a61238-45dc-4089-9882-cc1be097cbf8",
          "Value": true
        },
        {
          "SchemaColumnUId": "2cda2c20-d48a-44d0-b266-5542730b1ad9",
          "Value": true
        },
        {
          "SchemaColumnUId": "379b41a2-dfb5-4069-a267-88ec0653e391",
          "Value": true
        },
        {
          "SchemaColumnUId": "a3dc68d6-f74e-4a57-8411-77a88dfe0bbb",
          "Value": true
        },
        {
          "SchemaColumnUId": "a72532ba-4755-4b2f-8079-c382ae6d0e9a",
          "Value": 1
        },
        {
          "SchemaColumnUId": "d27e9964-a7a6-46dd-9f9a-7cb470c33b98",
          "Value": "720b771c-e7a7-4f31-9cfb-52cd21c3739f",
          "DisplayValue": "All portal users"
        }
      ]
    },
    {
      "Row": [
        {
          "SchemaColumnUId": "ae0e45ca-c495-4fe7-a39d-3ab7278e1617",
          "Value": "da28dbf2-ae26-45b1-a2cd-adb54bcfe7be"
        },
        {
          "SchemaColumnUId": "134c280f-f7a7-4ac5-beeb-4ab1ed9e4ff5",
          "Value": "217e8ae5-f625-4908-85fa-9855cb8c2556"
        },
        {
          "SchemaColumnUId": "21a61238-45dc-4089-9882-cc1be097cbf8",
          "Value": true
        },
        {
          "SchemaColumnUId": "2cda2c20-d48a-44d0-b266-5542730b1ad9",
          "Value": true
        },
        {
          "SchemaColumnUId": "379b41a2-dfb5-4069-a267-88ec0653e391",
          "Value": true
        },
        {
          "SchemaColumnUId": "a3dc68d6-f74e-4a57-8411-77a88dfe0bbb",
          "Value": true
        },
        {
          "SchemaColumnUId": "a72532ba-4755-4b2f-8079-c382ae6d0e9a",
          "Value": 1
        },
        {
          "SchemaColumnUId": "d27e9964-a7a6-46dd-9f9a-7cb470c33b98",
          "Value": "720b771c-e7a7-4f31-9cfb-52cd21c3739f",
          "DisplayValue": "All portal users"
        }
      ]
    },
    {
      "Row": [
        {
          "SchemaColumnUId": "ae0e45ca-c495-4fe7-a39d-3ab7278e1617",
          "Value": "dee7c2f0-105e-49f5-a398-01dbd1dc1c34"
        },
        {
          "SchemaColumnUId": "134c280f-f7a7-4ac5-beeb-4ab1ed9e4ff5",
          "Value": "1752cfaa-dfe3-44b4-ad98-44b186f2e115"
        },
        {
          "SchemaColumnUId": "21a61238-45dc-4089-9882-cc1be097cbf8",
          "Value": true
        },
        {
          "SchemaColumnUId": "2cda2c20-d48a-44d0-b266-5542730b1ad9",
          "Value": true
        },
        {
          "SchemaColumnUId": "379b41a2-dfb5-4069-a267-88ec0653e391",
          "Value": true
        },
        {
          "SchemaColumnUId": "a3dc68d6-f74e-4a57-8411-77a88dfe0bbb",
          "Value": true
        },
        {
          "SchemaColumnUId": "a72532ba-4755-4b2f-8079-c382ae6d0e9a",
          "Value": 0
        },
        {
          "SchemaColumnUId": "d27e9964-a7a6-46dd-9f9a-7cb470c33b98",
          "Value": "720b771c-e7a7-4f31-9cfb-52cd21c3739f",
          "DisplayValue": "All portal users"
        }
      ]
    },
    {
      "Row": [
        {
          "SchemaColumnUId": "ae0e45ca-c495-4fe7-a39d-3ab7278e1617",
          "Value": "e602fd5c-221f-4511-b5d1-4618ff3e148f"
        },
        {
          "SchemaColumnUId": "134c280f-f7a7-4ac5-beeb-4ab1ed9e4ff5",
          "Value": "29492702-cbc6-4e76-9d0e-fb12535b2008"
        },
        {
          "SchemaColumnUId": "21a61238-45dc-4089-9882-cc1be097cbf8",
          "Value": true
        },
        {
          "SchemaColumnUId": "2cda2c20-d48a-44d0-b266-5542730b1ad9",
          "Value": true
        },
        {
          "SchemaColumnUId": "379b41a2-dfb5-4069-a267-88ec0653e391",
          "Value": true
        },
        {
          "SchemaColumnUId": "a3dc68d6-f74e-4a57-8411-77a88dfe0bbb",
          "Value": true
        },
        {
          "SchemaColumnUId": "a72532ba-4755-4b2f-8079-c382ae6d0e9a",
          "Value": 0
        },
        {
          "SchemaColumnUId": "d27e9964-a7a6-46dd-9f9a-7cb470c33b98",
          "Value": "a29a3ba5-4b0d-de11-9a51-005056c00008",
          "DisplayValue": "All employees"
        }
      ]
    },
    {
      "Row": [
        {
          "SchemaColumnUId": "ae0e45ca-c495-4fe7-a39d-3ab7278e1617",
          "Value": "f1eca676-d912-41d8-8eb9-20ef7e899cc3"
        },
        {
          "SchemaColumnUId": "134c280f-f7a7-4ac5-beeb-4ab1ed9e4ff5",
          "Value": "35cb9575-002b-42c5-bd5c-44b1cbf1583c"
        },
        {
          "SchemaColumnUId": "21a61238-45dc-4089-9882-cc1be097cbf8",
          "Value": true
        },
        {
          "SchemaColumnUId": "2cda2c20-d48a-44d0-b266-5542730b1ad9",
          "Value": true
        },
        {
          "SchemaColumnUId": "379b41a2-dfb5-4069-a267-88ec0653e391",
          "Value": true
        },
        {
          "SchemaColumnUId": "a3dc68d6-f74e-4a57-8411-77a88dfe0bbb",
          "Value": true
        },
        {
          "SchemaColumnUId": "a72532ba-4755-4b2f-8079-c382ae6d0e9a",
          "Value": 0
        },
        {
          "SchemaColumnUId": "d27e9964-a7a6-46dd-9f9a-7cb470c33b98",
          "Value": "720b771c-e7a7-4f31-9cfb-52cd21c3739f",
          "DisplayValue": "All portal users"
        }
      ]
    },
    {
      "Row": [
        {
          "SchemaColumnUId": "ae0e45ca-c495-4fe7-a39d-3ab7278e1617",
          "Value": "f5c9fb05-7264-43da-bb5a-c71c6743fa1e"
        },
        {
          "SchemaColumnUId": "134c280f-f7a7-4ac5-beeb-4ab1ed9e4ff5",
          "Value": "b563ffc4-8577-42d6-a013-21137618d255"
        },
        {
          "SchemaColumnUId": "21a61238-45dc-4089-9882-cc1be097cbf8",
          "Value": true
        },
        {
          "SchemaColumnUId": "2cda2c20-d48a-44d0-b266-5542730b1ad9",
          "Value": true
        },
        {
          "SchemaColumnUId": "379b41a2-dfb5-4069-a267-88ec0653e391",
          "Value": true
        },
        {
          "SchemaColumnUId": "a3dc68d6-f74e-4a57-8411-77a88dfe0bbb",
          "Value": true
        },
        {
          "SchemaColumnUId": "a72532ba-4755-4b2f-8079-c382ae6d0e9a",
          "Value": 0
        },
        {
          "SchemaColumnUId": "d27e9964-a7a6-46dd-9f9a-7cb470c33b98",
          "Value": "a29a3ba5-4b0d-de11-9a51-005056c00008",
          "DisplayValue": "All employees"
        }
      ]
    }
  ]
}