﻿{
  "Descriptor": {
    "UId": "a19152d9-a110-4fe4-af59-db2716631f2b",
    "Name": "SMConsultationQuestions36fae5fePage",
    "ModifiedOnUtc": "\/Date(1679078499000)\/",
    "Parent": {
      "UId": "d3cc497c-f286-4f13-99c1-751c468733c0",
      "Name": "BasePageV2"
    },
    "ManagerName": "ClientUnitSchemaManager",
    "Caption": "Card schema: \"Consultation Questions\""
  }
}