﻿{
  "SqlScript": {
    "UId": "2a7b7158-4cfb-4d90-ab4e-a9f0757d51fe",
    "Name": "Lookup_GACAdvisoryLevel",
    "DBEngineType": 0,
    "InstallType": 2,
    "ModifiedOnUtc": "\/Date(1602775320000)\/",
    "DependsOn": []
  }
}