﻿{
  "SqlScript": {
    "UId": "2c9eb3ac-24ba-4a65-af9d-76fa6ad6fea3",
    "Name": "SysImage_EmailTemplate_Wat10_TravellerLEARNAndPreDepartureEmailStandard",
    "DBEngineType": 0,
    "InstallType": 2,
    "ModifiedOnUtc": "\/Date(1616607587000)\/",
    "DependsOn": []
  }
}