﻿{
  "Descriptor": {
    "UId": "57b420f1-fa2a-4076-b375-0746281070ca",
    "Name": "WatDelegationInstitutionsInFolder",
    "ModifiedOnUtc": "\/Date(1598995622000)\/",
    "Parent": {
      "UId": "4f63bafb-e9e7-4082-b92e-66b97c14017c",
      "Name": "BaseItemInFolder"
    },
    "ManagerName": "EntitySchemaManager",
    "Caption": "Delegation Institutions in Folder"
  }
}