﻿{
  "Descriptor": {
    "UId": "5599f10c-788b-412c-9b59-0db3f4ba20d9",
    "Name": "SMRefreshPage",
    "ModifiedOnUtc": "\/Date(1601952051000)\/",
    "ManagerName": "ProcessUserTaskSchemaManager",
    "Caption": "Refresh active page"
  }
}