{
  "MetaData": {
    "Schema": {
      "ManagerName": "ProcessSchemaManager",
      "UId": "4e2d74c3-76fc-4266-a154-8f0ea0f4ac9c",
      "A2": "WatProcess51ResetSystemFieldFinalizationTasksAgreement",
      "A5": "96453f8a-d7a4-49b6-9806-bf9f81e56616",
      "B1": [],
      "B2": [],
      "B3": [],
      "B6": "80852c4e-6e90-4769-a5e6-c485d9bc7022",
      "B8": "8.0.4.1870",
      "FJ1": [
        {
          "BL1": "Terrasoft.Core.Process.ProcessSchemaParameter",
          "UId": "051200fa-e1be-42f5-88b1-dda6a5dad4d4",
          "A2": "Agreement",
          "A3": "4e2d74c3-76fc-4266-a154-8f0ea0f4ac9c",
          "A4": "4e2d74c3-76fc-4266-a154-8f0ea0f4ac9c",
          "L1": "23018567-a13c-4320-8687-fd6f9e3699bd",
          "L8": {
            "GS5": "4e2d74c3-76fc-4266-a154-8f0ea0f4ac9c"
          }
        }
      ],
      "IJ1": true,
      "BK8": "bb4d6607-026b-4b27-b640-8f5c77c1e89d",
      "IJ10": true,
      "BK15": [
        {
          "BL1": "Terrasoft.Core.Process.ProcessSchemaMapping",
          "UId": "bf627262-67e4-4a2d-8e74-39c5b7c4ac59",
          "A2": "ChangeDataUserTask1",
          "A3": "4e2d74c3-76fc-4266-a154-8f0ea0f4ac9c",
          "A4": "4e2d74c3-76fc-4266-a154-8f0ea0f4ac9c",
          "GT2": "[Element:{b9b0dde0-66e6-4e24-9b1c-280a028a2905}].[Parameter:{b1d61665-ea7e-456c-b1c2-14c397ac2fac}]",
          "GT3": "b1d61665-ea7e-456c-b1c2-14c397ac2fac",
          "GT5": "bd2cf1ae-bbc6-4d91-8d6e-c6b40f057e95",
          "GT4": "d3021ca7-7450-4678-a117-060171eb2976",
          "GT1": {
            "GS1": 1,
            "GS2": "320df743-3859-42ab-846e-d598464cd4c4"
          }
        },
        {
          "BL1": "Terrasoft.Core.Process.ProcessSchemaMapping",
          "UId": "ebd5ff0e-c999-4a18-9ba5-8294ee722182",
          "A2": "ChangeDataUserTask1",
          "A3": "4e2d74c3-76fc-4266-a154-8f0ea0f4ac9c",
          "A4": "4e2d74c3-76fc-4266-a154-8f0ea0f4ac9c",
          "GT2": "[Element:{b9b0dde0-66e6-4e24-9b1c-280a028a2905}].[Parameter:{27110330-bb3a-483f-a2b5-74e1cb93f6eb}]",
          "GT3": "27110330-bb3a-483f-a2b5-74e1cb93f6eb",
          "GT5": "d6c84ba1-b6ca-4952-b517-880f22e21fdc",
          "GT4": "d3021ca7-7450-4678-a117-060171eb2976",
          "GT1": {
            "GS1": 3,
            "GS2": "true",
            "GS5": "d3021ca7-7450-4678-a117-060171eb2976"
          }
        },
        {
          "BL1": "Terrasoft.Core.Process.ProcessSchemaMapping",
          "UId": "fd3ca206-a66e-4d11-90d6-591da76b8f86",
          "A2": "ChangeDataUserTask1",
          "A3": "4e2d74c3-76fc-4266-a154-8f0ea0f4ac9c",
          "A4": "4e2d74c3-76fc-4266-a154-8f0ea0f4ac9c",
          "GT2": "[Element:{b9b0dde0-66e6-4e24-9b1c-280a028a2905}].[Parameter:{097dfbb0-ada2-4178-b8dc-0d7fdc4e774c}]",
          "GT3": "097dfbb0-ada2-4178-b8dc-0d7fdc4e774c",
          "GT5": "03166c4b-2e15-4768-a343-750c16b69691",
          "GT4": "d3021ca7-7450-4678-a117-060171eb2976",
          "GT1": {
            "GS1": 1,
            "GS2": "{\"className\":\"Terrasoft.FilterGroup\",\"serializedFilterEditData\":\"{\\\"className\\\":\\\"Terrasoft.FilterGroup\\\",\\\"items\\\":{\\\"21c4a4aa-0531-4f7a-8908-5855c6d21a13\\\":{\\\"className\\\":\\\"Terrasoft.CompareFilter\\\",\\\"filterType\\\":1,\\\"comparisonType\\\":3,\\\"isEnabled\\\":true,\\\"trimDateTimeParameterToDate\\\":false,\\\"leftExpression\\\":{\\\"className\\\":\\\"Terrasoft.ColumnExpression\\\",\\\"expressionType\\\":0,\\\"columnPath\\\":\\\"Id\\\"},\\\"isAggregative\\\":false,\\\"key\\\":\\\"21c4a4aa-0531-4f7a-8908-5855c6d21a13\\\",\\\"dataValueType\\\":0,\\\"leftExpressionCaption\\\":\\\"Id\\\",\\\"rightExpression\\\":{\\\"className\\\":\\\"Terrasoft.ParameterExpression\\\",\\\"expressionType\\\":2,\\\"parameter\\\":{\\\"className\\\":\\\"Terrasoft.Parameter\\\",\\\"dataValueType\\\":26,\\\"value\\\":{\\\"value\\\":\\\"[IsOwnerSchema:false].[IsSchema:false].[Parameter:{051200fa-e1be-42f5-88b1-dda6a5dad4d4}]\\\",\\\"displayValue\\\":\\\"Agreement\\\"}}}}},\\\"logicalOperation\\\":0,\\\"isEnabled\\\":true,\\\"filterType\\\":6,\\\"rootSchemaName\\\":\\\"WatAgreement\\\",\\\"key\\\":\\\"\\\"}\",\"dataSourceFilters\":\"{\\\"items\\\":{\\\"21c4a4aa-0531-4f7a-8908-5855c6d21a13\\\":{\\\"filterType\\\":1,\\\"comparisonType\\\":3,\\\"isEnabled\\\":true,\\\"trimDateTimeParameterToDate\\\":false,\\\"leftExpression\\\":{\\\"expressionType\\\":0,\\\"columnPath\\\":\\\"Id\\\"},\\\"rightExpression\\\":{\\\"expressionType\\\":2,\\\"parameter\\\":{\\\"dataValueType\\\":26,\\\"value\\\":{\\\"value\\\":\\\"[IsOwnerSchema:false].[IsSchema:false].[Parameter:{051200fa-e1be-42f5-88b1-dda6a5dad4d4}]\\\"}}}}},\\\"logicalOperation\\\":0,\\\"isEnabled\\\":true,\\\"filterType\\\":6,\\\"rootSchemaName\\\":\\\"WatAgreement\\\"}\"}",
            "GS5": "4e2d74c3-76fc-4266-a154-8f0ea0f4ac9c"
          }
        },
        {
          "BL1": "Terrasoft.Core.Process.ProcessSchemaMapping",
          "UId": "51b44882-4ba5-4a2a-81b3-d968c99d52db",
          "A2": "ChangeDataUserTask1",
          "A3": "4e2d74c3-76fc-4266-a154-8f0ea0f4ac9c",
          "A4": "4e2d74c3-76fc-4266-a154-8f0ea0f4ac9c",
          "GT2": "[Element:{b9b0dde0-66e6-4e24-9b1c-280a028a2905}].[Parameter:{8e61590f-de52-4132-8f71-0a27039fecd2}]",
          "GT3": "8e61590f-de52-4132-8f71-0a27039fecd2",
          "GT5": "effa11ce-90c7-4efe-8a02-be7a659d27e9",
          "GT4": "d3021ca7-7450-4678-a117-060171eb2976",
          "GT1": {
            "GS1": 1,
            "GS2": "{\"$type\":\"Terrasoft.Core.Process.LocalizableParameterValuesList, Terrasoft.Core\",\"$values\":[{\"ItemUId\":\"ede7aa55-dac8-4118-9c53-bf8f78bfd647\",\"columnMetaPath\":{\"value\":\"9ff9e0a2-bc74-403c-85af-3889f6699bc8\"},\"schemaUId\":{\"value\":\"320df743-3859-42ab-846e-d598464cd4c4\"},\"value\":{\"value\":\"[#BooleanValue.False#]\"},\"displayValue\":{\"value\":\"[#Boolean value.False#]\"},\"parameterValue\":{\"value\":\"{\\\"$type\\\":\\\"Terrasoft.Core.Process.ProcessSchemaParameterValue, Terrasoft.Core\\\",\\\"Source\\\":3,\\\"DisplayValue\\\":\\\"\\\",\\\"Value\\\":\\\"\\\",\\\"MetaPath\\\":null,\\\"MetaDataValue\\\":null,\\\"ModifiedInSchemaUId\\\":\\\"00000000-0000-0000-0000-000000000000\\\",\\\"SchemaUId\\\":\\\"00000000-0000-0000-0000-000000000000\\\",\\\"SchemaManagerName\\\":\\\"\\\",\\\"DataValueTypeUId\\\":\\\"90b65bf8-0ffc-4141-8779-2420877af907\\\",\\\"ReferenceSchemaUId\\\":\\\"00000000-0000-0000-0000-000000000000\\\",\\\"ResourceItemName\\\":null}\"}}]}",
            "GS5": "4e2d74c3-76fc-4266-a154-8f0ea0f4ac9c"
          }
        },
        {
          "BL1": "Terrasoft.Core.Process.ProcessSchemaMapping",
          "UId": "e748200c-c198-44fd-992b-69f888e18ec4",
          "A2": "ChangeDataUserTask1",
          "A3": "4e2d74c3-76fc-4266-a154-8f0ea0f4ac9c",
          "A4": "4e2d74c3-76fc-4266-a154-8f0ea0f4ac9c",
          "GT2": "[Element:{b9b0dde0-66e6-4e24-9b1c-280a028a2905}].[Parameter:{c06ea294-7d01-44b9-987b-80970a82874c}]",
          "GT3": "c06ea294-7d01-44b9-987b-80970a82874c",
          "GT5": "b9bc395c-1f13-d564-1257-2505f236ab7b",
          "GT4": "d3021ca7-7450-4678-a117-060171eb2976",
          "GT1": {
            "GS1": 3,
            "GS2": "true",
            "GS5": "d3021ca7-7450-4678-a117-060171eb2976",
            "GS8": "false"
          }
        },
        {
          "BL1": "Terrasoft.Core.Process.ProcessSchemaMapping",
          "UId": "0f8e17bf-3305-4d71-807b-f57225495e97",
          "A2": "ChangeDataUserTask2",
          "A3": "4e2d74c3-76fc-4266-a154-8f0ea0f4ac9c",
          "A4": "4e2d74c3-76fc-4266-a154-8f0ea0f4ac9c",
          "GT2": "[Element:{951c77a3-2bb0-4f9b-a805-7d1453f88754}].[Parameter:{f096914a-c97b-4df5-b094-f062a5d9b6b9}]",
          "GT3": "f096914a-c97b-4df5-b094-f062a5d9b6b9",
          "GT5": "bd2cf1ae-bbc6-4d91-8d6e-c6b40f057e95",
          "GT4": "d3021ca7-7450-4678-a117-060171eb2976",
          "GT1": {
            "GS1": 1,
            "GS2": "320df743-3859-42ab-846e-d598464cd4c4",
            "GS5": "4e2d74c3-76fc-4266-a154-8f0ea0f4ac9c"
          }
        },
        {
          "BL1": "Terrasoft.Core.Process.ProcessSchemaMapping",
          "UId": "a8ce3eac-4e5e-4e78-9cd3-bc8a4267061b",
          "A2": "ChangeDataUserTask2",
          "A3": "4e2d74c3-76fc-4266-a154-8f0ea0f4ac9c",
          "A4": "4e2d74c3-76fc-4266-a154-8f0ea0f4ac9c",
          "GT2": "[Element:{951c77a3-2bb0-4f9b-a805-7d1453f88754}].[Parameter:{3edc6e74-1ac8-41e0-9072-639567266bf8}]",
          "GT3": "3edc6e74-1ac8-41e0-9072-639567266bf8",
          "GT5": "d6c84ba1-b6ca-4952-b517-880f22e21fdc",
          "GT4": "d3021ca7-7450-4678-a117-060171eb2976",
          "GT1": {
            "GS1": 3,
            "GS2": "true",
            "GS5": "d3021ca7-7450-4678-a117-060171eb2976"
          }
        },
        {
          "BL1": "Terrasoft.Core.Process.ProcessSchemaMapping",
          "UId": "fe8b4aa1-5cf6-4d2a-a06c-9ea1d0a10036",
          "A2": "ChangeDataUserTask2",
          "A3": "4e2d74c3-76fc-4266-a154-8f0ea0f4ac9c",
          "A4": "4e2d74c3-76fc-4266-a154-8f0ea0f4ac9c",
          "GT2": "[Element:{951c77a3-2bb0-4f9b-a805-7d1453f88754}].[Parameter:{6fb7ae7e-7812-42f7-a509-d5a5853d18d5}]",
          "GT3": "6fb7ae7e-7812-42f7-a509-d5a5853d18d5",
          "GT5": "03166c4b-2e15-4768-a343-750c16b69691",
          "GT4": "d3021ca7-7450-4678-a117-060171eb2976",
          "GT1": {
            "GS1": 1,
            "GS2": "{\"className\":\"Terrasoft.FilterGroup\",\"serializedFilterEditData\":\"{\\\"className\\\":\\\"Terrasoft.FilterGroup\\\",\\\"items\\\":{\\\"21c4a4aa-0531-4f7a-8908-5855c6d21a13\\\":{\\\"className\\\":\\\"Terrasoft.CompareFilter\\\",\\\"filterType\\\":1,\\\"comparisonType\\\":3,\\\"isEnabled\\\":true,\\\"trimDateTimeParameterToDate\\\":false,\\\"leftExpression\\\":{\\\"className\\\":\\\"Terrasoft.ColumnExpression\\\",\\\"expressionType\\\":0,\\\"columnPath\\\":\\\"Id\\\"},\\\"isAggregative\\\":false,\\\"key\\\":\\\"21c4a4aa-0531-4f7a-8908-5855c6d21a13\\\",\\\"dataValueType\\\":0,\\\"leftExpressionCaption\\\":\\\"Id\\\",\\\"rightExpression\\\":{\\\"className\\\":\\\"Terrasoft.ParameterExpression\\\",\\\"expressionType\\\":2,\\\"parameter\\\":{\\\"className\\\":\\\"Terrasoft.Parameter\\\",\\\"dataValueType\\\":26,\\\"value\\\":{\\\"value\\\":\\\"[IsOwnerSchema:false].[IsSchema:false].[Parameter:{051200fa-e1be-42f5-88b1-dda6a5dad4d4}]\\\",\\\"displayValue\\\":\\\"Agreement\\\"}}}}},\\\"logicalOperation\\\":0,\\\"isEnabled\\\":true,\\\"filterType\\\":6,\\\"rootSchemaName\\\":\\\"WatAgreement\\\",\\\"key\\\":\\\"\\\"}\",\"dataSourceFilters\":\"{\\\"items\\\":{\\\"21c4a4aa-0531-4f7a-8908-5855c6d21a13\\\":{\\\"filterType\\\":1,\\\"comparisonType\\\":3,\\\"isEnabled\\\":true,\\\"trimDateTimeParameterToDate\\\":false,\\\"leftExpression\\\":{\\\"expressionType\\\":0,\\\"columnPath\\\":\\\"Id\\\"},\\\"rightExpression\\\":{\\\"expressionType\\\":2,\\\"parameter\\\":{\\\"dataValueType\\\":26,\\\"value\\\":{\\\"value\\\":\\\"[IsOwnerSchema:false].[IsSchema:false].[Parameter:{051200fa-e1be-42f5-88b1-dda6a5dad4d4}]\\\"}}}}},\\\"logicalOperation\\\":0,\\\"isEnabled\\\":true,\\\"filterType\\\":6,\\\"rootSchemaName\\\":\\\"WatAgreement\\\"}\"}",
            "GS5": "4e2d74c3-76fc-4266-a154-8f0ea0f4ac9c"
          }
        },
        {
          "BL1": "Terrasoft.Core.Process.ProcessSchemaMapping",
          "UId": "3e8f95da-bd45-412e-a601-03c8d04c4979",
          "A2": "ChangeDataUserTask2",
          "A3": "4e2d74c3-76fc-4266-a154-8f0ea0f4ac9c",
          "A4": "4e2d74c3-76fc-4266-a154-8f0ea0f4ac9c",
          "GT2": "[Element:{951c77a3-2bb0-4f9b-a805-7d1453f88754}].[Parameter:{3475401b-7248-427e-ae96-50e06936d1e6}]",
          "GT3": "3475401b-7248-427e-ae96-50e06936d1e6",
          "GT5": "effa11ce-90c7-4efe-8a02-be7a659d27e9",
          "GT4": "d3021ca7-7450-4678-a117-060171eb2976",
          "GT1": {
            "GS1": 1,
            "GS2": "{\"$type\":\"Terrasoft.Core.Process.LocalizableParameterValuesList, Terrasoft.Core\",\"$values\":[{\"ItemUId\":\"ede7aa55-dac8-4118-9c53-bf8f78bfd647\",\"columnMetaPath\":{\"value\":\"9ff9e0a2-bc74-403c-85af-3889f6699bc8\"},\"schemaUId\":{\"value\":\"320df743-3859-42ab-846e-d598464cd4c4\"},\"value\":{\"value\":\"[#BooleanValue.True#]\"},\"displayValue\":{\"value\":\"[#Boolean value.True#]\"},\"parameterValue\":{\"value\":\"{\\\"$type\\\":\\\"Terrasoft.Core.Process.ProcessSchemaParameterValue, Terrasoft.Core\\\",\\\"Source\\\":3,\\\"DisplayValue\\\":\\\"\\\",\\\"Value\\\":\\\"\\\",\\\"MetaPath\\\":null,\\\"MetaDataValue\\\":null,\\\"ModifiedInSchemaUId\\\":\\\"00000000-0000-0000-0000-000000000000\\\",\\\"SchemaUId\\\":\\\"00000000-0000-0000-0000-000000000000\\\",\\\"SchemaManagerName\\\":\\\"\\\",\\\"DataValueTypeUId\\\":\\\"90b65bf8-0ffc-4141-8779-2420877af907\\\",\\\"ReferenceSchemaUId\\\":\\\"00000000-0000-0000-0000-000000000000\\\",\\\"ResourceItemName\\\":null}\"}}]}",
            "GS5": "4e2d74c3-76fc-4266-a154-8f0ea0f4ac9c"
          }
        },
        {
          "BL1": "Terrasoft.Core.Process.ProcessSchemaMapping",
          "UId": "8a723c6e-1b95-45a2-b60f-7ef7c3f0ca23",
          "A2": "ChangeDataUserTask2",
          "A3": "4e2d74c3-76fc-4266-a154-8f0ea0f4ac9c",
          "A4": "4e2d74c3-76fc-4266-a154-8f0ea0f4ac9c",
          "GT2": "[Element:{951c77a3-2bb0-4f9b-a805-7d1453f88754}].[Parameter:{4d46a85e-723c-4a00-9449-0d786f4968c6}]",
          "GT3": "4d46a85e-723c-4a00-9449-0d786f4968c6",
          "GT5": "b9bc395c-1f13-d564-1257-2505f236ab7b",
          "GT4": "d3021ca7-7450-4678-a117-060171eb2976",
          "GT1": {
            "GS1": 3,
            "GS2": "true",
            "GS5": "d3021ca7-7450-4678-a117-060171eb2976",
            "GS8": "false"
          }
        },
        {
          "BL1": "Terrasoft.Core.Process.ProcessSchemaMapping",
          "UId": "40a971e7-89a0-437d-82dc-709bc3b47a0d",
          "A2": "ReadDataUserTask2",
          "A3": "4e2d74c3-76fc-4266-a154-8f0ea0f4ac9c",
          "A4": "4e2d74c3-76fc-4266-a154-8f0ea0f4ac9c",
          "GT2": "[Element:{2f5c9ad3-63a0-463c-8bfc-88175a50e845}].[Parameter:{bda0f9c4-b129-400f-9070-f4b2ab14e270}]",
          "GT3": "bda0f9c4-b129-400f-9070-f4b2ab14e270",
          "GT5": "5d9ac9a7-7782-49ce-8990-dcb1c73832b0",
          "GT4": "cb455b6f-78ff-4b1e-b241-c2bbc0b37e9f",
          "GT1": {
            "GS1": 1,
            "GS2": "{\"className\":\"Terrasoft.FilterGroup\",\"serializedFilterEditData\":\"{\\\"className\\\":\\\"Terrasoft.FilterGroup\\\",\\\"items\\\":{\\\"3d3f70ac-a97d-426c-9656-f7f69c88b095\\\":{\\\"className\\\":\\\"Terrasoft.CompareFilter\\\",\\\"filterType\\\":1,\\\"comparisonType\\\":3,\\\"isEnabled\\\":true,\\\"trimDateTimeParameterToDate\\\":false,\\\"leftExpression\\\":{\\\"className\\\":\\\"Terrasoft.ColumnExpression\\\",\\\"expressionType\\\":0,\\\"columnPath\\\":\\\"WatSysFieldFinalizationTasksComplete\\\"},\\\"isAggregative\\\":false,\\\"key\\\":\\\"3d3f70ac-a97d-426c-9656-f7f69c88b095\\\",\\\"dataValueType\\\":12,\\\"leftExpressionCaption\\\":\\\"Sys Field Finalization Tasks Complete\\\",\\\"rightExpression\\\":{\\\"className\\\":\\\"Terrasoft.ParameterExpression\\\",\\\"expressionType\\\":2,\\\"parameter\\\":{\\\"className\\\":\\\"Terrasoft.Parameter\\\",\\\"dataValueType\\\":12,\\\"value\\\":true}}},\\\"4fc2d03b-e9cc-4430-9b69-6ecd3cefc0d7\\\":{\\\"className\\\":\\\"Terrasoft.InFilter\\\",\\\"filterType\\\":4,\\\"comparisonType\\\":3,\\\"isEnabled\\\":true,\\\"trimDateTimeParameterToDate\\\":false,\\\"leftExpression\\\":{\\\"className\\\":\\\"Terrasoft.ColumnExpression\\\",\\\"expressionType\\\":0,\\\"columnPath\\\":\\\"WatAgreementStage\\\"},\\\"isAggregative\\\":false,\\\"key\\\":\\\"4fc2d03b-e9cc-4430-9b69-6ecd3cefc0d7\\\",\\\"dataValueType\\\":10,\\\"leftExpressionCaption\\\":\\\"Agreement Stage\\\",\\\"referenceSchemaName\\\":\\\"WatAgreementStages\\\",\\\"rightExpressions\\\":[{\\\"className\\\":\\\"Terrasoft.ParameterExpression\\\",\\\"expressionType\\\":2,\\\"parameter\\\":{\\\"className\\\":\\\"Terrasoft.Parameter\\\",\\\"dataValueType\\\":10,\\\"value\\\":{\\\"Name\\\":\\\"Finalize Agreement\\\",\\\"Id\\\":\\\"0ce04f24-bb38-454a-ac3a-9ddc03493986\\\",\\\"value\\\":\\\"0ce04f24-bb38-454a-ac3a-9ddc03493986\\\",\\\"displayValue\\\":\\\"Finalize Agreement\\\"}}}]},\\\"b5b1e6a1-6aa7-4194-ae68-978c72b25087\\\":{\\\"className\\\":\\\"Terrasoft.CompareFilter\\\",\\\"filterType\\\":1,\\\"comparisonType\\\":7,\\\"isEnabled\\\":true,\\\"trimDateTimeParameterToDate\\\":false,\\\"leftExpression\\\":{\\\"className\\\":\\\"Terrasoft.AggregationQueryExpression\\\",\\\"expressionType\\\":3,\\\"functionType\\\":2,\\\"aggregationType\\\":1,\\\"columnPath\\\":\\\"[WatFinalizationTasks:WatAgreement].Id\\\",\\\"subFilters\\\":{\\\"className\\\":\\\"Terrasoft.FilterGroup\\\",\\\"items\\\":{},\\\"logicalOperation\\\":0,\\\"isEnabled\\\":true,\\\"filterType\\\":6,\\\"rootSchemaName\\\":\\\"WatFinalizationTasks\\\",\\\"key\\\":\\\"213a0454-6b4c-4c0e-95a0-849d8feebfe2\\\"}},\\\"isAggregative\\\":true,\\\"key\\\":\\\"b5b1e6a1-6aa7-4194-ae68-978c72b25087\\\",\\\"dataValueType\\\":4,\\\"leftExpressionCaption\\\":\\\"Finalization Tasks (by column Agreement)\\\",\\\"rightExpression\\\":{\\\"className\\\":\\\"Terrasoft.ParameterExpression\\\",\\\"expressionType\\\":2,\\\"parameter\\\":{\\\"className\\\":\\\"Terrasoft.Parameter\\\",\\\"dataValueType\\\":4,\\\"value\\\":0}},\\\"subFilters\\\":{\\\"className\\\":\\\"Terrasoft.FilterGroup\\\",\\\"items\\\":{},\\\"logicalOperation\\\":0,\\\"isEnabled\\\":true,\\\"filterType\\\":6,\\\"rootSchemaName\\\":\\\"WatFinalizationTasks\\\",\\\"key\\\":\\\"213a0454-6b4c-4c0e-95a0-849d8feebfe2\\\"}}},\\\"logicalOperation\\\":0,\\\"isEnabled\\\":true,\\\"filterType\\\":6,\\\"rootSchemaName\\\":\\\"WatAgreement\\\",\\\"key\\\":\\\"\\\"}\",\"dataSourceFilters\":\"{\\\"items\\\":{\\\"3d3f70ac-a97d-426c-9656-f7f69c88b095\\\":{\\\"filterType\\\":1,\\\"comparisonType\\\":3,\\\"isEnabled\\\":true,\\\"trimDateTimeParameterToDate\\\":false,\\\"leftExpression\\\":{\\\"expressionType\\\":0,\\\"columnPath\\\":\\\"WatSysFieldFinalizationTasksComplete\\\"},\\\"rightExpression\\\":{\\\"expressionType\\\":2,\\\"parameter\\\":{\\\"dataValueType\\\":12,\\\"value\\\":true}}},\\\"4fc2d03b-e9cc-4430-9b69-6ecd3cefc0d7\\\":{\\\"filterType\\\":4,\\\"comparisonType\\\":3,\\\"isEnabled\\\":true,\\\"trimDateTimeParameterToDate\\\":false,\\\"leftExpression\\\":{\\\"expressionType\\\":0,\\\"columnPath\\\":\\\"WatAgreementStage\\\"},\\\"rightExpressions\\\":[{\\\"expressionType\\\":2,\\\"parameter\\\":{\\\"dataValueType\\\":10,\\\"value\\\":\\\"0ce04f24-bb38-454a-ac3a-9ddc03493986\\\"}}]},\\\"b5b1e6a1-6aa7-4194-ae68-978c72b25087\\\":{\\\"filterType\\\":1,\\\"comparisonType\\\":7,\\\"isEnabled\\\":true,\\\"trimDateTimeParameterToDate\\\":false,\\\"leftExpression\\\":{\\\"expressionType\\\":3,\\\"functionType\\\":2,\\\"aggregationType\\\":1,\\\"columnPath\\\":\\\"[WatFinalizationTasks:WatAgreement].Id\\\",\\\"subFilters\\\":{\\\"items\\\":{},\\\"logicalOperation\\\":0,\\\"isEnabled\\\":true,\\\"filterType\\\":6,\\\"rootSchemaName\\\":\\\"WatFinalizationTasks\\\"}},\\\"rightExpression\\\":{\\\"expressionType\\\":2,\\\"parameter\\\":{\\\"dataValueType\\\":4,\\\"value\\\":0}},\\\"subFilters\\\":{\\\"items\\\":{},\\\"logicalOperation\\\":0,\\\"isEnabled\\\":true,\\\"filterType\\\":6,\\\"rootSchemaName\\\":\\\"WatFinalizationTasks\\\"}}},\\\"logicalOperation\\\":0,\\\"isEnabled\\\":true,\\\"filterType\\\":6,\\\"rootSchemaName\\\":\\\"WatAgreement\\\"}\"}",
            "GS5": "4e2d74c3-76fc-4266-a154-8f0ea0f4ac9c"
          }
        },
        {
          "BL1": "Terrasoft.Core.Process.ProcessSchemaMapping",
          "UId": "1bb19d95-15f3-472f-a748-f358222a6530",
          "A2": "ReadDataUserTask2",
          "A3": "4e2d74c3-76fc-4266-a154-8f0ea0f4ac9c",
          "A4": "4e2d74c3-76fc-4266-a154-8f0ea0f4ac9c",
          "GT2": "[Element:{2f5c9ad3-63a0-463c-8bfc-88175a50e845}].[Parameter:{002e7aa7-bdbc-4c37-90ab-277974a0da3a}]",
          "GT3": "002e7aa7-bdbc-4c37-90ab-277974a0da3a",
          "GT5": "643e4d6d-7ec8-49f0-842a-066a996fbe8b",
          "GT4": "cb455b6f-78ff-4b1e-b241-c2bbc0b37e9f",
          "GT1": {
            "GS1": 1,
            "GS2": "0",
            "GS5": "cb455b6f-78ff-4b1e-b241-c2bbc0b37e9f"
          }
        },
        {
          "BL1": "Terrasoft.Core.Process.ProcessSchemaMapping",
          "UId": "dff9125b-6fe8-4209-9f8a-bf934de27f9e",
          "A2": "ReadDataUserTask2",
          "A3": "4e2d74c3-76fc-4266-a154-8f0ea0f4ac9c",
          "A4": "4e2d74c3-76fc-4266-a154-8f0ea0f4ac9c",
          "GT2": "[Element:{2f5c9ad3-63a0-463c-8bfc-88175a50e845}].[Parameter:{d40058b3-39c0-4b54-8b38-60bfed500b1a}]",
          "GT3": "d40058b3-39c0-4b54-8b38-60bfed500b1a",
          "GT5": "29115add-7520-4ad4-8371-d91f537ac913",
          "GT4": "cb455b6f-78ff-4b1e-b241-c2bbc0b37e9f",
          "GT1": {
            "GS1": 1,
            "GS2": "true"
          }
        },
        {
          "BL1": "Terrasoft.Core.Process.ProcessSchemaMapping",
          "UId": "0330ac48-0067-4f85-a804-c322e4212526",
          "A2": "ReadDataUserTask2",
          "A3": "4e2d74c3-76fc-4266-a154-8f0ea0f4ac9c",
          "A4": "4e2d74c3-76fc-4266-a154-8f0ea0f4ac9c",
          "GT2": "[Element:{2f5c9ad3-63a0-463c-8bfc-88175a50e845}].[Parameter:{c8ee90f3-8946-4348-91a8-ca9e7bfd64d3}]",
          "GT3": "c8ee90f3-8946-4348-91a8-ca9e7bfd64d3",
          "GT5": "f29e5660-c5ef-4d84-8331-9046c3093519",
          "GT4": "cb455b6f-78ff-4b1e-b241-c2bbc0b37e9f",
          "GT1": {
            "GS1": 1,
            "GS2": "50"
          }
        },
        {
          "BL1": "Terrasoft.Core.Process.ProcessSchemaMapping",
          "UId": "2932b3fc-98ed-488e-93af-cf4e187b1e1e",
          "A2": "ReadDataUserTask2",
          "A3": "4e2d74c3-76fc-4266-a154-8f0ea0f4ac9c",
          "A4": "4e2d74c3-76fc-4266-a154-8f0ea0f4ac9c",
          "GT2": "[Element:{2f5c9ad3-63a0-463c-8bfc-88175a50e845}].[Parameter:{b55b27a4-0c61-49ef-ba0b-248843976379}]",
          "GT3": "b55b27a4-0c61-49ef-ba0b-248843976379",
          "GT5": "94ba9876-18c1-4a68-bcef-08f7e7f0e25c",
          "GT4": "cb455b6f-78ff-4b1e-b241-c2bbc0b37e9f",
          "GT1": {
            "GS1": 1,
            "GS2": "0"
          }
        },
        {
          "BL1": "Terrasoft.Core.Process.ProcessSchemaMapping",
          "UId": "4fcb31d9-da1b-4ff4-8e86-6a5cc9615d97",
          "A2": "ReadDataUserTask2",
          "A3": "4e2d74c3-76fc-4266-a154-8f0ea0f4ac9c",
          "A4": "4e2d74c3-76fc-4266-a154-8f0ea0f4ac9c",
          "GT2": "[Element:{2f5c9ad3-63a0-463c-8bfc-88175a50e845}].[Parameter:{092a4442-fc9e-497e-8aaa-6c5a4467130e}]",
          "GT3": "092a4442-fc9e-497e-8aaa-6c5a4467130e",
          "GT5": "cb5d6d26-7e81-4cbe-8730-8b7169000d14",
          "GT4": "cb455b6f-78ff-4b1e-b241-c2bbc0b37e9f",
          "GT1": {}
        },
        {
          "BL1": "Terrasoft.Core.Process.ProcessSchemaMapping",
          "UId": "f8013674-5aa4-4854-b13f-5ca49eae4c9c",
          "A2": "ReadDataUserTask2",
          "A3": "4e2d74c3-76fc-4266-a154-8f0ea0f4ac9c",
          "A4": "4e2d74c3-76fc-4266-a154-8f0ea0f4ac9c",
          "GT2": "[Element:{2f5c9ad3-63a0-463c-8bfc-88175a50e845}].[Parameter:{bdd34e93-7741-4735-8a0c-c0ed34f068e5}]",
          "GT3": "bdd34e93-7741-4735-8a0c-c0ed34f068e5",
          "GT5": "473e79e2-727e-40a7-8829-7eefc576b403",
          "GT4": "cb455b6f-78ff-4b1e-b241-c2bbc0b37e9f",
          "GT1": {
            "GS1": 1,
            "GS2": "CreatedOn:1:1"
          }
        },
        {
          "BL1": "Terrasoft.Core.Process.ProcessSchemaMapping",
          "UId": "2dcfb214-ea09-4bc9-bcda-dbc9fc28051e",
          "A2": "ReadDataUserTask2",
          "A3": "4e2d74c3-76fc-4266-a154-8f0ea0f4ac9c",
          "A4": "4e2d74c3-76fc-4266-a154-8f0ea0f4ac9c",
          "GT2": "[Element:{2f5c9ad3-63a0-463c-8bfc-88175a50e845}].[Parameter:{2a009a59-2f90-4ed7-8e3b-4247d97adf9a}]",
          "GT3": "2a009a59-2f90-4ed7-8e3b-4247d97adf9a",
          "GT5": "e2fced10-4842-423e-ada0-523bf7ea8ad3",
          "GT4": "cb455b6f-78ff-4b1e-b241-c2bbc0b37e9f",
          "GT1": {
            "GS1": 1
          }
        },
        {
          "BL1": "Terrasoft.Core.Process.ProcessSchemaMapping",
          "UId": "b7783300-6cd8-4d69-a8e2-a1ec96bc2920",
          "A2": "ReadDataUserTask2",
          "A3": "4e2d74c3-76fc-4266-a154-8f0ea0f4ac9c",
          "A4": "4e2d74c3-76fc-4266-a154-8f0ea0f4ac9c",
          "GT2": "[Element:{2f5c9ad3-63a0-463c-8bfc-88175a50e845}].[Parameter:{3b481ad4-8075-4d6f-80be-41e410c01253}]",
          "GT3": "3b481ad4-8075-4d6f-80be-41e410c01253",
          "GT5": "2e63ea99-8125-4254-88bd-20d3610bd471",
          "GT4": "cb455b6f-78ff-4b1e-b241-c2bbc0b37e9f",
          "GT1": {}
        },
        {
          "BL1": "Terrasoft.Core.Process.ProcessSchemaMapping",
          "UId": "9735f970-11f8-4194-94db-4bc964fb3eab",
          "A2": "ReadDataUserTask2",
          "A3": "4e2d74c3-76fc-4266-a154-8f0ea0f4ac9c",
          "A4": "4e2d74c3-76fc-4266-a154-8f0ea0f4ac9c",
          "GT2": "[Element:{2f5c9ad3-63a0-463c-8bfc-88175a50e845}].[Parameter:{6176b2aa-69c7-4a3f-b8b2-fe01ca5d8f11}]",
          "GT3": "6176b2aa-69c7-4a3f-b8b2-fe01ca5d8f11",
          "GT5": "a3660fce-a8f9-4a68-a3c1-b4f2f7983635",
          "GT4": "cb455b6f-78ff-4b1e-b241-c2bbc0b37e9f",
          "GT1": {}
        },
        {
          "BL1": "Terrasoft.Core.Process.ProcessSchemaMapping",
          "UId": "1286e683-9641-47f4-a641-614b3211a2cf",
          "A2": "ReadDataUserTask2",
          "A3": "4e2d74c3-76fc-4266-a154-8f0ea0f4ac9c",
          "A4": "4e2d74c3-76fc-4266-a154-8f0ea0f4ac9c",
          "GT2": "[Element:{2f5c9ad3-63a0-463c-8bfc-88175a50e845}].[Parameter:{f4c43605-0436-480f-bb74-c23f3421bf20}]",
          "GT3": "f4c43605-0436-480f-bb74-c23f3421bf20",
          "GT5": "9a594933-75da-4304-b6a3-5945dba159e3",
          "GT4": "cb455b6f-78ff-4b1e-b241-c2bbc0b37e9f",
          "GT1": {}
        },
        {
          "BL1": "Terrasoft.Core.Process.ProcessSchemaMapping",
          "UId": "2927a9b8-c7bc-4007-a6be-cbdd3ec4e048",
          "A2": "ReadDataUserTask2",
          "A3": "4e2d74c3-76fc-4266-a154-8f0ea0f4ac9c",
          "A4": "4e2d74c3-76fc-4266-a154-8f0ea0f4ac9c",
          "GT2": "[Element:{2f5c9ad3-63a0-463c-8bfc-88175a50e845}].[Parameter:{50e93894-26b4-491e-89cc-602f7afb5347}]",
          "GT3": "50e93894-26b4-491e-89cc-602f7afb5347",
          "GT5": "11fb235f-c06a-4111-84cd-a5dbf9a440d5",
          "GT4": "cb455b6f-78ff-4b1e-b241-c2bbc0b37e9f",
          "GT1": {}
        },
        {
          "BL1": "Terrasoft.Core.Process.ProcessSchemaMapping",
          "UId": "e21d0ad3-4896-49eb-a1d3-ca6641e4a04d",
          "A2": "ReadDataUserTask2",
          "A3": "4e2d74c3-76fc-4266-a154-8f0ea0f4ac9c",
          "A4": "4e2d74c3-76fc-4266-a154-8f0ea0f4ac9c",
          "GT2": "[Element:{2f5c9ad3-63a0-463c-8bfc-88175a50e845}].[Parameter:{60639abd-5d85-4255-85dd-6c1c52c09a9e}]",
          "GT3": "60639abd-5d85-4255-85dd-6c1c52c09a9e",
          "GT5": "78252e95-b759-416a-9c48-c128fbdf59ef",
          "GT4": "cb455b6f-78ff-4b1e-b241-c2bbc0b37e9f",
          "GT1": {}
        },
        {
          "BL1": "Terrasoft.Core.Process.ProcessSchemaMapping",
          "UId": "13fede4d-a3cf-46bc-af16-00ce35dbe204",
          "A2": "ReadDataUserTask2",
          "A3": "4e2d74c3-76fc-4266-a154-8f0ea0f4ac9c",
          "A4": "4e2d74c3-76fc-4266-a154-8f0ea0f4ac9c",
          "GT2": "[Element:{2f5c9ad3-63a0-463c-8bfc-88175a50e845}].[Parameter:{8c565a17-b8ec-4e62-a301-0cd68b7a1efc}]",
          "GT3": "8c565a17-b8ec-4e62-a301-0cd68b7a1efc",
          "GT5": "2f797429-6f43-4594-96bb-62fbc7b7deec",
          "GT4": "cb455b6f-78ff-4b1e-b241-c2bbc0b37e9f",
          "GT1": {
            "GS1": 1,
            "GS2": "true",
            "GS5": "cb455b6f-78ff-4b1e-b241-c2bbc0b37e9f"
          }
        },
        {
          "BL1": "Terrasoft.Core.Process.ProcessSchemaMapping",
          "UId": "5f733392-b316-42a9-821a-c5695319e912",
          "A2": "ReadDataUserTask2",
          "A3": "4e2d74c3-76fc-4266-a154-8f0ea0f4ac9c",
          "A4": "4e2d74c3-76fc-4266-a154-8f0ea0f4ac9c",
          "GT2": "[Element:{2f5c9ad3-63a0-463c-8bfc-88175a50e845}].[Parameter:{174ea7a5-055d-4dbf-b2c4-27b5e25844c0}]",
          "GT3": "174ea7a5-055d-4dbf-b2c4-27b5e25844c0",
          "GT5": "be4a0d16-6a15-41cf-ac44-a8b757565428",
          "GT4": "cb455b6f-78ff-4b1e-b241-c2bbc0b37e9f",
          "GT1": {}
        },
        {
          "BL1": "Terrasoft.Core.Process.ProcessSchemaMapping",
          "UId": "41fca329-7051-4a46-9da5-6808bd4f9911",
          "A2": "ReadDataUserTask2",
          "A3": "4e2d74c3-76fc-4266-a154-8f0ea0f4ac9c",
          "A4": "4e2d74c3-76fc-4266-a154-8f0ea0f4ac9c",
          "GT2": "[Element:{2f5c9ad3-63a0-463c-8bfc-88175a50e845}].[Parameter:{33a54181-709f-4a02-b0e9-6d5b9e44e247}]",
          "GT3": "33a54181-709f-4a02-b0e9-6d5b9e44e247",
          "GT5": "cc12005f-f434-4a40-b9d0-dc8f81755545",
          "GT4": "cb455b6f-78ff-4b1e-b241-c2bbc0b37e9f",
          "GT1": {
            "GS1": 1,
            "GS2": "ae0e45ca-c495-4fe7-a39d-3ab7278e1617"
          }
        },
        {
          "BL1": "Terrasoft.Core.Process.ProcessSchemaMapping",
          "UId": "b4fcdc52-7c8c-40cb-afdf-d89d452b6db0",
          "A2": "ReadDataUserTask2",
          "A3": "4e2d74c3-76fc-4266-a154-8f0ea0f4ac9c",
          "A4": "4e2d74c3-76fc-4266-a154-8f0ea0f4ac9c",
          "GT2": "[Element:{2f5c9ad3-63a0-463c-8bfc-88175a50e845}].[Parameter:{5e147c1e-61c1-4809-866f-d29d83ad2b2e}]",
          "GT3": "5e147c1e-61c1-4809-866f-d29d83ad2b2e",
          "GT5": "6dada847-859b-4e0a-9297-b3c9572530b6",
          "GT4": "cb455b6f-78ff-4b1e-b241-c2bbc0b37e9f",
          "GT1": {}
        },
        {
          "BL1": "Terrasoft.Core.Process.ProcessSchemaMapping",
          "UId": "68f80689-1673-48a1-a971-d148fd1ba2b0",
          "A2": "ReadDataUserTask2",
          "A3": "4e2d74c3-76fc-4266-a154-8f0ea0f4ac9c",
          "A4": "4e2d74c3-76fc-4266-a154-8f0ea0f4ac9c",
          "GT2": "[Element:{2f5c9ad3-63a0-463c-8bfc-88175a50e845}].[Parameter:{2e606f3a-dd34-49cf-a4d1-1541a61ead62}]",
          "GT3": "2e606f3a-dd34-49cf-a4d1-1541a61ead62",
          "GT5": "555901ef-f707-4803-a887-1bc07e882096",
          "GT4": "cb455b6f-78ff-4b1e-b241-c2bbc0b37e9f",
          "GT1": {}
        },
        {
          "BL1": "Terrasoft.Core.Process.ProcessSchemaMapping",
          "UId": "c5803b71-b836-479e-a2d9-0b8a768d9dc8",
          "A2": "ReadDataUserTask2",
          "A3": "4e2d74c3-76fc-4266-a154-8f0ea0f4ac9c",
          "A4": "4e2d74c3-76fc-4266-a154-8f0ea0f4ac9c",
          "GT2": "[Element:{2f5c9ad3-63a0-463c-8bfc-88175a50e845}].[Parameter:{01646aa8-7f3c-47a3-b674-9893cd803fe1}]",
          "GT3": "01646aa8-7f3c-47a3-b674-9893cd803fe1",
          "GT5": "978b550e-1b81-448a-8700-9c9190c3a2a4",
          "GT4": "cb455b6f-78ff-4b1e-b241-c2bbc0b37e9f",
          "GT1": {
            "GS1": 3,
            "GS2": "true",
            "GS5": "cb455b6f-78ff-4b1e-b241-c2bbc0b37e9f",
            "GS8": "false"
          }
        }
      ],
      "BK37": {
        "BL1": "Terrasoft.Core.Process.ProcessSchemaParameter",
        "UId": "cdd58be7-2dba-4a5e-869b-1ad5d6d7513a",
        "A2": "NotificationCaption",
        "A3": "4e2d74c3-76fc-4266-a154-8f0ea0f4ac9c",
        "A4": "4e2d74c3-76fc-4266-a154-8f0ea0f4ac9c",
        "L1": "8b3f29bb-ea14-4ce5-a5c5-293a929b6ba2",
        "L8": {
          "GS1": 3,
          "GS2": "[#[PropertyValue:Caption]#]"
        }
      },
      "BK1": "FFFFFFFF",
      "BK2": "FFBBBBBB",
      "BK3": [
        {
          "BL1": "Terrasoft.Core.Process.ProcessSchemaLaneSet",
          "UId": "aca0980d-b535-4554-bb2f-56bffcbfee7d",
          "A2": "LaneSet1",
          "A3": "4e2d74c3-76fc-4266-a154-8f0ea0f4ac9c",
          "A4": "4e2d74c3-76fc-4266-a154-8f0ea0f4ac9c",
          "A5": "a00051f4-cde3-4f3f-b08e-c5ad1a5c735a",
          "BL7": "11a47caf-a0d5-41fa-a274-a0b11f77447a",
          "BL8": "4e2d74c3-76fc-4266-a154-8f0ea0f4ac9c",
          "BM1": 0,
          "BM4": [
            {
              "BL1": "Terrasoft.Core.Process.ProcessSchemaLane",
              "UId": "c92b22e2-9760-41ae-8722-d5616d3c3d93",
              "A2": "Lane1",
              "A3": "4e2d74c3-76fc-4266-a154-8f0ea0f4ac9c",
              "A4": "4e2d74c3-76fc-4266-a154-8f0ea0f4ac9c",
              "A5": "a00051f4-cde3-4f3f-b08e-c5ad1a5c735a",
              "IL2": "aca0980d-b535-4554-bb2f-56bffcbfee7d",
              "BL7": "abcd74b9-5912-414b-82ac-f1aa4dcd554e",
              "BL8": "4e2d74c3-76fc-4266-a154-8f0ea0f4ac9c",
              "CD1": [],
              "CD2": [],
              "CD4": "aca0980d-b535-4554-bb2f-56bffcbfee7d",
              "CD7": []
            }
          ]
        }
      ],
      "BK5": [],
      "BK4": [
        {
          "BL1": "Terrasoft.Core.Process.ProcessSchemaUserTask",
          "UId": "b9b0dde0-66e6-4e24-9b1c-280a028a2905",
          "A2": "ChangeDataUserTask1",
          "A3": "4e2d74c3-76fc-4266-a154-8f0ea0f4ac9c",
          "A4": "4e2d74c3-76fc-4266-a154-8f0ea0f4ac9c",
          "A5": "a00051f4-cde3-4f3f-b08e-c5ad1a5c735a",
          "IL2": "c92b22e2-9760-41ae-8722-d5616d3c3d93",
          "BL3": "529;172",
          "BL7": "d3021ca7-7450-4678-a117-060171eb2976",
          "BL8": "4e2d74c3-76fc-4266-a154-8f0ea0f4ac9c",
          "BN2": "69;55",
          "BO3": true,
          "BP2": [
            {
              "BL1": "Terrasoft.Core.Process.ProcessSchemaParameter",
              "UId": "b1d61665-ea7e-456c-b1c2-14c397ac2fac",
              "A2": "EntitySchemaUId",
              "A3": "d3021ca7-7450-4678-a117-060171eb2976",
              "A4": "d3021ca7-7450-4678-a117-060171eb2976",
              "A5": "66e9e705-64b4-4dda-925e-d1e05a389eb6",
              "IL2": "b9b0dde0-66e6-4e24-9b1c-280a028a2905",
              "L1": "b295071f-7ea9-4e62-8d1a-919bf3732ff2",
              "L8": {
                "GS1": 1,
                "GS2": "320df743-3859-42ab-846e-d598464cd4c4",
                "GS5": "4e2d74c3-76fc-4266-a154-8f0ea0f4ac9c"
              },
              "L9": "6c7394db-06ff-4050-91ef-8278e21dce15"
            },
            {
              "BL1": "Terrasoft.Core.Process.ProcessSchemaParameter",
              "UId": "27110330-bb3a-483f-a2b5-74e1cb93f6eb",
              "A2": "IsMatchConditions",
              "A3": "d3021ca7-7450-4678-a117-060171eb2976",
              "A4": "d3021ca7-7450-4678-a117-060171eb2976",
              "A5": "66e9e705-64b4-4dda-925e-d1e05a389eb6",
              "IL2": "b9b0dde0-66e6-4e24-9b1c-280a028a2905",
              "L1": "90b65bf8-0ffc-4141-8779-2420877af907",
              "L8": {
                "GS1": 3,
                "GS2": "true",
                "GS5": "d3021ca7-7450-4678-a117-060171eb2976"
              }
            },
            {
              "BL1": "Terrasoft.Core.Process.ProcessSchemaParameter",
              "UId": "097dfbb0-ada2-4178-b8dc-0d7fdc4e774c",
              "A2": "DataSourceFilters",
              "A3": "d3021ca7-7450-4678-a117-060171eb2976",
              "A4": "d3021ca7-7450-4678-a117-060171eb2976",
              "A5": "66e9e705-64b4-4dda-925e-d1e05a389eb6",
              "IL2": "b9b0dde0-66e6-4e24-9b1c-280a028a2905",
              "L1": "394e160f-c8e0-46fa-9c0d-75d97e9e9169",
              "L8": {
                "GS1": 1,
                "GS2": "{\"className\":\"Terrasoft.FilterGroup\",\"serializedFilterEditData\":\"{\\\"className\\\":\\\"Terrasoft.FilterGroup\\\",\\\"items\\\":{\\\"21c4a4aa-0531-4f7a-8908-5855c6d21a13\\\":{\\\"className\\\":\\\"Terrasoft.CompareFilter\\\",\\\"filterType\\\":1,\\\"comparisonType\\\":3,\\\"isEnabled\\\":true,\\\"trimDateTimeParameterToDate\\\":false,\\\"leftExpression\\\":{\\\"className\\\":\\\"Terrasoft.ColumnExpression\\\",\\\"expressionType\\\":0,\\\"columnPath\\\":\\\"Id\\\"},\\\"isAggregative\\\":false,\\\"key\\\":\\\"21c4a4aa-0531-4f7a-8908-5855c6d21a13\\\",\\\"dataValueType\\\":0,\\\"leftExpressionCaption\\\":\\\"Id\\\",\\\"rightExpression\\\":{\\\"className\\\":\\\"Terrasoft.ParameterExpression\\\",\\\"expressionType\\\":2,\\\"parameter\\\":{\\\"className\\\":\\\"Terrasoft.Parameter\\\",\\\"dataValueType\\\":26,\\\"value\\\":{\\\"value\\\":\\\"[IsOwnerSchema:false].[IsSchema:false].[Parameter:{051200fa-e1be-42f5-88b1-dda6a5dad4d4}]\\\",\\\"displayValue\\\":\\\"Agreement\\\"}}}}},\\\"logicalOperation\\\":0,\\\"isEnabled\\\":true,\\\"filterType\\\":6,\\\"rootSchemaName\\\":\\\"WatAgreement\\\",\\\"key\\\":\\\"\\\"}\",\"dataSourceFilters\":\"{\\\"items\\\":{\\\"21c4a4aa-0531-4f7a-8908-5855c6d21a13\\\":{\\\"filterType\\\":1,\\\"comparisonType\\\":3,\\\"isEnabled\\\":true,\\\"trimDateTimeParameterToDate\\\":false,\\\"leftExpression\\\":{\\\"expressionType\\\":0,\\\"columnPath\\\":\\\"Id\\\"},\\\"rightExpression\\\":{\\\"expressionType\\\":2,\\\"parameter\\\":{\\\"dataValueType\\\":26,\\\"value\\\":{\\\"value\\\":\\\"[IsOwnerSchema:false].[IsSchema:false].[Parameter:{051200fa-e1be-42f5-88b1-dda6a5dad4d4}]\\\"}}}}},\\\"logicalOperation\\\":0,\\\"isEnabled\\\":true,\\\"filterType\\\":6,\\\"rootSchemaName\\\":\\\"WatAgreement\\\"}\"}",
                "GS5": "4e2d74c3-76fc-4266-a154-8f0ea0f4ac9c"
              }
            },
            {
              "BL1": "Terrasoft.Core.Process.ProcessSchemaParameter",
              "UId": "8e61590f-de52-4132-8f71-0a27039fecd2",
              "A2": "RecordColumnValues",
              "A3": "d3021ca7-7450-4678-a117-060171eb2976",
              "A4": "d3021ca7-7450-4678-a117-060171eb2976",
              "A5": "66e9e705-64b4-4dda-925e-d1e05a389eb6",
              "IL2": "b9b0dde0-66e6-4e24-9b1c-280a028a2905",
              "L1": "b53eaa2a-4bb7-4a6b-9f4f-58ccab293e31",
              "L8": {
                "GS1": 1,
                "GS2": "{\"$type\":\"Terrasoft.Core.Process.LocalizableParameterValuesList, Terrasoft.Core\",\"$values\":[{\"ItemUId\":\"ede7aa55-dac8-4118-9c53-bf8f78bfd647\",\"columnMetaPath\":{\"value\":\"9ff9e0a2-bc74-403c-85af-3889f6699bc8\"},\"schemaUId\":{\"value\":\"320df743-3859-42ab-846e-d598464cd4c4\"},\"value\":{\"value\":\"[#BooleanValue.False#]\"},\"displayValue\":{\"value\":\"[#Boolean value.False#]\"},\"parameterValue\":{\"value\":\"{\\\"$type\\\":\\\"Terrasoft.Core.Process.ProcessSchemaParameterValue, Terrasoft.Core\\\",\\\"Source\\\":3,\\\"DisplayValue\\\":\\\"\\\",\\\"Value\\\":\\\"\\\",\\\"MetaPath\\\":null,\\\"MetaDataValue\\\":null,\\\"ModifiedInSchemaUId\\\":\\\"00000000-0000-0000-0000-000000000000\\\",\\\"SchemaUId\\\":\\\"00000000-0000-0000-0000-000000000000\\\",\\\"SchemaManagerName\\\":\\\"\\\",\\\"DataValueTypeUId\\\":\\\"90b65bf8-0ffc-4141-8779-2420877af907\\\",\\\"ReferenceSchemaUId\\\":\\\"00000000-0000-0000-0000-000000000000\\\",\\\"ResourceItemName\\\":null}\"}}]}",
                "GS5": "4e2d74c3-76fc-4266-a154-8f0ea0f4ac9c"
              }
            },
            {
              "BL1": "Terrasoft.Core.Process.ProcessSchemaParameter",
              "UId": "c06ea294-7d01-44b9-987b-80970a82874c",
              "A2": "ConsiderTimeInFilter",
              "A3": "d3021ca7-7450-4678-a117-060171eb2976",
              "A4": "d3021ca7-7450-4678-a117-060171eb2976",
              "IL2": "b9b0dde0-66e6-4e24-9b1c-280a028a2905",
              "L1": "90b65bf8-0ffc-4141-8779-2420877af907",
              "L8": {
                "GS1": 3,
                "GS2": "true",
                "GS5": "d3021ca7-7450-4678-a117-060171eb2976",
                "GS8": "false"
              }
            }
          ],
          "CL2": "FFFFFFFF",
          "J6": "d3021ca7-7450-4678-a117-060171eb2976"
        },
        {
          "BL1": "Terrasoft.Core.Process.ProcessSchemaUserTask",
          "UId": "951c77a3-2bb0-4f9b-a805-7d1453f88754",
          "A2": "ChangeDataUserTask2",
          "A3": "4e2d74c3-76fc-4266-a154-8f0ea0f4ac9c",
          "A4": "4e2d74c3-76fc-4266-a154-8f0ea0f4ac9c",
          "A5": "a00051f4-cde3-4f3f-b08e-c5ad1a5c735a",
          "IL2": "c92b22e2-9760-41ae-8722-d5616d3c3d93",
          "BL3": "655;172",
          "BL7": "d3021ca7-7450-4678-a117-060171eb2976",
          "BL8": "4e2d74c3-76fc-4266-a154-8f0ea0f4ac9c",
          "BN2": "69;55",
          "BO3": true,
          "BP2": [
            {
              "BL1": "Terrasoft.Core.Process.ProcessSchemaParameter",
              "UId": "f096914a-c97b-4df5-b094-f062a5d9b6b9",
              "A2": "EntitySchemaUId",
              "A3": "d3021ca7-7450-4678-a117-060171eb2976",
              "A4": "d3021ca7-7450-4678-a117-060171eb2976",
              "A5": "66e9e705-64b4-4dda-925e-d1e05a389eb6",
              "IL2": "951c77a3-2bb0-4f9b-a805-7d1453f88754",
              "L1": "b295071f-7ea9-4e62-8d1a-919bf3732ff2",
              "L8": {
                "GS1": 1,
                "GS2": "320df743-3859-42ab-846e-d598464cd4c4",
                "GS5": "4e2d74c3-76fc-4266-a154-8f0ea0f4ac9c"
              },
              "L9": "6c7394db-06ff-4050-91ef-8278e21dce15"
            },
            {
              "BL1": "Terrasoft.Core.Process.ProcessSchemaParameter",
              "UId": "3edc6e74-1ac8-41e0-9072-639567266bf8",
              "A2": "IsMatchConditions",
              "A3": "d3021ca7-7450-4678-a117-060171eb2976",
              "A4": "d3021ca7-7450-4678-a117-060171eb2976",
              "A5": "66e9e705-64b4-4dda-925e-d1e05a389eb6",
              "IL2": "951c77a3-2bb0-4f9b-a805-7d1453f88754",
              "L1": "90b65bf8-0ffc-4141-8779-2420877af907",
              "L8": {
                "GS1": 3,
                "GS2": "true",
                "GS5": "d3021ca7-7450-4678-a117-060171eb2976"
              }
            },
            {
              "BL1": "Terrasoft.Core.Process.ProcessSchemaParameter",
              "UId": "6fb7ae7e-7812-42f7-a509-d5a5853d18d5",
              "A2": "DataSourceFilters",
              "A3": "d3021ca7-7450-4678-a117-060171eb2976",
              "A4": "d3021ca7-7450-4678-a117-060171eb2976",
              "A5": "66e9e705-64b4-4dda-925e-d1e05a389eb6",
              "IL2": "951c77a3-2bb0-4f9b-a805-7d1453f88754",
              "L1": "394e160f-c8e0-46fa-9c0d-75d97e9e9169",
              "L8": {
                "GS1": 1,
                "GS2": "{\"className\":\"Terrasoft.FilterGroup\",\"serializedFilterEditData\":\"{\\\"className\\\":\\\"Terrasoft.FilterGroup\\\",\\\"items\\\":{\\\"21c4a4aa-0531-4f7a-8908-5855c6d21a13\\\":{\\\"className\\\":\\\"Terrasoft.CompareFilter\\\",\\\"filterType\\\":1,\\\"comparisonType\\\":3,\\\"isEnabled\\\":true,\\\"trimDateTimeParameterToDate\\\":false,\\\"leftExpression\\\":{\\\"className\\\":\\\"Terrasoft.ColumnExpression\\\",\\\"expressionType\\\":0,\\\"columnPath\\\":\\\"Id\\\"},\\\"isAggregative\\\":false,\\\"key\\\":\\\"21c4a4aa-0531-4f7a-8908-5855c6d21a13\\\",\\\"dataValueType\\\":0,\\\"leftExpressionCaption\\\":\\\"Id\\\",\\\"rightExpression\\\":{\\\"className\\\":\\\"Terrasoft.ParameterExpression\\\",\\\"expressionType\\\":2,\\\"parameter\\\":{\\\"className\\\":\\\"Terrasoft.Parameter\\\",\\\"dataValueType\\\":26,\\\"value\\\":{\\\"value\\\":\\\"[IsOwnerSchema:false].[IsSchema:false].[Parameter:{051200fa-e1be-42f5-88b1-dda6a5dad4d4}]\\\",\\\"displayValue\\\":\\\"Agreement\\\"}}}}},\\\"logicalOperation\\\":0,\\\"isEnabled\\\":true,\\\"filterType\\\":6,\\\"rootSchemaName\\\":\\\"WatAgreement\\\",\\\"key\\\":\\\"\\\"}\",\"dataSourceFilters\":\"{\\\"items\\\":{\\\"21c4a4aa-0531-4f7a-8908-5855c6d21a13\\\":{\\\"filterType\\\":1,\\\"comparisonType\\\":3,\\\"isEnabled\\\":true,\\\"trimDateTimeParameterToDate\\\":false,\\\"leftExpression\\\":{\\\"expressionType\\\":0,\\\"columnPath\\\":\\\"Id\\\"},\\\"rightExpression\\\":{\\\"expressionType\\\":2,\\\"parameter\\\":{\\\"dataValueType\\\":26,\\\"value\\\":{\\\"value\\\":\\\"[IsOwnerSchema:false].[IsSchema:false].[Parameter:{051200fa-e1be-42f5-88b1-dda6a5dad4d4}]\\\"}}}}},\\\"logicalOperation\\\":0,\\\"isEnabled\\\":true,\\\"filterType\\\":6,\\\"rootSchemaName\\\":\\\"WatAgreement\\\"}\"}",
                "GS5": "4e2d74c3-76fc-4266-a154-8f0ea0f4ac9c"
              }
            },
            {
              "BL1": "Terrasoft.Core.Process.ProcessSchemaParameter",
              "UId": "3475401b-7248-427e-ae96-50e06936d1e6",
              "A2": "RecordColumnValues",
              "A3": "d3021ca7-7450-4678-a117-060171eb2976",
              "A4": "d3021ca7-7450-4678-a117-060171eb2976",
              "A5": "66e9e705-64b4-4dda-925e-d1e05a389eb6",
              "IL2": "951c77a3-2bb0-4f9b-a805-7d1453f88754",
              "L1": "b53eaa2a-4bb7-4a6b-9f4f-58ccab293e31",
              "L8": {
                "GS1": 1,
                "GS2": "{\"$type\":\"Terrasoft.Core.Process.LocalizableParameterValuesList, Terrasoft.Core\",\"$values\":[{\"ItemUId\":\"ede7aa55-dac8-4118-9c53-bf8f78bfd647\",\"columnMetaPath\":{\"value\":\"9ff9e0a2-bc74-403c-85af-3889f6699bc8\"},\"schemaUId\":{\"value\":\"320df743-3859-42ab-846e-d598464cd4c4\"},\"value\":{\"value\":\"[#BooleanValue.True#]\"},\"displayValue\":{\"value\":\"[#Boolean value.True#]\"},\"parameterValue\":{\"value\":\"{\\\"$type\\\":\\\"Terrasoft.Core.Process.ProcessSchemaParameterValue, Terrasoft.Core\\\",\\\"Source\\\":3,\\\"DisplayValue\\\":\\\"\\\",\\\"Value\\\":\\\"\\\",\\\"MetaPath\\\":null,\\\"MetaDataValue\\\":null,\\\"ModifiedInSchemaUId\\\":\\\"00000000-0000-0000-0000-000000000000\\\",\\\"SchemaUId\\\":\\\"00000000-0000-0000-0000-000000000000\\\",\\\"SchemaManagerName\\\":\\\"\\\",\\\"DataValueTypeUId\\\":\\\"90b65bf8-0ffc-4141-8779-2420877af907\\\",\\\"ReferenceSchemaUId\\\":\\\"00000000-0000-0000-0000-000000000000\\\",\\\"ResourceItemName\\\":null}\"}}]}",
                "GS5": "4e2d74c3-76fc-4266-a154-8f0ea0f4ac9c"
              }
            },
            {
              "BL1": "Terrasoft.Core.Process.ProcessSchemaParameter",
              "UId": "4d46a85e-723c-4a00-9449-0d786f4968c6",
              "A2": "ConsiderTimeInFilter",
              "A3": "d3021ca7-7450-4678-a117-060171eb2976",
              "A4": "d3021ca7-7450-4678-a117-060171eb2976",
              "IL2": "951c77a3-2bb0-4f9b-a805-7d1453f88754",
              "L1": "90b65bf8-0ffc-4141-8779-2420877af907",
              "L8": {
                "GS1": 3,
                "GS2": "true",
                "GS5": "d3021ca7-7450-4678-a117-060171eb2976",
                "GS8": "false"
              }
            }
          ],
          "CL2": "FFFFFFFF",
          "J6": "d3021ca7-7450-4678-a117-060171eb2976"
        },
        {
          "BL1": "Terrasoft.Core.Process.ProcessSchemaUserTask",
          "UId": "2f5c9ad3-63a0-463c-8bfc-88175a50e845",
          "A2": "ReadDataUserTask2",
          "A3": "4e2d74c3-76fc-4266-a154-8f0ea0f4ac9c",
          "A4": "4e2d74c3-76fc-4266-a154-8f0ea0f4ac9c",
          "A5": "a00051f4-cde3-4f3f-b08e-c5ad1a5c735a",
          "IL2": "c92b22e2-9760-41ae-8722-d5616d3c3d93",
          "BL3": "154;172",
          "BL7": "cb455b6f-78ff-4b1e-b241-c2bbc0b37e9f",
          "BL8": "4e2d74c3-76fc-4266-a154-8f0ea0f4ac9c",
          "BN2": "69;55",
          "BO2": true,
          "BO3": true,
          "BP2": [
            {
              "BL1": "Terrasoft.Core.Process.ProcessSchemaParameter",
              "UId": "bda0f9c4-b129-400f-9070-f4b2ab14e270",
              "A2": "DataSourceFilters",
              "A3": "cb455b6f-78ff-4b1e-b241-c2bbc0b37e9f",
              "A4": "cb455b6f-78ff-4b1e-b241-c2bbc0b37e9f",
              "A5": "66e9e705-64b4-4dda-925e-d1e05a389eb6",
              "IL2": "2f5c9ad3-63a0-463c-8bfc-88175a50e845",
              "L1": "394e160f-c8e0-46fa-9c0d-75d97e9e9169",
              "L8": {
                "GS1": 1,
                "GS2": "{\"className\":\"Terrasoft.FilterGroup\",\"serializedFilterEditData\":\"{\\\"className\\\":\\\"Terrasoft.FilterGroup\\\",\\\"items\\\":{\\\"3d3f70ac-a97d-426c-9656-f7f69c88b095\\\":{\\\"className\\\":\\\"Terrasoft.CompareFilter\\\",\\\"filterType\\\":1,\\\"comparisonType\\\":3,\\\"isEnabled\\\":true,\\\"trimDateTimeParameterToDate\\\":false,\\\"leftExpression\\\":{\\\"className\\\":\\\"Terrasoft.ColumnExpression\\\",\\\"expressionType\\\":0,\\\"columnPath\\\":\\\"WatSysFieldFinalizationTasksComplete\\\"},\\\"isAggregative\\\":false,\\\"key\\\":\\\"3d3f70ac-a97d-426c-9656-f7f69c88b095\\\",\\\"dataValueType\\\":12,\\\"leftExpressionCaption\\\":\\\"Sys Field Finalization Tasks Complete\\\",\\\"rightExpression\\\":{\\\"className\\\":\\\"Terrasoft.ParameterExpression\\\",\\\"expressionType\\\":2,\\\"parameter\\\":{\\\"className\\\":\\\"Terrasoft.Parameter\\\",\\\"dataValueType\\\":12,\\\"value\\\":true}}},\\\"4fc2d03b-e9cc-4430-9b69-6ecd3cefc0d7\\\":{\\\"className\\\":\\\"Terrasoft.InFilter\\\",\\\"filterType\\\":4,\\\"comparisonType\\\":3,\\\"isEnabled\\\":true,\\\"trimDateTimeParameterToDate\\\":false,\\\"leftExpression\\\":{\\\"className\\\":\\\"Terrasoft.ColumnExpression\\\",\\\"expressionType\\\":0,\\\"columnPath\\\":\\\"WatAgreementStage\\\"},\\\"isAggregative\\\":false,\\\"key\\\":\\\"4fc2d03b-e9cc-4430-9b69-6ecd3cefc0d7\\\",\\\"dataValueType\\\":10,\\\"leftExpressionCaption\\\":\\\"Agreement Stage\\\",\\\"referenceSchemaName\\\":\\\"WatAgreementStages\\\",\\\"rightExpressions\\\":[{\\\"className\\\":\\\"Terrasoft.ParameterExpression\\\",\\\"expressionType\\\":2,\\\"parameter\\\":{\\\"className\\\":\\\"Terrasoft.Parameter\\\",\\\"dataValueType\\\":10,\\\"value\\\":{\\\"Name\\\":\\\"Finalize Agreement\\\",\\\"Id\\\":\\\"0ce04f24-bb38-454a-ac3a-9ddc03493986\\\",\\\"value\\\":\\\"0ce04f24-bb38-454a-ac3a-9ddc03493986\\\",\\\"displayValue\\\":\\\"Finalize Agreement\\\"}}}]},\\\"b5b1e6a1-6aa7-4194-ae68-978c72b25087\\\":{\\\"className\\\":\\\"Terrasoft.CompareFilter\\\",\\\"filterType\\\":1,\\\"comparisonType\\\":7,\\\"isEnabled\\\":true,\\\"trimDateTimeParameterToDate\\\":false,\\\"leftExpression\\\":{\\\"className\\\":\\\"Terrasoft.AggregationQueryExpression\\\",\\\"expressionType\\\":3,\\\"functionType\\\":2,\\\"aggregationType\\\":1,\\\"columnPath\\\":\\\"[WatFinalizationTasks:WatAgreement].Id\\\",\\\"subFilters\\\":{\\\"className\\\":\\\"Terrasoft.FilterGroup\\\",\\\"items\\\":{},\\\"logicalOperation\\\":0,\\\"isEnabled\\\":true,\\\"filterType\\\":6,\\\"rootSchemaName\\\":\\\"WatFinalizationTasks\\\",\\\"key\\\":\\\"213a0454-6b4c-4c0e-95a0-849d8feebfe2\\\"}},\\\"isAggregative\\\":true,\\\"key\\\":\\\"b5b1e6a1-6aa7-4194-ae68-978c72b25087\\\",\\\"dataValueType\\\":4,\\\"leftExpressionCaption\\\":\\\"Finalization Tasks (by column Agreement)\\\",\\\"rightExpression\\\":{\\\"className\\\":\\\"Terrasoft.ParameterExpression\\\",\\\"expressionType\\\":2,\\\"parameter\\\":{\\\"className\\\":\\\"Terrasoft.Parameter\\\",\\\"dataValueType\\\":4,\\\"value\\\":0}},\\\"subFilters\\\":{\\\"className\\\":\\\"Terrasoft.FilterGroup\\\",\\\"items\\\":{},\\\"logicalOperation\\\":0,\\\"isEnabled\\\":true,\\\"filterType\\\":6,\\\"rootSchemaName\\\":\\\"WatFinalizationTasks\\\",\\\"key\\\":\\\"213a0454-6b4c-4c0e-95a0-849d8feebfe2\\\"}}},\\\"logicalOperation\\\":0,\\\"isEnabled\\\":true,\\\"filterType\\\":6,\\\"rootSchemaName\\\":\\\"WatAgreement\\\",\\\"key\\\":\\\"\\\"}\",\"dataSourceFilters\":\"{\\\"items\\\":{\\\"3d3f70ac-a97d-426c-9656-f7f69c88b095\\\":{\\\"filterType\\\":1,\\\"comparisonType\\\":3,\\\"isEnabled\\\":true,\\\"trimDateTimeParameterToDate\\\":false,\\\"leftExpression\\\":{\\\"expressionType\\\":0,\\\"columnPath\\\":\\\"WatSysFieldFinalizationTasksComplete\\\"},\\\"rightExpression\\\":{\\\"expressionType\\\":2,\\\"parameter\\\":{\\\"dataValueType\\\":12,\\\"value\\\":true}}},\\\"4fc2d03b-e9cc-4430-9b69-6ecd3cefc0d7\\\":{\\\"filterType\\\":4,\\\"comparisonType\\\":3,\\\"isEnabled\\\":true,\\\"trimDateTimeParameterToDate\\\":false,\\\"leftExpression\\\":{\\\"expressionType\\\":0,\\\"columnPath\\\":\\\"WatAgreementStage\\\"},\\\"rightExpressions\\\":[{\\\"expressionType\\\":2,\\\"parameter\\\":{\\\"dataValueType\\\":10,\\\"value\\\":\\\"0ce04f24-bb38-454a-ac3a-9ddc03493986\\\"}}]},\\\"b5b1e6a1-6aa7-4194-ae68-978c72b25087\\\":{\\\"filterType\\\":1,\\\"comparisonType\\\":7,\\\"isEnabled\\\":true,\\\"trimDateTimeParameterToDate\\\":false,\\\"leftExpression\\\":{\\\"expressionType\\\":3,\\\"functionType\\\":2,\\\"aggregationType\\\":1,\\\"columnPath\\\":\\\"[WatFinalizationTasks:WatAgreement].Id\\\",\\\"subFilters\\\":{\\\"items\\\":{},\\\"logicalOperation\\\":0,\\\"isEnabled\\\":true,\\\"filterType\\\":6,\\\"rootSchemaName\\\":\\\"WatFinalizationTasks\\\"}},\\\"rightExpression\\\":{\\\"expressionType\\\":2,\\\"parameter\\\":{\\\"dataValueType\\\":4,\\\"value\\\":0}},\\\"subFilters\\\":{\\\"items\\\":{},\\\"logicalOperation\\\":0,\\\"isEnabled\\\":true,\\\"filterType\\\":6,\\\"rootSchemaName\\\":\\\"WatFinalizationTasks\\\"}}},\\\"logicalOperation\\\":0,\\\"isEnabled\\\":true,\\\"filterType\\\":6,\\\"rootSchemaName\\\":\\\"WatAgreement\\\"}\"}",
                "GS5": "4e2d74c3-76fc-4266-a154-8f0ea0f4ac9c"
              }
            },
            {
              "BL1": "Terrasoft.Core.Process.ProcessSchemaParameter",
              "UId": "002e7aa7-bdbc-4c37-90ab-277974a0da3a",
              "A2": "ResultType",
              "A3": "cb455b6f-78ff-4b1e-b241-c2bbc0b37e9f",
              "A4": "cb455b6f-78ff-4b1e-b241-c2bbc0b37e9f",
              "IL2": "2f5c9ad3-63a0-463c-8bfc-88175a50e845",
              "L1": "6b6b74e2-820d-490e-a017-2b73d4ccf2b0",
              "L8": {
                "GS1": 1,
                "GS2": "0",
                "GS5": "cb455b6f-78ff-4b1e-b241-c2bbc0b37e9f"
              }
            },
            {
              "BL1": "Terrasoft.Core.Process.ProcessSchemaParameter",
              "UId": "d40058b3-39c0-4b54-8b38-60bfed500b1a",
              "A2": "ReadSomeTopRecords",
              "A3": "cb455b6f-78ff-4b1e-b241-c2bbc0b37e9f",
              "A4": "cb455b6f-78ff-4b1e-b241-c2bbc0b37e9f",
              "IL2": "2f5c9ad3-63a0-463c-8bfc-88175a50e845",
              "L1": "90b65bf8-0ffc-4141-8779-2420877af907",
              "L8": {
                "GS1": 1,
                "GS2": "true",
                "GS5": "4e2d74c3-76fc-4266-a154-8f0ea0f4ac9c"
              }
            },
            {
              "BL1": "Terrasoft.Core.Process.ProcessSchemaParameter",
              "UId": "c8ee90f3-8946-4348-91a8-ca9e7bfd64d3",
              "A2": "NumberOfRecords",
              "A3": "cb455b6f-78ff-4b1e-b241-c2bbc0b37e9f",
              "A4": "cb455b6f-78ff-4b1e-b241-c2bbc0b37e9f",
              "IL2": "2f5c9ad3-63a0-463c-8bfc-88175a50e845",
              "L1": "6b6b74e2-820d-490e-a017-2b73d4ccf2b0",
              "L8": {
                "GS1": 1,
                "GS2": "50",
                "GS5": "4e2d74c3-76fc-4266-a154-8f0ea0f4ac9c"
              }
            },
            {
              "BL1": "Terrasoft.Core.Process.ProcessSchemaParameter",
              "UId": "b55b27a4-0c61-49ef-ba0b-248843976379",
              "A2": "FunctionType",
              "A3": "cb455b6f-78ff-4b1e-b241-c2bbc0b37e9f",
              "A4": "cb455b6f-78ff-4b1e-b241-c2bbc0b37e9f",
              "IL2": "2f5c9ad3-63a0-463c-8bfc-88175a50e845",
              "L1": "6b6b74e2-820d-490e-a017-2b73d4ccf2b0",
              "L8": {
                "GS1": 1,
                "GS2": "0",
                "GS5": "4e2d74c3-76fc-4266-a154-8f0ea0f4ac9c"
              }
            },
            {
              "BL1": "Terrasoft.Core.Process.ProcessSchemaParameter",
              "UId": "092a4442-fc9e-497e-8aaa-6c5a4467130e",
              "A2": "AggregationColumnName",
              "A3": "cb455b6f-78ff-4b1e-b241-c2bbc0b37e9f",
              "A4": "cb455b6f-78ff-4b1e-b241-c2bbc0b37e9f",
              "IL2": "2f5c9ad3-63a0-463c-8bfc-88175a50e845",
              "L1": "394e160f-c8e0-46fa-9c0d-75d97e9e9169",
              "L8": {}
            },
            {
              "BL1": "Terrasoft.Core.Process.ProcessSchemaParameter",
              "UId": "bdd34e93-7741-4735-8a0c-c0ed34f068e5",
              "A2": "OrderInfo",
              "A3": "cb455b6f-78ff-4b1e-b241-c2bbc0b37e9f",
              "A4": "cb455b6f-78ff-4b1e-b241-c2bbc0b37e9f",
              "IL2": "2f5c9ad3-63a0-463c-8bfc-88175a50e845",
              "L1": "394e160f-c8e0-46fa-9c0d-75d97e9e9169",
              "L8": {
                "GS1": 1,
                "GS2": "CreatedOn:1:1",
                "GS5": "4e2d74c3-76fc-4266-a154-8f0ea0f4ac9c"
              }
            },
            {
              "BL1": "Terrasoft.Core.Process.ProcessSchemaParameter",
              "UId": "2a009a59-2f90-4ed7-8e3b-4247d97adf9a",
              "A2": "ResultEntity",
              "A3": "cb455b6f-78ff-4b1e-b241-c2bbc0b37e9f",
              "A4": "cb455b6f-78ff-4b1e-b241-c2bbc0b37e9f",
              "A5": "66e9e705-64b4-4dda-925e-d1e05a389eb6",
              "IL2": "2f5c9ad3-63a0-463c-8bfc-88175a50e845",
              "L1": "ebd85d37-0abf-4bbf-bb32-97dc3dffcc8c",
              "L8": {
                "GS1": 1,
                "GS5": "4e2d74c3-76fc-4266-a154-8f0ea0f4ac9c"
              },
              "L9": "320df743-3859-42ab-846e-d598464cd4c4",
              "L13": true,
              "L16": "WatAgreement"
            },
            {
              "BL1": "Terrasoft.Core.Process.ProcessSchemaParameter",
              "UId": "3b481ad4-8075-4d6f-80be-41e410c01253",
              "A2": "ResultCount",
              "A3": "cb455b6f-78ff-4b1e-b241-c2bbc0b37e9f",
              "A4": "cb455b6f-78ff-4b1e-b241-c2bbc0b37e9f",
              "IL2": "2f5c9ad3-63a0-463c-8bfc-88175a50e845",
              "L1": "6b6b74e2-820d-490e-a017-2b73d4ccf2b0",
              "L8": {}
            },
            {
              "BL1": "Terrasoft.Core.Process.ProcessSchemaParameter",
              "UId": "6176b2aa-69c7-4a3f-b8b2-fe01ca5d8f11",
              "A2": "ResultIntegerFunction",
              "A3": "cb455b6f-78ff-4b1e-b241-c2bbc0b37e9f",
              "A4": "cb455b6f-78ff-4b1e-b241-c2bbc0b37e9f",
              "IL2": "2f5c9ad3-63a0-463c-8bfc-88175a50e845",
              "L1": "6b6b74e2-820d-490e-a017-2b73d4ccf2b0",
              "L8": {}
            },
            {
              "BL1": "Terrasoft.Core.Process.ProcessSchemaParameter",
              "UId": "f4c43605-0436-480f-bb74-c23f3421bf20",
              "A2": "ResultFloatFunction",
              "A3": "cb455b6f-78ff-4b1e-b241-c2bbc0b37e9f",
              "A4": "cb455b6f-78ff-4b1e-b241-c2bbc0b37e9f",
              "IL2": "2f5c9ad3-63a0-463c-8bfc-88175a50e845",
              "L1": "ff22e049-4d16-46ee-a529-92d8808932dc",
              "L8": {}
            },
            {
              "BL1": "Terrasoft.Core.Process.ProcessSchemaParameter",
              "UId": "50e93894-26b4-491e-89cc-602f7afb5347",
              "A2": "ResultDateTimeFunction",
              "A3": "cb455b6f-78ff-4b1e-b241-c2bbc0b37e9f",
              "A4": "cb455b6f-78ff-4b1e-b241-c2bbc0b37e9f",
              "IL2": "2f5c9ad3-63a0-463c-8bfc-88175a50e845",
              "L1": "d21e9ef4-c064-4012-b286-fa1a8171da44",
              "L8": {}
            },
            {
              "BL1": "Terrasoft.Core.Process.ProcessSchemaParameter",
              "UId": "60639abd-5d85-4255-85dd-6c1c52c09a9e",
              "A2": "ResultRowsCount",
              "A3": "cb455b6f-78ff-4b1e-b241-c2bbc0b37e9f",
              "A4": "cb455b6f-78ff-4b1e-b241-c2bbc0b37e9f",
              "IL2": "2f5c9ad3-63a0-463c-8bfc-88175a50e845",
              "L1": "6b6b74e2-820d-490e-a017-2b73d4ccf2b0",
              "L8": {}
            },
            {
              "BL1": "Terrasoft.Core.Process.ProcessSchemaParameter",
              "UId": "8c565a17-b8ec-4e62-a301-0cd68b7a1efc",
              "A2": "CanReadUncommitedData",
              "A3": "cb455b6f-78ff-4b1e-b241-c2bbc0b37e9f",
              "A4": "cb455b6f-78ff-4b1e-b241-c2bbc0b37e9f",
              "IL2": "2f5c9ad3-63a0-463c-8bfc-88175a50e845",
              "L1": "90b65bf8-0ffc-4141-8779-2420877af907",
              "L8": {
                "GS1": 1,
                "GS2": "true",
                "GS5": "cb455b6f-78ff-4b1e-b241-c2bbc0b37e9f"
              }
            },
            {
              "BL1": "Terrasoft.Core.Process.ProcessSchemaParameter",
              "UId": "174ea7a5-055d-4dbf-b2c4-27b5e25844c0",
              "A2": "ResultEntityCollection",
              "A3": "cb455b6f-78ff-4b1e-b241-c2bbc0b37e9f",
              "A4": "cb455b6f-78ff-4b1e-b241-c2bbc0b37e9f",
              "IL2": "2f5c9ad3-63a0-463c-8bfc-88175a50e845",
              "L1": "51fb23ba-3eb2-11e2-b7d5-b0c76188709b",
              "L8": {}
            },
            {
              "BL1": "Terrasoft.Core.Process.ProcessSchemaParameter",
              "UId": "33a54181-709f-4a02-b0e9-6d5b9e44e247",
              "A2": "EntityColumnMetaPathes",
              "A3": "cb455b6f-78ff-4b1e-b241-c2bbc0b37e9f",
              "A4": "cb455b6f-78ff-4b1e-b241-c2bbc0b37e9f",
              "IL2": "2f5c9ad3-63a0-463c-8bfc-88175a50e845",
              "L1": "394e160f-c8e0-46fa-9c0d-75d97e9e9169",
              "L8": {
                "GS1": 1,
                "GS2": "ae0e45ca-c495-4fe7-a39d-3ab7278e1617",
                "GS5": "4e2d74c3-76fc-4266-a154-8f0ea0f4ac9c"
              }
            },
            {
              "BL1": "Terrasoft.Core.Process.ProcessSchemaParameter",
              "UId": "5e147c1e-61c1-4809-866f-d29d83ad2b2e",
              "A2": "IgnoreDisplayValues",
              "A3": "cb455b6f-78ff-4b1e-b241-c2bbc0b37e9f",
              "A4": "cb455b6f-78ff-4b1e-b241-c2bbc0b37e9f",
              "IL2": "2f5c9ad3-63a0-463c-8bfc-88175a50e845",
              "L1": "90b65bf8-0ffc-4141-8779-2420877af907",
              "L8": {}
            },
            {
              "BL1": "Terrasoft.Core.Process.ProcessSchemaParameter",
              "UId": "2e606f3a-dd34-49cf-a4d1-1541a61ead62",
              "A2": "ResultCompositeObjectList",
              "A3": "cb455b6f-78ff-4b1e-b241-c2bbc0b37e9f",
              "A4": "cb455b6f-78ff-4b1e-b241-c2bbc0b37e9f",
              "IL2": "2f5c9ad3-63a0-463c-8bfc-88175a50e845",
              "L1": "651ec16f-d140-46db-b9e2-825c985a8ac2",
              "L8": {}
            },
            {
              "BL1": "Terrasoft.Core.Process.ProcessSchemaParameter",
              "UId": "01646aa8-7f3c-47a3-b674-9893cd803fe1",
              "A2": "ConsiderTimeInFilter",
              "A3": "cb455b6f-78ff-4b1e-b241-c2bbc0b37e9f",
              "A4": "cb455b6f-78ff-4b1e-b241-c2bbc0b37e9f",
              "IL2": "2f5c9ad3-63a0-463c-8bfc-88175a50e845",
              "L1": "90b65bf8-0ffc-4141-8779-2420877af907",
              "L8": {
                "GS1": 3,
                "GS2": "true",
                "GS5": "cb455b6f-78ff-4b1e-b241-c2bbc0b37e9f",
                "GS8": "false"
              }
            }
          ],
          "CL2": "FFFFFFFF",
          "J6": "cb455b6f-78ff-4b1e-b241-c2bbc0b37e9f"
        },
        {
          "BL1": "Terrasoft.Core.Process.ProcessSchemaFormulaTask",
          "UId": "94ae1988-0659-4437-8589-bb25b0f5bf16",
          "A2": "FormulaTask1",
          "A3": "4e2d74c3-76fc-4266-a154-8f0ea0f4ac9c",
          "A4": "4e2d74c3-76fc-4266-a154-8f0ea0f4ac9c",
          "A5": "a00051f4-cde3-4f3f-b08e-c5ad1a5c735a",
          "IL2": "c92b22e2-9760-41ae-8722-d5616d3c3d93",
          "BL3": "406;172",
          "BL7": "d334d28f-b11a-477e-9ff0-0a95fa73d53b",
          "BL8": "4e2d74c3-76fc-4266-a154-8f0ea0f4ac9c",
          "BN2": "69;55",
          "BO3": true,
          "BP2": [],
          "CL2": "FFFFFFFF",
          "CH1": "[#[IsOwnerSchema:false].[IsSchema:false].[Element:{2f5c9ad3-63a0-463c-8bfc-88175a50e845}].[Parameter:{2a009a59-2f90-4ed7-8e3b-4247d97adf9a}].[EntityColumn:{ae0e45ca-c495-4fe7-a39d-3ab7278e1617}]#]",
          "HS1": "051200fa-e1be-42f5-88b1-dda6a5dad4d4"
        },
        {
          "BL1": "Terrasoft.Core.Process.ProcessSchemaExclusiveGateway",
          "UId": "2ba7df0e-7fba-4d8a-ba90-50d9ea1c20cb",
          "A2": "ExclusiveGateway1",
          "A3": "4e2d74c3-76fc-4266-a154-8f0ea0f4ac9c",
          "A4": "4e2d74c3-76fc-4266-a154-8f0ea0f4ac9c",
          "A5": "a00051f4-cde3-4f3f-b08e-c5ad1a5c735a",
          "IL2": "c92b22e2-9760-41ae-8722-d5616d3c3d93",
          "BL3": "271;172",
          "BL7": "bd9f7570-6c97-4f16-90e5-663a190c6c7c",
          "BL8": "4e2d74c3-76fc-4266-a154-8f0ea0f4ac9c",
          "BN2": "55;55",
          "BO3": true,
          "HH2": []
        },
        {
          "BL1": "Terrasoft.Core.Process.ProcessSchemaTerminateEvent",
          "UId": "1d44bb64-b605-4d01-b9e9-483efc0be1c9",
          "A2": "TerminateEvent2",
          "A3": "4e2d74c3-76fc-4266-a154-8f0ea0f4ac9c",
          "A4": "4e2d74c3-76fc-4266-a154-8f0ea0f4ac9c",
          "A5": "a00051f4-cde3-4f3f-b08e-c5ad1a5c735a",
          "IL2": "c92b22e2-9760-41ae-8722-d5616d3c3d93",
          "BL3": "283;318",
          "BL7": "1bd93619-0574-454e-bb4e-cf53b9eb9470",
          "BL8": "4e2d74c3-76fc-4266-a154-8f0ea0f4ac9c",
          "BN2": "31;31",
          "BO3": true,
          "FC1": []
        },
        {
          "BL1": "Terrasoft.Core.Process.ProcessSchemaIntermediateCatchTimerEvent",
          "UId": "7c08e07b-b8f3-41c3-a4fa-e2f7c0ad90b2",
          "A2": "IntermediateCatchTimer1",
          "A3": "4e2d74c3-76fc-4266-a154-8f0ea0f4ac9c",
          "A4": "4e2d74c3-76fc-4266-a154-8f0ea0f4ac9c",
          "A5": "a00051f4-cde3-4f3f-b08e-c5ad1a5c735a",
          "IL2": "c92b22e2-9760-41ae-8722-d5616d3c3d93",
          "IL3": true,
          "BL3": "425;79",
          "BL7": "97d1af3d-ef13-465c-b6d8-5425f78bf000",
          "BL8": "4e2d74c3-76fc-4266-a154-8f0ea0f4ac9c",
          "BN2": "31;31",
          "BO3": true,
          "FC1": [
            {
              "BL1": "Terrasoft.Core.Process.ProcessSchemaParameter",
              "UId": "7988e34c-f747-46d0-89c9-2b86f40215ee",
              "A2": "StartOffset",
              "A3": "4e2d74c3-76fc-4266-a154-8f0ea0f4ac9c",
              "A4": "4e2d74c3-76fc-4266-a154-8f0ea0f4ac9c",
              "IL2": "7c08e07b-b8f3-41c3-a4fa-e2f7c0ad90b2",
              "L1": "6b6b74e2-820d-490e-a017-2b73d4ccf2b0",
              "L8": {
                "GS1": 1,
                "GS2": "3",
                "GS5": "4e2d74c3-76fc-4266-a154-8f0ea0f4ac9c"
              }
            }
          ],
          "BY3": 0
        },
        {
          "BL1": "Terrasoft.Core.Process.ProcessSchemaStartTimerEvent",
          "UId": "ec278e09-7933-42b5-9406-5a7cb2fcfd6f",
          "A2": "StartTimerEvent1",
          "A3": "4e2d74c3-76fc-4266-a154-8f0ea0f4ac9c",
          "A4": "4e2d74c3-76fc-4266-a154-8f0ea0f4ac9c",
          "A5": "a00051f4-cde3-4f3f-b08e-c5ad1a5c735a",
          "IL2": "c92b22e2-9760-41ae-8722-d5616d3c3d93",
          "BL3": "50;184",
          "BL7": "c735ed92-e545-4699-b3c6-f8f57dd8c529",
          "BL8": "4e2d74c3-76fc-4266-a154-8f0ea0f4ac9c",
          "BN2": "31;31",
          "BO3": true,
          "FC1": [],
          "ED1": false,
          "PS1": "0 0 7 * * ? *",
          "PS3": 2,
          "PS6": "Eastern Standard Time"
        },
        {
          "BL1": "Terrasoft.Core.Process.ProcessSchemaStartEvent",
          "UId": "347e5ba0-b498-44be-a54f-6f2995feb298",
          "A2": "StartEvent2",
          "A3": "4e2d74c3-76fc-4266-a154-8f0ea0f4ac9c",
          "A4": "4e2d74c3-76fc-4266-a154-8f0ea0f4ac9c",
          "A5": "a00051f4-cde3-4f3f-b08e-c5ad1a5c735a",
          "IL2": "c92b22e2-9760-41ae-8722-d5616d3c3d93",
          "BL3": "173;304",
          "BL7": "53818048-7868-48f6-ada0-0ebaa65af628",
          "BL8": "4e2d74c3-76fc-4266-a154-8f0ea0f4ac9c",
          "BN2": "31;31",
          "BO3": true,
          "FC1": [],
          "ED1": false
        },
        {
          "BL1": "Terrasoft.Core.Process.ProcessSchemaSequenceFlow",
          "UId": "8f1f82d2-744c-479b-ae1f-96aa7082e44f",
          "A2": "SequenceFlow1",
          "A3": "4e2d74c3-76fc-4266-a154-8f0ea0f4ac9c",
          "A4": "4e2d74c3-76fc-4266-a154-8f0ea0f4ac9c",
          "A5": "a00051f4-cde3-4f3f-b08e-c5ad1a5c735a",
          "BL7": "0d8351f6-c2f4-4737-bdd9-6fbfe0837fec",
          "BL8": "4e2d74c3-76fc-4266-a154-8f0ea0f4ac9c",
          "CI1": "ec278e09-7933-42b5-9406-5a7cb2fcfd6f",
          "CI2": "2f5c9ad3-63a0-463c-8bfc-88175a50e845",
          "CI3": "null",
          "CI5": "FF939598",
          "CI6": 1,
          "CI11": "81;200",
          "CI12": "154;200"
        },
        {
          "BL1": "Terrasoft.Core.Process.ProcessSchemaSequenceFlow",
          "UId": "86b8e5ad-7987-4ce7-a6f6-8d895cb13dc0",
          "A2": "SequenceFlow2",
          "A3": "4e2d74c3-76fc-4266-a154-8f0ea0f4ac9c",
          "A4": "4e2d74c3-76fc-4266-a154-8f0ea0f4ac9c",
          "A5": "a00051f4-cde3-4f3f-b08e-c5ad1a5c735a",
          "BL7": "0d8351f6-c2f4-4737-bdd9-6fbfe0837fec",
          "BL8": "4e2d74c3-76fc-4266-a154-8f0ea0f4ac9c",
          "CI1": "b9b0dde0-66e6-4e24-9b1c-280a028a2905",
          "CI2": "951c77a3-2bb0-4f9b-a805-7d1453f88754",
          "CI3": "null",
          "CI5": "FF939598",
          "CI6": 1,
          "CI11": "598;200",
          "CI12": "655;200"
        },
        {
          "BL1": "Terrasoft.Core.Process.ProcessSchemaSequenceFlow",
          "UId": "c86fd532-b60f-417b-bbba-a42a4ab19816",
          "A2": "SequenceFlow3",
          "A3": "4e2d74c3-76fc-4266-a154-8f0ea0f4ac9c",
          "A4": "4e2d74c3-76fc-4266-a154-8f0ea0f4ac9c",
          "A5": "a00051f4-cde3-4f3f-b08e-c5ad1a5c735a",
          "BL7": "0d8351f6-c2f4-4737-bdd9-6fbfe0837fec",
          "BL8": "4e2d74c3-76fc-4266-a154-8f0ea0f4ac9c",
          "CI1": "951c77a3-2bb0-4f9b-a805-7d1453f88754",
          "CI2": "7c08e07b-b8f3-41c3-a4fa-e2f7c0ad90b2",
          "CI3": "null",
          "CI5": "FF939598",
          "CI6": 1,
          "CI7": "0;1",
          "CI8": "1;0",
          "CI11": "690;172",
          "CI12": "456;95",
          "CI10": {
            "Item0": "690;95"
          }
        },
        {
          "BL1": "Terrasoft.Core.Process.ProcessSchemaSequenceFlow",
          "UId": "12b01a3d-10d7-43c2-94a8-ef5814734b5e",
          "A2": "SequenceFlow4",
          "A3": "4e2d74c3-76fc-4266-a154-8f0ea0f4ac9c",
          "A4": "4e2d74c3-76fc-4266-a154-8f0ea0f4ac9c",
          "A5": "a00051f4-cde3-4f3f-b08e-c5ad1a5c735a",
          "BL7": "0d8351f6-c2f4-4737-bdd9-6fbfe0837fec",
          "BL8": "4e2d74c3-76fc-4266-a154-8f0ea0f4ac9c",
          "CI1": "2f5c9ad3-63a0-463c-8bfc-88175a50e845",
          "CI2": "2ba7df0e-7fba-4d8a-ba90-50d9ea1c20cb",
          "CI3": "null",
          "CI5": "FF939598",
          "CI6": 1,
          "CI11": "223;200",
          "CI12": "271;200"
        },
        {
          "BL1": "Terrasoft.Core.Process.ProcessSchemaSequenceFlow",
          "UId": "04202749-9b5b-4d56-9653-d87bb94c5f57",
          "A2": "SequenceFlow5",
          "A3": "4e2d74c3-76fc-4266-a154-8f0ea0f4ac9c",
          "A4": "4e2d74c3-76fc-4266-a154-8f0ea0f4ac9c",
          "A5": "a00051f4-cde3-4f3f-b08e-c5ad1a5c735a",
          "BL7": "0d8351f6-c2f4-4737-bdd9-6fbfe0837fec",
          "BL8": "4e2d74c3-76fc-4266-a154-8f0ea0f4ac9c",
          "CI1": "94ae1988-0659-4437-8589-bb25b0f5bf16",
          "CI2": "b9b0dde0-66e6-4e24-9b1c-280a028a2905",
          "CI3": "null",
          "CI5": "FF939598",
          "CI6": 1,
          "CI11": "475;200",
          "CI12": "529;200"
        },
        {
          "BL1": "Terrasoft.Core.Process.ProcessSchemaConditionalFlow",
          "UId": "8d4d8af1-8ab5-4a74-a281-64a2bd1e3f8b",
          "A2": "ConditionalSequenceFlow1",
          "A3": "4e2d74c3-76fc-4266-a154-8f0ea0f4ac9c",
          "A4": "4e2d74c3-76fc-4266-a154-8f0ea0f4ac9c",
          "A5": "a00051f4-cde3-4f3f-b08e-c5ad1a5c735a",
          "BL7": "dac675d4-ea84-4e44-9056-38bf918618e9",
          "BL8": "4e2d74c3-76fc-4266-a154-8f0ea0f4ac9c",
          "CI1": "2ba7df0e-7fba-4d8a-ba90-50d9ea1c20cb",
          "CI2": "94ae1988-0659-4437-8589-bb25b0f5bf16",
          "CI3": "[#[IsOwnerSchema:false].[IsSchema:false].[Element:{2f5c9ad3-63a0-463c-8bfc-88175a50e845}].[Parameter:{2a009a59-2f90-4ed7-8e3b-4247d97adf9a}].[EntityColumn:{ae0e45ca-c495-4fe7-a39d-3ab7278e1617}]#] != Guid.Empty",
          "CI4": 2,
          "CI5": "FF939598",
          "CI6": 1,
          "CI11": "326;200",
          "CI12": "406;200",
          "GV2": "{\"$type\":\"System.Collections.Generic.Dictionary`2[[System.Guid, mscorlib],[System.Collections.ObjectModel.Collection`1[[System.Guid, mscorlib]], mscorlib]], mscorlib\"}",
          "GV3": []
        },
        {
          "BL1": "Terrasoft.Core.Process.ProcessSchemaSequenceFlow",
          "UId": "3fe9f6d8-7c8b-4205-aa43-d64d456c3a24",
          "A2": "DefaultSequenceFlow1",
          "A3": "4e2d74c3-76fc-4266-a154-8f0ea0f4ac9c",
          "A4": "4e2d74c3-76fc-4266-a154-8f0ea0f4ac9c",
          "A5": "a00051f4-cde3-4f3f-b08e-c5ad1a5c735a",
          "BL7": "573ed909-e069-4161-b193-ae8dd9437c68",
          "BL8": "4e2d74c3-76fc-4266-a154-8f0ea0f4ac9c",
          "CI1": "2ba7df0e-7fba-4d8a-ba90-50d9ea1c20cb",
          "CI2": "1d44bb64-b605-4d01-b9e9-483efc0be1c9",
          "CI3": "null",
          "CI4": 1,
          "CI5": "FF939598",
          "CI6": 1
        },
        {
          "BL1": "Terrasoft.Core.Process.ProcessSchemaSequenceFlow",
          "UId": "4598efed-ee19-42cf-9230-699fb3479403",
          "A2": "SequenceFlow6",
          "A3": "4e2d74c3-76fc-4266-a154-8f0ea0f4ac9c",
          "A4": "4e2d74c3-76fc-4266-a154-8f0ea0f4ac9c",
          "A5": "a00051f4-cde3-4f3f-b08e-c5ad1a5c735a",
          "BL7": "0d8351f6-c2f4-4737-bdd9-6fbfe0837fec",
          "BL8": "4e2d74c3-76fc-4266-a154-8f0ea0f4ac9c",
          "CI1": "7c08e07b-b8f3-41c3-a4fa-e2f7c0ad90b2",
          "CI2": "2f5c9ad3-63a0-463c-8bfc-88175a50e845",
          "CI3": "null",
          "CI5": "FF939598",
          "CI6": 1,
          "CI7": "-1;0",
          "CI8": "0;1",
          "CI11": "425;95",
          "CI12": "189;172",
          "CI10": {
            "Item0": "189;95"
          }
        },
        {
          "BL1": "Terrasoft.Core.Process.ProcessSchemaSequenceFlow",
          "UId": "bf379301-e51d-4885-97f6-5643ec4827b8",
          "A2": "SequenceFlow7",
          "A3": "4e2d74c3-76fc-4266-a154-8f0ea0f4ac9c",
          "A4": "4e2d74c3-76fc-4266-a154-8f0ea0f4ac9c",
          "A5": "a00051f4-cde3-4f3f-b08e-c5ad1a5c735a",
          "BL7": "0d8351f6-c2f4-4737-bdd9-6fbfe0837fec",
          "BL8": "4e2d74c3-76fc-4266-a154-8f0ea0f4ac9c",
          "CI1": "347e5ba0-b498-44be-a54f-6f2995feb298",
          "CI2": "2f5c9ad3-63a0-463c-8bfc-88175a50e845",
          "CI3": "null",
          "CI5": "FF939598",
          "CI6": 1,
          "CI11": "189;304",
          "CI12": "189;227"
        }
      ],
      "BK9": [],
      "BK18": "Business Process",
      "BK29": true,
      "BK30": true,
      "BK34": "null",
      "Labels": [
        {
          "BL1": "Terrasoft.Core.Process.ProcessSchemaLabel",
          "UId": "a60e763a-8abf-8e90-c339-b73af9ce7ef3",
          "A2": "ConditionalSequenceFlow1_label1",
          "A3": "4e2d74c3-76fc-4266-a154-8f0ea0f4ac9c",
          "A4": "4e2d74c3-76fc-4266-a154-8f0ea0f4ac9c",
          "ParentUId": "8d4d8af1-8ab5-4a74-a281-64a2bd1e3f8b",
          "X": 78
        }
      ],
      "BK24": []
    }
  }
}