﻿{
  "Descriptor": {
    "UId": "29492702-cbc6-4e76-9d0e-fb12535b2008",
    "Name": "WatAgreementType",
    "ModifiedOnUtc": "\/Date(1606331979000)\/",
    "Parent": {
      "UId": "11ab4bcb-9b23-4b6d-9c86-520fae925d75",
      "Name": "BaseLookup"
    },
    "ManagerName": "EntitySchemaManager",
    "Caption": "Agreement Type"
  }
}