﻿{
  "SqlScript": {
    "UId": "98899892-bb0c-40be-9482-82349c0f20e3",
    "Name": "SysImage_EmailTemplate_Wat14_HighRiskGroupTripNotification",
    "DBEngineType": 0,
    "InstallType": 2,
    "ModifiedOnUtc": "\/Date(1616610536000)\/",
    "DependsOn": []
  }
}