﻿{
  "Descriptor": {
    "UId": "ab8b1446-a5a7-4cd7-b1d2-5cf9d4487508",
    "Name": "WatAgreementTermDates1fd4ff81Section",
    "ModifiedOnUtc": "\/Date(1601069078000)\/",
    "Parent": {
      "UId": "7912fb69-4fee-429f-8b23-93943c35d66d",
      "Name": "BaseSectionV2"
    },
    "ManagerName": "ClientUnitSchemaManager",
    "Caption": "Section schema: \"Agreement Term Dates\""
  }
}