﻿{
  "PackageData": [
    {
      "Row": [
        {
          "SchemaColumnUId": "ae0e45ca-c495-4fe7-a39d-3ab7278e1617",
          "Value": "21bd7c8d-af63-49bb-a5e4-a63bc17716e6"
        },
        {
          "SchemaColumnUId": "49ad8ee2-65a6-4cdd-b8f6-85c2f10a54dc",
          "Value": "Partnership Requests attachment"
        },
        {
          "SchemaColumnUId": "8585929c-62ae-4673-ae8d-bb37f87e5144",
          "Value": "0c43958a-a409-47bc-a3cb-9bc32451a45a"
        },
        {
          "SchemaColumnUId": "631e7238-2751-4a21-b6d6-9f1ac0c84f95",
          "Value": "d90053e8-38bd-41de-b17e-2b000626b36e"
        }
      ]
    }
  ]
}