﻿{
  "Descriptor": {
    "UId": "16c2d2de-0f7d-4f44-86d9-09c070617433",
    "Name": "WatAnvilExportFile",
    "ModifiedOnUtc": "\/Date(1614725223000)\/",
    "Parent": {
      "UId": "556c5867-60a7-4456-aae1-a57a122bef70",
      "Name": "File"
    },
    "ManagerName": "EntitySchemaManager",
    "Caption": "Anvil Export attachment"
  }
}