﻿{
  "Descriptor": {
    "UId": "d4f0cdc7-308f-46ad-b178-c3ecf4b36159",
    "Name": "WatPartnershipRequestVisa",
    "ModifiedOnUtc": "\/Date(1600185227000)\/",
    "Parent": {
      "UId": "5fa90d0d-64eb-4f52-8d3d-c51fa6443b66",
      "Name": "BaseVisa"
    },
    "ManagerName": "EntitySchemaManager",
    "Caption": "Approvals in section Partnership Requests"
  }
}