﻿{
  "Descriptor": {
    "UId": "5d192ae0-f2b4-494c-86c1-686d451b6cc1",
    "Name": "WatArrivalNotice",
    "ModifiedOnUtc": "\/Date(1675268649000)\/",
    "Parent": {
      "UId": "1bab9dcf-17d5-49f8-9536-8e0064f1dce0",
      "Name": "BaseEntity"
    },
    "ManagerName": "EntitySchemaManager",
    "Caption": "Travel contact infos",
    "DependsOn": []
  }
}