﻿{
  "PackageData": [
    {
      "Row": [
        {
          "SchemaColumnUId": "ae0e45ca-c495-4fe7-a39d-3ab7278e1617",
          "Value": "d92c0cc3-d40e-4203-ac9b-8b4133e27914"
        },
        {
          "SchemaColumnUId": "13aad544-ec30-4e76-a373-f0cff3202e24",
          "Value": "WatTier2TravelApprover"
        },
        {
          "SchemaColumnUId": "3fd9f15d-37f4-4f91-a6cf-f222d54e342d",
          "Value": "null",
          "DisplayValue": ""
        },
        {
          "SchemaColumnUId": "64fadca1-ab7c-4471-9d25-68599acc729b",
          "Value": false
        },
        {
          "SchemaColumnUId": "764cd95a-59b3-4060-b17f-2797d5c76aaa",
          "Value": false
        },
        {
          "SchemaColumnUId": "9928edec-4272-425a-93bb-48743fee4b04",
          "Value": "\/Date(1681824953981+0000)\/"
        },
        {
          "SchemaColumnUId": "b2280617-35f9-4006-8634-c557a2e121c2",
          "Value": "null"
        },
        {
          "SchemaColumnUId": "e80190a5-03b2-4095-90f7-a193a960adee",
          "Value": "\/Date(1681824953981+0000)\/"
        },
        {
          "SchemaColumnUId": "eb971f1a-dd41-4668-99aa-1f2a6b61a1b9",
          "Value": true
        },
        {
          "SchemaColumnUId": "f7960a8a-1fd4-41d2-997a-fd78ea60075f",
          "Value": "Text"
        }
      ]
    }
  ]
}