﻿{
  "Descriptor": {
    "UId": "dc494893-a3a0-434e-a40f-e8117de58302",
    "Name": "WatTravelSituation1MiniPage",
    "ModifiedOnUtc": "\/Date(1614179410000)\/",
    "Parent": {
      "UId": "8e06a577-08e4-424e-bd89-798a34e1b928",
      "Name": "BaseMiniPage"
    },
    "ManagerName": "ClientUnitSchemaManager",
    "Caption": "WatTravelSituation1MiniPage"
  }
}