﻿{
  "Descriptor": {
    "UId": "1c2c6b50-6f57-4076-a53e-a6661204a3c1",
    "Name": "WatProcess9SetTimerAsCompleted",
    "ModifiedOnUtc": "\/Date(1675122484000)\/",
    "ManagerName": "ProcessSchemaManager",
    "Caption": "SM#9 S-(Timer): Timer Completion + Recount Group Travellers + Anvil Exported",
    "DependsOn": []
  }
}