﻿{
  "Descriptor": {
    "UId": "f43d7f03-98da-40f5-b790-2eba5b1834ce",
    "Name": "WatDelegationRequestStatus",
    "ModifiedOnUtc": "\/Date(1598627137000)\/",
    "Parent": {
      "UId": "11ab4bcb-9b23-4b6d-9c86-520fae925d75",
      "Name": "BaseLookup"
    },
    "ManagerName": "EntitySchemaManager",
    "Caption": "Delegation Request Status"
  }
}