﻿{
  "Descriptor": {
    "UId": "26408778-e74a-4ed7-a22e-9843024ba9c9",
    "Name": "WatProcess12_1CancelEmailTask",
    "ModifiedOnUtc": "\/Date(1615425996000)\/",
    "ManagerName": "ProcessSchemaManager",
    "Caption": "SM#12-1 (Activity): Cancel Email Task"
  }
}