﻿{
  "Descriptor": {
    "UId": "e8f6f7e0-473a-43ca-bdd6-06ab1e101cf6",
    "Name": "WatTravelerFile",
    "ModifiedOnUtc": "\/Date(1602779981000)\/",
    "Parent": {
      "UId": "556c5867-60a7-4456-aae1-a57a122bef70",
      "Name": "File"
    },
    "ManagerName": "EntitySchemaManager",
    "Caption": "Travelers attachment"
  }
}