﻿{
  "Descriptor": {
    "UId": "31c7a5b4-cd73-4c55-b23e-6c5a879154ca",
    "Name": "WatProcess18SetAgreementStageCycleRecords",
    "ModifiedOnUtc": "\/Date(1605901861000)\/",
    "ManagerName": "ProcessSchemaManager",
    "Caption": "SM#18 (Agreement Stage): Set Stage Cycle Records"
  }
}