﻿{
  "Descriptor": {
    "UId": "512bbd2a-21d3-41ad-9035-d9b96c7fe583",
    "Name": "SysImage_d9d37eeaec0c4efe9f3754abf804a49b",
    "ModifiedOnUtc": "\/Date(1677802013000)\/",
    "InstallType": 0,
    "Schema": {
      "UId": "93986bfe-2dbd-46bc-9bf9-d03dfefbf3b8",
      "Name": "SysImage"
    },
    "Columns": [
      {
        "ColumnUId": "d245dcaf-23bd-4b73-8718-26fdf38b443b",
        "IsForceUpdate": false,
        "IsKey": false,
        "ColumnName": "Name",
        "DataTypeValueUId": "ddb3a1ee-07e8-4d62-b7a9-d0e618b00fbd"
      },
      {
        "ColumnUId": "1e236958-f206-4fde-8a0e-6783fc223424",
        "IsForceUpdate": false,
        "IsKey": false,
        "ColumnName": "Data",
        "DataTypeValueUId": "fa6e6e49-b996-475e-a77e-73904e4c5a88"
      },
      {
        "ColumnUId": "b3cd8485-7bd8-4b70-b2dd-bc41e45e9992",
        "IsForceUpdate": false,
        "IsKey": false,
        "ColumnName": "HasRef",
        "DataTypeValueUId": "90b65bf8-0ffc-4141-8779-2420877af907"
      },
      {
        "ColumnUId": "08ccfffd-cb3e-47c3-9729-1d043a5812e4",
        "IsForceUpdate": false,
        "IsKey": false,
        "ColumnName": "UploadedOn",
        "DataTypeValueUId": "d21e9ef4-c064-4012-b286-fa1a8171da44"
      },
      {
        "ColumnUId": "ae0e45ca-c495-4fe7-a39d-3ab7278e1617",
        "IsForceUpdate": false,
        "IsKey": true,
        "ColumnName": "Id",
        "DataTypeValueUId": "23018567-a13c-4320-8687-fd6f9e3699bd"
      },
      {
        "ColumnUId": "be95e737-14e9-4253-b0c4-e280da05434d",
        "IsForceUpdate": false,
        "IsKey": false,
        "ColumnName": "MimeType",
        "DataTypeValueUId": "325a73b8-0f47-44a0-8412-7606f78003ac"
      },
      {
        "ColumnUId": "90801d7c-a189-4afe-9c3a-a202fbf242d8",
        "IsForceUpdate": false,
        "IsKey": false,
        "ColumnName": "PreviewData",
        "DataTypeValueUId": "fa6e6e49-b996-475e-a77e-73904e4c5a88"
      },
      {
        "ColumnUId": "aebb8105-4a48-883c-e068-74ad2ab797a7",
        "IsForceUpdate": false,
        "IsKey": false,
        "ColumnName": "Hash",
        "DataTypeValueUId": "325a73b8-0f47-44a0-8412-7606f78003ac"
      }
    ]
  }
}