﻿{
  "PackageData": [
    {
      "Row": [
        {
          "SchemaColumnUId": "ae0e45ca-c495-4fe7-a39d-3ab7278e1617",
          "Value": "00cfc362-5097-4bc5-beeb-b58f031463be"
        },
        {
          "SchemaColumnUId": "134c280f-f7a7-4ac5-beeb-4ab1ed9e4ff5",
          "Value": "0def516a-2219-4fed-9d7e-3853808fe2c1"
        },
        {
          "SchemaColumnUId": "21a61238-45dc-4089-9882-cc1be097cbf8",
          "Value": true
        },
        {
          "SchemaColumnUId": "2cda2c20-d48a-44d0-b266-5542730b1ad9",
          "Value": true
        },
        {
          "SchemaColumnUId": "379b41a2-dfb5-4069-a267-88ec0653e391",
          "Value": true
        },
        {
          "SchemaColumnUId": "a3dc68d6-f74e-4a57-8411-77a88dfe0bbb",
          "Value": true
        },
        {
          "SchemaColumnUId": "a72532ba-4755-4b2f-8079-c382ae6d0e9a",
          "Value": 0
        },
        {
          "SchemaColumnUId": "d27e9964-a7a6-46dd-9f9a-7cb470c33b98",
          "Value": "720b771c-e7a7-4f31-9cfb-52cd21c3739f",
          "DisplayValue": "All portal users"
        }
      ]
    },
    {
      "Row": [
        {
          "SchemaColumnUId": "ae0e45ca-c495-4fe7-a39d-3ab7278e1617",
          "Value": "310fbddc-7108-4f31-8689-b70f001d9b4e"
        },
        {
          "SchemaColumnUId": "134c280f-f7a7-4ac5-beeb-4ab1ed9e4ff5",
          "Value": "ac16c79e-c168-4ba6-9203-5340305b709e"
        },
        {
          "SchemaColumnUId": "21a61238-45dc-4089-9882-cc1be097cbf8",
          "Value": true
        },
        {
          "SchemaColumnUId": "2cda2c20-d48a-44d0-b266-5542730b1ad9",
          "Value": true
        },
        {
          "SchemaColumnUId": "379b41a2-dfb5-4069-a267-88ec0653e391",
          "Value": true
        },
        {
          "SchemaColumnUId": "a3dc68d6-f74e-4a57-8411-77a88dfe0bbb",
          "Value": true
        },
        {
          "SchemaColumnUId": "a72532ba-4755-4b2f-8079-c382ae6d0e9a",
          "Value": 0
        },
        {
          "SchemaColumnUId": "d27e9964-a7a6-46dd-9f9a-7cb470c33b98",
          "Value": "720b771c-e7a7-4f31-9cfb-52cd21c3739f",
          "DisplayValue": "All portal users"
        }
      ]
    },
    {
      "Row": [
        {
          "SchemaColumnUId": "ae0e45ca-c495-4fe7-a39d-3ab7278e1617",
          "Value": "45c82cbc-df62-4aed-bea3-3ed76a7fa161"
        },
        {
          "SchemaColumnUId": "134c280f-f7a7-4ac5-beeb-4ab1ed9e4ff5",
          "Value": "dcec597e-693e-47d1-88a8-5795346db9fc"
        },
        {
          "SchemaColumnUId": "21a61238-45dc-4089-9882-cc1be097cbf8",
          "Value": true
        },
        {
          "SchemaColumnUId": "2cda2c20-d48a-44d0-b266-5542730b1ad9",
          "Value": true
        },
        {
          "SchemaColumnUId": "379b41a2-dfb5-4069-a267-88ec0653e391",
          "Value": true
        },
        {
          "SchemaColumnUId": "a3dc68d6-f74e-4a57-8411-77a88dfe0bbb",
          "Value": true
        },
        {
          "SchemaColumnUId": "a72532ba-4755-4b2f-8079-c382ae6d0e9a",
          "Value": 0
        },
        {
          "SchemaColumnUId": "d27e9964-a7a6-46dd-9f9a-7cb470c33b98",
          "Value": "a29a3ba5-4b0d-de11-9a51-005056c00008",
          "DisplayValue": "All employees"
        }
      ]
    },
    {
      "Row": [
        {
          "SchemaColumnUId": "ae0e45ca-c495-4fe7-a39d-3ab7278e1617",
          "Value": "4c23155c-07b8-4845-931d-b3869ec814ac"
        },
        {
          "SchemaColumnUId": "134c280f-f7a7-4ac5-beeb-4ab1ed9e4ff5",
          "Value": "ac16c79e-c168-4ba6-9203-5340305b709e"
        },
        {
          "SchemaColumnUId": "21a61238-45dc-4089-9882-cc1be097cbf8",
          "Value": true
        },
        {
          "SchemaColumnUId": "2cda2c20-d48a-44d0-b266-5542730b1ad9",
          "Value": true
        },
        {
          "SchemaColumnUId": "379b41a2-dfb5-4069-a267-88ec0653e391",
          "Value": true
        },
        {
          "SchemaColumnUId": "a3dc68d6-f74e-4a57-8411-77a88dfe0bbb",
          "Value": true
        },
        {
          "SchemaColumnUId": "a72532ba-4755-4b2f-8079-c382ae6d0e9a",
          "Value": 1
        },
        {
          "SchemaColumnUId": "d27e9964-a7a6-46dd-9f9a-7cb470c33b98",
          "Value": "a29a3ba5-4b0d-de11-9a51-005056c00008",
          "DisplayValue": "All employees"
        }
      ]
    },
    {
      "Row": [
        {
          "SchemaColumnUId": "ae0e45ca-c495-4fe7-a39d-3ab7278e1617",
          "Value": "7655a803-7d0c-4690-b904-2c976032735e"
        },
        {
          "SchemaColumnUId": "134c280f-f7a7-4ac5-beeb-4ab1ed9e4ff5",
          "Value": "0def516a-2219-4fed-9d7e-3853808fe2c1"
        },
        {
          "SchemaColumnUId": "21a61238-45dc-4089-9882-cc1be097cbf8",
          "Value": true
        },
        {
          "SchemaColumnUId": "2cda2c20-d48a-44d0-b266-5542730b1ad9",
          "Value": true
        },
        {
          "SchemaColumnUId": "379b41a2-dfb5-4069-a267-88ec0653e391",
          "Value": true
        },
        {
          "SchemaColumnUId": "a3dc68d6-f74e-4a57-8411-77a88dfe0bbb",
          "Value": true
        },
        {
          "SchemaColumnUId": "a72532ba-4755-4b2f-8079-c382ae6d0e9a",
          "Value": 1
        },
        {
          "SchemaColumnUId": "d27e9964-a7a6-46dd-9f9a-7cb470c33b98",
          "Value": "a29a3ba5-4b0d-de11-9a51-005056c00008",
          "DisplayValue": "All employees"
        }
      ]
    },
    {
      "Row": [
        {
          "SchemaColumnUId": "ae0e45ca-c495-4fe7-a39d-3ab7278e1617",
          "Value": "785da218-2a2b-4fea-b0b0-d7e5ead1519f"
        },
        {
          "SchemaColumnUId": "134c280f-f7a7-4ac5-beeb-4ab1ed9e4ff5",
          "Value": "8cbf5d26-e868-483d-b8ba-4f1650cb48dd"
        },
        {
          "SchemaColumnUId": "21a61238-45dc-4089-9882-cc1be097cbf8",
          "Value": true
        },
        {
          "SchemaColumnUId": "2cda2c20-d48a-44d0-b266-5542730b1ad9",
          "Value": true
        },
        {
          "SchemaColumnUId": "379b41a2-dfb5-4069-a267-88ec0653e391",
          "Value": true
        },
        {
          "SchemaColumnUId": "a3dc68d6-f74e-4a57-8411-77a88dfe0bbb",
          "Value": true
        },
        {
          "SchemaColumnUId": "a72532ba-4755-4b2f-8079-c382ae6d0e9a",
          "Value": 1
        },
        {
          "SchemaColumnUId": "d27e9964-a7a6-46dd-9f9a-7cb470c33b98",
          "Value": "a29a3ba5-4b0d-de11-9a51-005056c00008",
          "DisplayValue": "All employees"
        }
      ]
    },
    {
      "Row": [
        {
          "SchemaColumnUId": "ae0e45ca-c495-4fe7-a39d-3ab7278e1617",
          "Value": "806744bd-ca85-4a3b-af1f-2b54219465b6"
        },
        {
          "SchemaColumnUId": "134c280f-f7a7-4ac5-beeb-4ab1ed9e4ff5",
          "Value": "3794aebe-41dd-43bf-a293-e0bd887c88c4"
        },
        {
          "SchemaColumnUId": "21a61238-45dc-4089-9882-cc1be097cbf8",
          "Value": true
        },
        {
          "SchemaColumnUId": "2cda2c20-d48a-44d0-b266-5542730b1ad9",
          "Value": true
        },
        {
          "SchemaColumnUId": "379b41a2-dfb5-4069-a267-88ec0653e391",
          "Value": true
        },
        {
          "SchemaColumnUId": "a3dc68d6-f74e-4a57-8411-77a88dfe0bbb",
          "Value": true
        },
        {
          "SchemaColumnUId": "a72532ba-4755-4b2f-8079-c382ae6d0e9a",
          "Value": 1
        },
        {
          "SchemaColumnUId": "d27e9964-a7a6-46dd-9f9a-7cb470c33b98",
          "Value": "a29a3ba5-4b0d-de11-9a51-005056c00008",
          "DisplayValue": "All employees"
        }
      ]
    },
    {
      "Row": [
        {
          "SchemaColumnUId": "ae0e45ca-c495-4fe7-a39d-3ab7278e1617",
          "Value": "8e0387dd-c999-4f28-a84b-7701740380a4"
        },
        {
          "SchemaColumnUId": "134c280f-f7a7-4ac5-beeb-4ab1ed9e4ff5",
          "Value": "8cbf5d26-e868-483d-b8ba-4f1650cb48dd"
        },
        {
          "SchemaColumnUId": "21a61238-45dc-4089-9882-cc1be097cbf8",
          "Value": true
        },
        {
          "SchemaColumnUId": "2cda2c20-d48a-44d0-b266-5542730b1ad9",
          "Value": true
        },
        {
          "SchemaColumnUId": "379b41a2-dfb5-4069-a267-88ec0653e391",
          "Value": true
        },
        {
          "SchemaColumnUId": "a3dc68d6-f74e-4a57-8411-77a88dfe0bbb",
          "Value": true
        },
        {
          "SchemaColumnUId": "a72532ba-4755-4b2f-8079-c382ae6d0e9a",
          "Value": 0
        },
        {
          "SchemaColumnUId": "d27e9964-a7a6-46dd-9f9a-7cb470c33b98",
          "Value": "720b771c-e7a7-4f31-9cfb-52cd21c3739f",
          "DisplayValue": "All portal users"
        }
      ]
    },
    {
      "Row": [
        {
          "SchemaColumnUId": "ae0e45ca-c495-4fe7-a39d-3ab7278e1617",
          "Value": "9c6e8909-0a32-4830-91e5-21043e1d5c0d"
        },
        {
          "SchemaColumnUId": "134c280f-f7a7-4ac5-beeb-4ab1ed9e4ff5",
          "Value": "3794aebe-41dd-43bf-a293-e0bd887c88c4"
        },
        {
          "SchemaColumnUId": "21a61238-45dc-4089-9882-cc1be097cbf8",
          "Value": true
        },
        {
          "SchemaColumnUId": "2cda2c20-d48a-44d0-b266-5542730b1ad9",
          "Value": true
        },
        {
          "SchemaColumnUId": "379b41a2-dfb5-4069-a267-88ec0653e391",
          "Value": true
        },
        {
          "SchemaColumnUId": "a3dc68d6-f74e-4a57-8411-77a88dfe0bbb",
          "Value": true
        },
        {
          "SchemaColumnUId": "a72532ba-4755-4b2f-8079-c382ae6d0e9a",
          "Value": 0
        },
        {
          "SchemaColumnUId": "d27e9964-a7a6-46dd-9f9a-7cb470c33b98",
          "Value": "720b771c-e7a7-4f31-9cfb-52cd21c3739f",
          "DisplayValue": "All portal users"
        }
      ]
    },
    {
      "Row": [
        {
          "SchemaColumnUId": "ae0e45ca-c495-4fe7-a39d-3ab7278e1617",
          "Value": "b9397b74-54a9-4cea-bd33-264504a318f7"
        },
        {
          "SchemaColumnUId": "134c280f-f7a7-4ac5-beeb-4ab1ed9e4ff5",
          "Value": "dcec597e-693e-47d1-88a8-5795346db9fc"
        },
        {
          "SchemaColumnUId": "21a61238-45dc-4089-9882-cc1be097cbf8",
          "Value": true
        },
        {
          "SchemaColumnUId": "2cda2c20-d48a-44d0-b266-5542730b1ad9",
          "Value": true
        },
        {
          "SchemaColumnUId": "379b41a2-dfb5-4069-a267-88ec0653e391",
          "Value": true
        },
        {
          "SchemaColumnUId": "a3dc68d6-f74e-4a57-8411-77a88dfe0bbb",
          "Value": true
        },
        {
          "SchemaColumnUId": "a72532ba-4755-4b2f-8079-c382ae6d0e9a",
          "Value": 2
        },
        {
          "SchemaColumnUId": "d27e9964-a7a6-46dd-9f9a-7cb470c33b98",
          "Value": "720b771c-e7a7-4f31-9cfb-52cd21c3739f",
          "DisplayValue": "All portal users"
        }
      ]
    },
    {
      "Row": [
        {
          "SchemaColumnUId": "ae0e45ca-c495-4fe7-a39d-3ab7278e1617",
          "Value": "d3d417d3-03b2-430a-92e3-fa2a2d04ae14"
        },
        {
          "SchemaColumnUId": "134c280f-f7a7-4ac5-beeb-4ab1ed9e4ff5",
          "Value": "71e049f5-cc6c-4372-b9c5-2364a86d99cf"
        },
        {
          "SchemaColumnUId": "21a61238-45dc-4089-9882-cc1be097cbf8",
          "Value": true
        },
        {
          "SchemaColumnUId": "2cda2c20-d48a-44d0-b266-5542730b1ad9",
          "Value": true
        },
        {
          "SchemaColumnUId": "379b41a2-dfb5-4069-a267-88ec0653e391",
          "Value": true
        },
        {
          "SchemaColumnUId": "a3dc68d6-f74e-4a57-8411-77a88dfe0bbb",
          "Value": true
        },
        {
          "SchemaColumnUId": "a72532ba-4755-4b2f-8079-c382ae6d0e9a",
          "Value": 0
        },
        {
          "SchemaColumnUId": "d27e9964-a7a6-46dd-9f9a-7cb470c33b98",
          "Value": "720b771c-e7a7-4f31-9cfb-52cd21c3739f",
          "DisplayValue": "All portal users"
        }
      ]
    },
    {
      "Row": [
        {
          "SchemaColumnUId": "ae0e45ca-c495-4fe7-a39d-3ab7278e1617",
          "Value": "de6169b0-7a0a-4e1e-9ee8-21d1d5785969"
        },
        {
          "SchemaColumnUId": "134c280f-f7a7-4ac5-beeb-4ab1ed9e4ff5",
          "Value": "71e049f5-cc6c-4372-b9c5-2364a86d99cf"
        },
        {
          "SchemaColumnUId": "21a61238-45dc-4089-9882-cc1be097cbf8",
          "Value": true
        },
        {
          "SchemaColumnUId": "2cda2c20-d48a-44d0-b266-5542730b1ad9",
          "Value": true
        },
        {
          "SchemaColumnUId": "379b41a2-dfb5-4069-a267-88ec0653e391",
          "Value": true
        },
        {
          "SchemaColumnUId": "a3dc68d6-f74e-4a57-8411-77a88dfe0bbb",
          "Value": true
        },
        {
          "SchemaColumnUId": "a72532ba-4755-4b2f-8079-c382ae6d0e9a",
          "Value": 1
        },
        {
          "SchemaColumnUId": "d27e9964-a7a6-46dd-9f9a-7cb470c33b98",
          "Value": "a29a3ba5-4b0d-de11-9a51-005056c00008",
          "DisplayValue": "All employees"
        }
      ]
    }
  ]
}