{
  "MetaData": {
    "Schema": {
      "ManagerName": "ProcessSchemaManager",
      "UId": "a2395c07-f35c-4111-a364-56bbf7112092",
      "A2": "WatProcess45TriggerTravellerCountRefresh",
      "A5": "75bcb584-5e36-448a-a4b7-140d2dd57696",
      "B1": [],
      "B2": [],
      "B3": [],
      "B6": "80852c4e-6e90-4769-a5e6-c485d9bc7022",
      "B8": "7.16.3.1473",
      "FJ1": [
        {
          "BL1": "Terrasoft.Core.Process.ProcessSchemaParameter",
          "UId": "bb836e66-5d22-4fa8-afd5-52b8da2e64a2",
          "A2": "TravellerId",
          "A3": "a2395c07-f35c-4111-a364-56bbf7112092",
          "A4": "a2395c07-f35c-4111-a364-56bbf7112092",
          "L1": "23018567-a13c-4320-8687-fd6f9e3699bd",
          "L8": {
            "GS5": "a2395c07-f35c-4111-a364-56bbf7112092"
          }
        },
        {
          "BL1": "Terrasoft.Core.Process.ProcessSchemaParameter",
          "UId": "61092fb6-73db-414f-8971-ae2d144b91f4",
          "A2": "TripId",
          "A3": "a2395c07-f35c-4111-a364-56bbf7112092",
          "A4": "a2395c07-f35c-4111-a364-56bbf7112092",
          "L1": "23018567-a13c-4320-8687-fd6f9e3699bd",
          "L8": {
            "GS5": "a2395c07-f35c-4111-a364-56bbf7112092"
          }
        }
      ],
      "IJ1": true,
      "BK8": "bb4d6607-026b-4b27-b640-8f5c77c1e89d",
      "IJ10": true,
      "BK15": [
        {
          "BL1": "Terrasoft.Core.Process.ProcessSchemaMapping",
          "UId": "70b0b6b2-ce2f-4f4e-8aaf-fb3cd29b1a1f",
          "A2": "StartSignal2",
          "A3": "a2395c07-f35c-4111-a364-56bbf7112092",
          "A4": "a2395c07-f35c-4111-a364-56bbf7112092",
          "GT2": "[Element:{995c6057-8a22-44fe-9e88-d5202129cf45}].[Parameter:{b3328b8e-4840-46f0-b237-d846ac65e2dc}]",
          "GT3": "b3328b8e-4840-46f0-b237-d846ac65e2dc",
          "GT5": "b3328b8e-4840-46f0-b237-d846ac65e2dc",
          "GT1": {
            "GS1": 1,
            "GS2": ""
          }
        },
        {
          "BL1": "Terrasoft.Core.Process.ProcessSchemaMapping",
          "UId": "28072357-394a-4f0f-95ab-8ba10816a2a8",
          "A2": "StartSignal3",
          "A3": "a2395c07-f35c-4111-a364-56bbf7112092",
          "A4": "a2395c07-f35c-4111-a364-56bbf7112092",
          "GT2": "[Element:{cfbbe06e-0392-4f76-ac0b-8d5e9e8eaf7b}].[Parameter:{085f9ded-8a13-499c-9a45-0bbdf548ed2f}]",
          "GT3": "085f9ded-8a13-499c-9a45-0bbdf548ed2f",
          "GT5": "b3328b8e-4840-46f0-b237-d846ac65e2dc",
          "GT1": {
            "GS1": 1,
            "GS2": ""
          }
        },
        {
          "BL1": "Terrasoft.Core.Process.ProcessSchemaMapping",
          "UId": "714f5c7c-19ae-4779-8b7f-719c3ed3ee1d",
          "A2": "ReadDataUserTask2",
          "A3": "a2395c07-f35c-4111-a364-56bbf7112092",
          "A4": "a2395c07-f35c-4111-a364-56bbf7112092",
          "GT2": "[Element:{7e53b850-b0d8-4c7a-8715-b0e02b612978}].[Parameter:{0020073f-42d4-4233-bdff-84271bfc391e}]",
          "GT3": "0020073f-42d4-4233-bdff-84271bfc391e",
          "GT5": "5d9ac9a7-7782-49ce-8990-dcb1c73832b0",
          "GT4": "cb455b6f-78ff-4b1e-b241-c2bbc0b37e9f",
          "GT1": {
            "GS1": 1,
            "GS2": "{\"className\":\"Terrasoft.FilterGroup\",\"serializedFilterEditData\":\"{\\\"className\\\":\\\"Terrasoft.FilterGroup\\\",\\\"items\\\":{\\\"dc250f1d-933d-4f1d-adf1-c6e7947c8379\\\":{\\\"className\\\":\\\"Terrasoft.CompareFilter\\\",\\\"filterType\\\":1,\\\"comparisonType\\\":3,\\\"isEnabled\\\":true,\\\"trimDateTimeParameterToDate\\\":false,\\\"leftExpression\\\":{\\\"className\\\":\\\"Terrasoft.ColumnExpression\\\",\\\"expressionType\\\":0,\\\"columnPath\\\":\\\"Id\\\"},\\\"isAggregative\\\":false,\\\"key\\\":\\\"dc250f1d-933d-4f1d-adf1-c6e7947c8379\\\",\\\"dataValueType\\\":0,\\\"leftExpressionCaption\\\":\\\"Id\\\",\\\"rightExpression\\\":{\\\"className\\\":\\\"Terrasoft.ParameterExpression\\\",\\\"expressionType\\\":2,\\\"parameter\\\":{\\\"className\\\":\\\"Terrasoft.Parameter\\\",\\\"dataValueType\\\":26,\\\"value\\\":{\\\"value\\\":\\\"[IsOwnerSchema:false].[IsSchema:false].[Parameter:{bb836e66-5d22-4fa8-afd5-52b8da2e64a2}]\\\",\\\"displayValue\\\":\\\"TravellerId\\\"}}}}},\\\"logicalOperation\\\":0,\\\"isEnabled\\\":true,\\\"filterType\\\":6,\\\"rootSchemaName\\\":\\\"WatTraveler\\\",\\\"key\\\":\\\"\\\"}\",\"dataSourceFilters\":\"{\\\"items\\\":{\\\"dc250f1d-933d-4f1d-adf1-c6e7947c8379\\\":{\\\"filterType\\\":1,\\\"comparisonType\\\":3,\\\"isEnabled\\\":true,\\\"trimDateTimeParameterToDate\\\":false,\\\"leftExpression\\\":{\\\"expressionType\\\":0,\\\"columnPath\\\":\\\"Id\\\"},\\\"rightExpression\\\":{\\\"expressionType\\\":2,\\\"parameter\\\":{\\\"dataValueType\\\":26,\\\"value\\\":{\\\"value\\\":\\\"[IsOwnerSchema:false].[IsSchema:false].[Parameter:{bb836e66-5d22-4fa8-afd5-52b8da2e64a2}]\\\"}}}}},\\\"logicalOperation\\\":0,\\\"isEnabled\\\":true,\\\"filterType\\\":6,\\\"rootSchemaName\\\":\\\"WatTraveler\\\"}\"}"
          }
        },
        {
          "BL1": "Terrasoft.Core.Process.ProcessSchemaMapping",
          "UId": "287745aa-1b92-4697-aa09-d0ff2dace3c5",
          "A2": "ReadDataUserTask2",
          "A3": "a2395c07-f35c-4111-a364-56bbf7112092",
          "A4": "a2395c07-f35c-4111-a364-56bbf7112092",
          "GT2": "[Element:{7e53b850-b0d8-4c7a-8715-b0e02b612978}].[Parameter:{2be5cf73-4d52-44d6-bb16-f0ca6288cc4e}]",
          "GT3": "2be5cf73-4d52-44d6-bb16-f0ca6288cc4e",
          "GT5": "643e4d6d-7ec8-49f0-842a-066a996fbe8b",
          "GT4": "cb455b6f-78ff-4b1e-b241-c2bbc0b37e9f",
          "GT1": {
            "GS1": 1,
            "GS2": "0",
            "GS5": "cb455b6f-78ff-4b1e-b241-c2bbc0b37e9f"
          }
        },
        {
          "BL1": "Terrasoft.Core.Process.ProcessSchemaMapping",
          "UId": "3a96ef2d-b561-4229-ba7e-1256be4c0b4b",
          "A2": "ReadDataUserTask2",
          "A3": "a2395c07-f35c-4111-a364-56bbf7112092",
          "A4": "a2395c07-f35c-4111-a364-56bbf7112092",
          "GT2": "[Element:{7e53b850-b0d8-4c7a-8715-b0e02b612978}].[Parameter:{b3cce24d-5628-4fa1-9883-0fd29ad1afb5}]",
          "GT3": "b3cce24d-5628-4fa1-9883-0fd29ad1afb5",
          "GT5": "29115add-7520-4ad4-8371-d91f537ac913",
          "GT4": "cb455b6f-78ff-4b1e-b241-c2bbc0b37e9f",
          "GT1": {
            "GS1": 1,
            "GS2": "true"
          }
        },
        {
          "BL1": "Terrasoft.Core.Process.ProcessSchemaMapping",
          "UId": "8ff0b694-a6b1-43b7-a92f-3d07f8d763ab",
          "A2": "ReadDataUserTask2",
          "A3": "a2395c07-f35c-4111-a364-56bbf7112092",
          "A4": "a2395c07-f35c-4111-a364-56bbf7112092",
          "GT2": "[Element:{7e53b850-b0d8-4c7a-8715-b0e02b612978}].[Parameter:{9edd3178-7be9-48ab-ba47-5dce7f1fb550}]",
          "GT3": "9edd3178-7be9-48ab-ba47-5dce7f1fb550",
          "GT5": "f29e5660-c5ef-4d84-8331-9046c3093519",
          "GT4": "cb455b6f-78ff-4b1e-b241-c2bbc0b37e9f",
          "GT1": {
            "GS1": 1,
            "GS2": "50"
          }
        },
        {
          "BL1": "Terrasoft.Core.Process.ProcessSchemaMapping",
          "UId": "ab77e5af-2aa1-46e9-a8d9-076a7b9833f7",
          "A2": "ReadDataUserTask2",
          "A3": "a2395c07-f35c-4111-a364-56bbf7112092",
          "A4": "a2395c07-f35c-4111-a364-56bbf7112092",
          "GT2": "[Element:{7e53b850-b0d8-4c7a-8715-b0e02b612978}].[Parameter:{233f5660-e049-4a8f-9e43-c4a9d7a244cc}]",
          "GT3": "233f5660-e049-4a8f-9e43-c4a9d7a244cc",
          "GT5": "94ba9876-18c1-4a68-bcef-08f7e7f0e25c",
          "GT4": "cb455b6f-78ff-4b1e-b241-c2bbc0b37e9f",
          "GT1": {
            "GS1": 1,
            "GS2": "0"
          }
        },
        {
          "BL1": "Terrasoft.Core.Process.ProcessSchemaMapping",
          "UId": "5b3fc1d4-89c1-4c25-b5a2-91a820a4044a",
          "A2": "ReadDataUserTask2",
          "A3": "a2395c07-f35c-4111-a364-56bbf7112092",
          "A4": "a2395c07-f35c-4111-a364-56bbf7112092",
          "GT2": "[Element:{7e53b850-b0d8-4c7a-8715-b0e02b612978}].[Parameter:{f6b36ecd-cb21-4c54-bdbc-3c45ac479286}]",
          "GT3": "f6b36ecd-cb21-4c54-bdbc-3c45ac479286",
          "GT5": "cb5d6d26-7e81-4cbe-8730-8b7169000d14",
          "GT4": "cb455b6f-78ff-4b1e-b241-c2bbc0b37e9f",
          "GT1": {
            "GS2": ""
          }
        },
        {
          "BL1": "Terrasoft.Core.Process.ProcessSchemaMapping",
          "UId": "8e0eedcc-f3c7-4fcc-a1da-4b8323bd52f2",
          "A2": "ReadDataUserTask2",
          "A3": "a2395c07-f35c-4111-a364-56bbf7112092",
          "A4": "a2395c07-f35c-4111-a364-56bbf7112092",
          "GT2": "[Element:{7e53b850-b0d8-4c7a-8715-b0e02b612978}].[Parameter:{0b8d4295-6f57-4998-a6b6-2f156e6cdff0}]",
          "GT3": "0b8d4295-6f57-4998-a6b6-2f156e6cdff0",
          "GT5": "473e79e2-727e-40a7-8829-7eefc576b403",
          "GT4": "cb455b6f-78ff-4b1e-b241-c2bbc0b37e9f",
          "GT1": {
            "GS5": "a2395c07-f35c-4111-a364-56bbf7112092"
          }
        },
        {
          "BL1": "Terrasoft.Core.Process.ProcessSchemaMapping",
          "UId": "2ea2b50e-96a6-4000-8892-1b15b28a8a68",
          "A2": "ReadDataUserTask2",
          "A3": "a2395c07-f35c-4111-a364-56bbf7112092",
          "A4": "a2395c07-f35c-4111-a364-56bbf7112092",
          "GT2": "[Element:{7e53b850-b0d8-4c7a-8715-b0e02b612978}].[Parameter:{7243db6d-4a62-4f4c-9671-95be517e8e3f}]",
          "GT3": "7243db6d-4a62-4f4c-9671-95be517e8e3f",
          "GT5": "e2fced10-4842-423e-ada0-523bf7ea8ad3",
          "GT4": "cb455b6f-78ff-4b1e-b241-c2bbc0b37e9f",
          "GT1": {
            "GS1": 1
          }
        },
        {
          "BL1": "Terrasoft.Core.Process.ProcessSchemaMapping",
          "UId": "c4c8db3b-21fa-4f3c-8faa-e4e4bdf982fb",
          "A2": "ReadDataUserTask2",
          "A3": "a2395c07-f35c-4111-a364-56bbf7112092",
          "A4": "a2395c07-f35c-4111-a364-56bbf7112092",
          "GT2": "[Element:{7e53b850-b0d8-4c7a-8715-b0e02b612978}].[Parameter:{fffc7ae7-4bb5-4b48-8b5c-e2d66e80f13d}]",
          "GT3": "fffc7ae7-4bb5-4b48-8b5c-e2d66e80f13d",
          "GT5": "2e63ea99-8125-4254-88bd-20d3610bd471",
          "GT4": "cb455b6f-78ff-4b1e-b241-c2bbc0b37e9f",
          "GT1": {
            "GS2": ""
          }
        },
        {
          "BL1": "Terrasoft.Core.Process.ProcessSchemaMapping",
          "UId": "32deba64-abfd-4de6-877a-037203ffa068",
          "A2": "ReadDataUserTask2",
          "A3": "a2395c07-f35c-4111-a364-56bbf7112092",
          "A4": "a2395c07-f35c-4111-a364-56bbf7112092",
          "GT2": "[Element:{7e53b850-b0d8-4c7a-8715-b0e02b612978}].[Parameter:{f9bc8205-45af-443a-be3a-c4c03ff20838}]",
          "GT3": "f9bc8205-45af-443a-be3a-c4c03ff20838",
          "GT5": "a3660fce-a8f9-4a68-a3c1-b4f2f7983635",
          "GT4": "cb455b6f-78ff-4b1e-b241-c2bbc0b37e9f",
          "GT1": {
            "GS2": ""
          }
        },
        {
          "BL1": "Terrasoft.Core.Process.ProcessSchemaMapping",
          "UId": "2ca74667-a257-4f13-8f34-65a27af3f292",
          "A2": "ReadDataUserTask2",
          "A3": "a2395c07-f35c-4111-a364-56bbf7112092",
          "A4": "a2395c07-f35c-4111-a364-56bbf7112092",
          "GT2": "[Element:{7e53b850-b0d8-4c7a-8715-b0e02b612978}].[Parameter:{ac913a11-bb4d-4c8d-88a3-0967ad6a089f}]",
          "GT3": "ac913a11-bb4d-4c8d-88a3-0967ad6a089f",
          "GT5": "9a594933-75da-4304-b6a3-5945dba159e3",
          "GT4": "cb455b6f-78ff-4b1e-b241-c2bbc0b37e9f",
          "GT1": {
            "GS2": ""
          }
        },
        {
          "BL1": "Terrasoft.Core.Process.ProcessSchemaMapping",
          "UId": "b1c197a3-6f93-44b1-825c-63cd03e60789",
          "A2": "ReadDataUserTask2",
          "A3": "a2395c07-f35c-4111-a364-56bbf7112092",
          "A4": "a2395c07-f35c-4111-a364-56bbf7112092",
          "GT2": "[Element:{7e53b850-b0d8-4c7a-8715-b0e02b612978}].[Parameter:{df6ae41b-672b-4fb1-871d-7a3ea89265a7}]",
          "GT3": "df6ae41b-672b-4fb1-871d-7a3ea89265a7",
          "GT5": "11fb235f-c06a-4111-84cd-a5dbf9a440d5",
          "GT4": "cb455b6f-78ff-4b1e-b241-c2bbc0b37e9f",
          "GT1": {
            "GS2": ""
          }
        },
        {
          "BL1": "Terrasoft.Core.Process.ProcessSchemaMapping",
          "UId": "8f3d230f-2df2-4d82-b786-c643ce9faa9a",
          "A2": "ReadDataUserTask2",
          "A3": "a2395c07-f35c-4111-a364-56bbf7112092",
          "A4": "a2395c07-f35c-4111-a364-56bbf7112092",
          "GT2": "[Element:{7e53b850-b0d8-4c7a-8715-b0e02b612978}].[Parameter:{ce9a9c63-5170-435f-8064-79e286d62d16}]",
          "GT3": "ce9a9c63-5170-435f-8064-79e286d62d16",
          "GT5": "78252e95-b759-416a-9c48-c128fbdf59ef",
          "GT4": "cb455b6f-78ff-4b1e-b241-c2bbc0b37e9f",
          "GT1": {
            "GS2": ""
          }
        },
        {
          "BL1": "Terrasoft.Core.Process.ProcessSchemaMapping",
          "UId": "3907f55c-1083-4be4-b434-996d43f2eb8f",
          "A2": "ReadDataUserTask2",
          "A3": "a2395c07-f35c-4111-a364-56bbf7112092",
          "A4": "a2395c07-f35c-4111-a364-56bbf7112092",
          "GT2": "[Element:{7e53b850-b0d8-4c7a-8715-b0e02b612978}].[Parameter:{4cc890ae-98ed-4df0-9168-fadce13d67e3}]",
          "GT3": "4cc890ae-98ed-4df0-9168-fadce13d67e3",
          "GT5": "2f797429-6f43-4594-96bb-62fbc7b7deec",
          "GT4": "cb455b6f-78ff-4b1e-b241-c2bbc0b37e9f",
          "GT1": {
            "GS1": 1,
            "GS2": "true",
            "GS5": "cb455b6f-78ff-4b1e-b241-c2bbc0b37e9f"
          }
        },
        {
          "BL1": "Terrasoft.Core.Process.ProcessSchemaMapping",
          "UId": "3e0fef19-ab5f-4d26-91bd-1324a1d9f03d",
          "A2": "ReadDataUserTask2",
          "A3": "a2395c07-f35c-4111-a364-56bbf7112092",
          "A4": "a2395c07-f35c-4111-a364-56bbf7112092",
          "GT2": "[Element:{7e53b850-b0d8-4c7a-8715-b0e02b612978}].[Parameter:{155e4f22-3ec8-4d3e-a7bd-862e021f795f}]",
          "GT3": "155e4f22-3ec8-4d3e-a7bd-862e021f795f",
          "GT5": "be4a0d16-6a15-41cf-ac44-a8b757565428",
          "GT4": "cb455b6f-78ff-4b1e-b241-c2bbc0b37e9f",
          "GT1": {
            "GS2": ""
          }
        },
        {
          "BL1": "Terrasoft.Core.Process.ProcessSchemaMapping",
          "UId": "5115e3db-f02b-48ea-8e06-81793dd3b701",
          "A2": "ReadDataUserTask2",
          "A3": "a2395c07-f35c-4111-a364-56bbf7112092",
          "A4": "a2395c07-f35c-4111-a364-56bbf7112092",
          "GT2": "[Element:{7e53b850-b0d8-4c7a-8715-b0e02b612978}].[Parameter:{3991f690-38de-4ae7-bf89-66b1172c0f18}]",
          "GT3": "3991f690-38de-4ae7-bf89-66b1172c0f18",
          "GT5": "cc12005f-f434-4a40-b9d0-dc8f81755545",
          "GT4": "cb455b6f-78ff-4b1e-b241-c2bbc0b37e9f",
          "GT1": {
            "GS1": 1,
            "GS2": "0427b097-3f4c-495a-925e-f10ebea84396"
          }
        },
        {
          "BL1": "Terrasoft.Core.Process.ProcessSchemaMapping",
          "UId": "a25f769e-ee42-4365-aedc-81db6c9bbf91",
          "A2": "ReadDataUserTask2",
          "A3": "a2395c07-f35c-4111-a364-56bbf7112092",
          "A4": "a2395c07-f35c-4111-a364-56bbf7112092",
          "GT2": "[Element:{7e53b850-b0d8-4c7a-8715-b0e02b612978}].[Parameter:{1f4a2a33-e76e-4c8d-a9a1-a730a1944cea}]",
          "GT3": "1f4a2a33-e76e-4c8d-a9a1-a730a1944cea",
          "GT5": "6dada847-859b-4e0a-9297-b3c9572530b6",
          "GT4": "cb455b6f-78ff-4b1e-b241-c2bbc0b37e9f",
          "GT1": {
            "GS2": ""
          }
        },
        {
          "BL1": "Terrasoft.Core.Process.ProcessSchemaMapping",
          "UId": "8dadc53a-c181-41a0-bbf5-9d498dd8c401",
          "A2": "ReadDataUserTask2",
          "A3": "a2395c07-f35c-4111-a364-56bbf7112092",
          "A4": "a2395c07-f35c-4111-a364-56bbf7112092",
          "GT2": "[Element:{7e53b850-b0d8-4c7a-8715-b0e02b612978}].[Parameter:{f8182f74-82d4-4423-86dd-2c766e7b6820}]",
          "GT3": "f8182f74-82d4-4423-86dd-2c766e7b6820",
          "GT5": "555901ef-f707-4803-a887-1bc07e882096",
          "GT4": "cb455b6f-78ff-4b1e-b241-c2bbc0b37e9f",
          "GT1": {
            "GS2": ""
          }
        },
        {
          "BL1": "Terrasoft.Core.Process.ProcessSchemaMapping",
          "UId": "ac57d0f0-e383-4919-8541-2514f144a972",
          "A2": "ReadDataUserTask2",
          "A3": "a2395c07-f35c-4111-a364-56bbf7112092",
          "A4": "a2395c07-f35c-4111-a364-56bbf7112092",
          "GT2": "[Element:{7e53b850-b0d8-4c7a-8715-b0e02b612978}].[Parameter:{b1c3cebd-900a-4089-ab60-e819073d9ccc}]",
          "GT3": "b1c3cebd-900a-4089-ab60-e819073d9ccc",
          "GT5": "978b550e-1b81-448a-8700-9c9190c3a2a4",
          "GT4": "cb455b6f-78ff-4b1e-b241-c2bbc0b37e9f",
          "GT1": {
            "GS1": 3,
            "GS2": "false",
            "GS5": "cb455b6f-78ff-4b1e-b241-c2bbc0b37e9f"
          }
        },
        {
          "BL1": "Terrasoft.Core.Process.ProcessSchemaMapping",
          "UId": "b05c00b1-df4c-43e3-8be3-ee5b06a57769",
          "A2": "ChangeDataUserTask1",
          "A3": "a2395c07-f35c-4111-a364-56bbf7112092",
          "A4": "a2395c07-f35c-4111-a364-56bbf7112092",
          "GT2": "[Element:{7d3a3881-1bed-48b6-a717-9943e3817a3d}].[Parameter:{53028629-c3cb-4911-8787-9c0bdbf2e4b8}]",
          "GT3": "53028629-c3cb-4911-8787-9c0bdbf2e4b8",
          "GT5": "bd2cf1ae-bbc6-4d91-8d6e-c6b40f057e95",
          "GT4": "d3021ca7-7450-4678-a117-060171eb2976",
          "GT1": {
            "GS1": 1,
            "GS2": "2ac3229e-4b9b-44ed-876b-bbc0de5a2134"
          }
        },
        {
          "BL1": "Terrasoft.Core.Process.ProcessSchemaMapping",
          "UId": "405db585-a5ab-41da-abed-02ff8016090d",
          "A2": "ChangeDataUserTask1",
          "A3": "a2395c07-f35c-4111-a364-56bbf7112092",
          "A4": "a2395c07-f35c-4111-a364-56bbf7112092",
          "GT2": "[Element:{7d3a3881-1bed-48b6-a717-9943e3817a3d}].[Parameter:{cc93b048-1547-4913-9556-e96690fad13c}]",
          "GT3": "cc93b048-1547-4913-9556-e96690fad13c",
          "GT5": "d6c84ba1-b6ca-4952-b517-880f22e21fdc",
          "GT4": "d3021ca7-7450-4678-a117-060171eb2976",
          "GT1": {
            "GS1": 3,
            "GS2": "true",
            "GS5": "d3021ca7-7450-4678-a117-060171eb2976"
          }
        },
        {
          "BL1": "Terrasoft.Core.Process.ProcessSchemaMapping",
          "UId": "53ed1d3f-7797-4692-aadf-87664b528555",
          "A2": "ChangeDataUserTask1",
          "A3": "a2395c07-f35c-4111-a364-56bbf7112092",
          "A4": "a2395c07-f35c-4111-a364-56bbf7112092",
          "GT2": "[Element:{7d3a3881-1bed-48b6-a717-9943e3817a3d}].[Parameter:{65737c55-0fb0-4e5b-a138-050c4a896670}]",
          "GT3": "65737c55-0fb0-4e5b-a138-050c4a896670",
          "GT5": "03166c4b-2e15-4768-a343-750c16b69691",
          "GT4": "d3021ca7-7450-4678-a117-060171eb2976",
          "GT1": {
            "GS1": 1,
            "GS2": "{\"className\":\"Terrasoft.FilterGroup\",\"serializedFilterEditData\":\"{\\\"className\\\":\\\"Terrasoft.FilterGroup\\\",\\\"items\\\":{\\\"db83ed44-8f36-4203-965f-aad03f98eabc\\\":{\\\"className\\\":\\\"Terrasoft.CompareFilter\\\",\\\"filterType\\\":1,\\\"comparisonType\\\":3,\\\"isEnabled\\\":true,\\\"trimDateTimeParameterToDate\\\":false,\\\"leftExpression\\\":{\\\"className\\\":\\\"Terrasoft.ColumnExpression\\\",\\\"expressionType\\\":0,\\\"columnPath\\\":\\\"Id\\\"},\\\"isAggregative\\\":false,\\\"key\\\":\\\"db83ed44-8f36-4203-965f-aad03f98eabc\\\",\\\"dataValueType\\\":0,\\\"leftExpressionCaption\\\":\\\"Id\\\",\\\"rightExpression\\\":{\\\"className\\\":\\\"Terrasoft.ParameterExpression\\\",\\\"expressionType\\\":2,\\\"parameter\\\":{\\\"className\\\":\\\"Terrasoft.Parameter\\\",\\\"dataValueType\\\":26,\\\"value\\\":{\\\"value\\\":\\\"[IsOwnerSchema:false].[IsSchema:false].[Parameter:{61092fb6-73db-414f-8971-ae2d144b91f4}]\\\",\\\"displayValue\\\":\\\"TripId\\\"}}}}},\\\"logicalOperation\\\":0,\\\"isEnabled\\\":true,\\\"filterType\\\":6,\\\"rootSchemaName\\\":\\\"WatTrip\\\",\\\"key\\\":\\\"\\\"}\",\"dataSourceFilters\":\"{\\\"items\\\":{\\\"db83ed44-8f36-4203-965f-aad03f98eabc\\\":{\\\"filterType\\\":1,\\\"comparisonType\\\":3,\\\"isEnabled\\\":true,\\\"trimDateTimeParameterToDate\\\":false,\\\"leftExpression\\\":{\\\"expressionType\\\":0,\\\"columnPath\\\":\\\"Id\\\"},\\\"rightExpression\\\":{\\\"expressionType\\\":2,\\\"parameter\\\":{\\\"dataValueType\\\":26,\\\"value\\\":{\\\"value\\\":\\\"[IsOwnerSchema:false].[IsSchema:false].[Parameter:{61092fb6-73db-414f-8971-ae2d144b91f4}]\\\"}}}}},\\\"logicalOperation\\\":0,\\\"isEnabled\\\":true,\\\"filterType\\\":6,\\\"rootSchemaName\\\":\\\"WatTrip\\\"}\"}"
          }
        },
        {
          "BL1": "Terrasoft.Core.Process.ProcessSchemaMapping",
          "UId": "fcc03894-0a1a-46f6-936a-4131f7f1c829",
          "A2": "ChangeDataUserTask1",
          "A3": "a2395c07-f35c-4111-a364-56bbf7112092",
          "A4": "a2395c07-f35c-4111-a364-56bbf7112092",
          "GT2": "[Element:{7d3a3881-1bed-48b6-a717-9943e3817a3d}].[Parameter:{6370c951-cd86-4c74-bb0e-91be5a070bbf}]",
          "GT3": "6370c951-cd86-4c74-bb0e-91be5a070bbf",
          "GT5": "effa11ce-90c7-4efe-8a02-be7a659d27e9",
          "GT4": "d3021ca7-7450-4678-a117-060171eb2976",
          "GT1": {
            "GS1": 1,
            "GS2": "{\"$type\":\"Terrasoft.Core.Process.LocalizableParameterValuesList, Terrasoft.Core\",\"$values\":[{\"ItemUId\":\"6106b15c-0cbb-49e6-ae7b-23c8ec86c63e\",\"columnMetaPath\":{\"value\":\"bb78bf12-74a4-451c-98a1-cac3f8c8fcd6\"},\"schemaUId\":{\"value\":\"2ac3229e-4b9b-44ed-876b-bbc0de5a2134\"},\"value\":{\"value\":\"[#BooleanValue.True#]\"},\"displayValue\":{\"value\":\"[#Boolean value.True#]\"},\"parameterValue\":{\"value\":\"{\\\"$type\\\":\\\"Terrasoft.Core.Process.ProcessSchemaParameterValue, Terrasoft.Core\\\",\\\"Source\\\":3,\\\"DisplayValue\\\":\\\"\\\",\\\"Value\\\":\\\"\\\",\\\"MetaPath\\\":null,\\\"MetaDataValue\\\":null,\\\"ModifiedInSchemaUId\\\":\\\"00000000-0000-0000-0000-000000000000\\\",\\\"SchemaUId\\\":\\\"00000000-0000-0000-0000-000000000000\\\",\\\"SchemaManagerName\\\":\\\"\\\",\\\"DataValueTypeUId\\\":\\\"90b65bf8-0ffc-4141-8779-2420877af907\\\",\\\"ReferenceSchemaUId\\\":\\\"00000000-0000-0000-0000-000000000000\\\",\\\"ResourceItemName\\\":null}\"}}]}"
          }
        },
        {
          "BL1": "Terrasoft.Core.Process.ProcessSchemaMapping",
          "UId": "1433af3e-930a-45ab-98c7-1e8495af2ffa",
          "A2": "ChangeDataUserTask2",
          "A3": "a2395c07-f35c-4111-a364-56bbf7112092",
          "A4": "a2395c07-f35c-4111-a364-56bbf7112092",
          "GT2": "[Element:{0a005b25-026c-43b8-9dd4-076c8a443198}].[Parameter:{ece36e53-97c8-456d-89cb-f8183d045de2}]",
          "GT3": "ece36e53-97c8-456d-89cb-f8183d045de2",
          "GT5": "bd2cf1ae-bbc6-4d91-8d6e-c6b40f057e95",
          "GT4": "d3021ca7-7450-4678-a117-060171eb2976",
          "GT1": {
            "GS1": 1,
            "GS2": "2ac3229e-4b9b-44ed-876b-bbc0de5a2134",
            "GS5": "a2395c07-f35c-4111-a364-56bbf7112092"
          }
        },
        {
          "BL1": "Terrasoft.Core.Process.ProcessSchemaMapping",
          "UId": "717e964f-f512-4b88-a6b6-5a540c8a9792",
          "A2": "ChangeDataUserTask2",
          "A3": "a2395c07-f35c-4111-a364-56bbf7112092",
          "A4": "a2395c07-f35c-4111-a364-56bbf7112092",
          "GT2": "[Element:{0a005b25-026c-43b8-9dd4-076c8a443198}].[Parameter:{22c838a4-9111-47e8-9085-d7bda7058f19}]",
          "GT3": "22c838a4-9111-47e8-9085-d7bda7058f19",
          "GT5": "d6c84ba1-b6ca-4952-b517-880f22e21fdc",
          "GT4": "d3021ca7-7450-4678-a117-060171eb2976",
          "GT1": {
            "GS1": 3,
            "GS2": "true",
            "GS5": "d3021ca7-7450-4678-a117-060171eb2976"
          }
        },
        {
          "BL1": "Terrasoft.Core.Process.ProcessSchemaMapping",
          "UId": "84ec2d0c-532e-4c2e-ac37-316a33e7cf28",
          "A2": "ChangeDataUserTask2",
          "A3": "a2395c07-f35c-4111-a364-56bbf7112092",
          "A4": "a2395c07-f35c-4111-a364-56bbf7112092",
          "GT2": "[Element:{0a005b25-026c-43b8-9dd4-076c8a443198}].[Parameter:{1e325393-138c-4b32-b400-cc671ba076d9}]",
          "GT3": "1e325393-138c-4b32-b400-cc671ba076d9",
          "GT5": "03166c4b-2e15-4768-a343-750c16b69691",
          "GT4": "d3021ca7-7450-4678-a117-060171eb2976",
          "GT1": {
            "GS1": 1,
            "GS2": "{\"className\":\"Terrasoft.FilterGroup\",\"serializedFilterEditData\":\"{\\\"className\\\":\\\"Terrasoft.FilterGroup\\\",\\\"items\\\":{\\\"db83ed44-8f36-4203-965f-aad03f98eabc\\\":{\\\"className\\\":\\\"Terrasoft.InFilter\\\",\\\"filterType\\\":4,\\\"comparisonType\\\":3,\\\"isEnabled\\\":true,\\\"trimDateTimeParameterToDate\\\":false,\\\"leftExpression\\\":{\\\"className\\\":\\\"Terrasoft.ColumnExpression\\\",\\\"expressionType\\\":0,\\\"columnPath\\\":\\\"WatTravelerType\\\"},\\\"isAggregative\\\":false,\\\"key\\\":\\\"db83ed44-8f36-4203-965f-aad03f98eabc\\\",\\\"dataValueType\\\":10,\\\"leftExpressionCaption\\\":\\\"traveller_type\\\",\\\"referenceSchemaName\\\":\\\"WatTravelerType\\\",\\\"rightExpressions\\\":[{\\\"className\\\":\\\"Terrasoft.ParameterExpression\\\",\\\"expressionType\\\":2,\\\"parameter\\\":{\\\"className\\\":\\\"Terrasoft.Parameter\\\",\\\"dataValueType\\\":10,\\\"value\\\":{\\\"Name\\\":\\\"Faculty/Staff Group Travel\\\",\\\"Id\\\":\\\"3ec633e9-6646-4d08-a0bd-dbb211cd5711\\\",\\\"value\\\":\\\"3ec633e9-6646-4d08-a0bd-dbb211cd5711\\\",\\\"displayValue\\\":\\\"Faculty/Staff Group Travel\\\"}}}]},\\\"c4ba92d8-9a2b-415f-8817-8eb426510289\\\":{\\\"className\\\":\\\"Terrasoft.InFilter\\\",\\\"filterType\\\":4,\\\"comparisonType\\\":3,\\\"isEnabled\\\":true,\\\"trimDateTimeParameterToDate\\\":false,\\\"leftExpression\\\":{\\\"className\\\":\\\"Terrasoft.ColumnExpression\\\",\\\"expressionType\\\":0,\\\"columnPath\\\":\\\"WatTripStage\\\"},\\\"isAggregative\\\":false,\\\"key\\\":\\\"c4ba92d8-9a2b-415f-8817-8eb426510289\\\",\\\"dataValueType\\\":10,\\\"leftExpressionCaption\\\":\\\"Trip stage\\\",\\\"referenceSchemaName\\\":\\\"WatTripStage\\\",\\\"rightExpressions\\\":[{\\\"className\\\":\\\"Terrasoft.ParameterExpression\\\",\\\"expressionType\\\":2,\\\"parameter\\\":{\\\"className\\\":\\\"Terrasoft.Parameter\\\",\\\"dataValueType\\\":10,\\\"value\\\":{\\\"Name\\\":\\\"New\\\",\\\"Id\\\":\\\"b5470b22-5c4d-4736-b1aa-abfa8fab7e69\\\",\\\"value\\\":\\\"b5470b22-5c4d-4736-b1aa-abfa8fab7e69\\\",\\\"displayValue\\\":\\\"New\\\"}}},{\\\"className\\\":\\\"Terrasoft.ParameterExpression\\\",\\\"expressionType\\\":2,\\\"parameter\\\":{\\\"className\\\":\\\"Terrasoft.Parameter\\\",\\\"dataValueType\\\":10,\\\"value\\\":{\\\"Name\\\":\\\"Not Returned\\\",\\\"Id\\\":\\\"e0f0ae24-ff21-4270-8daa-cf516c4fe9d1\\\",\\\"value\\\":\\\"e0f0ae24-ff21-4270-8daa-cf516c4fe9d1\\\",\\\"displayValue\\\":\\\"Not Returned\\\"}}},{\\\"className\\\":\\\"Terrasoft.ParameterExpression\\\",\\\"expressionType\\\":2,\\\"parameter\\\":{\\\"className\\\":\\\"Terrasoft.Parameter\\\",\\\"dataValueType\\\":10,\\\"value\\\":{\\\"Name\\\":\\\"Not Recommended\\\",\\\"Id\\\":\\\"d209de8f-d55e-4ed0-88c6-c86f5dca70a3\\\",\\\"value\\\":\\\"d209de8f-d55e-4ed0-88c6-c86f5dca70a3\\\",\\\"displayValue\\\":\\\"Not Recommended\\\"}}},{\\\"className\\\":\\\"Terrasoft.ParameterExpression\\\",\\\"expressionType\\\":2,\\\"parameter\\\":{\\\"className\\\":\\\"Terrasoft.Parameter\\\",\\\"dataValueType\\\":10,\\\"value\\\":{\\\"Name\\\":\\\"Pre-Departure Completed\\\",\\\"Id\\\":\\\"4ac08d99-7236-4005-9ec6-feb678cc5201\\\",\\\"value\\\":\\\"4ac08d99-7236-4005-9ec6-feb678cc5201\\\",\\\"displayValue\\\":\\\"Pre-Departure Completed\\\"}}},{\\\"className\\\":\\\"Terrasoft.ParameterExpression\\\",\\\"expressionType\\\":2,\\\"parameter\\\":{\\\"className\\\":\\\"Terrasoft.Parameter\\\",\\\"dataValueType\\\":10,\\\"value\\\":{\\\"Name\\\":\\\"Processing\\\",\\\"Id\\\":\\\"9837eff7-9f6f-4e2a-9d51-0754648060ee\\\",\\\"value\\\":\\\"9837eff7-9f6f-4e2a-9d51-0754648060ee\\\",\\\"displayValue\\\":\\\"Processing\\\"}}}]},\\\"90ab1977-c5ba-4cee-825c-8a93a183cf10\\\":{\\\"className\\\":\\\"Terrasoft.CompareFilter\\\",\\\"filterType\\\":1,\\\"comparisonType\\\":3,\\\"isEnabled\\\":true,\\\"trimDateTimeParameterToDate\\\":false,\\\"leftExpression\\\":{\\\"className\\\":\\\"Terrasoft.ColumnExpression\\\",\\\"expressionType\\\":0,\\\"columnPath\\\":\\\"WatRecountTravellers\\\"},\\\"isAggregative\\\":false,\\\"key\\\":\\\"90ab1977-c5ba-4cee-825c-8a93a183cf10\\\",\\\"dataValueType\\\":12,\\\"leftExpressionCaption\\\":\\\"Recount Travellers\\\",\\\"rightExpression\\\":{\\\"className\\\":\\\"Terrasoft.ParameterExpression\\\",\\\"expressionType\\\":2,\\\"parameter\\\":{\\\"className\\\":\\\"Terrasoft.Parameter\\\",\\\"dataValueType\\\":12,\\\"value\\\":false}}}},\\\"logicalOperation\\\":0,\\\"isEnabled\\\":true,\\\"filterType\\\":6,\\\"rootSchemaName\\\":\\\"WatTrip\\\",\\\"key\\\":\\\"\\\"}\",\"dataSourceFilters\":\"{\\\"items\\\":{\\\"db83ed44-8f36-4203-965f-aad03f98eabc\\\":{\\\"filterType\\\":4,\\\"comparisonType\\\":3,\\\"isEnabled\\\":true,\\\"trimDateTimeParameterToDate\\\":false,\\\"leftExpression\\\":{\\\"expressionType\\\":0,\\\"columnPath\\\":\\\"WatTravelerType\\\"},\\\"rightExpressions\\\":[{\\\"expressionType\\\":2,\\\"parameter\\\":{\\\"dataValueType\\\":10,\\\"value\\\":\\\"3ec633e9-6646-4d08-a0bd-dbb211cd5711\\\"}}]},\\\"c4ba92d8-9a2b-415f-8817-8eb426510289\\\":{\\\"filterType\\\":4,\\\"comparisonType\\\":3,\\\"isEnabled\\\":true,\\\"trimDateTimeParameterToDate\\\":false,\\\"leftExpression\\\":{\\\"expressionType\\\":0,\\\"columnPath\\\":\\\"WatTripStage\\\"},\\\"rightExpressions\\\":[{\\\"expressionType\\\":2,\\\"parameter\\\":{\\\"dataValueType\\\":10,\\\"value\\\":\\\"b5470b22-5c4d-4736-b1aa-abfa8fab7e69\\\"}},{\\\"expressionType\\\":2,\\\"parameter\\\":{\\\"dataValueType\\\":10,\\\"value\\\":\\\"e0f0ae24-ff21-4270-8daa-cf516c4fe9d1\\\"}},{\\\"expressionType\\\":2,\\\"parameter\\\":{\\\"dataValueType\\\":10,\\\"value\\\":\\\"d209de8f-d55e-4ed0-88c6-c86f5dca70a3\\\"}},{\\\"expressionType\\\":2,\\\"parameter\\\":{\\\"dataValueType\\\":10,\\\"value\\\":\\\"4ac08d99-7236-4005-9ec6-feb678cc5201\\\"}},{\\\"expressionType\\\":2,\\\"parameter\\\":{\\\"dataValueType\\\":10,\\\"value\\\":\\\"9837eff7-9f6f-4e2a-9d51-0754648060ee\\\"}}]},\\\"90ab1977-c5ba-4cee-825c-8a93a183cf10\\\":{\\\"filterType\\\":1,\\\"comparisonType\\\":3,\\\"isEnabled\\\":true,\\\"trimDateTimeParameterToDate\\\":false,\\\"leftExpression\\\":{\\\"expressionType\\\":0,\\\"columnPath\\\":\\\"WatRecountTravellers\\\"},\\\"rightExpression\\\":{\\\"expressionType\\\":2,\\\"parameter\\\":{\\\"dataValueType\\\":12,\\\"value\\\":false}}}},\\\"logicalOperation\\\":0,\\\"isEnabled\\\":true,\\\"filterType\\\":6,\\\"rootSchemaName\\\":\\\"WatTrip\\\"}\"}",
            "GS5": "a2395c07-f35c-4111-a364-56bbf7112092"
          }
        },
        {
          "BL1": "Terrasoft.Core.Process.ProcessSchemaMapping",
          "UId": "a5bdf5f2-ea8a-4473-b67e-b63beaddb58d",
          "A2": "ChangeDataUserTask2",
          "A3": "a2395c07-f35c-4111-a364-56bbf7112092",
          "A4": "a2395c07-f35c-4111-a364-56bbf7112092",
          "GT2": "[Element:{0a005b25-026c-43b8-9dd4-076c8a443198}].[Parameter:{d6bbbb48-7ae9-41bf-b982-81ecf3530958}]",
          "GT3": "d6bbbb48-7ae9-41bf-b982-81ecf3530958",
          "GT5": "effa11ce-90c7-4efe-8a02-be7a659d27e9",
          "GT4": "d3021ca7-7450-4678-a117-060171eb2976",
          "GT1": {
            "GS1": 1,
            "GS2": "{\"$type\":\"Terrasoft.Core.Process.LocalizableParameterValuesList, Terrasoft.Core\",\"$values\":[{\"ItemUId\":\"6106b15c-0cbb-49e6-ae7b-23c8ec86c63e\",\"columnMetaPath\":{\"value\":\"bb78bf12-74a4-451c-98a1-cac3f8c8fcd6\"},\"schemaUId\":{\"value\":\"2ac3229e-4b9b-44ed-876b-bbc0de5a2134\"},\"value\":{\"value\":\"[#BooleanValue.True#]\"},\"displayValue\":{\"value\":\"[#Boolean value.True#]\"},\"parameterValue\":{\"value\":\"{\\\"$type\\\":\\\"Terrasoft.Core.Process.ProcessSchemaParameterValue, Terrasoft.Core\\\",\\\"Source\\\":3,\\\"DisplayValue\\\":\\\"\\\",\\\"Value\\\":\\\"\\\",\\\"MetaPath\\\":null,\\\"MetaDataValue\\\":null,\\\"ModifiedInSchemaUId\\\":\\\"00000000-0000-0000-0000-000000000000\\\",\\\"SchemaUId\\\":\\\"00000000-0000-0000-0000-000000000000\\\",\\\"SchemaManagerName\\\":\\\"\\\",\\\"DataValueTypeUId\\\":\\\"90b65bf8-0ffc-4141-8779-2420877af907\\\",\\\"ReferenceSchemaUId\\\":\\\"00000000-0000-0000-0000-000000000000\\\",\\\"ResourceItemName\\\":null}\"}}]}",
            "GS5": "a2395c07-f35c-4111-a364-56bbf7112092"
          }
        }
      ],
      "BK37": {
        "BL1": "Terrasoft.Core.Process.ProcessSchemaParameter",
        "UId": "cdd58be7-2dba-4a5e-869b-1ad5d6d7513a",
        "A2": "NotificationCaption",
        "A3": "a2395c07-f35c-4111-a364-56bbf7112092",
        "A4": "a2395c07-f35c-4111-a364-56bbf7112092",
        "L1": "8b3f29bb-ea14-4ce5-a5c5-293a929b6ba2",
        "L8": {
          "GS1": 3,
          "GS2": "[#[PropertyValue:Caption]#]"
        }
      },
      "BK1": "FFFFFFFF",
      "BK2": "FFBBBBBB",
      "BK3": [
        {
          "BL1": "Terrasoft.Core.Process.ProcessSchemaLaneSet",
          "UId": "f7fadb90-ab66-4824-8566-46e779695ec0",
          "A2": "LaneSet1",
          "A3": "a2395c07-f35c-4111-a364-56bbf7112092",
          "A4": "a2395c07-f35c-4111-a364-56bbf7112092",
          "A5": "80852c4e-6e90-4769-a5e6-c485d9bc7022",
          "BL7": "11a47caf-a0d5-41fa-a274-a0b11f77447a",
          "BL8": "a2395c07-f35c-4111-a364-56bbf7112092",
          "BM1": 0,
          "BM4": [
            {
              "BL1": "Terrasoft.Core.Process.ProcessSchemaLane",
              "UId": "37ee864d-0c75-4e34-badf-7bfd6ac9875e",
              "A2": "Lane1",
              "A3": "a2395c07-f35c-4111-a364-56bbf7112092",
              "A4": "a2395c07-f35c-4111-a364-56bbf7112092",
              "A5": "80852c4e-6e90-4769-a5e6-c485d9bc7022",
              "IL2": "f7fadb90-ab66-4824-8566-46e779695ec0",
              "BL7": "abcd74b9-5912-414b-82ac-f1aa4dcd554e",
              "BL8": "a2395c07-f35c-4111-a364-56bbf7112092",
              "CD1": [],
              "CD2": [],
              "CD4": "f7fadb90-ab66-4824-8566-46e779695ec0",
              "CD7": []
            }
          ]
        }
      ],
      "BK5": [],
      "BK4": [
        {
          "BL1": "Terrasoft.Core.Process.ProcessSchemaTerminateEvent",
          "UId": "b84c3b55-bfda-4ce5-bc5c-a206b0a1dfca",
          "A2": "TerminateEvent1",
          "A3": "a2395c07-f35c-4111-a364-56bbf7112092",
          "A4": "a2395c07-f35c-4111-a364-56bbf7112092",
          "A5": "80852c4e-6e90-4769-a5e6-c485d9bc7022",
          "IL2": "37ee864d-0c75-4e34-badf-7bfd6ac9875e",
          "BL3": "776;184",
          "BL7": "1bd93619-0574-454e-bb4e-cf53b9eb9470",
          "BL8": "a2395c07-f35c-4111-a364-56bbf7112092",
          "BN2": "31;31",
          "BO3": true,
          "FC1": []
        },
        {
          "BL1": "Terrasoft.Core.Process.ProcessSchemaStartSignalEvent",
          "UId": "c2dd9383-cda8-4328-affe-b0a3b3a43b07",
          "A2": "StartSignal1",
          "A3": "a2395c07-f35c-4111-a364-56bbf7112092",
          "A4": "a2395c07-f35c-4111-a364-56bbf7112092",
          "A5": "80852c4e-6e90-4769-a5e6-c485d9bc7022",
          "IL2": "37ee864d-0c75-4e34-badf-7bfd6ac9875e",
          "IL3": true,
          "BL3": "50;184",
          "BL7": "1129e72f-0e8c-445a-b2ea-463517e86395",
          "BL8": "a2395c07-f35c-4111-a364-56bbf7112092",
          "BN2": "31;31",
          "BO3": true,
          "FC1": [
            {
              "BL1": "Terrasoft.Core.Process.ProcessSchemaParameter",
              "UId": "bce748e7-01d7-495d-8b70-92495d255337",
              "A2": "RecordId",
              "A3": "a2395c07-f35c-4111-a364-56bbf7112092",
              "A4": "a2395c07-f35c-4111-a364-56bbf7112092",
              "IL2": "c2dd9383-cda8-4328-affe-b0a3b3a43b07",
              "L1": "23018567-a13c-4320-8687-fd6f9e3699bd",
              "L8": {
                "GS1": 1,
                "GS2": ""
              }
            }
          ],
          "FC2": "4ae87426-a469-4452-a24b-46571f8a3419",
          "ED1": false,
          "DZ1": "null",
          "DZ2": false,
          "DZ3": true,
          "DZ5": 1,
          "DZ8": true,
          "DZ12": "{\"$type\":\"System.Collections.ObjectModel.Collection`1[[System.String, mscorlib]], mscorlib\",\"$values\":[]}",
          "DZ13": "{\"className\":\"Terrasoft.FilterGroup\",\"serializedFilterEditData\":\"{\\\"className\\\":\\\"Terrasoft.FilterGroup\\\",\\\"items\\\":{\\\"037838e8-31cf-4988-88fe-e2e695f17163\\\":{\\\"className\\\":\\\"Terrasoft.IsNullFilter\\\",\\\"filterType\\\":2,\\\"comparisonType\\\":2,\\\"isEnabled\\\":true,\\\"trimDateTimeParameterToDate\\\":false,\\\"leftExpression\\\":{\\\"className\\\":\\\"Terrasoft.ColumnExpression\\\",\\\"expressionType\\\":0,\\\"columnPath\\\":\\\"WatTrip\\\"},\\\"isAggregative\\\":false,\\\"key\\\":\\\"037838e8-31cf-4988-88fe-e2e695f17163\\\",\\\"dataValueType\\\":10,\\\"leftExpressionCaption\\\":\\\"Trip\\\",\\\"referenceSchemaName\\\":\\\"WatTrip\\\",\\\"isNull\\\":false},\\\"aabfca0c-7303-423c-b3bf-96633ae4e483\\\":{\\\"className\\\":\\\"Terrasoft.InFilter\\\",\\\"filterType\\\":4,\\\"comparisonType\\\":3,\\\"isEnabled\\\":true,\\\"trimDateTimeParameterToDate\\\":false,\\\"leftExpression\\\":{\\\"className\\\":\\\"Terrasoft.ColumnExpression\\\",\\\"expressionType\\\":0,\\\"columnPath\\\":\\\"WatActiveTraveller\\\"},\\\"isAggregative\\\":false,\\\"key\\\":\\\"aabfca0c-7303-423c-b3bf-96633ae4e483\\\",\\\"dataValueType\\\":10,\\\"leftExpressionCaption\\\":\\\"Active Traveller\\\",\\\"referenceSchemaName\\\":\\\"WatAdvancedBoolean\\\",\\\"rightExpressions\\\":[{\\\"className\\\":\\\"Terrasoft.ParameterExpression\\\",\\\"expressionType\\\":2,\\\"parameter\\\":{\\\"className\\\":\\\"Terrasoft.Parameter\\\",\\\"dataValueType\\\":10,\\\"value\\\":{\\\"Name\\\":\\\"Yes\\\",\\\"Id\\\":\\\"7ecfa448-377a-41a0-9167-af48f5f19bcd\\\",\\\"value\\\":\\\"7ecfa448-377a-41a0-9167-af48f5f19bcd\\\",\\\"displayValue\\\":\\\"Yes\\\"}}}]},\\\"e54b5bac-5bd3-4ac3-b848-d65ae51e2892\\\":{\\\"className\\\":\\\"Terrasoft.CompareFilter\\\",\\\"filterType\\\":1,\\\"comparisonType\\\":3,\\\"isEnabled\\\":true,\\\"trimDateTimeParameterToDate\\\":false,\\\"leftExpression\\\":{\\\"className\\\":\\\"Terrasoft.ColumnExpression\\\",\\\"expressionType\\\":0,\\\"columnPath\\\":\\\"WatTrip.WatRecountTravellers\\\"},\\\"isAggregative\\\":false,\\\"key\\\":\\\"e54b5bac-5bd3-4ac3-b848-d65ae51e2892\\\",\\\"dataValueType\\\":12,\\\"leftExpressionCaption\\\":\\\"Trip.Recount Travellers\\\",\\\"rightExpression\\\":{\\\"className\\\":\\\"Terrasoft.ParameterExpression\\\",\\\"expressionType\\\":2,\\\"parameter\\\":{\\\"className\\\":\\\"Terrasoft.Parameter\\\",\\\"dataValueType\\\":12,\\\"value\\\":false}}},\\\"5dfa247f-ebf3-4f94-b6cd-39fb5bd40fe2\\\":{\\\"className\\\":\\\"Terrasoft.InFilter\\\",\\\"filterType\\\":4,\\\"comparisonType\\\":3,\\\"isEnabled\\\":true,\\\"trimDateTimeParameterToDate\\\":false,\\\"leftExpression\\\":{\\\"className\\\":\\\"Terrasoft.ColumnExpression\\\",\\\"expressionType\\\":0,\\\"columnPath\\\":\\\"WatTrip.WatTravelerType\\\"},\\\"isAggregative\\\":false,\\\"key\\\":\\\"5dfa247f-ebf3-4f94-b6cd-39fb5bd40fe2\\\",\\\"dataValueType\\\":10,\\\"leftExpressionCaption\\\":\\\"Trip.traveller_type\\\",\\\"referenceSchemaName\\\":\\\"WatTravelerType\\\",\\\"rightExpressions\\\":[{\\\"className\\\":\\\"Terrasoft.ParameterExpression\\\",\\\"expressionType\\\":2,\\\"parameter\\\":{\\\"className\\\":\\\"Terrasoft.Parameter\\\",\\\"dataValueType\\\":10,\\\"value\\\":{\\\"Name\\\":\\\"Faculty/Staff Group Travel\\\",\\\"Id\\\":\\\"3ec633e9-6646-4d08-a0bd-dbb211cd5711\\\",\\\"value\\\":\\\"3ec633e9-6646-4d08-a0bd-dbb211cd5711\\\",\\\"displayValue\\\":\\\"Faculty/Staff Group Travel\\\"}}}]}},\\\"logicalOperation\\\":0,\\\"isEnabled\\\":true,\\\"filterType\\\":6,\\\"rootSchemaName\\\":\\\"WatTraveler\\\",\\\"key\\\":\\\"\\\"}\",\"dataSourceFilters\":\"{\\\"items\\\":{\\\"037838e8-31cf-4988-88fe-e2e695f17163\\\":{\\\"filterType\\\":2,\\\"comparisonType\\\":2,\\\"isEnabled\\\":true,\\\"trimDateTimeParameterToDate\\\":false,\\\"leftExpression\\\":{\\\"expressionType\\\":0,\\\"columnPath\\\":\\\"WatTrip\\\"},\\\"isNull\\\":false},\\\"aabfca0c-7303-423c-b3bf-96633ae4e483\\\":{\\\"filterType\\\":4,\\\"comparisonType\\\":3,\\\"isEnabled\\\":true,\\\"trimDateTimeParameterToDate\\\":false,\\\"leftExpression\\\":{\\\"expressionType\\\":0,\\\"columnPath\\\":\\\"WatActiveTraveller\\\"},\\\"rightExpressions\\\":[{\\\"expressionType\\\":2,\\\"parameter\\\":{\\\"dataValueType\\\":10,\\\"value\\\":\\\"7ecfa448-377a-41a0-9167-af48f5f19bcd\\\"}}]},\\\"e54b5bac-5bd3-4ac3-b848-d65ae51e2892\\\":{\\\"filterType\\\":1,\\\"comparisonType\\\":3,\\\"isEnabled\\\":true,\\\"trimDateTimeParameterToDate\\\":false,\\\"leftExpression\\\":{\\\"expressionType\\\":0,\\\"columnPath\\\":\\\"WatTrip.WatRecountTravellers\\\"},\\\"rightExpression\\\":{\\\"expressionType\\\":2,\\\"parameter\\\":{\\\"dataValueType\\\":12,\\\"value\\\":false}}},\\\"5dfa247f-ebf3-4f94-b6cd-39fb5bd40fe2\\\":{\\\"filterType\\\":4,\\\"comparisonType\\\":3,\\\"isEnabled\\\":true,\\\"trimDateTimeParameterToDate\\\":false,\\\"leftExpression\\\":{\\\"expressionType\\\":0,\\\"columnPath\\\":\\\"WatTrip.WatTravelerType\\\"},\\\"rightExpressions\\\":[{\\\"expressionType\\\":2,\\\"parameter\\\":{\\\"dataValueType\\\":10,\\\"value\\\":\\\"3ec633e9-6646-4d08-a0bd-dbb211cd5711\\\"}}]}},\\\"logicalOperation\\\":0,\\\"isEnabled\\\":true,\\\"filterType\\\":6,\\\"rootSchemaName\\\":\\\"WatTraveler\\\"}\"}"
        },
        {
          "BL1": "Terrasoft.Core.Process.ProcessSchemaFormulaTask",
          "UId": "ba0ea97a-4f7b-443f-8ce6-ad09c2c0d622",
          "A2": "FormulaTask1",
          "A3": "a2395c07-f35c-4111-a364-56bbf7112092",
          "A4": "a2395c07-f35c-4111-a364-56bbf7112092",
          "A5": "80852c4e-6e90-4769-a5e6-c485d9bc7022",
          "IL2": "37ee864d-0c75-4e34-badf-7bfd6ac9875e",
          "BL3": "153;172",
          "BL7": "d334d28f-b11a-477e-9ff0-0a95fa73d53b",
          "BL8": "a2395c07-f35c-4111-a364-56bbf7112092",
          "BN2": "69;55",
          "BO3": true,
          "BP2": [],
          "CL2": "FFFFFFFF",
          "CH1": "[#[IsOwnerSchema:false].[IsSchema:false].[Element:{c2dd9383-cda8-4328-affe-b0a3b3a43b07}].[Parameter:{bce748e7-01d7-495d-8b70-92495d255337}]#]",
          "HS1": "bb836e66-5d22-4fa8-afd5-52b8da2e64a2"
        },
        {
          "BL1": "Terrasoft.Core.Process.ProcessSchemaStartSignalEvent",
          "UId": "995c6057-8a22-44fe-9e88-d5202129cf45",
          "A2": "StartSignal2",
          "A3": "a2395c07-f35c-4111-a364-56bbf7112092",
          "A4": "a2395c07-f35c-4111-a364-56bbf7112092",
          "A5": "80852c4e-6e90-4769-a5e6-c485d9bc7022",
          "IL2": "37ee864d-0c75-4e34-badf-7bfd6ac9875e",
          "IL3": true,
          "BL3": "50;307",
          "BL7": "1129e72f-0e8c-445a-b2ea-463517e86395",
          "BL8": "a2395c07-f35c-4111-a364-56bbf7112092",
          "BN2": "31;31",
          "BO3": true,
          "FC1": [
            {
              "BL1": "Terrasoft.Core.Process.ProcessSchemaParameter",
              "UId": "b3328b8e-4840-46f0-b237-d846ac65e2dc",
              "A2": "RecordId",
              "A3": "a2395c07-f35c-4111-a364-56bbf7112092",
              "A4": "a2395c07-f35c-4111-a364-56bbf7112092",
              "IL2": "995c6057-8a22-44fe-9e88-d5202129cf45",
              "L1": "23018567-a13c-4320-8687-fd6f9e3699bd",
              "L8": {
                "GS1": 1,
                "GS2": ""
              }
            }
          ],
          "FC2": "4ae87426-a469-4452-a24b-46571f8a3419",
          "ED1": false,
          "DZ1": "null",
          "DZ2": false,
          "DZ3": true,
          "DZ5": 2,
          "DZ8": true,
          "DZ11": true,
          "DZ12": "{\"$type\":\"System.Collections.ObjectModel.Collection`1[[System.String, mscorlib]], mscorlib\",\"$values\":[\"9c7db346-bbbc-4d42-91c0-aa1795747640\",\"0427b097-3f4c-495a-925e-f10ebea84396\"]}",
          "DZ13": "{\"className\":\"Terrasoft.FilterGroup\",\"serializedFilterEditData\":\"{\\\"className\\\":\\\"Terrasoft.FilterGroup\\\",\\\"items\\\":{\\\"037838e8-31cf-4988-88fe-e2e695f17163\\\":{\\\"className\\\":\\\"Terrasoft.IsNullFilter\\\",\\\"filterType\\\":2,\\\"comparisonType\\\":2,\\\"isEnabled\\\":true,\\\"trimDateTimeParameterToDate\\\":false,\\\"leftExpression\\\":{\\\"className\\\":\\\"Terrasoft.ColumnExpression\\\",\\\"expressionType\\\":0,\\\"columnPath\\\":\\\"WatTrip\\\"},\\\"isAggregative\\\":false,\\\"key\\\":\\\"037838e8-31cf-4988-88fe-e2e695f17163\\\",\\\"dataValueType\\\":10,\\\"leftExpressionCaption\\\":\\\"Trip\\\",\\\"referenceSchemaName\\\":\\\"WatTrip\\\",\\\"isNull\\\":false},\\\"e54b5bac-5bd3-4ac3-b848-d65ae51e2892\\\":{\\\"className\\\":\\\"Terrasoft.CompareFilter\\\",\\\"filterType\\\":1,\\\"comparisonType\\\":3,\\\"isEnabled\\\":true,\\\"trimDateTimeParameterToDate\\\":false,\\\"leftExpression\\\":{\\\"className\\\":\\\"Terrasoft.ColumnExpression\\\",\\\"expressionType\\\":0,\\\"columnPath\\\":\\\"WatTrip.WatRecountTravellers\\\"},\\\"isAggregative\\\":false,\\\"key\\\":\\\"e54b5bac-5bd3-4ac3-b848-d65ae51e2892\\\",\\\"dataValueType\\\":12,\\\"leftExpressionCaption\\\":\\\"Trip.Recount Travellers\\\",\\\"rightExpression\\\":{\\\"className\\\":\\\"Terrasoft.ParameterExpression\\\",\\\"expressionType\\\":2,\\\"parameter\\\":{\\\"className\\\":\\\"Terrasoft.Parameter\\\",\\\"dataValueType\\\":12,\\\"value\\\":false}}},\\\"0718ebef-b012-4e80-bb40-7b3a8be01d71\\\":{\\\"className\\\":\\\"Terrasoft.InFilter\\\",\\\"filterType\\\":4,\\\"comparisonType\\\":3,\\\"isEnabled\\\":true,\\\"trimDateTimeParameterToDate\\\":false,\\\"leftExpression\\\":{\\\"className\\\":\\\"Terrasoft.ColumnExpression\\\",\\\"expressionType\\\":0,\\\"columnPath\\\":\\\"WatTrip.WatTravelerType\\\"},\\\"isAggregative\\\":false,\\\"key\\\":\\\"0718ebef-b012-4e80-bb40-7b3a8be01d71\\\",\\\"dataValueType\\\":10,\\\"leftExpressionCaption\\\":\\\"Trip.traveller_type\\\",\\\"referenceSchemaName\\\":\\\"WatTravelerType\\\",\\\"rightExpressions\\\":[{\\\"className\\\":\\\"Terrasoft.ParameterExpression\\\",\\\"expressionType\\\":2,\\\"parameter\\\":{\\\"className\\\":\\\"Terrasoft.Parameter\\\",\\\"dataValueType\\\":10,\\\"value\\\":{\\\"Name\\\":\\\"Faculty/Staff Group Travel\\\",\\\"Id\\\":\\\"3ec633e9-6646-4d08-a0bd-dbb211cd5711\\\",\\\"value\\\":\\\"3ec633e9-6646-4d08-a0bd-dbb211cd5711\\\",\\\"displayValue\\\":\\\"Faculty/Staff Group Travel\\\"}}}]}},\\\"logicalOperation\\\":0,\\\"isEnabled\\\":true,\\\"filterType\\\":6,\\\"rootSchemaName\\\":\\\"WatTraveler\\\",\\\"key\\\":\\\"\\\"}\",\"dataSourceFilters\":\"{\\\"items\\\":{\\\"037838e8-31cf-4988-88fe-e2e695f17163\\\":{\\\"filterType\\\":2,\\\"comparisonType\\\":2,\\\"isEnabled\\\":true,\\\"trimDateTimeParameterToDate\\\":false,\\\"leftExpression\\\":{\\\"expressionType\\\":0,\\\"columnPath\\\":\\\"WatTrip\\\"},\\\"isNull\\\":false},\\\"e54b5bac-5bd3-4ac3-b848-d65ae51e2892\\\":{\\\"filterType\\\":1,\\\"comparisonType\\\":3,\\\"isEnabled\\\":true,\\\"trimDateTimeParameterToDate\\\":false,\\\"leftExpression\\\":{\\\"expressionType\\\":0,\\\"columnPath\\\":\\\"WatTrip.WatRecountTravellers\\\"},\\\"rightExpression\\\":{\\\"expressionType\\\":2,\\\"parameter\\\":{\\\"dataValueType\\\":12,\\\"value\\\":false}}},\\\"0718ebef-b012-4e80-bb40-7b3a8be01d71\\\":{\\\"filterType\\\":4,\\\"comparisonType\\\":3,\\\"isEnabled\\\":true,\\\"trimDateTimeParameterToDate\\\":false,\\\"leftExpression\\\":{\\\"expressionType\\\":0,\\\"columnPath\\\":\\\"WatTrip.WatTravelerType\\\"},\\\"rightExpressions\\\":[{\\\"expressionType\\\":2,\\\"parameter\\\":{\\\"dataValueType\\\":10,\\\"value\\\":\\\"3ec633e9-6646-4d08-a0bd-dbb211cd5711\\\"}}]}},\\\"logicalOperation\\\":0,\\\"isEnabled\\\":true,\\\"filterType\\\":6,\\\"rootSchemaName\\\":\\\"WatTraveler\\\"}\"}"
        },
        {
          "BL1": "Terrasoft.Core.Process.ProcessSchemaFormulaTask",
          "UId": "48c1419c-1233-4199-92ba-97e7b6b29f8d",
          "A2": "FormulaTask2",
          "A3": "a2395c07-f35c-4111-a364-56bbf7112092",
          "A4": "a2395c07-f35c-4111-a364-56bbf7112092",
          "A5": "80852c4e-6e90-4769-a5e6-c485d9bc7022",
          "IL2": "37ee864d-0c75-4e34-badf-7bfd6ac9875e",
          "BL3": "153;295",
          "BL7": "d334d28f-b11a-477e-9ff0-0a95fa73d53b",
          "BL8": "a2395c07-f35c-4111-a364-56bbf7112092",
          "BN2": "69;55",
          "BO3": true,
          "BP2": [],
          "CL2": "FFFFFFFF",
          "CH1": "[#[IsOwnerSchema:false].[IsSchema:false].[Element:{995c6057-8a22-44fe-9e88-d5202129cf45}].[Parameter:{b3328b8e-4840-46f0-b237-d846ac65e2dc}]#]",
          "HS1": "bb836e66-5d22-4fa8-afd5-52b8da2e64a2"
        },
        {
          "BL1": "Terrasoft.Core.Process.ProcessSchemaStartSignalEvent",
          "UId": "cfbbe06e-0392-4f76-ac0b-8d5e9e8eaf7b",
          "A2": "StartSignal3",
          "A3": "a2395c07-f35c-4111-a364-56bbf7112092",
          "A4": "a2395c07-f35c-4111-a364-56bbf7112092",
          "A5": "80852c4e-6e90-4769-a5e6-c485d9bc7022",
          "IL2": "37ee864d-0c75-4e34-badf-7bfd6ac9875e",
          "IL3": true,
          "BL3": "50;435",
          "BL7": "1129e72f-0e8c-445a-b2ea-463517e86395",
          "BL8": "a2395c07-f35c-4111-a364-56bbf7112092",
          "BN2": "31;31",
          "BO3": true,
          "FC1": [
            {
              "BL1": "Terrasoft.Core.Process.ProcessSchemaParameter",
              "UId": "085f9ded-8a13-499c-9a45-0bbdf548ed2f",
              "A2": "RecordId",
              "A3": "a2395c07-f35c-4111-a364-56bbf7112092",
              "A4": "a2395c07-f35c-4111-a364-56bbf7112092",
              "IL2": "cfbbe06e-0392-4f76-ac0b-8d5e9e8eaf7b",
              "L1": "23018567-a13c-4320-8687-fd6f9e3699bd",
              "L8": {
                "GS1": 1,
                "GS2": ""
              }
            }
          ],
          "FC2": "4ae87426-a469-4452-a24b-46571f8a3419",
          "ED1": false,
          "DZ1": "null",
          "DZ2": false,
          "DZ3": true,
          "DZ5": 4,
          "DZ12": "{\"$type\":\"System.Collections.ObjectModel.Collection`1[[System.String, mscorlib]], mscorlib\",\"$values\":[]}",
          "DZ13": "{\"className\":\"Terrasoft.FilterGroup\",\"serializedFilterEditData\":\"{\\\"className\\\":\\\"Terrasoft.FilterGroup\\\",\\\"items\\\":{},\\\"logicalOperation\\\":0,\\\"isEnabled\\\":true,\\\"filterType\\\":6,\\\"rootSchemaName\\\":\\\"WatTraveler\\\",\\\"key\\\":\\\"\\\"}\",\"dataSourceFilters\":\"{\\\"items\\\":{},\\\"logicalOperation\\\":0,\\\"isEnabled\\\":true,\\\"filterType\\\":6,\\\"rootSchemaName\\\":\\\"WatTraveler\\\"}\"}"
        },
        {
          "BL1": "Terrasoft.Core.Process.ProcessSchemaUserTask",
          "UId": "7e53b850-b0d8-4c7a-8715-b0e02b612978",
          "A2": "ReadDataUserTask2",
          "A3": "a2395c07-f35c-4111-a364-56bbf7112092",
          "A4": "a2395c07-f35c-4111-a364-56bbf7112092",
          "A5": "80852c4e-6e90-4769-a5e6-c485d9bc7022",
          "IL2": "37ee864d-0c75-4e34-badf-7bfd6ac9875e",
          "BL3": "300;172",
          "BL7": "cb455b6f-78ff-4b1e-b241-c2bbc0b37e9f",
          "BL8": "a2395c07-f35c-4111-a364-56bbf7112092",
          "BN2": "69;55",
          "BO2": true,
          "BO3": true,
          "BP2": [
            {
              "BL1": "Terrasoft.Core.Process.ProcessSchemaParameter",
              "UId": "0020073f-42d4-4233-bdff-84271bfc391e",
              "A2": "DataSourceFilters",
              "A3": "cb455b6f-78ff-4b1e-b241-c2bbc0b37e9f",
              "A4": "cb455b6f-78ff-4b1e-b241-c2bbc0b37e9f",
              "A5": "66e9e705-64b4-4dda-925e-d1e05a389eb6",
              "IL2": "7e53b850-b0d8-4c7a-8715-b0e02b612978",
              "L1": "394e160f-c8e0-46fa-9c0d-75d97e9e9169",
              "L8": {
                "GS1": 1,
                "GS2": "{\"className\":\"Terrasoft.FilterGroup\",\"serializedFilterEditData\":\"{\\\"className\\\":\\\"Terrasoft.FilterGroup\\\",\\\"items\\\":{\\\"dc250f1d-933d-4f1d-adf1-c6e7947c8379\\\":{\\\"className\\\":\\\"Terrasoft.CompareFilter\\\",\\\"filterType\\\":1,\\\"comparisonType\\\":3,\\\"isEnabled\\\":true,\\\"trimDateTimeParameterToDate\\\":false,\\\"leftExpression\\\":{\\\"className\\\":\\\"Terrasoft.ColumnExpression\\\",\\\"expressionType\\\":0,\\\"columnPath\\\":\\\"Id\\\"},\\\"isAggregative\\\":false,\\\"key\\\":\\\"dc250f1d-933d-4f1d-adf1-c6e7947c8379\\\",\\\"dataValueType\\\":0,\\\"leftExpressionCaption\\\":\\\"Id\\\",\\\"rightExpression\\\":{\\\"className\\\":\\\"Terrasoft.ParameterExpression\\\",\\\"expressionType\\\":2,\\\"parameter\\\":{\\\"className\\\":\\\"Terrasoft.Parameter\\\",\\\"dataValueType\\\":26,\\\"value\\\":{\\\"value\\\":\\\"[IsOwnerSchema:false].[IsSchema:false].[Parameter:{bb836e66-5d22-4fa8-afd5-52b8da2e64a2}]\\\",\\\"displayValue\\\":\\\"TravellerId\\\"}}}}},\\\"logicalOperation\\\":0,\\\"isEnabled\\\":true,\\\"filterType\\\":6,\\\"rootSchemaName\\\":\\\"WatTraveler\\\",\\\"key\\\":\\\"\\\"}\",\"dataSourceFilters\":\"{\\\"items\\\":{\\\"dc250f1d-933d-4f1d-adf1-c6e7947c8379\\\":{\\\"filterType\\\":1,\\\"comparisonType\\\":3,\\\"isEnabled\\\":true,\\\"trimDateTimeParameterToDate\\\":false,\\\"leftExpression\\\":{\\\"expressionType\\\":0,\\\"columnPath\\\":\\\"Id\\\"},\\\"rightExpression\\\":{\\\"expressionType\\\":2,\\\"parameter\\\":{\\\"dataValueType\\\":26,\\\"value\\\":{\\\"value\\\":\\\"[IsOwnerSchema:false].[IsSchema:false].[Parameter:{bb836e66-5d22-4fa8-afd5-52b8da2e64a2}]\\\"}}}}},\\\"logicalOperation\\\":0,\\\"isEnabled\\\":true,\\\"filterType\\\":6,\\\"rootSchemaName\\\":\\\"WatTraveler\\\"}\"}",
                "GS5": "a2395c07-f35c-4111-a364-56bbf7112092"
              }
            },
            {
              "BL1": "Terrasoft.Core.Process.ProcessSchemaParameter",
              "UId": "2be5cf73-4d52-44d6-bb16-f0ca6288cc4e",
              "A2": "ResultType",
              "A3": "cb455b6f-78ff-4b1e-b241-c2bbc0b37e9f",
              "A4": "cb455b6f-78ff-4b1e-b241-c2bbc0b37e9f",
              "IL2": "7e53b850-b0d8-4c7a-8715-b0e02b612978",
              "L1": "6b6b74e2-820d-490e-a017-2b73d4ccf2b0",
              "L8": {
                "GS1": 1,
                "GS2": "0",
                "GS5": "cb455b6f-78ff-4b1e-b241-c2bbc0b37e9f"
              }
            },
            {
              "BL1": "Terrasoft.Core.Process.ProcessSchemaParameter",
              "UId": "b3cce24d-5628-4fa1-9883-0fd29ad1afb5",
              "A2": "ReadSomeTopRecords",
              "A3": "cb455b6f-78ff-4b1e-b241-c2bbc0b37e9f",
              "A4": "cb455b6f-78ff-4b1e-b241-c2bbc0b37e9f",
              "IL2": "7e53b850-b0d8-4c7a-8715-b0e02b612978",
              "L1": "90b65bf8-0ffc-4141-8779-2420877af907",
              "L8": {
                "GS1": 1,
                "GS2": "true",
                "GS5": "a2395c07-f35c-4111-a364-56bbf7112092"
              }
            },
            {
              "BL1": "Terrasoft.Core.Process.ProcessSchemaParameter",
              "UId": "9edd3178-7be9-48ab-ba47-5dce7f1fb550",
              "A2": "NumberOfRecords",
              "A3": "cb455b6f-78ff-4b1e-b241-c2bbc0b37e9f",
              "A4": "cb455b6f-78ff-4b1e-b241-c2bbc0b37e9f",
              "IL2": "7e53b850-b0d8-4c7a-8715-b0e02b612978",
              "L1": "6b6b74e2-820d-490e-a017-2b73d4ccf2b0",
              "L8": {
                "GS1": 1,
                "GS2": "50",
                "GS5": "a2395c07-f35c-4111-a364-56bbf7112092"
              }
            },
            {
              "BL1": "Terrasoft.Core.Process.ProcessSchemaParameter",
              "UId": "233f5660-e049-4a8f-9e43-c4a9d7a244cc",
              "A2": "FunctionType",
              "A3": "cb455b6f-78ff-4b1e-b241-c2bbc0b37e9f",
              "A4": "cb455b6f-78ff-4b1e-b241-c2bbc0b37e9f",
              "IL2": "7e53b850-b0d8-4c7a-8715-b0e02b612978",
              "L1": "6b6b74e2-820d-490e-a017-2b73d4ccf2b0",
              "L8": {
                "GS1": 1,
                "GS2": "0",
                "GS5": "a2395c07-f35c-4111-a364-56bbf7112092"
              }
            },
            {
              "BL1": "Terrasoft.Core.Process.ProcessSchemaParameter",
              "UId": "f6b36ecd-cb21-4c54-bdbc-3c45ac479286",
              "A2": "AggregationColumnName",
              "A3": "cb455b6f-78ff-4b1e-b241-c2bbc0b37e9f",
              "A4": "cb455b6f-78ff-4b1e-b241-c2bbc0b37e9f",
              "IL2": "7e53b850-b0d8-4c7a-8715-b0e02b612978",
              "L1": "394e160f-c8e0-46fa-9c0d-75d97e9e9169",
              "L8": {
                "GS2": ""
              }
            },
            {
              "BL1": "Terrasoft.Core.Process.ProcessSchemaParameter",
              "UId": "0b8d4295-6f57-4998-a6b6-2f156e6cdff0",
              "A2": "OrderInfo",
              "A3": "cb455b6f-78ff-4b1e-b241-c2bbc0b37e9f",
              "A4": "cb455b6f-78ff-4b1e-b241-c2bbc0b37e9f",
              "IL2": "7e53b850-b0d8-4c7a-8715-b0e02b612978",
              "L1": "394e160f-c8e0-46fa-9c0d-75d97e9e9169",
              "L8": {
                "GS5": "a2395c07-f35c-4111-a364-56bbf7112092"
              }
            },
            {
              "BL1": "Terrasoft.Core.Process.ProcessSchemaParameter",
              "UId": "7243db6d-4a62-4f4c-9671-95be517e8e3f",
              "A2": "ResultEntity",
              "A3": "cb455b6f-78ff-4b1e-b241-c2bbc0b37e9f",
              "A4": "cb455b6f-78ff-4b1e-b241-c2bbc0b37e9f",
              "A5": "66e9e705-64b4-4dda-925e-d1e05a389eb6",
              "IL2": "7e53b850-b0d8-4c7a-8715-b0e02b612978",
              "L1": "ebd85d37-0abf-4bbf-bb32-97dc3dffcc8c",
              "L8": {
                "GS1": 1,
                "GS5": "a2395c07-f35c-4111-a364-56bbf7112092"
              },
              "L9": "4ae87426-a469-4452-a24b-46571f8a3419",
              "L13": true
            },
            {
              "BL1": "Terrasoft.Core.Process.ProcessSchemaParameter",
              "UId": "fffc7ae7-4bb5-4b48-8b5c-e2d66e80f13d",
              "A2": "ResultCount",
              "A3": "cb455b6f-78ff-4b1e-b241-c2bbc0b37e9f",
              "A4": "cb455b6f-78ff-4b1e-b241-c2bbc0b37e9f",
              "IL2": "7e53b850-b0d8-4c7a-8715-b0e02b612978",
              "L1": "6b6b74e2-820d-490e-a017-2b73d4ccf2b0",
              "L8": {
                "GS2": ""
              }
            },
            {
              "BL1": "Terrasoft.Core.Process.ProcessSchemaParameter",
              "UId": "f9bc8205-45af-443a-be3a-c4c03ff20838",
              "A2": "ResultIntegerFunction",
              "A3": "cb455b6f-78ff-4b1e-b241-c2bbc0b37e9f",
              "A4": "cb455b6f-78ff-4b1e-b241-c2bbc0b37e9f",
              "IL2": "7e53b850-b0d8-4c7a-8715-b0e02b612978",
              "L1": "6b6b74e2-820d-490e-a017-2b73d4ccf2b0",
              "L8": {
                "GS2": ""
              }
            },
            {
              "BL1": "Terrasoft.Core.Process.ProcessSchemaParameter",
              "UId": "ac913a11-bb4d-4c8d-88a3-0967ad6a089f",
              "A2": "ResultFloatFunction",
              "A3": "cb455b6f-78ff-4b1e-b241-c2bbc0b37e9f",
              "A4": "cb455b6f-78ff-4b1e-b241-c2bbc0b37e9f",
              "IL2": "7e53b850-b0d8-4c7a-8715-b0e02b612978",
              "L1": "ff22e049-4d16-46ee-a529-92d8808932dc",
              "L8": {
                "GS2": ""
              }
            },
            {
              "BL1": "Terrasoft.Core.Process.ProcessSchemaParameter",
              "UId": "df6ae41b-672b-4fb1-871d-7a3ea89265a7",
              "A2": "ResultDateTimeFunction",
              "A3": "cb455b6f-78ff-4b1e-b241-c2bbc0b37e9f",
              "A4": "cb455b6f-78ff-4b1e-b241-c2bbc0b37e9f",
              "IL2": "7e53b850-b0d8-4c7a-8715-b0e02b612978",
              "L1": "d21e9ef4-c064-4012-b286-fa1a8171da44",
              "L8": {
                "GS2": ""
              }
            },
            {
              "BL1": "Terrasoft.Core.Process.ProcessSchemaParameter",
              "UId": "ce9a9c63-5170-435f-8064-79e286d62d16",
              "A2": "ResultRowsCount",
              "A3": "cb455b6f-78ff-4b1e-b241-c2bbc0b37e9f",
              "A4": "cb455b6f-78ff-4b1e-b241-c2bbc0b37e9f",
              "IL2": "7e53b850-b0d8-4c7a-8715-b0e02b612978",
              "L1": "6b6b74e2-820d-490e-a017-2b73d4ccf2b0",
              "L8": {
                "GS2": ""
              }
            },
            {
              "BL1": "Terrasoft.Core.Process.ProcessSchemaParameter",
              "UId": "4cc890ae-98ed-4df0-9168-fadce13d67e3",
              "A2": "CanReadUncommitedData",
              "A3": "cb455b6f-78ff-4b1e-b241-c2bbc0b37e9f",
              "A4": "cb455b6f-78ff-4b1e-b241-c2bbc0b37e9f",
              "IL2": "7e53b850-b0d8-4c7a-8715-b0e02b612978",
              "L1": "90b65bf8-0ffc-4141-8779-2420877af907",
              "L8": {
                "GS1": 1,
                "GS2": "true",
                "GS5": "cb455b6f-78ff-4b1e-b241-c2bbc0b37e9f"
              }
            },
            {
              "BL1": "Terrasoft.Core.Process.ProcessSchemaParameter",
              "UId": "155e4f22-3ec8-4d3e-a7bd-862e021f795f",
              "A2": "ResultEntityCollection",
              "A3": "cb455b6f-78ff-4b1e-b241-c2bbc0b37e9f",
              "A4": "cb455b6f-78ff-4b1e-b241-c2bbc0b37e9f",
              "IL2": "7e53b850-b0d8-4c7a-8715-b0e02b612978",
              "L1": "51fb23ba-3eb2-11e2-b7d5-b0c76188709b",
              "L8": {
                "GS2": ""
              }
            },
            {
              "BL1": "Terrasoft.Core.Process.ProcessSchemaParameter",
              "UId": "3991f690-38de-4ae7-bf89-66b1172c0f18",
              "A2": "EntityColumnMetaPathes",
              "A3": "cb455b6f-78ff-4b1e-b241-c2bbc0b37e9f",
              "A4": "cb455b6f-78ff-4b1e-b241-c2bbc0b37e9f",
              "IL2": "7e53b850-b0d8-4c7a-8715-b0e02b612978",
              "L1": "394e160f-c8e0-46fa-9c0d-75d97e9e9169",
              "L8": {
                "GS1": 1,
                "GS2": "0427b097-3f4c-495a-925e-f10ebea84396",
                "GS5": "a2395c07-f35c-4111-a364-56bbf7112092"
              }
            },
            {
              "BL1": "Terrasoft.Core.Process.ProcessSchemaParameter",
              "UId": "1f4a2a33-e76e-4c8d-a9a1-a730a1944cea",
              "A2": "IgnoreDisplayValues",
              "A3": "cb455b6f-78ff-4b1e-b241-c2bbc0b37e9f",
              "A4": "cb455b6f-78ff-4b1e-b241-c2bbc0b37e9f",
              "IL2": "7e53b850-b0d8-4c7a-8715-b0e02b612978",
              "L1": "90b65bf8-0ffc-4141-8779-2420877af907",
              "L8": {
                "GS2": ""
              }
            },
            {
              "BL1": "Terrasoft.Core.Process.ProcessSchemaParameter",
              "UId": "f8182f74-82d4-4423-86dd-2c766e7b6820",
              "A2": "ResultCompositeObjectList",
              "A3": "cb455b6f-78ff-4b1e-b241-c2bbc0b37e9f",
              "A4": "cb455b6f-78ff-4b1e-b241-c2bbc0b37e9f",
              "IL2": "7e53b850-b0d8-4c7a-8715-b0e02b612978",
              "L1": "651ec16f-d140-46db-b9e2-825c985a8ac2",
              "L8": {
                "GS2": ""
              }
            },
            {
              "BL1": "Terrasoft.Core.Process.ProcessSchemaParameter",
              "UId": "b1c3cebd-900a-4089-ab60-e819073d9ccc",
              "A2": "ConsiderTimeInFilter",
              "A3": "cb455b6f-78ff-4b1e-b241-c2bbc0b37e9f",
              "A4": "cb455b6f-78ff-4b1e-b241-c2bbc0b37e9f",
              "IL2": "7e53b850-b0d8-4c7a-8715-b0e02b612978",
              "L1": "90b65bf8-0ffc-4141-8779-2420877af907",
              "L8": {
                "GS1": 3,
                "GS2": "false",
                "GS5": "cb455b6f-78ff-4b1e-b241-c2bbc0b37e9f"
              }
            }
          ],
          "CL2": "FFFFFFFF",
          "J6": "cb455b6f-78ff-4b1e-b241-c2bbc0b37e9f"
        },
        {
          "BL1": "Terrasoft.Core.Process.ProcessSchemaFormulaTask",
          "UId": "ea2a225f-802a-49d2-8930-1fee719d0804",
          "A2": "FormulaTask3",
          "A3": "a2395c07-f35c-4111-a364-56bbf7112092",
          "A4": "a2395c07-f35c-4111-a364-56bbf7112092",
          "A5": "80852c4e-6e90-4769-a5e6-c485d9bc7022",
          "IL2": "37ee864d-0c75-4e34-badf-7bfd6ac9875e",
          "BL3": "439;172",
          "BL7": "d334d28f-b11a-477e-9ff0-0a95fa73d53b",
          "BL8": "a2395c07-f35c-4111-a364-56bbf7112092",
          "BN2": "69;55",
          "BO3": true,
          "BP2": [],
          "CL2": "FFFFFFFF",
          "CH1": "[#[IsOwnerSchema:false].[IsSchema:false].[Element:{7e53b850-b0d8-4c7a-8715-b0e02b612978}].[Parameter:{7243db6d-4a62-4f4c-9671-95be517e8e3f}].[EntityColumn:{0427b097-3f4c-495a-925e-f10ebea84396}]#]",
          "HS1": "61092fb6-73db-414f-8971-ae2d144b91f4"
        },
        {
          "BL1": "Terrasoft.Core.Process.ProcessSchemaUserTask",
          "UId": "7d3a3881-1bed-48b6-a717-9943e3817a3d",
          "A2": "ChangeDataUserTask1",
          "A3": "a2395c07-f35c-4111-a364-56bbf7112092",
          "A4": "a2395c07-f35c-4111-a364-56bbf7112092",
          "A5": "80852c4e-6e90-4769-a5e6-c485d9bc7022",
          "IL2": "37ee864d-0c75-4e34-badf-7bfd6ac9875e",
          "BL3": "592;172",
          "BL7": "d3021ca7-7450-4678-a117-060171eb2976",
          "BL8": "a2395c07-f35c-4111-a364-56bbf7112092",
          "BN2": "69;55",
          "BO3": true,
          "BP2": [
            {
              "BL1": "Terrasoft.Core.Process.ProcessSchemaParameter",
              "UId": "53028629-c3cb-4911-8787-9c0bdbf2e4b8",
              "A2": "EntitySchemaUId",
              "A3": "d3021ca7-7450-4678-a117-060171eb2976",
              "A4": "d3021ca7-7450-4678-a117-060171eb2976",
              "A5": "66e9e705-64b4-4dda-925e-d1e05a389eb6",
              "IL2": "7d3a3881-1bed-48b6-a717-9943e3817a3d",
              "L1": "b295071f-7ea9-4e62-8d1a-919bf3732ff2",
              "L8": {
                "GS1": 1,
                "GS2": "2ac3229e-4b9b-44ed-876b-bbc0de5a2134",
                "GS5": "a2395c07-f35c-4111-a364-56bbf7112092"
              },
              "L9": "6c7394db-06ff-4050-91ef-8278e21dce15"
            },
            {
              "BL1": "Terrasoft.Core.Process.ProcessSchemaParameter",
              "UId": "cc93b048-1547-4913-9556-e96690fad13c",
              "A2": "IsMatchConditions",
              "A3": "d3021ca7-7450-4678-a117-060171eb2976",
              "A4": "d3021ca7-7450-4678-a117-060171eb2976",
              "A5": "66e9e705-64b4-4dda-925e-d1e05a389eb6",
              "IL2": "7d3a3881-1bed-48b6-a717-9943e3817a3d",
              "L1": "90b65bf8-0ffc-4141-8779-2420877af907",
              "L8": {
                "GS1": 3,
                "GS2": "true",
                "GS5": "d3021ca7-7450-4678-a117-060171eb2976"
              }
            },
            {
              "BL1": "Terrasoft.Core.Process.ProcessSchemaParameter",
              "UId": "65737c55-0fb0-4e5b-a138-050c4a896670",
              "A2": "DataSourceFilters",
              "A3": "d3021ca7-7450-4678-a117-060171eb2976",
              "A4": "d3021ca7-7450-4678-a117-060171eb2976",
              "A5": "66e9e705-64b4-4dda-925e-d1e05a389eb6",
              "IL2": "7d3a3881-1bed-48b6-a717-9943e3817a3d",
              "L1": "394e160f-c8e0-46fa-9c0d-75d97e9e9169",
              "L8": {
                "GS1": 1,
                "GS2": "{\"className\":\"Terrasoft.FilterGroup\",\"serializedFilterEditData\":\"{\\\"className\\\":\\\"Terrasoft.FilterGroup\\\",\\\"items\\\":{\\\"db83ed44-8f36-4203-965f-aad03f98eabc\\\":{\\\"className\\\":\\\"Terrasoft.CompareFilter\\\",\\\"filterType\\\":1,\\\"comparisonType\\\":3,\\\"isEnabled\\\":true,\\\"trimDateTimeParameterToDate\\\":false,\\\"leftExpression\\\":{\\\"className\\\":\\\"Terrasoft.ColumnExpression\\\",\\\"expressionType\\\":0,\\\"columnPath\\\":\\\"Id\\\"},\\\"isAggregative\\\":false,\\\"key\\\":\\\"db83ed44-8f36-4203-965f-aad03f98eabc\\\",\\\"dataValueType\\\":0,\\\"leftExpressionCaption\\\":\\\"Id\\\",\\\"rightExpression\\\":{\\\"className\\\":\\\"Terrasoft.ParameterExpression\\\",\\\"expressionType\\\":2,\\\"parameter\\\":{\\\"className\\\":\\\"Terrasoft.Parameter\\\",\\\"dataValueType\\\":26,\\\"value\\\":{\\\"value\\\":\\\"[IsOwnerSchema:false].[IsSchema:false].[Parameter:{61092fb6-73db-414f-8971-ae2d144b91f4}]\\\",\\\"displayValue\\\":\\\"TripId\\\"}}}}},\\\"logicalOperation\\\":0,\\\"isEnabled\\\":true,\\\"filterType\\\":6,\\\"rootSchemaName\\\":\\\"WatTrip\\\",\\\"key\\\":\\\"\\\"}\",\"dataSourceFilters\":\"{\\\"items\\\":{\\\"db83ed44-8f36-4203-965f-aad03f98eabc\\\":{\\\"filterType\\\":1,\\\"comparisonType\\\":3,\\\"isEnabled\\\":true,\\\"trimDateTimeParameterToDate\\\":false,\\\"leftExpression\\\":{\\\"expressionType\\\":0,\\\"columnPath\\\":\\\"Id\\\"},\\\"rightExpression\\\":{\\\"expressionType\\\":2,\\\"parameter\\\":{\\\"dataValueType\\\":26,\\\"value\\\":{\\\"value\\\":\\\"[IsOwnerSchema:false].[IsSchema:false].[Parameter:{61092fb6-73db-414f-8971-ae2d144b91f4}]\\\"}}}}},\\\"logicalOperation\\\":0,\\\"isEnabled\\\":true,\\\"filterType\\\":6,\\\"rootSchemaName\\\":\\\"WatTrip\\\"}\"}",
                "GS5": "a2395c07-f35c-4111-a364-56bbf7112092"
              }
            },
            {
              "BL1": "Terrasoft.Core.Process.ProcessSchemaParameter",
              "UId": "6370c951-cd86-4c74-bb0e-91be5a070bbf",
              "A2": "RecordColumnValues",
              "A3": "d3021ca7-7450-4678-a117-060171eb2976",
              "A4": "d3021ca7-7450-4678-a117-060171eb2976",
              "A5": "66e9e705-64b4-4dda-925e-d1e05a389eb6",
              "IL2": "7d3a3881-1bed-48b6-a717-9943e3817a3d",
              "L1": "b53eaa2a-4bb7-4a6b-9f4f-58ccab293e31",
              "L8": {
                "GS1": 1,
                "GS2": "{\"$type\":\"Terrasoft.Core.Process.LocalizableParameterValuesList, Terrasoft.Core\",\"$values\":[{\"ItemUId\":\"6106b15c-0cbb-49e6-ae7b-23c8ec86c63e\",\"columnMetaPath\":{\"value\":\"bb78bf12-74a4-451c-98a1-cac3f8c8fcd6\"},\"schemaUId\":{\"value\":\"2ac3229e-4b9b-44ed-876b-bbc0de5a2134\"},\"value\":{\"value\":\"[#BooleanValue.True#]\"},\"displayValue\":{\"value\":\"[#Boolean value.True#]\"},\"parameterValue\":{\"value\":\"{\\\"$type\\\":\\\"Terrasoft.Core.Process.ProcessSchemaParameterValue, Terrasoft.Core\\\",\\\"Source\\\":3,\\\"DisplayValue\\\":\\\"\\\",\\\"Value\\\":\\\"\\\",\\\"MetaPath\\\":null,\\\"MetaDataValue\\\":null,\\\"ModifiedInSchemaUId\\\":\\\"00000000-0000-0000-0000-000000000000\\\",\\\"SchemaUId\\\":\\\"00000000-0000-0000-0000-000000000000\\\",\\\"SchemaManagerName\\\":\\\"\\\",\\\"DataValueTypeUId\\\":\\\"90b65bf8-0ffc-4141-8779-2420877af907\\\",\\\"ReferenceSchemaUId\\\":\\\"00000000-0000-0000-0000-000000000000\\\",\\\"ResourceItemName\\\":null}\"}}]}",
                "GS5": "a2395c07-f35c-4111-a364-56bbf7112092"
              }
            }
          ],
          "CL2": "FFFFFFFF",
          "J6": "d3021ca7-7450-4678-a117-060171eb2976"
        },
        {
          "BL1": "Terrasoft.Core.Process.ProcessSchemaUserTask",
          "UId": "0a005b25-026c-43b8-9dd4-076c8a443198",
          "A2": "ChangeDataUserTask2",
          "A3": "a2395c07-f35c-4111-a364-56bbf7112092",
          "A4": "a2395c07-f35c-4111-a364-56bbf7112092",
          "A5": "80852c4e-6e90-4769-a5e6-c485d9bc7022",
          "IL2": "37ee864d-0c75-4e34-badf-7bfd6ac9875e",
          "BL3": "592;423",
          "BL7": "d3021ca7-7450-4678-a117-060171eb2976",
          "BL8": "a2395c07-f35c-4111-a364-56bbf7112092",
          "BN2": "69;55",
          "BO3": true,
          "BP2": [
            {
              "BL1": "Terrasoft.Core.Process.ProcessSchemaParameter",
              "UId": "ece36e53-97c8-456d-89cb-f8183d045de2",
              "A2": "EntitySchemaUId",
              "A3": "d3021ca7-7450-4678-a117-060171eb2976",
              "A4": "d3021ca7-7450-4678-a117-060171eb2976",
              "A5": "66e9e705-64b4-4dda-925e-d1e05a389eb6",
              "IL2": "0a005b25-026c-43b8-9dd4-076c8a443198",
              "L1": "b295071f-7ea9-4e62-8d1a-919bf3732ff2",
              "L8": {
                "GS1": 1,
                "GS2": "2ac3229e-4b9b-44ed-876b-bbc0de5a2134",
                "GS5": "a2395c07-f35c-4111-a364-56bbf7112092"
              },
              "L9": "6c7394db-06ff-4050-91ef-8278e21dce15"
            },
            {
              "BL1": "Terrasoft.Core.Process.ProcessSchemaParameter",
              "UId": "22c838a4-9111-47e8-9085-d7bda7058f19",
              "A2": "IsMatchConditions",
              "A3": "d3021ca7-7450-4678-a117-060171eb2976",
              "A4": "d3021ca7-7450-4678-a117-060171eb2976",
              "A5": "66e9e705-64b4-4dda-925e-d1e05a389eb6",
              "IL2": "0a005b25-026c-43b8-9dd4-076c8a443198",
              "L1": "90b65bf8-0ffc-4141-8779-2420877af907",
              "L8": {
                "GS1": 3,
                "GS2": "true",
                "GS5": "d3021ca7-7450-4678-a117-060171eb2976"
              }
            },
            {
              "BL1": "Terrasoft.Core.Process.ProcessSchemaParameter",
              "UId": "1e325393-138c-4b32-b400-cc671ba076d9",
              "A2": "DataSourceFilters",
              "A3": "d3021ca7-7450-4678-a117-060171eb2976",
              "A4": "d3021ca7-7450-4678-a117-060171eb2976",
              "A5": "66e9e705-64b4-4dda-925e-d1e05a389eb6",
              "IL2": "0a005b25-026c-43b8-9dd4-076c8a443198",
              "L1": "394e160f-c8e0-46fa-9c0d-75d97e9e9169",
              "L8": {
                "GS1": 1,
                "GS2": "{\"className\":\"Terrasoft.FilterGroup\",\"serializedFilterEditData\":\"{\\\"className\\\":\\\"Terrasoft.FilterGroup\\\",\\\"items\\\":{\\\"db83ed44-8f36-4203-965f-aad03f98eabc\\\":{\\\"className\\\":\\\"Terrasoft.InFilter\\\",\\\"filterType\\\":4,\\\"comparisonType\\\":3,\\\"isEnabled\\\":true,\\\"trimDateTimeParameterToDate\\\":false,\\\"leftExpression\\\":{\\\"className\\\":\\\"Terrasoft.ColumnExpression\\\",\\\"expressionType\\\":0,\\\"columnPath\\\":\\\"WatTravelerType\\\"},\\\"isAggregative\\\":false,\\\"key\\\":\\\"db83ed44-8f36-4203-965f-aad03f98eabc\\\",\\\"dataValueType\\\":10,\\\"leftExpressionCaption\\\":\\\"traveller_type\\\",\\\"referenceSchemaName\\\":\\\"WatTravelerType\\\",\\\"rightExpressions\\\":[{\\\"className\\\":\\\"Terrasoft.ParameterExpression\\\",\\\"expressionType\\\":2,\\\"parameter\\\":{\\\"className\\\":\\\"Terrasoft.Parameter\\\",\\\"dataValueType\\\":10,\\\"value\\\":{\\\"Name\\\":\\\"Faculty/Staff Group Travel\\\",\\\"Id\\\":\\\"3ec633e9-6646-4d08-a0bd-dbb211cd5711\\\",\\\"value\\\":\\\"3ec633e9-6646-4d08-a0bd-dbb211cd5711\\\",\\\"displayValue\\\":\\\"Faculty/Staff Group Travel\\\"}}}]},\\\"c4ba92d8-9a2b-415f-8817-8eb426510289\\\":{\\\"className\\\":\\\"Terrasoft.InFilter\\\",\\\"filterType\\\":4,\\\"comparisonType\\\":3,\\\"isEnabled\\\":true,\\\"trimDateTimeParameterToDate\\\":false,\\\"leftExpression\\\":{\\\"className\\\":\\\"Terrasoft.ColumnExpression\\\",\\\"expressionType\\\":0,\\\"columnPath\\\":\\\"WatTripStage\\\"},\\\"isAggregative\\\":false,\\\"key\\\":\\\"c4ba92d8-9a2b-415f-8817-8eb426510289\\\",\\\"dataValueType\\\":10,\\\"leftExpressionCaption\\\":\\\"Trip stage\\\",\\\"referenceSchemaName\\\":\\\"WatTripStage\\\",\\\"rightExpressions\\\":[{\\\"className\\\":\\\"Terrasoft.ParameterExpression\\\",\\\"expressionType\\\":2,\\\"parameter\\\":{\\\"className\\\":\\\"Terrasoft.Parameter\\\",\\\"dataValueType\\\":10,\\\"value\\\":{\\\"Name\\\":\\\"New\\\",\\\"Id\\\":\\\"b5470b22-5c4d-4736-b1aa-abfa8fab7e69\\\",\\\"value\\\":\\\"b5470b22-5c4d-4736-b1aa-abfa8fab7e69\\\",\\\"displayValue\\\":\\\"New\\\"}}},{\\\"className\\\":\\\"Terrasoft.ParameterExpression\\\",\\\"expressionType\\\":2,\\\"parameter\\\":{\\\"className\\\":\\\"Terrasoft.Parameter\\\",\\\"dataValueType\\\":10,\\\"value\\\":{\\\"Name\\\":\\\"Not Returned\\\",\\\"Id\\\":\\\"e0f0ae24-ff21-4270-8daa-cf516c4fe9d1\\\",\\\"value\\\":\\\"e0f0ae24-ff21-4270-8daa-cf516c4fe9d1\\\",\\\"displayValue\\\":\\\"Not Returned\\\"}}},{\\\"className\\\":\\\"Terrasoft.ParameterExpression\\\",\\\"expressionType\\\":2,\\\"parameter\\\":{\\\"className\\\":\\\"Terrasoft.Parameter\\\",\\\"dataValueType\\\":10,\\\"value\\\":{\\\"Name\\\":\\\"Not Recommended\\\",\\\"Id\\\":\\\"d209de8f-d55e-4ed0-88c6-c86f5dca70a3\\\",\\\"value\\\":\\\"d209de8f-d55e-4ed0-88c6-c86f5dca70a3\\\",\\\"displayValue\\\":\\\"Not Recommended\\\"}}},{\\\"className\\\":\\\"Terrasoft.ParameterExpression\\\",\\\"expressionType\\\":2,\\\"parameter\\\":{\\\"className\\\":\\\"Terrasoft.Parameter\\\",\\\"dataValueType\\\":10,\\\"value\\\":{\\\"Name\\\":\\\"Pre-Departure Completed\\\",\\\"Id\\\":\\\"4ac08d99-7236-4005-9ec6-feb678cc5201\\\",\\\"value\\\":\\\"4ac08d99-7236-4005-9ec6-feb678cc5201\\\",\\\"displayValue\\\":\\\"Pre-Departure Completed\\\"}}},{\\\"className\\\":\\\"Terrasoft.ParameterExpression\\\",\\\"expressionType\\\":2,\\\"parameter\\\":{\\\"className\\\":\\\"Terrasoft.Parameter\\\",\\\"dataValueType\\\":10,\\\"value\\\":{\\\"Name\\\":\\\"Processing\\\",\\\"Id\\\":\\\"9837eff7-9f6f-4e2a-9d51-0754648060ee\\\",\\\"value\\\":\\\"9837eff7-9f6f-4e2a-9d51-0754648060ee\\\",\\\"displayValue\\\":\\\"Processing\\\"}}}]},\\\"90ab1977-c5ba-4cee-825c-8a93a183cf10\\\":{\\\"className\\\":\\\"Terrasoft.CompareFilter\\\",\\\"filterType\\\":1,\\\"comparisonType\\\":3,\\\"isEnabled\\\":true,\\\"trimDateTimeParameterToDate\\\":false,\\\"leftExpression\\\":{\\\"className\\\":\\\"Terrasoft.ColumnExpression\\\",\\\"expressionType\\\":0,\\\"columnPath\\\":\\\"WatRecountTravellers\\\"},\\\"isAggregative\\\":false,\\\"key\\\":\\\"90ab1977-c5ba-4cee-825c-8a93a183cf10\\\",\\\"dataValueType\\\":12,\\\"leftExpressionCaption\\\":\\\"Recount Travellers\\\",\\\"rightExpression\\\":{\\\"className\\\":\\\"Terrasoft.ParameterExpression\\\",\\\"expressionType\\\":2,\\\"parameter\\\":{\\\"className\\\":\\\"Terrasoft.Parameter\\\",\\\"dataValueType\\\":12,\\\"value\\\":false}}}},\\\"logicalOperation\\\":0,\\\"isEnabled\\\":true,\\\"filterType\\\":6,\\\"rootSchemaName\\\":\\\"WatTrip\\\",\\\"key\\\":\\\"\\\"}\",\"dataSourceFilters\":\"{\\\"items\\\":{\\\"db83ed44-8f36-4203-965f-aad03f98eabc\\\":{\\\"filterType\\\":4,\\\"comparisonType\\\":3,\\\"isEnabled\\\":true,\\\"trimDateTimeParameterToDate\\\":false,\\\"leftExpression\\\":{\\\"expressionType\\\":0,\\\"columnPath\\\":\\\"WatTravelerType\\\"},\\\"rightExpressions\\\":[{\\\"expressionType\\\":2,\\\"parameter\\\":{\\\"dataValueType\\\":10,\\\"value\\\":\\\"3ec633e9-6646-4d08-a0bd-dbb211cd5711\\\"}}]},\\\"c4ba92d8-9a2b-415f-8817-8eb426510289\\\":{\\\"filterType\\\":4,\\\"comparisonType\\\":3,\\\"isEnabled\\\":true,\\\"trimDateTimeParameterToDate\\\":false,\\\"leftExpression\\\":{\\\"expressionType\\\":0,\\\"columnPath\\\":\\\"WatTripStage\\\"},\\\"rightExpressions\\\":[{\\\"expressionType\\\":2,\\\"parameter\\\":{\\\"dataValueType\\\":10,\\\"value\\\":\\\"b5470b22-5c4d-4736-b1aa-abfa8fab7e69\\\"}},{\\\"expressionType\\\":2,\\\"parameter\\\":{\\\"dataValueType\\\":10,\\\"value\\\":\\\"e0f0ae24-ff21-4270-8daa-cf516c4fe9d1\\\"}},{\\\"expressionType\\\":2,\\\"parameter\\\":{\\\"dataValueType\\\":10,\\\"value\\\":\\\"d209de8f-d55e-4ed0-88c6-c86f5dca70a3\\\"}},{\\\"expressionType\\\":2,\\\"parameter\\\":{\\\"dataValueType\\\":10,\\\"value\\\":\\\"4ac08d99-7236-4005-9ec6-feb678cc5201\\\"}},{\\\"expressionType\\\":2,\\\"parameter\\\":{\\\"dataValueType\\\":10,\\\"value\\\":\\\"9837eff7-9f6f-4e2a-9d51-0754648060ee\\\"}}]},\\\"90ab1977-c5ba-4cee-825c-8a93a183cf10\\\":{\\\"filterType\\\":1,\\\"comparisonType\\\":3,\\\"isEnabled\\\":true,\\\"trimDateTimeParameterToDate\\\":false,\\\"leftExpression\\\":{\\\"expressionType\\\":0,\\\"columnPath\\\":\\\"WatRecountTravellers\\\"},\\\"rightExpression\\\":{\\\"expressionType\\\":2,\\\"parameter\\\":{\\\"dataValueType\\\":12,\\\"value\\\":false}}}},\\\"logicalOperation\\\":0,\\\"isEnabled\\\":true,\\\"filterType\\\":6,\\\"rootSchemaName\\\":\\\"WatTrip\\\"}\"}",
                "GS5": "a2395c07-f35c-4111-a364-56bbf7112092"
              }
            },
            {
              "BL1": "Terrasoft.Core.Process.ProcessSchemaParameter",
              "UId": "d6bbbb48-7ae9-41bf-b982-81ecf3530958",
              "A2": "RecordColumnValues",
              "A3": "d3021ca7-7450-4678-a117-060171eb2976",
              "A4": "d3021ca7-7450-4678-a117-060171eb2976",
              "A5": "66e9e705-64b4-4dda-925e-d1e05a389eb6",
              "IL2": "0a005b25-026c-43b8-9dd4-076c8a443198",
              "L1": "b53eaa2a-4bb7-4a6b-9f4f-58ccab293e31",
              "L8": {
                "GS1": 1,
                "GS2": "{\"$type\":\"Terrasoft.Core.Process.LocalizableParameterValuesList, Terrasoft.Core\",\"$values\":[{\"ItemUId\":\"6106b15c-0cbb-49e6-ae7b-23c8ec86c63e\",\"columnMetaPath\":{\"value\":\"bb78bf12-74a4-451c-98a1-cac3f8c8fcd6\"},\"schemaUId\":{\"value\":\"2ac3229e-4b9b-44ed-876b-bbc0de5a2134\"},\"value\":{\"value\":\"[#BooleanValue.True#]\"},\"displayValue\":{\"value\":\"[#Boolean value.True#]\"},\"parameterValue\":{\"value\":\"{\\\"$type\\\":\\\"Terrasoft.Core.Process.ProcessSchemaParameterValue, Terrasoft.Core\\\",\\\"Source\\\":3,\\\"DisplayValue\\\":\\\"\\\",\\\"Value\\\":\\\"\\\",\\\"MetaPath\\\":null,\\\"MetaDataValue\\\":null,\\\"ModifiedInSchemaUId\\\":\\\"00000000-0000-0000-0000-000000000000\\\",\\\"SchemaUId\\\":\\\"00000000-0000-0000-0000-000000000000\\\",\\\"SchemaManagerName\\\":\\\"\\\",\\\"DataValueTypeUId\\\":\\\"90b65bf8-0ffc-4141-8779-2420877af907\\\",\\\"ReferenceSchemaUId\\\":\\\"00000000-0000-0000-0000-000000000000\\\",\\\"ResourceItemName\\\":null}\"}}]}",
                "GS5": "a2395c07-f35c-4111-a364-56bbf7112092"
              }
            }
          ],
          "CL2": "FFFFFFFF",
          "J6": "d3021ca7-7450-4678-a117-060171eb2976"
        },
        {
          "BL1": "Terrasoft.Core.Process.ProcessSchemaTerminateEvent",
          "UId": "75682822-aeda-492d-b16b-f759d7a9e5a1",
          "A2": "TerminateEvent2",
          "A3": "a2395c07-f35c-4111-a364-56bbf7112092",
          "A4": "a2395c07-f35c-4111-a364-56bbf7112092",
          "A5": "80852c4e-6e90-4769-a5e6-c485d9bc7022",
          "IL2": "37ee864d-0c75-4e34-badf-7bfd6ac9875e",
          "BL3": "776;435",
          "BL7": "1bd93619-0574-454e-bb4e-cf53b9eb9470",
          "BL8": "a2395c07-f35c-4111-a364-56bbf7112092",
          "BN2": "31;31",
          "BO3": true,
          "FC1": []
        },
        {
          "BL1": "Terrasoft.Core.Process.ProcessSchemaSequenceFlow",
          "UId": "5bc598a6-da85-45aa-88fe-2de0252d4ac5",
          "A2": "SequenceFlow1",
          "A3": "a2395c07-f35c-4111-a364-56bbf7112092",
          "A4": "a2395c07-f35c-4111-a364-56bbf7112092",
          "A5": "80852c4e-6e90-4769-a5e6-c485d9bc7022",
          "BL7": "0d8351f6-c2f4-4737-bdd9-6fbfe0837fec",
          "BL8": "a2395c07-f35c-4111-a364-56bbf7112092",
          "CI1": "c2dd9383-cda8-4328-affe-b0a3b3a43b07",
          "CI2": "ba0ea97a-4f7b-443f-8ce6-ad09c2c0d622",
          "CI3": "null",
          "CI5": "FF939598",
          "CI6": 1,
          "CI11": "81;200",
          "CI12": "153;200"
        },
        {
          "BL1": "Terrasoft.Core.Process.ProcessSchemaSequenceFlow",
          "UId": "a67635d0-d14b-41dd-98a6-5416cee24502",
          "A2": "SequenceFlow3",
          "A3": "a2395c07-f35c-4111-a364-56bbf7112092",
          "A4": "a2395c07-f35c-4111-a364-56bbf7112092",
          "A5": "80852c4e-6e90-4769-a5e6-c485d9bc7022",
          "BL7": "0d8351f6-c2f4-4737-bdd9-6fbfe0837fec",
          "BL8": "a2395c07-f35c-4111-a364-56bbf7112092",
          "CI1": "995c6057-8a22-44fe-9e88-d5202129cf45",
          "CI2": "48c1419c-1233-4199-92ba-97e7b6b29f8d",
          "CI3": "null",
          "CI5": "FF939598",
          "CI6": 1,
          "CI11": "81;323",
          "CI12": "153;323"
        },
        {
          "BL1": "Terrasoft.Core.Process.ProcessSchemaSequenceFlow",
          "UId": "2763f296-4db2-4193-9ac9-581b4b89b55f",
          "A2": "SequenceFlow4",
          "A3": "a2395c07-f35c-4111-a364-56bbf7112092",
          "A4": "a2395c07-f35c-4111-a364-56bbf7112092",
          "A5": "80852c4e-6e90-4769-a5e6-c485d9bc7022",
          "BL7": "0d8351f6-c2f4-4737-bdd9-6fbfe0837fec",
          "BL8": "a2395c07-f35c-4111-a364-56bbf7112092",
          "CI1": "ba0ea97a-4f7b-443f-8ce6-ad09c2c0d622",
          "CI2": "7e53b850-b0d8-4c7a-8715-b0e02b612978",
          "CI3": "null",
          "CI5": "FF939598",
          "CI6": 1,
          "CI11": "222;200",
          "CI12": "300;200"
        },
        {
          "BL1": "Terrasoft.Core.Process.ProcessSchemaSequenceFlow",
          "UId": "20512271-f167-481a-b4a8-9a0d00831075",
          "A2": "SequenceFlow5",
          "A3": "a2395c07-f35c-4111-a364-56bbf7112092",
          "A4": "a2395c07-f35c-4111-a364-56bbf7112092",
          "A5": "80852c4e-6e90-4769-a5e6-c485d9bc7022",
          "BL7": "0d8351f6-c2f4-4737-bdd9-6fbfe0837fec",
          "BL8": "a2395c07-f35c-4111-a364-56bbf7112092",
          "CI1": "7e53b850-b0d8-4c7a-8715-b0e02b612978",
          "CI2": "ea2a225f-802a-49d2-8930-1fee719d0804",
          "CI3": "null",
          "CI5": "FF939598",
          "CI6": 1,
          "CI11": "369;200",
          "CI12": "439;200"
        },
        {
          "BL1": "Terrasoft.Core.Process.ProcessSchemaSequenceFlow",
          "UId": "387f145a-036c-4652-9a98-0fa941c4320e",
          "A2": "SequenceFlow7",
          "A3": "a2395c07-f35c-4111-a364-56bbf7112092",
          "A4": "a2395c07-f35c-4111-a364-56bbf7112092",
          "A5": "80852c4e-6e90-4769-a5e6-c485d9bc7022",
          "BL7": "0d8351f6-c2f4-4737-bdd9-6fbfe0837fec",
          "BL8": "a2395c07-f35c-4111-a364-56bbf7112092",
          "CI1": "48c1419c-1233-4199-92ba-97e7b6b29f8d",
          "CI2": "7e53b850-b0d8-4c7a-8715-b0e02b612978",
          "CI3": "null",
          "CI5": "FF939598",
          "CI6": 1,
          "CI7": "1;0",
          "CI8": "0;-1",
          "CI11": "222;323",
          "CI12": "335;227",
          "CI10": {
            "Item0": "335;323"
          }
        },
        {
          "BL1": "Terrasoft.Core.Process.ProcessSchemaSequenceFlow",
          "UId": "28f2957c-d6b8-4e89-ba50-aa59fc2b1936",
          "A2": "SequenceFlow8",
          "A3": "a2395c07-f35c-4111-a364-56bbf7112092",
          "A4": "a2395c07-f35c-4111-a364-56bbf7112092",
          "A5": "80852c4e-6e90-4769-a5e6-c485d9bc7022",
          "BL7": "0d8351f6-c2f4-4737-bdd9-6fbfe0837fec",
          "BL8": "a2395c07-f35c-4111-a364-56bbf7112092",
          "CI1": "ea2a225f-802a-49d2-8930-1fee719d0804",
          "CI2": "7d3a3881-1bed-48b6-a717-9943e3817a3d",
          "CI3": "null",
          "CI5": "FF939598",
          "CI6": 1,
          "CI11": "508;200",
          "CI12": "592;200"
        },
        {
          "BL1": "Terrasoft.Core.Process.ProcessSchemaSequenceFlow",
          "UId": "2c311672-358f-4ec0-9809-71bc95f6326f",
          "A2": "SequenceFlow9",
          "A3": "a2395c07-f35c-4111-a364-56bbf7112092",
          "A4": "a2395c07-f35c-4111-a364-56bbf7112092",
          "A5": "80852c4e-6e90-4769-a5e6-c485d9bc7022",
          "BL7": "0d8351f6-c2f4-4737-bdd9-6fbfe0837fec",
          "BL8": "a2395c07-f35c-4111-a364-56bbf7112092",
          "CI1": "7d3a3881-1bed-48b6-a717-9943e3817a3d",
          "CI2": "b84c3b55-bfda-4ce5-bc5c-a206b0a1dfca",
          "CI3": "null",
          "CI5": "FF939598",
          "CI6": 1,
          "CI11": "661;200",
          "CI12": "776;200"
        },
        {
          "BL1": "Terrasoft.Core.Process.ProcessSchemaSequenceFlow",
          "UId": "c5fd19e3-2f53-4540-b117-d9c8e8ad0b89",
          "A2": "SequenceFlow10",
          "A3": "a2395c07-f35c-4111-a364-56bbf7112092",
          "A4": "a2395c07-f35c-4111-a364-56bbf7112092",
          "A5": "80852c4e-6e90-4769-a5e6-c485d9bc7022",
          "BL7": "0d8351f6-c2f4-4737-bdd9-6fbfe0837fec",
          "BL8": "a2395c07-f35c-4111-a364-56bbf7112092",
          "CI1": "cfbbe06e-0392-4f76-ac0b-8d5e9e8eaf7b",
          "CI2": "0a005b25-026c-43b8-9dd4-076c8a443198",
          "CI3": "null",
          "CI5": "FF939598",
          "CI6": 1,
          "CI11": "81;451",
          "CI12": "592;451"
        },
        {
          "BL1": "Terrasoft.Core.Process.ProcessSchemaSequenceFlow",
          "UId": "bcbced03-5b04-4e54-9d0e-abfae472ea9c",
          "A2": "SequenceFlow11",
          "A3": "a2395c07-f35c-4111-a364-56bbf7112092",
          "A4": "a2395c07-f35c-4111-a364-56bbf7112092",
          "A5": "80852c4e-6e90-4769-a5e6-c485d9bc7022",
          "BL7": "0d8351f6-c2f4-4737-bdd9-6fbfe0837fec",
          "BL8": "a2395c07-f35c-4111-a364-56bbf7112092",
          "CI1": "0a005b25-026c-43b8-9dd4-076c8a443198",
          "CI2": "75682822-aeda-492d-b16b-f759d7a9e5a1",
          "CI3": "null",
          "CI5": "FF939598",
          "CI6": 1,
          "CI11": "661;451",
          "CI12": "776;451"
        }
      ],
      "BK9": [],
      "BK18": "Business Process",
      "BK29": true,
      "BK30": true,
      "BK34": "en-US",
      "Labels": [
        {
          "BL1": "Terrasoft.Core.Process.ProcessSchemaLabel",
          "UId": "234ef97e-f34f-440a-824c-7ffeea5f72fc",
          "A2": "StartSignal2_label1",
          "A3": "a2395c07-f35c-4111-a364-56bbf7112092",
          "A4": "a2395c07-f35c-4111-a364-56bbf7112092",
          "ParentUId": "995c6057-8a22-44fe-9e88-d5202129cf45",
          "X": -41
        },
        {
          "BL1": "Terrasoft.Core.Process.ProcessSchemaLabel",
          "UId": "d80d1f47-64d3-4295-8ab1-031b3f9f91e9",
          "A2": "FormulaTask2_label1",
          "A3": "a2395c07-f35c-4111-a364-56bbf7112092",
          "A4": "a2395c07-f35c-4111-a364-56bbf7112092",
          "ParentUId": "48c1419c-1233-4199-92ba-97e7b6b29f8d",
          "X": 2
        },
        {
          "BL1": "Terrasoft.Core.Process.ProcessSchemaLabel",
          "UId": "915a8b50-955d-484b-9686-ff214ea49854",
          "A2": "StartSignal3_label1",
          "A3": "a2395c07-f35c-4111-a364-56bbf7112092",
          "A4": "a2395c07-f35c-4111-a364-56bbf7112092",
          "ParentUId": "cfbbe06e-0392-4f76-ac0b-8d5e9e8eaf7b",
          "X": -32
        },
        {
          "BL1": "Terrasoft.Core.Process.ProcessSchemaLabel",
          "UId": "bd60d232-d68d-480c-b3ac-a9a4a4ec3b7a",
          "A2": "ChangeDataUserTask2_label1",
          "A3": "a2395c07-f35c-4111-a364-56bbf7112092",
          "A4": "a2395c07-f35c-4111-a364-56bbf7112092",
          "ParentUId": "0a005b25-026c-43b8-9dd4-076c8a443198",
          "X": -20
        }
      ],
      "BK24": []
    }
  }
}