﻿{
  "SqlScript": {
    "UId": "a2e2099f-bf96-4bd2-9982-b8317d0533e3",
    "Name": "SysModuleEdit_MiniPage_DelegationPurpose",
    "DBEngineType": 0,
    "InstallType": 2,
    "ModifiedOnUtc": "\/Date(1604346822000)\/",
    "DependsOn": []
  }
}