﻿{
  "Descriptor": {
    "UId": "8d5dc1f4-c00f-4cbf-bac4-39994e8f8b75",
    "Name": "WatProcess4SetActivityStartAndDueDateOnWorkdays",
    "ModifiedOnUtc": "\/Date(1603760056000)\/",
    "ManagerName": "ProcessSchemaManager",
    "Caption": "SM#4 (Activity): Set Workday as Start and Due / Remove Owner"
  }
}