﻿{
  "PackageData": [
    {
      "Row": [
        {
          "SchemaColumnUId": "ae0e45ca-c495-4fe7-a39d-3ab7278e1617",
          "Value": "03ff1131-e43a-4c89-9417-1fc184df7d8d"
        },
        {
          "SchemaColumnUId": "0cb38aee-c8a8-46ce-8a30-37a75353fd3b",
          "Value": "WatEOLTreatment"
        },
        {
          "SchemaColumnUId": "632e7352-e04d-40d0-8563-ad12348dca7e",
          "Value": "9b3daed0-e18c-41a5-a90a-e638150ea201"
        }
      ]
    },
    {
      "Row": [
        {
          "SchemaColumnUId": "ae0e45ca-c495-4fe7-a39d-3ab7278e1617",
          "Value": "218e6925-8040-4deb-9adc-fe634d11ec95"
        },
        {
          "SchemaColumnUId": "0cb38aee-c8a8-46ce-8a30-37a75353fd3b",
          "Value": "SMConsultationQuestions"
        },
        {
          "SchemaColumnUId": "632e7352-e04d-40d0-8563-ad12348dca7e",
          "Value": "6343d322-c452-45a8-a202-6817bde2e3de"
        }
      ]
    },
    {
      "Row": [
        {
          "SchemaColumnUId": "ae0e45ca-c495-4fe7-a39d-3ab7278e1617",
          "Value": "22cf59d4-09a3-494b-9cef-a93f61eb45f1"
        },
        {
          "SchemaColumnUId": "0cb38aee-c8a8-46ce-8a30-37a75353fd3b",
          "Value": "WatAgreementClassification"
        },
        {
          "SchemaColumnUId": "632e7352-e04d-40d0-8563-ad12348dca7e",
          "Value": "b563ffc4-8577-42d6-a013-21137618d255"
        }
      ]
    },
    {
      "Row": [
        {
          "SchemaColumnUId": "ae0e45ca-c495-4fe7-a39d-3ab7278e1617",
          "Value": "2f55c50a-4abf-48d6-b475-5869f2331646"
        },
        {
          "SchemaColumnUId": "0cb38aee-c8a8-46ce-8a30-37a75353fd3b",
          "Value": "WatPartnershipRequest"
        },
        {
          "SchemaColumnUId": "632e7352-e04d-40d0-8563-ad12348dca7e",
          "Value": "6d9487e3-54df-480b-9ce7-168a3987b209"
        }
      ]
    },
    {
      "Row": [
        {
          "SchemaColumnUId": "ae0e45ca-c495-4fe7-a39d-3ab7278e1617",
          "Value": "3a686873-ffaa-48f7-b1df-e3c8e0190517"
        },
        {
          "SchemaColumnUId": "0cb38aee-c8a8-46ce-8a30-37a75353fd3b",
          "Value": "SMConsultedASUs"
        },
        {
          "SchemaColumnUId": "632e7352-e04d-40d0-8563-ad12348dca7e",
          "Value": "dcec597e-693e-47d1-88a8-5795346db9fc"
        }
      ]
    },
    {
      "Row": [
        {
          "SchemaColumnUId": "ae0e45ca-c495-4fe7-a39d-3ab7278e1617",
          "Value": "4f12d853-5362-4132-bc40-4ba02d283b79"
        },
        {
          "SchemaColumnUId": "0cb38aee-c8a8-46ce-8a30-37a75353fd3b",
          "Value": "SMNewConsultedFaculties"
        },
        {
          "SchemaColumnUId": "632e7352-e04d-40d0-8563-ad12348dca7e",
          "Value": "7b72d7ec-6a94-4a69-8d74-077db4820706"
        }
      ]
    },
    {
      "Row": [
        {
          "SchemaColumnUId": "ae0e45ca-c495-4fe7-a39d-3ab7278e1617",
          "Value": "514dc59b-d7d9-4c2b-9346-5c48c0ea252c"
        },
        {
          "SchemaColumnUId": "0cb38aee-c8a8-46ce-8a30-37a75353fd3b",
          "Value": "WatAgreement"
        },
        {
          "SchemaColumnUId": "632e7352-e04d-40d0-8563-ad12348dca7e",
          "Value": "320df743-3859-42ab-846e-d598464cd4c4"
        }
      ]
    },
    {
      "Row": [
        {
          "SchemaColumnUId": "ae0e45ca-c495-4fe7-a39d-3ab7278e1617",
          "Value": "59b439bb-08e4-4a68-9f02-da3e5e37c8a7"
        },
        {
          "SchemaColumnUId": "0cb38aee-c8a8-46ce-8a30-37a75353fd3b",
          "Value": "WatParticipatingFaculties"
        },
        {
          "SchemaColumnUId": "632e7352-e04d-40d0-8563-ad12348dca7e",
          "Value": "c104512f-6708-4094-94e3-8abfdc6dec8a"
        }
      ]
    },
    {
      "Row": [
        {
          "SchemaColumnUId": "ae0e45ca-c495-4fe7-a39d-3ab7278e1617",
          "Value": "622df785-de20-406b-b55c-6583c5196ae3"
        },
        {
          "SchemaColumnUId": "0cb38aee-c8a8-46ce-8a30-37a75353fd3b",
          "Value": "WatRequestType"
        },
        {
          "SchemaColumnUId": "632e7352-e04d-40d0-8563-ad12348dca7e",
          "Value": "217e8ae5-f625-4908-85fa-9855cb8c2556"
        }
      ]
    },
    {
      "Row": [
        {
          "SchemaColumnUId": "ae0e45ca-c495-4fe7-a39d-3ab7278e1617",
          "Value": "6f6fde23-b6eb-479d-bee4-4d9533526a9c"
        },
        {
          "SchemaColumnUId": "0cb38aee-c8a8-46ce-8a30-37a75353fd3b",
          "Value": "SMQuestions"
        },
        {
          "SchemaColumnUId": "632e7352-e04d-40d0-8563-ad12348dca7e",
          "Value": "85f8e018-eb80-4b92-bc8d-012655f2e884"
        }
      ]
    },
    {
      "Row": [
        {
          "SchemaColumnUId": "ae0e45ca-c495-4fe7-a39d-3ab7278e1617",
          "Value": "87db805b-017f-472f-b167-0c82a6c6be35"
        },
        {
          "SchemaColumnUId": "0cb38aee-c8a8-46ce-8a30-37a75353fd3b",
          "Value": "SMQuestionRequestConnetion"
        },
        {
          "SchemaColumnUId": "632e7352-e04d-40d0-8563-ad12348dca7e",
          "Value": "f94ff5aa-7b5c-4999-9a2c-25b514274fbc"
        }
      ]
    },
    {
      "Row": [
        {
          "SchemaColumnUId": "ae0e45ca-c495-4fe7-a39d-3ab7278e1617",
          "Value": "a272903d-3a21-4802-99d3-2d0b918fa73d"
        },
        {
          "SchemaColumnUId": "0cb38aee-c8a8-46ce-8a30-37a75353fd3b",
          "Value": "WatFaculty"
        },
        {
          "SchemaColumnUId": "632e7352-e04d-40d0-8563-ad12348dca7e",
          "Value": "2b1b2cfb-7dd9-4d60-956d-3696601f1f77"
        }
      ]
    },
    {
      "Row": [
        {
          "SchemaColumnUId": "ae0e45ca-c495-4fe7-a39d-3ab7278e1617",
          "Value": "aad13166-2f7d-4648-a4a5-21d5380c3160"
        },
        {
          "SchemaColumnUId": "0cb38aee-c8a8-46ce-8a30-37a75353fd3b",
          "Value": "WatAgreementVisa"
        },
        {
          "SchemaColumnUId": "632e7352-e04d-40d0-8563-ad12348dca7e",
          "Value": "cf61b11d-346d-40a0-b164-a96be8d55c05"
        }
      ]
    },
    {
      "Row": [
        {
          "SchemaColumnUId": "ae0e45ca-c495-4fe7-a39d-3ab7278e1617",
          "Value": "aaf2f1aa-08e0-45bb-a3f3-f1e88e2243b4"
        },
        {
          "SchemaColumnUId": "0cb38aee-c8a8-46ce-8a30-37a75353fd3b",
          "Value": "WatAgreementType"
        },
        {
          "SchemaColumnUId": "632e7352-e04d-40d0-8563-ad12348dca7e",
          "Value": "29492702-cbc6-4e76-9d0e-fb12535b2008"
        }
      ]
    },
    {
      "Row": [
        {
          "SchemaColumnUId": "ae0e45ca-c495-4fe7-a39d-3ab7278e1617",
          "Value": "aed97a32-06a9-4952-8c9e-7344c4da8dcb"
        },
        {
          "SchemaColumnUId": "0cb38aee-c8a8-46ce-8a30-37a75353fd3b",
          "Value": "WatAgreementStakeholders"
        },
        {
          "SchemaColumnUId": "632e7352-e04d-40d0-8563-ad12348dca7e",
          "Value": "a1074938-799a-4097-9574-7e9543cb74e4"
        }
      ]
    },
    {
      "Row": [
        {
          "SchemaColumnUId": "ae0e45ca-c495-4fe7-a39d-3ab7278e1617",
          "Value": "c01151cb-dc63-4d5b-b2cd-0fcb2a223688"
        },
        {
          "SchemaColumnUId": "0cb38aee-c8a8-46ce-8a30-37a75353fd3b",
          "Value": "SMConsultedASUsFile"
        },
        {
          "SchemaColumnUId": "632e7352-e04d-40d0-8563-ad12348dca7e",
          "Value": "0def516a-2219-4fed-9d7e-3853808fe2c1"
        }
      ]
    },
    {
      "Row": [
        {
          "SchemaColumnUId": "ae0e45ca-c495-4fe7-a39d-3ab7278e1617",
          "Value": "c262f342-12ce-41e0-8d4a-ab73c85b0d94"
        },
        {
          "SchemaColumnUId": "0cb38aee-c8a8-46ce-8a30-37a75353fd3b",
          "Value": "WatAgreementStatus"
        },
        {
          "SchemaColumnUId": "632e7352-e04d-40d0-8563-ad12348dca7e",
          "Value": "9fe75793-c76b-4859-99fe-45161306b6b6"
        }
      ]
    },
    {
      "Row": [
        {
          "SchemaColumnUId": "ae0e45ca-c495-4fe7-a39d-3ab7278e1617",
          "Value": "e3e06dac-8375-42f1-996e-66fb53650524"
        },
        {
          "SchemaColumnUId": "0cb38aee-c8a8-46ce-8a30-37a75353fd3b",
          "Value": "WatFacultyDepartment"
        },
        {
          "SchemaColumnUId": "632e7352-e04d-40d0-8563-ad12348dca7e",
          "Value": "256c635b-3fae-4157-b56b-4559cdca7ad5"
        }
      ]
    },
    {
      "Row": [
        {
          "SchemaColumnUId": "ae0e45ca-c495-4fe7-a39d-3ab7278e1617",
          "Value": "f0837f19-4f5a-4f07-9d0a-d236ae7b7950"
        },
        {
          "SchemaColumnUId": "0cb38aee-c8a8-46ce-8a30-37a75353fd3b",
          "Value": "WatAcademicLevels"
        },
        {
          "SchemaColumnUId": "632e7352-e04d-40d0-8563-ad12348dca7e",
          "Value": "e9fb61cb-58c4-47bc-80b7-b4972f9d7916"
        }
      ]
    }
  ]
}