﻿{
  "Descriptor": {
    "UId": "7b613fca-8def-4e56-9495-ee3af8f7a3cd",
    "Name": "ContactSectionV2",
    "ModifiedOnUtc": "\/Date(1605836852000)\/",
    "Parent": {
      "UId": "0557bf34-e34a-46fa-990a-36ec59df39fa",
      "Name": "ContactSectionV2"
    },
    "ExtendParent": true,
    "ManagerName": "ClientUnitSchemaManager",
    "Caption": "Section schema: \"Contacts\""
  }
}