﻿{
  "Descriptor": {
    "UId": "2d6ae8b5-0439-4f72-af15-125b659abc8b",
    "Name": "WatParticipatingFaculties1Page",
    "ModifiedOnUtc": "\/Date(1605655244000)\/",
    "Parent": {
      "UId": "d62293c0-7f14-44b1-b547-735fb40499cd",
      "Name": "BaseModulePageV2"
    },
    "ManagerName": "ClientUnitSchemaManager",
    "Caption": "Edit page: \"Participating Faculties\""
  }
}