﻿{
  "Descriptor": {
    "UId": "96b864b3-f153-4083-b0b4-8693657d23aa",
    "Name": "ClientMessageBridge",
    "ModifiedOnUtc": "\/Date(1679015220000)\/",
    "Parent": {
      "UId": "ca65ff87-7f01-442e-a7bf-787c3db44ab1",
      "Name": "ClientMessageBridge"
    },
    "ExtendParent": true,
    "ManagerName": "ClientUnitSchemaManager",
    "Caption": "ClientMessageBridge"
  }
}