﻿{
  "MetaData": {
    "Schema": {
      "ManagerName": "SourceCodeSchemaManager",
      "UId": "8911a58d-1222-4500-9d86-8b529b9eb3c4",
      "A2": "SMMacrosHelperEx",
      "A5": "bc8d6b35-93b0-4d57-bb0b-49e685a05e78",
      "B1": [],
      "B2": [],
      "B3": [],
      "B6": "82d3ba9e-59e8-462d-8fbd-7c838b4b7c29",
      "B8": "7.16.3.1473",
      "HD1": "50e3acc0-26fc-4237-a095-849a1d534bd3"
    }
  }
}