﻿{
  "Descriptor": {
    "UId": "30398d81-7a67-48d4-a60b-840274dd9929",
    "Name": "SMNewConsultedFacultiesTag",
    "ModifiedOnUtc": "\/Date(1678801532000)\/",
    "Parent": {
      "UId": "9e3f203c-e905-4de5-9468-335b193f2439",
      "Name": "BaseTag"
    },
    "ManagerName": "EntitySchemaManager",
    "Caption": "Consulted Faculties (new) section tag",
    "DependsOn": []
  }
}