﻿{
  "Descriptor": {
    "UId": "aed52896-0332-42c8-b82b-cba46e0397e9",
    "Name": "WatFaculty",
    "ModifiedOnUtc": "\/Date(1678839384000)\/",
    "Parent": {
      "UId": "2b1b2cfb-7dd9-4d60-956d-3696601f1f77",
      "Name": "WatFaculty"
    },
    "ExtendParent": true,
    "ManagerName": "EntitySchemaManager",
    "Caption": "Faculty",
    "DependsOn": []
  }
}