﻿{
  "Descriptor": {
    "UId": "75ecbb4e-5336-401a-9925-34060686d660",
    "Name": "WatFinalizationTasksLookup",
    "ModifiedOnUtc": "\/Date(1601348202000)\/",
    "Parent": {
      "UId": "11ab4bcb-9b23-4b6d-9c86-520fae925d75",
      "Name": "BaseLookup"
    },
    "ManagerName": "EntitySchemaManager",
    "Caption": "Finalization Tasks Lookup"
  }
}