﻿{
  "SqlScript": {
    "UId": "4141491d-2bef-4e0d-8939-fddd14c0fd87",
    "Name": "Lookup_Faculty",
    "DBEngineType": 0,
    "InstallType": 2,
    "ModifiedOnUtc": "\/Date(1613096978000)\/",
    "DependsOn": []
  }
}