﻿{
  "SqlScript": {
    "UId": "8f5bc029-6a67-4304-9fb3-5306f2dc8e61",
    "Name": "SysSetting_EmailAccountSafetyAbroad",
    "DBEngineType": 0,
    "InstallType": 2,
    "ModifiedOnUtc": "\/Date(1600303284000)\/",
    "DependsOn": []
  }
}