﻿{
  "PackageData": [
    {
      "Row": [
        {
          "SchemaColumnUId": "ae0e45ca-c495-4fe7-a39d-3ab7278e1617",
          "Value": "a117c483-05ac-4bba-a083-6aec4c6d9886"
        },
        {
          "SchemaColumnUId": "8d2d0d7c-7a7d-4bb1-ba25-e10883e91a1c",
          "Value": "98ff7e0c-79a2-4e0e-83ce-41649a2c0b66"
        },
        {
          "SchemaColumnUId": "e0aa088b-0b83-44e5-b8c8-23c8c56aa362",
          "Value": false
        }
      ]
    }
  ]
}