﻿{
  "PackageData": [
    {
      "Row": [
        {
          "SchemaColumnUId": "ae0e45ca-c495-4fe7-a39d-3ab7278e1617",
          "ColumnName": "Id",
          "Value": "c604f6d8-774c-454f-b8cf-f1b55b8cd2c7"
        },
        {
          "SchemaColumnUId": "ca53e2c8-0767-4f2c-8a18-2ee5821f134e",
          "ColumnName": "Name",
          "Value": "Wat19 - Partnership Request Rejection (US)"
        }
      ]
    }
  ]
}