﻿{
  "Descriptor": {
    "UId": "8afc33c2-3d02-4195-8066-8089eb7f76a0",
    "Name": "SMConsultedFaculties",
    "ModifiedOnUtc": "\/Date(1678198927000)\/",
    "Parent": {
      "UId": "1bab9dcf-17d5-49f8-9536-8e0064f1dce0",
      "Name": "BaseEntity"
    },
    "ManagerName": "EntitySchemaManager",
    "Caption": "Consulted Faculties (Old)",
    "DependsOn": []
  }
}