﻿{
  "Descriptor": {
    "UId": "d7feb1ab-f08e-4bd7-93ec-18391a77764e",
    "Name": "WatProcess21SetTermEndDateOnAgreement",
    "ModifiedOnUtc": "\/Date(1639776457000)\/",
    "ManagerName": "ProcessSchemaManager",
    "Caption": "SM#21 (Agreement): Set Term End Date"
  }
}