﻿{
  "Descriptor": {
    "UId": "33c98985-502c-4700-9f77-22f9d3a3fdf0",
    "Name": "WatWatTravellerInAnvilExportd0a5abebPage",
    "ModifiedOnUtc": "\/Date(1617673973000)\/",
    "Parent": {
      "UId": "d3cc497c-f286-4f13-99c1-751c468733c0",
      "Name": "BasePageV2"
    },
    "ManagerName": "ClientUnitSchemaManager",
    "Caption": "Card schema: \"Anvil Export Traveller\""
  }
}