﻿{
  "Descriptor": {
    "UId": "b85089cb-2705-4801-9d6e-e76cd172e836",
    "Name": "OrderVisa",
    "ModifiedOnUtc": "\/Date(1677801835000)\/",
    "Parent": {
      "UId": "5ebe74ce-17ca-4c68-97e6-8e25e01e47c5",
      "Name": "OrderVisa"
    },
    "ExtendParent": true,
    "ManagerName": "EntitySchemaManager",
    "Caption": "Order approval",
    "DependsOn": []
  }
}