﻿{
  "Descriptor": {
    "UId": "b550651e-e7ec-4d36-8b10-003f3a5d059a",
    "Name": "WatDelegationMembers1Page",
    "ModifiedOnUtc": "\/Date(1622140785000)\/",
    "Parent": {
      "UId": "d62293c0-7f14-44b1-b547-735fb40499cd",
      "Name": "BaseModulePageV2"
    },
    "ManagerName": "ClientUnitSchemaManager",
    "Caption": "Edit page: \"Delegation Members\""
  }
}