﻿{
  "PackageData": [
    {
      "Row": [
        {
          "SchemaColumnUId": "ae0e45ca-c495-4fe7-a39d-3ab7278e1617",
          "Value": "86655fd5-498b-46d6-add6-bb4b6c331faa"
        },
        {
          "SchemaColumnUId": "a9afe7de-15cf-48a6-b6fb-249b1883c032",
          "Value": "fd14289c-55b5-4c6d-a7ae-3c505c485854",
          "DisplayValue": "null"
        },
        {
          "SchemaColumnUId": "c86fd533-a630-42fa-8042-c604384abe1f",
          "Value": "c8565240-1da3-4a68-bd4e-280f17b0d32e",
          "DisplayValue": "ServicePortal"
        }
      ]
    }
  ]
}