﻿{
  "Descriptor": {
    "UId": "33d923f8-ff05-41e1-a890-0652c9c3f212",
    "Name": "WatTripAssociatedContactFolder",
    "ModifiedOnUtc": "\/Date(1604931658000)\/",
    "Parent": {
      "UId": "d602bf96-d029-4b07-9755-63c8f5cb5ed5",
      "Name": "BaseFolder"
    },
    "ManagerName": "EntitySchemaManager",
    "Caption": "Trip Associated Contacts folder"
  }
}