﻿{
  "PackageData": [
    {
      "Row": [
        {
          "SchemaColumnUId": "ae0e45ca-c495-4fe7-a39d-3ab7278e1617",
          "Value": "166aaf33-a4fd-454b-a175-a9f3267442fd"
        },
        {
          "SchemaColumnUId": "ca94a324-e7f1-44ab-b1b7-98cdfabd9c11",
          "Value": "fbe0acdc-cfc0-df11-b00f-001d60e938c6",
          "DisplayValue": "Task"
        }
      ]
    },
    {
      "Row": [
        {
          "SchemaColumnUId": "ae0e45ca-c495-4fe7-a39d-3ab7278e1617",
          "Value": "7eae7684-f926-4fd9-83b3-b1948d52448a"
        },
        {
          "SchemaColumnUId": "ca94a324-e7f1-44ab-b1b7-98cdfabd9c11",
          "Value": "fbe0acdc-cfc0-df11-b00f-001d60e938c6",
          "DisplayValue": "Task"
        }
      ]
    }
  ]
}