﻿{
  "Descriptor": {
    "UId": "fad76f2c-6a14-49e1-8a95-5047042e28d8",
    "Name": "SMConsultedFaculties547d90b3Section",
    "ModifiedOnUtc": "\/Date(1677614987000)\/",
    "Parent": {
      "UId": "7912fb69-4fee-429f-8b23-93943c35d66d",
      "Name": "BaseSectionV2"
    },
    "ManagerName": "ClientUnitSchemaManager",
    "Caption": "Section schema: \"Consulted Faculties (Old)\"",
    "DependsOn": []
  }
}