﻿{
  "Descriptor": {
    "UId": "ec57491b-23cf-4283-b083-bd7bdcc7a13f",
    "Name": "Schemab7181e75Detail",
    "ModifiedOnUtc": "\/Date(1680041024000)\/",
    "Parent": {
      "UId": "01eb38ee-668a-42f0-999d-c2534f979089",
      "Name": "BaseGridDetailV2"
    },
    "ManagerName": "ClientUnitSchemaManager",
    "Caption": "Detail schema: \"Consulted ASUs\""
  }
}