﻿{
  "PackageData": [
    {
      "Row": [
        {
          "SchemaColumnUId": "ae0e45ca-c495-4fe7-a39d-3ab7278e1617",
          "Value": "65c5caf7-f279-4e31-b50e-887b1fc3dfe0"
        },
        {
          "SchemaColumnUId": "a9afe7de-15cf-48a6-b6fb-249b1883c032",
          "Value": "9099a0b2-fc79-42fe-8ff7-6cc98a339b32",
          "DisplayValue": "null"
        },
        {
          "SchemaColumnUId": "c86fd533-a630-42fa-8042-c604384abe1f",
          "Value": "c8565240-1da3-4a68-bd4e-280f17b0d32e",
          "DisplayValue": "ServicePortal"
        }
      ]
    }
  ]
}