﻿{
  "Descriptor": {
    "UId": "7e991e78-ae36-4c8d-9b92-d559888641f8",
    "Name": "WatPartnershipRequest",
    "ModifiedOnUtc": "\/Date(1677801811000)\/",
    "Parent": {
      "UId": "6d9487e3-54df-480b-9ce7-168a3987b209",
      "Name": "WatPartnershipRequest"
    },
    "ExtendParent": true,
    "ManagerName": "EntitySchemaManager",
    "Caption": "Partnership Requests",
    "DependsOn": []
  }
}