﻿{
  "PackageData": [
    {
      "Row": [
        {
          "SchemaColumnUId": "ae0e45ca-c495-4fe7-a39d-3ab7278e1617",
          "Value": "ee3cab50-fb3a-4485-976b-43d50524b8a9"
        },
        {
          "SchemaColumnUId": "a9afe7de-15cf-48a6-b6fb-249b1883c032",
          "Value": "aab690a7-b595-43cb-a9a3-67bf110c04e5",
          "DisplayValue": "null"
        },
        {
          "SchemaColumnUId": "c86fd533-a630-42fa-8042-c604384abe1f",
          "Value": "c8565240-1da3-4a68-bd4e-280f17b0d32e",
          "DisplayValue": "ServicePortal"
        }
      ]
    }
  ]
}