﻿{
  "Descriptor": {
    "UId": "d3b6feea-3769-45cd-bfad-c1e567262305",
    "Name": "WatCountryStatisticInTag",
    "ModifiedOnUtc": "\/Date(1617222411000)\/",
    "Parent": {
      "UId": "5894a2b0-51d5-419a-82bb-238674634270",
      "Name": "BaseEntityInTag"
    },
    "ManagerName": "EntitySchemaManager",
    "Caption": "Country Statistics section record tag"
  }
}