﻿{
  "SqlScript": {
    "UId": "a5eb1030-8879-4a7f-ab10-1ba3e09eb6ce",
    "Name": "Lookup_InventoryOperations",
    "DBEngineType": 0,
    "InstallType": 2,
    "ModifiedOnUtc": "\/Date(1603672157000)\/",
    "DependsOn": []
  }
}