﻿{
  "Descriptor": {
    "UId": "2f676785-e1b8-45e2-ae18-b4d7592de252",
    "Name": "WatGroupTravelerType",
    "ModifiedOnUtc": "\/Date(1612980337000)\/",
    "Parent": {
      "UId": "11ab4bcb-9b23-4b6d-9c86-520fae925d75",
      "Name": "BaseLookup"
    },
    "ManagerName": "EntitySchemaManager",
    "Caption": "Group Traveller Type"
  }
}