﻿{
  "Properties": {
    "CreatedInVersion": "7.16.3.1473",
    "IsActiveVersion": "False",
    "IsCreatedInSvg": "True",
    "IsInterpretable": "True",
    "IsTracing": "False",
    "Tag": "Business Process",
    "UseForceCompile": "False",
    "Version": "1"
  }
}