﻿{
  "MetaData": {
    "Schema": {
      "ManagerName": "ProcessUserTaskSchemaManager",
      "UId": "de333660-e2e6-479e-8e79-ff7b1c07c276",
      "A2": "SMCreateNewEmail",
      "A5": "bc8d6b35-93b0-4d57-bb0b-49e685a05e78",
      "B1": [],
      "B2": [],
      "B3": [
        {
          "UId": "0795ff8e-3b9f-484a-99e8-6d4be118d0a5",
          "A2": "Terrasoft.Configuration",
          "A3": "de333660-e2e6-479e-8e79-ff7b1c07c276",
          "A4": "de333660-e2e6-479e-8e79-ff7b1c07c276",
          "A5": "bc8d6b35-93b0-4d57-bb0b-49e685a05e78",
          "GF1": "null"
        },
        {
          "UId": "62e8bc2b-b74b-475c-8ee7-e935e7da9a2b",
          "A2": "Terrasoft.Core.Factories",
          "A3": "de333660-e2e6-479e-8e79-ff7b1c07c276",
          "A4": "de333660-e2e6-479e-8e79-ff7b1c07c276",
          "A5": "bc8d6b35-93b0-4d57-bb0b-49e685a05e78",
          "GF1": "null"
        },
        {
          "UId": "07de8ed4-3975-4ccd-a769-9fa92a11ca7e",
          "A2": "Terrasoft.Mail.Sender",
          "A3": "de333660-e2e6-479e-8e79-ff7b1c07c276",
          "A4": "de333660-e2e6-479e-8e79-ff7b1c07c276",
          "A5": "bc8d6b35-93b0-4d57-bb0b-49e685a05e78",
          "GF1": "null"
        },
        {
          "UId": "e669cd05-284b-4afd-b579-22e1962ab454",
          "A2": "Terrasoft.Common.Json",
          "A3": "de333660-e2e6-479e-8e79-ff7b1c07c276",
          "A4": "de333660-e2e6-479e-8e79-ff7b1c07c276",
          "A5": "bc8d6b35-93b0-4d57-bb0b-49e685a05e78",
          "GF1": "null"
        },
        {
          "UId": "a3493744-f0ef-46fa-856e-cf97169e1b82",
          "A2": "System.Collections",
          "A3": "de333660-e2e6-479e-8e79-ff7b1c07c276",
          "A4": "de333660-e2e6-479e-8e79-ff7b1c07c276",
          "A5": "bc8d6b35-93b0-4d57-bb0b-49e685a05e78",
          "GF1": "null"
        }
      ],
      "B6": "82d3ba9e-59e8-462d-8fbd-7c838b4b7c29",
      "B8": "7.16.3.1473",
      "FJ1": [
        {
          "BL1": "Terrasoft.Core.Process.ProcessSchemaParameter",
          "UId": "027c9606-96bf-4f46-8d07-bafca07af941",
          "A2": "EmailTemplateId",
          "A3": "de333660-e2e6-479e-8e79-ff7b1c07c276",
          "A4": "de333660-e2e6-479e-8e79-ff7b1c07c276",
          "L1": "b295071f-7ea9-4e62-8d1a-919bf3732ff2",
          "L8": {},
          "L6": true,
          "L9": "93030575-f70f-4041-902e-c4badaf62c63"
        },
        {
          "BL1": "Terrasoft.Core.Process.ProcessSchemaParameter",
          "UId": "35fbb620-389f-4d57-b5a5-dc47531efb36",
          "A2": "RecordId",
          "A3": "de333660-e2e6-479e-8e79-ff7b1c07c276",
          "A4": "de333660-e2e6-479e-8e79-ff7b1c07c276",
          "L1": "b295071f-7ea9-4e62-8d1a-919bf3732ff2",
          "L8": {}
        },
        {
          "BL1": "Terrasoft.Core.Process.ProcessSchemaParameter",
          "UId": "72f3716f-fa46-4276-9176-8e2c0fbf985c",
          "A2": "Sender",
          "A3": "de333660-e2e6-479e-8e79-ff7b1c07c276",
          "A4": "de333660-e2e6-479e-8e79-ff7b1c07c276",
          "L1": "b295071f-7ea9-4e62-8d1a-919bf3732ff2",
          "L8": {},
          "L6": true,
          "L9": "5e487721-02e2-48ee-b755-dfa5160f5315"
        },
        {
          "BL1": "Terrasoft.Core.Process.ProcessSchemaParameter",
          "UId": "b299eeb7-b495-4b79-9d56-13b26e51b171",
          "A2": "Recipient",
          "A3": "de333660-e2e6-479e-8e79-ff7b1c07c276",
          "A4": "de333660-e2e6-479e-8e79-ff7b1c07c276",
          "L1": "8b3f29bb-ea14-4ce5-a5c5-293a929b6ba2",
          "L8": {},
          "L6": true
        },
        {
          "BL1": "Terrasoft.Core.Process.ProcessSchemaParameter",
          "UId": "fac6c5ab-b7ea-4802-8498-5a675b6d6422",
          "A2": "Send",
          "A3": "de333660-e2e6-479e-8e79-ff7b1c07c276",
          "A4": "de333660-e2e6-479e-8e79-ff7b1c07c276",
          "L1": "90b65bf8-0ffc-4141-8779-2420877af907",
          "L8": {}
        },
        {
          "BL1": "Terrasoft.Core.Process.ProcessSchemaParameter",
          "UId": "7e1b8763-7c00-486b-920a-8dfaede8bc9c",
          "A2": "ActivityId",
          "A3": "de333660-e2e6-479e-8e79-ff7b1c07c276",
          "A4": "de333660-e2e6-479e-8e79-ff7b1c07c276",
          "L1": "23018567-a13c-4320-8687-fd6f9e3699bd",
          "L8": {},
          "L13": true
        },
        {
          "BL1": "Terrasoft.Core.Process.ProcessSchemaParameter",
          "UId": "9de6db3e-955d-4f82-b8bf-20af42fd244e",
          "A2": "Contact",
          "A3": "de333660-e2e6-479e-8e79-ff7b1c07c276",
          "A4": "de333660-e2e6-479e-8e79-ff7b1c07c276",
          "L1": "b295071f-7ea9-4e62-8d1a-919bf3732ff2",
          "L8": {},
          "L9": "16be3651-8fe2-4159-8dd0-a803d4683dd3"
        }
      ],
      "FK1": "var emailTemplateExecutor = new EmailTemplateExecutor(UserConnection);\n\t\t\t\nGuid ContactId =Contact == Guid.Empty ? (new Select(UserConnection)\n\t.Column(\"ContactId\")\n\t.From(\"ContactCommunication\")\n\t.Where(\"Number\").IsEqual(Column.Parameter(Recipient)) as Select).ExecuteScalar<Guid>()\n: Contact;\n\nstring sender =  (new Select(UserConnection)\n\t.Column(\"UserName\")\n\t.From(\"MailboxSyncSettings\")\n\t.Where(\"Id\").IsEqual(Column.Parameter(Sender)) as Select).ExecuteScalar<string>();\n\nvar EmailTemplateEntity = GetFormattedEmailTemplateEntityEx(EmailTemplateId, RecordId, ContactId);\n\nstring subject = EmailTemplateEntity.GetTypedColumnValue<string>(\"Subject\");\nstring body = EmailTemplateEntity.GetTypedColumnValue<string>(\"Body\");\n\n\nvar activity = new Terrasoft.Configuration.Activity(UserConnection);\nactivity.SetDefColumnValues();\nactivity.TypeId = Terrasoft.Configuration.ActivityConsts.EmailTypeUId;\nactivity.Recepient = Recipient;\n\nactivity.Title = subject;\nactivity.Body = body;\n\nactivity.PriorityId = new Guid(\"AB96FA02-7FE6-DF11-971B-001D60E938C6\");\nactivity.StartDate = UserConnection.CurrentUser.GetCurrentDateTime();\nactivity.DueDate = UserConnection.CurrentUser.GetCurrentDateTime();\nactivity.OwnerId = UserConnection.CurrentUser.ContactId;\nactivity.AuthorId = UserConnection.CurrentUser.ContactId;\nactivity.StatusId = Terrasoft.Configuration.ActivityConsts.NewStatusUId;\nactivity.MessageTypeId = Terrasoft.Configuration.ActivityConsts.OutgoingEmailTypeId;\nactivity.Sender = Terrasoft.UI.WebControls.Utilities.ControlUtilities.HtmlDecode(string.Format(\"{0} <{1}>\", UserConnection.CurrentUser.ContactName, sender));\nactivity.ActivityCategoryId =  Terrasoft.Configuration.ActivityConsts.EmailActivityCategoryId;\nactivity.IsHtmlBody = true;\n\nif (ContactId != Guid.Empty) {\n\tactivity.ContactId = ContactId;\n}\nactivity.Save();\n\nActivityId = activity.Id;\n\nCommonUtilities.CopyFileDetail(UserConnection, EmailTemplateId, ActivityId, \"EmailTemplate\", \"Activity\", true);\n\nif (Send) {\n\t\tvar emailClientFactory = ClassFactory.Get<EmailClientFactory>(new ConstructorArgument(\"userConnection\", UserConnection));\n\t\tvar activityEmailSender = new ActivityEmailSender(emailClientFactory, UserConnection);\n\t\tactivityEmailSender.Send(ActivityId);\n}\n\nreturn true;",
      "FK11": "1191e2ac-2291-4ed3-bc9e-93ca87119f6c",
      "FK4": true,
      "FK7": true,
      "FK12": "#839DC3",
      "FK16": true
    }
  }
}