﻿{
  "Descriptor": {
    "UId": "e3a315b4-06cb-4461-bddd-fd76c4fa3fda",
    "Name": "WatProcess22MonitorCompletionOfFinalizationTasks",
    "ModifiedOnUtc": "\/Date(1605400776000)\/",
    "ManagerName": "ProcessSchemaManager",
    "Caption": "SM#22 (Finalization Tasks): Monitor completion of Finalization Tasks"
  }
}