{
  "MetaData": {
    "Schema": {
      "ManagerName": "ProcessSchemaManager",
      "UId": "e3a315b4-06cb-4461-bddd-fd76c4fa3fda",
      "A2": "WatProcess22MonitorCompletionOfFinalizationTasks",
      "A5": "75bcb584-5e36-448a-a4b7-140d2dd57696",
      "B1": [],
      "B2": [],
      "B3": [],
      "B6": "80852c4e-6e90-4769-a5e6-c485d9bc7022",
      "B8": "7.16.3.1473",
      "FJ1": [
        {
          "BL1": "Terrasoft.Core.Process.ProcessSchemaParameter",
          "UId": "7e6ac4d3-2fc6-4dcd-954d-948b836b5ebc",
          "A2": "FinTaskId",
          "A3": "e3a315b4-06cb-4461-bddd-fd76c4fa3fda",
          "A4": "e3a315b4-06cb-4461-bddd-fd76c4fa3fda",
          "L1": "23018567-a13c-4320-8687-fd6f9e3699bd",
          "L8": {
            "GS5": "e3a315b4-06cb-4461-bddd-fd76c4fa3fda"
          }
        }
      ],
      "IJ1": true,
      "BK8": "bb4d6607-026b-4b27-b640-8f5c77c1e89d",
      "IJ10": true,
      "BK15": [
        {
          "BL1": "Terrasoft.Core.Process.ProcessSchemaMapping",
          "UId": "61efa397-0ad3-4bf2-82a5-477bed5ccbbe",
          "A2": "ChangeDataUserTask1",
          "A3": "e3a315b4-06cb-4461-bddd-fd76c4fa3fda",
          "A4": "e3a315b4-06cb-4461-bddd-fd76c4fa3fda",
          "GT2": "[Element:{d8f66203-d134-4aa6-a267-2de1118f1b0e}].[Parameter:{70873c4c-ba37-4493-9ed0-84d4d21433c1}]",
          "GT3": "70873c4c-ba37-4493-9ed0-84d4d21433c1",
          "GT5": "bd2cf1ae-bbc6-4d91-8d6e-c6b40f057e95",
          "GT4": "d3021ca7-7450-4678-a117-060171eb2976",
          "GT1": {
            "GS1": 1,
            "GS2": "957ee76d-477e-45ee-9d16-38a81b7e5d2c"
          }
        },
        {
          "BL1": "Terrasoft.Core.Process.ProcessSchemaMapping",
          "UId": "9164c30d-dd7c-4f6c-8be7-81be962e3753",
          "A2": "ChangeDataUserTask1",
          "A3": "e3a315b4-06cb-4461-bddd-fd76c4fa3fda",
          "A4": "e3a315b4-06cb-4461-bddd-fd76c4fa3fda",
          "GT2": "[Element:{d8f66203-d134-4aa6-a267-2de1118f1b0e}].[Parameter:{54368168-dba0-4ffd-a917-a8e148b738c2}]",
          "GT3": "54368168-dba0-4ffd-a917-a8e148b738c2",
          "GT5": "d6c84ba1-b6ca-4952-b517-880f22e21fdc",
          "GT4": "d3021ca7-7450-4678-a117-060171eb2976",
          "GT1": {
            "GS1": 3,
            "GS2": "true",
            "GS5": "d3021ca7-7450-4678-a117-060171eb2976"
          }
        },
        {
          "BL1": "Terrasoft.Core.Process.ProcessSchemaMapping",
          "UId": "b90d51c2-8ecf-4974-952f-53690b6cfa48",
          "A2": "ChangeDataUserTask1",
          "A3": "e3a315b4-06cb-4461-bddd-fd76c4fa3fda",
          "A4": "e3a315b4-06cb-4461-bddd-fd76c4fa3fda",
          "GT2": "[Element:{d8f66203-d134-4aa6-a267-2de1118f1b0e}].[Parameter:{779dd1bb-813b-4d54-b218-7bffd1cf821c}]",
          "GT3": "779dd1bb-813b-4d54-b218-7bffd1cf821c",
          "GT5": "03166c4b-2e15-4768-a343-750c16b69691",
          "GT4": "d3021ca7-7450-4678-a117-060171eb2976",
          "GT1": {
            "GS1": 1,
            "GS2": "{\"className\":\"Terrasoft.FilterGroup\",\"serializedFilterEditData\":\"{\\\"className\\\":\\\"Terrasoft.FilterGroup\\\",\\\"items\\\":{\\\"3b8d6cc7-4b6f-4fd8-a4b0-bda7e5d40a7f\\\":{\\\"className\\\":\\\"Terrasoft.CompareFilter\\\",\\\"filterType\\\":1,\\\"comparisonType\\\":3,\\\"isEnabled\\\":true,\\\"trimDateTimeParameterToDate\\\":false,\\\"leftExpression\\\":{\\\"className\\\":\\\"Terrasoft.ColumnExpression\\\",\\\"expressionType\\\":0,\\\"columnPath\\\":\\\"Id\\\"},\\\"isAggregative\\\":false,\\\"key\\\":\\\"3b8d6cc7-4b6f-4fd8-a4b0-bda7e5d40a7f\\\",\\\"dataValueType\\\":0,\\\"leftExpressionCaption\\\":\\\"Id\\\",\\\"rightExpression\\\":{\\\"className\\\":\\\"Terrasoft.ParameterExpression\\\",\\\"expressionType\\\":2,\\\"parameter\\\":{\\\"className\\\":\\\"Terrasoft.Parameter\\\",\\\"dataValueType\\\":26,\\\"value\\\":{\\\"value\\\":\\\"[IsOwnerSchema:false].[IsSchema:false].[Parameter:{7e6ac4d3-2fc6-4dcd-954d-948b836b5ebc}]\\\",\\\"displayValue\\\":\\\"FinTaskId\\\"}}}}},\\\"logicalOperation\\\":0,\\\"isEnabled\\\":true,\\\"filterType\\\":6,\\\"rootSchemaName\\\":\\\"WatFinalizationTasks\\\",\\\"key\\\":\\\"\\\"}\",\"dataSourceFilters\":\"{\\\"items\\\":{\\\"3b8d6cc7-4b6f-4fd8-a4b0-bda7e5d40a7f\\\":{\\\"filterType\\\":1,\\\"comparisonType\\\":3,\\\"isEnabled\\\":true,\\\"trimDateTimeParameterToDate\\\":false,\\\"leftExpression\\\":{\\\"expressionType\\\":0,\\\"columnPath\\\":\\\"Id\\\"},\\\"rightExpression\\\":{\\\"expressionType\\\":2,\\\"parameter\\\":{\\\"dataValueType\\\":26,\\\"value\\\":{\\\"value\\\":\\\"[IsOwnerSchema:false].[IsSchema:false].[Parameter:{7e6ac4d3-2fc6-4dcd-954d-948b836b5ebc}]\\\"}}}}},\\\"logicalOperation\\\":0,\\\"isEnabled\\\":true,\\\"filterType\\\":6,\\\"rootSchemaName\\\":\\\"WatFinalizationTasks\\\"}\"}"
          }
        },
        {
          "BL1": "Terrasoft.Core.Process.ProcessSchemaMapping",
          "UId": "0c243cdd-5016-4085-b562-b361d1a18f63",
          "A2": "ChangeDataUserTask1",
          "A3": "e3a315b4-06cb-4461-bddd-fd76c4fa3fda",
          "A4": "e3a315b4-06cb-4461-bddd-fd76c4fa3fda",
          "GT2": "[Element:{d8f66203-d134-4aa6-a267-2de1118f1b0e}].[Parameter:{3406e14d-e261-46f1-a21c-54ffc65dcce7}]",
          "GT3": "3406e14d-e261-46f1-a21c-54ffc65dcce7",
          "GT5": "effa11ce-90c7-4efe-8a02-be7a659d27e9",
          "GT4": "d3021ca7-7450-4678-a117-060171eb2976",
          "GT1": {
            "GS1": 1,
            "GS2": "{\"$type\":\"Terrasoft.Core.Process.LocalizableParameterValuesList, Terrasoft.Core\",\"$values\":[{\"ItemUId\":\"a6c0f381-be60-4352-9651-9555f3325c2e\",\"columnMetaPath\":{\"value\":\"c8bcb027-e66a-41c6-9952-845c9d9fe0a1\"},\"schemaUId\":{\"value\":\"957ee76d-477e-45ee-9d16-38a81b7e5d2c\"},\"value\":{\"value\":\"[#SysVariable.CurrentUserContact#]\"},\"displayValue\":{\"value\":\"[#System variable.Current user contact#]\"},\"parameterValue\":{\"value\":\"{\\\"$type\\\":\\\"Terrasoft.Core.Process.ProcessSchemaParameterValue, Terrasoft.Core\\\",\\\"Source\\\":3,\\\"DisplayValue\\\":\\\"\\\",\\\"Value\\\":\\\"\\\",\\\"MetaPath\\\":null,\\\"MetaDataValue\\\":null,\\\"ModifiedInSchemaUId\\\":\\\"00000000-0000-0000-0000-000000000000\\\",\\\"SchemaUId\\\":\\\"00000000-0000-0000-0000-000000000000\\\",\\\"SchemaManagerName\\\":\\\"\\\",\\\"DataValueTypeUId\\\":\\\"b295071f-7ea9-4e62-8d1a-919bf3732ff2\\\",\\\"ReferenceSchemaUId\\\":\\\"16be3651-8fe2-4159-8dd0-a803d4683dd3\\\",\\\"ResourceItemName\\\":null}\"}},{\"ItemUId\":\"673babb8-e5ad-47ca-8afa-77b4ccf876d7\",\"columnMetaPath\":{\"value\":\"fdb94650-72f6-4368-9c80-7bd6ae5bf653\"},\"schemaUId\":{\"value\":\"957ee76d-477e-45ee-9d16-38a81b7e5d2c\"},\"value\":{\"value\":\"[#SysVariable.CurrentDateTime#]\"},\"displayValue\":{\"value\":\"[#System variable.Current Time and Date#]\"},\"parameterValue\":{\"value\":\"{\\\"$type\\\":\\\"Terrasoft.Core.Process.ProcessSchemaParameterValue, Terrasoft.Core\\\",\\\"Source\\\":3,\\\"DisplayValue\\\":\\\"\\\",\\\"Value\\\":\\\"\\\",\\\"MetaPath\\\":null,\\\"MetaDataValue\\\":null,\\\"ModifiedInSchemaUId\\\":\\\"00000000-0000-0000-0000-000000000000\\\",\\\"SchemaUId\\\":\\\"00000000-0000-0000-0000-000000000000\\\",\\\"SchemaManagerName\\\":\\\"\\\",\\\"DataValueTypeUId\\\":\\\"d21e9ef4-c064-4012-b286-fa1a8171da44\\\",\\\"ReferenceSchemaUId\\\":\\\"00000000-0000-0000-0000-000000000000\\\",\\\"ResourceItemName\\\":null}\"}}]}"
          }
        },
        {
          "BL1": "Terrasoft.Core.Process.ProcessSchemaMapping",
          "UId": "e81f7bf5-437e-4013-a604-1a0608974019",
          "A2": "ReadDataUserTask3",
          "A3": "e3a315b4-06cb-4461-bddd-fd76c4fa3fda",
          "A4": "e3a315b4-06cb-4461-bddd-fd76c4fa3fda",
          "GT2": "[Element:{d19d9641-dc23-41df-b4be-c2de66d04fd4}].[Parameter:{b18d46d7-f652-441d-8d5d-6438be0faeb2}]",
          "GT3": "b18d46d7-f652-441d-8d5d-6438be0faeb2",
          "GT5": "5d9ac9a7-7782-49ce-8990-dcb1c73832b0",
          "GT4": "cb455b6f-78ff-4b1e-b241-c2bbc0b37e9f",
          "GT1": {
            "GS1": 1,
            "GS2": "{\"className\":\"Terrasoft.FilterGroup\",\"serializedFilterEditData\":\"{\\\"className\\\":\\\"Terrasoft.FilterGroup\\\",\\\"items\\\":{\\\"f8ba4445-8ac5-4c40-bff8-172ccd33a7f0\\\":{\\\"className\\\":\\\"Terrasoft.CompareFilter\\\",\\\"filterType\\\":1,\\\"comparisonType\\\":3,\\\"isEnabled\\\":true,\\\"trimDateTimeParameterToDate\\\":false,\\\"leftExpression\\\":{\\\"className\\\":\\\"Terrasoft.ColumnExpression\\\",\\\"expressionType\\\":0,\\\"columnPath\\\":\\\"Id\\\"},\\\"isAggregative\\\":false,\\\"key\\\":\\\"f8ba4445-8ac5-4c40-bff8-172ccd33a7f0\\\",\\\"dataValueType\\\":0,\\\"leftExpressionCaption\\\":\\\"Id\\\",\\\"rightExpression\\\":{\\\"className\\\":\\\"Terrasoft.ParameterExpression\\\",\\\"expressionType\\\":2,\\\"parameter\\\":{\\\"className\\\":\\\"Terrasoft.Parameter\\\",\\\"dataValueType\\\":26,\\\"value\\\":{\\\"value\\\":\\\"[IsOwnerSchema:false].[IsSchema:false].[Parameter:{7e6ac4d3-2fc6-4dcd-954d-948b836b5ebc}]\\\",\\\"displayValue\\\":\\\"FinTaskId\\\"}}}}},\\\"logicalOperation\\\":0,\\\"isEnabled\\\":true,\\\"filterType\\\":6,\\\"rootSchemaName\\\":\\\"WatFinalizationTasks\\\",\\\"key\\\":\\\"\\\"}\",\"dataSourceFilters\":\"{\\\"items\\\":{\\\"f8ba4445-8ac5-4c40-bff8-172ccd33a7f0\\\":{\\\"filterType\\\":1,\\\"comparisonType\\\":3,\\\"isEnabled\\\":true,\\\"trimDateTimeParameterToDate\\\":false,\\\"leftExpression\\\":{\\\"expressionType\\\":0,\\\"columnPath\\\":\\\"Id\\\"},\\\"rightExpression\\\":{\\\"expressionType\\\":2,\\\"parameter\\\":{\\\"dataValueType\\\":26,\\\"value\\\":{\\\"value\\\":\\\"[IsOwnerSchema:false].[IsSchema:false].[Parameter:{7e6ac4d3-2fc6-4dcd-954d-948b836b5ebc}]\\\"}}}}},\\\"logicalOperation\\\":0,\\\"isEnabled\\\":true,\\\"filterType\\\":6,\\\"rootSchemaName\\\":\\\"WatFinalizationTasks\\\"}\"}",
            "GS5": "e3a315b4-06cb-4461-bddd-fd76c4fa3fda"
          }
        },
        {
          "BL1": "Terrasoft.Core.Process.ProcessSchemaMapping",
          "UId": "50bb679e-6c72-4384-97e6-2200bdb51b8f",
          "A2": "ReadDataUserTask3",
          "A3": "e3a315b4-06cb-4461-bddd-fd76c4fa3fda",
          "A4": "e3a315b4-06cb-4461-bddd-fd76c4fa3fda",
          "GT2": "[Element:{d19d9641-dc23-41df-b4be-c2de66d04fd4}].[Parameter:{f484daa8-4e6a-41bc-b978-bcad1c002031}]",
          "GT3": "f484daa8-4e6a-41bc-b978-bcad1c002031",
          "GT5": "643e4d6d-7ec8-49f0-842a-066a996fbe8b",
          "GT4": "cb455b6f-78ff-4b1e-b241-c2bbc0b37e9f",
          "GT1": {
            "GS1": 1,
            "GS2": "0",
            "GS5": "e3a315b4-06cb-4461-bddd-fd76c4fa3fda"
          }
        },
        {
          "BL1": "Terrasoft.Core.Process.ProcessSchemaMapping",
          "UId": "a6c58d71-78d2-4144-8526-208a3eac600d",
          "A2": "ReadDataUserTask3",
          "A3": "e3a315b4-06cb-4461-bddd-fd76c4fa3fda",
          "A4": "e3a315b4-06cb-4461-bddd-fd76c4fa3fda",
          "GT2": "[Element:{d19d9641-dc23-41df-b4be-c2de66d04fd4}].[Parameter:{dbbd6ee2-f234-4937-8431-ef934550aca6}]",
          "GT3": "dbbd6ee2-f234-4937-8431-ef934550aca6",
          "GT5": "29115add-7520-4ad4-8371-d91f537ac913",
          "GT4": "cb455b6f-78ff-4b1e-b241-c2bbc0b37e9f",
          "GT1": {
            "GS1": 1,
            "GS2": "true"
          }
        },
        {
          "BL1": "Terrasoft.Core.Process.ProcessSchemaMapping",
          "UId": "196ac710-c882-4fa6-a105-f374624e949a",
          "A2": "ReadDataUserTask3",
          "A3": "e3a315b4-06cb-4461-bddd-fd76c4fa3fda",
          "A4": "e3a315b4-06cb-4461-bddd-fd76c4fa3fda",
          "GT2": "[Element:{d19d9641-dc23-41df-b4be-c2de66d04fd4}].[Parameter:{69ded9d6-1ccd-4759-b60c-7790f52ddb66}]",
          "GT3": "69ded9d6-1ccd-4759-b60c-7790f52ddb66",
          "GT5": "f29e5660-c5ef-4d84-8331-9046c3093519",
          "GT4": "cb455b6f-78ff-4b1e-b241-c2bbc0b37e9f",
          "GT1": {
            "GS1": 1,
            "GS2": "50"
          }
        },
        {
          "BL1": "Terrasoft.Core.Process.ProcessSchemaMapping",
          "UId": "f19bae06-5a47-4d01-b257-1d27efe9bd4f",
          "A2": "ReadDataUserTask3",
          "A3": "e3a315b4-06cb-4461-bddd-fd76c4fa3fda",
          "A4": "e3a315b4-06cb-4461-bddd-fd76c4fa3fda",
          "GT2": "[Element:{d19d9641-dc23-41df-b4be-c2de66d04fd4}].[Parameter:{db964310-3927-44f0-a533-af9ffc43653f}]",
          "GT3": "db964310-3927-44f0-a533-af9ffc43653f",
          "GT5": "94ba9876-18c1-4a68-bcef-08f7e7f0e25c",
          "GT4": "cb455b6f-78ff-4b1e-b241-c2bbc0b37e9f",
          "GT1": {
            "GS1": 1,
            "GS2": "0"
          }
        },
        {
          "BL1": "Terrasoft.Core.Process.ProcessSchemaMapping",
          "UId": "ad3b652c-1b30-4d20-88c3-faadc1900cca",
          "A2": "ReadDataUserTask3",
          "A3": "e3a315b4-06cb-4461-bddd-fd76c4fa3fda",
          "A4": "e3a315b4-06cb-4461-bddd-fd76c4fa3fda",
          "GT2": "[Element:{d19d9641-dc23-41df-b4be-c2de66d04fd4}].[Parameter:{8af2855b-acbc-41cc-a5e4-745b5356eefe}]",
          "GT3": "8af2855b-acbc-41cc-a5e4-745b5356eefe",
          "GT5": "cb5d6d26-7e81-4cbe-8730-8b7169000d14",
          "GT4": "cb455b6f-78ff-4b1e-b241-c2bbc0b37e9f",
          "GT1": {
            "GS2": ""
          }
        },
        {
          "BL1": "Terrasoft.Core.Process.ProcessSchemaMapping",
          "UId": "afd915af-3f16-4432-a0d1-590d2114c3fc",
          "A2": "ReadDataUserTask3",
          "A3": "e3a315b4-06cb-4461-bddd-fd76c4fa3fda",
          "A4": "e3a315b4-06cb-4461-bddd-fd76c4fa3fda",
          "GT2": "[Element:{d19d9641-dc23-41df-b4be-c2de66d04fd4}].[Parameter:{4887ac47-3e4d-4da1-88fb-ffa494f48064}]",
          "GT3": "4887ac47-3e4d-4da1-88fb-ffa494f48064",
          "GT5": "473e79e2-727e-40a7-8829-7eefc576b403",
          "GT4": "cb455b6f-78ff-4b1e-b241-c2bbc0b37e9f",
          "GT1": {
            "GS5": "e3a315b4-06cb-4461-bddd-fd76c4fa3fda"
          }
        },
        {
          "BL1": "Terrasoft.Core.Process.ProcessSchemaMapping",
          "UId": "894d816a-196e-4052-b973-f9f4c5a61812",
          "A2": "ReadDataUserTask3",
          "A3": "e3a315b4-06cb-4461-bddd-fd76c4fa3fda",
          "A4": "e3a315b4-06cb-4461-bddd-fd76c4fa3fda",
          "GT2": "[Element:{d19d9641-dc23-41df-b4be-c2de66d04fd4}].[Parameter:{75049b31-a971-4c42-8d5b-3fa1d261bf06}]",
          "GT3": "75049b31-a971-4c42-8d5b-3fa1d261bf06",
          "GT5": "e2fced10-4842-423e-ada0-523bf7ea8ad3",
          "GT4": "cb455b6f-78ff-4b1e-b241-c2bbc0b37e9f",
          "GT1": {
            "GS1": 1
          }
        },
        {
          "BL1": "Terrasoft.Core.Process.ProcessSchemaMapping",
          "UId": "78c104c4-3c8e-4817-8359-888e925f6a63",
          "A2": "ReadDataUserTask3",
          "A3": "e3a315b4-06cb-4461-bddd-fd76c4fa3fda",
          "A4": "e3a315b4-06cb-4461-bddd-fd76c4fa3fda",
          "GT2": "[Element:{d19d9641-dc23-41df-b4be-c2de66d04fd4}].[Parameter:{35114a24-21fd-4218-b59f-f968de76f1f4}]",
          "GT3": "35114a24-21fd-4218-b59f-f968de76f1f4",
          "GT5": "2e63ea99-8125-4254-88bd-20d3610bd471",
          "GT4": "cb455b6f-78ff-4b1e-b241-c2bbc0b37e9f",
          "GT1": {
            "GS2": ""
          }
        },
        {
          "BL1": "Terrasoft.Core.Process.ProcessSchemaMapping",
          "UId": "b9bea63f-d012-40dd-84cf-239085adf5e5",
          "A2": "ReadDataUserTask3",
          "A3": "e3a315b4-06cb-4461-bddd-fd76c4fa3fda",
          "A4": "e3a315b4-06cb-4461-bddd-fd76c4fa3fda",
          "GT2": "[Element:{d19d9641-dc23-41df-b4be-c2de66d04fd4}].[Parameter:{8e14a062-7750-47e7-af21-75abcae8eb2b}]",
          "GT3": "8e14a062-7750-47e7-af21-75abcae8eb2b",
          "GT5": "a3660fce-a8f9-4a68-a3c1-b4f2f7983635",
          "GT4": "cb455b6f-78ff-4b1e-b241-c2bbc0b37e9f",
          "GT1": {
            "GS2": ""
          }
        },
        {
          "BL1": "Terrasoft.Core.Process.ProcessSchemaMapping",
          "UId": "695dc7c4-5225-4846-a36f-c238e04160bf",
          "A2": "ReadDataUserTask3",
          "A3": "e3a315b4-06cb-4461-bddd-fd76c4fa3fda",
          "A4": "e3a315b4-06cb-4461-bddd-fd76c4fa3fda",
          "GT2": "[Element:{d19d9641-dc23-41df-b4be-c2de66d04fd4}].[Parameter:{de86b096-7667-4661-8a9b-80e81547f4e7}]",
          "GT3": "de86b096-7667-4661-8a9b-80e81547f4e7",
          "GT5": "9a594933-75da-4304-b6a3-5945dba159e3",
          "GT4": "cb455b6f-78ff-4b1e-b241-c2bbc0b37e9f",
          "GT1": {
            "GS2": ""
          }
        },
        {
          "BL1": "Terrasoft.Core.Process.ProcessSchemaMapping",
          "UId": "12e77643-bab0-4304-b2e9-a1ee92d06b10",
          "A2": "ReadDataUserTask3",
          "A3": "e3a315b4-06cb-4461-bddd-fd76c4fa3fda",
          "A4": "e3a315b4-06cb-4461-bddd-fd76c4fa3fda",
          "GT2": "[Element:{d19d9641-dc23-41df-b4be-c2de66d04fd4}].[Parameter:{b87a1959-98ba-4cac-ab7d-a7deb315d47d}]",
          "GT3": "b87a1959-98ba-4cac-ab7d-a7deb315d47d",
          "GT5": "11fb235f-c06a-4111-84cd-a5dbf9a440d5",
          "GT4": "cb455b6f-78ff-4b1e-b241-c2bbc0b37e9f",
          "GT1": {
            "GS2": ""
          }
        },
        {
          "BL1": "Terrasoft.Core.Process.ProcessSchemaMapping",
          "UId": "22c811a7-f434-4343-9a17-b04f415ad159",
          "A2": "ReadDataUserTask3",
          "A3": "e3a315b4-06cb-4461-bddd-fd76c4fa3fda",
          "A4": "e3a315b4-06cb-4461-bddd-fd76c4fa3fda",
          "GT2": "[Element:{d19d9641-dc23-41df-b4be-c2de66d04fd4}].[Parameter:{81aaf844-29c5-4454-aa25-e9704ad546af}]",
          "GT3": "81aaf844-29c5-4454-aa25-e9704ad546af",
          "GT5": "78252e95-b759-416a-9c48-c128fbdf59ef",
          "GT4": "cb455b6f-78ff-4b1e-b241-c2bbc0b37e9f",
          "GT1": {
            "GS2": ""
          }
        },
        {
          "BL1": "Terrasoft.Core.Process.ProcessSchemaMapping",
          "UId": "833bbda7-5e2e-43e6-8fc9-c8d59844f4db",
          "A2": "ReadDataUserTask3",
          "A3": "e3a315b4-06cb-4461-bddd-fd76c4fa3fda",
          "A4": "e3a315b4-06cb-4461-bddd-fd76c4fa3fda",
          "GT2": "[Element:{d19d9641-dc23-41df-b4be-c2de66d04fd4}].[Parameter:{6072ab6e-7d51-4589-8e19-b710604fc5b9}]",
          "GT3": "6072ab6e-7d51-4589-8e19-b710604fc5b9",
          "GT5": "2f797429-6f43-4594-96bb-62fbc7b7deec",
          "GT4": "cb455b6f-78ff-4b1e-b241-c2bbc0b37e9f",
          "GT1": {
            "GS1": 1,
            "GS2": "true",
            "GS5": "cb455b6f-78ff-4b1e-b241-c2bbc0b37e9f"
          }
        },
        {
          "BL1": "Terrasoft.Core.Process.ProcessSchemaMapping",
          "UId": "f01d9841-0a4f-4312-a6ba-bd456d8e703a",
          "A2": "ReadDataUserTask3",
          "A3": "e3a315b4-06cb-4461-bddd-fd76c4fa3fda",
          "A4": "e3a315b4-06cb-4461-bddd-fd76c4fa3fda",
          "GT2": "[Element:{d19d9641-dc23-41df-b4be-c2de66d04fd4}].[Parameter:{6261bbde-b0cc-4e7b-b9a0-de0a533eef98}]",
          "GT3": "6261bbde-b0cc-4e7b-b9a0-de0a533eef98",
          "GT5": "be4a0d16-6a15-41cf-ac44-a8b757565428",
          "GT4": "cb455b6f-78ff-4b1e-b241-c2bbc0b37e9f",
          "GT1": {
            "GS2": ""
          }
        },
        {
          "BL1": "Terrasoft.Core.Process.ProcessSchemaMapping",
          "UId": "5669a921-5239-46ae-b5ff-f20034d1a845",
          "A2": "ReadDataUserTask3",
          "A3": "e3a315b4-06cb-4461-bddd-fd76c4fa3fda",
          "A4": "e3a315b4-06cb-4461-bddd-fd76c4fa3fda",
          "GT2": "[Element:{d19d9641-dc23-41df-b4be-c2de66d04fd4}].[Parameter:{75e07869-81da-43f1-b243-9f10de71ce25}]",
          "GT3": "75e07869-81da-43f1-b243-9f10de71ce25",
          "GT5": "cc12005f-f434-4a40-b9d0-dc8f81755545",
          "GT4": "cb455b6f-78ff-4b1e-b241-c2bbc0b37e9f",
          "GT1": {
            "GS1": 1,
            "GS2": "093e9790-b19f-4944-bc92-63a9a2fd2ef9"
          }
        },
        {
          "BL1": "Terrasoft.Core.Process.ProcessSchemaMapping",
          "UId": "34ed4c1e-f61e-4a3c-9dff-61f95a24d795",
          "A2": "ReadDataUserTask3",
          "A3": "e3a315b4-06cb-4461-bddd-fd76c4fa3fda",
          "A4": "e3a315b4-06cb-4461-bddd-fd76c4fa3fda",
          "GT2": "[Element:{d19d9641-dc23-41df-b4be-c2de66d04fd4}].[Parameter:{6457973b-7614-4672-8b29-a7ac5e36e37a}]",
          "GT3": "6457973b-7614-4672-8b29-a7ac5e36e37a",
          "GT5": "6dada847-859b-4e0a-9297-b3c9572530b6",
          "GT4": "cb455b6f-78ff-4b1e-b241-c2bbc0b37e9f",
          "GT1": {
            "GS2": ""
          }
        },
        {
          "BL1": "Terrasoft.Core.Process.ProcessSchemaMapping",
          "UId": "40b89346-8f0b-4af3-a805-b680550a7d6f",
          "A2": "ReadDataUserTask3",
          "A3": "e3a315b4-06cb-4461-bddd-fd76c4fa3fda",
          "A4": "e3a315b4-06cb-4461-bddd-fd76c4fa3fda",
          "GT2": "[Element:{d19d9641-dc23-41df-b4be-c2de66d04fd4}].[Parameter:{a19170e2-dc05-47ce-97eb-f5f9252a76ec}]",
          "GT3": "a19170e2-dc05-47ce-97eb-f5f9252a76ec",
          "GT5": "555901ef-f707-4803-a887-1bc07e882096",
          "GT4": "cb455b6f-78ff-4b1e-b241-c2bbc0b37e9f",
          "GT1": {
            "GS2": ""
          }
        },
        {
          "BL1": "Terrasoft.Core.Process.ProcessSchemaMapping",
          "UId": "3cfed942-962c-460d-8548-3bf1a6328101",
          "A2": "ReadDataUserTask3",
          "A3": "e3a315b4-06cb-4461-bddd-fd76c4fa3fda",
          "A4": "e3a315b4-06cb-4461-bddd-fd76c4fa3fda",
          "GT2": "[Element:{d19d9641-dc23-41df-b4be-c2de66d04fd4}].[Parameter:{5581a192-775b-464f-a577-ec6470f92505}]",
          "GT3": "5581a192-775b-464f-a577-ec6470f92505",
          "GT5": "978b550e-1b81-448a-8700-9c9190c3a2a4",
          "GT4": "cb455b6f-78ff-4b1e-b241-c2bbc0b37e9f",
          "GT1": {
            "GS1": 3,
            "GS2": "false",
            "GS5": "cb455b6f-78ff-4b1e-b241-c2bbc0b37e9f"
          }
        },
        {
          "BL1": "Terrasoft.Core.Process.ProcessSchemaMapping",
          "UId": "bf95190a-b6a3-4802-a8ca-55923fb0bc76",
          "A2": "ReadDataUserTask4",
          "A3": "e3a315b4-06cb-4461-bddd-fd76c4fa3fda",
          "A4": "e3a315b4-06cb-4461-bddd-fd76c4fa3fda",
          "GT2": "[Element:{02ddea15-63bc-4b66-9b1b-c59daffd9921}].[Parameter:{b4b63c75-9013-4f7b-a287-dcf852d0330e}]",
          "GT3": "b4b63c75-9013-4f7b-a287-dcf852d0330e",
          "GT5": "5d9ac9a7-7782-49ce-8990-dcb1c73832b0",
          "GT4": "cb455b6f-78ff-4b1e-b241-c2bbc0b37e9f",
          "GT1": {
            "GS1": 1,
            "GS2": "{\"className\":\"Terrasoft.FilterGroup\",\"serializedFilterEditData\":\"{\\\"className\\\":\\\"Terrasoft.FilterGroup\\\",\\\"items\\\":{\\\"f8d2526f-4c3c-4b70-8a48-aa1f6501631e\\\":{\\\"className\\\":\\\"Terrasoft.InFilter\\\",\\\"filterType\\\":4,\\\"comparisonType\\\":3,\\\"isEnabled\\\":true,\\\"trimDateTimeParameterToDate\\\":false,\\\"leftExpression\\\":{\\\"className\\\":\\\"Terrasoft.ColumnExpression\\\",\\\"expressionType\\\":0,\\\"columnPath\\\":\\\"WatAgreement\\\"},\\\"isAggregative\\\":false,\\\"key\\\":\\\"f8d2526f-4c3c-4b70-8a48-aa1f6501631e\\\",\\\"dataValueType\\\":10,\\\"leftExpressionCaption\\\":\\\"Agreement\\\",\\\"referenceSchemaName\\\":\\\"WatAgreement\\\",\\\"rightExpressions\\\":[{\\\"className\\\":\\\"Terrasoft.ParameterExpression\\\",\\\"expressionType\\\":2,\\\"parameter\\\":{\\\"className\\\":\\\"Terrasoft.Parameter\\\",\\\"dataValueType\\\":26,\\\"value\\\":{\\\"value\\\":\\\"[IsOwnerSchema:false].[IsSchema:false].[Element:{d19d9641-dc23-41df-b4be-c2de66d04fd4}].[Parameter:{75049b31-a971-4c42-8d5b-3fa1d261bf06}].[EntityColumn:{093e9790-b19f-4944-bc92-63a9a2fd2ef9}]\\\",\\\"displayValue\\\":\\\"RD Fin Task.First item of resulting collection.Agreement\\\",\\\"Id\\\":\\\"035a5b2c-49d4-4080-9ef5-a8203d6fbab6\\\"}}}]},\\\"75f3d675-c8e4-42e3-adde-7e7b31153b50\\\":{\\\"className\\\":\\\"Terrasoft.CompareFilter\\\",\\\"filterType\\\":1,\\\"comparisonType\\\":3,\\\"isEnabled\\\":true,\\\"trimDateTimeParameterToDate\\\":false,\\\"leftExpression\\\":{\\\"className\\\":\\\"Terrasoft.ColumnExpression\\\",\\\"expressionType\\\":0,\\\"columnPath\\\":\\\"WatCompleted\\\"},\\\"isAggregative\\\":false,\\\"key\\\":\\\"75f3d675-c8e4-42e3-adde-7e7b31153b50\\\",\\\"dataValueType\\\":12,\\\"leftExpressionCaption\\\":\\\"Completed\\\",\\\"rightExpression\\\":{\\\"className\\\":\\\"Terrasoft.ParameterExpression\\\",\\\"expressionType\\\":2,\\\"parameter\\\":{\\\"className\\\":\\\"Terrasoft.Parameter\\\",\\\"dataValueType\\\":12,\\\"value\\\":false}}}},\\\"logicalOperation\\\":0,\\\"isEnabled\\\":true,\\\"filterType\\\":6,\\\"rootSchemaName\\\":\\\"WatFinalizationTasks\\\",\\\"key\\\":\\\"\\\"}\",\"dataSourceFilters\":\"{\\\"items\\\":{\\\"f8d2526f-4c3c-4b70-8a48-aa1f6501631e\\\":{\\\"filterType\\\":4,\\\"comparisonType\\\":3,\\\"isEnabled\\\":true,\\\"trimDateTimeParameterToDate\\\":false,\\\"leftExpression\\\":{\\\"expressionType\\\":0,\\\"columnPath\\\":\\\"WatAgreement\\\"},\\\"rightExpressions\\\":[{\\\"expressionType\\\":2,\\\"parameter\\\":{\\\"dataValueType\\\":26,\\\"value\\\":{\\\"value\\\":\\\"[IsOwnerSchema:false].[IsSchema:false].[Element:{d19d9641-dc23-41df-b4be-c2de66d04fd4}].[Parameter:{75049b31-a971-4c42-8d5b-3fa1d261bf06}].[EntityColumn:{093e9790-b19f-4944-bc92-63a9a2fd2ef9}]\\\",\\\"Id\\\":\\\"035a5b2c-49d4-4080-9ef5-a8203d6fbab6\\\"}}}]},\\\"75f3d675-c8e4-42e3-adde-7e7b31153b50\\\":{\\\"filterType\\\":1,\\\"comparisonType\\\":3,\\\"isEnabled\\\":true,\\\"trimDateTimeParameterToDate\\\":false,\\\"leftExpression\\\":{\\\"expressionType\\\":0,\\\"columnPath\\\":\\\"WatCompleted\\\"},\\\"rightExpression\\\":{\\\"expressionType\\\":2,\\\"parameter\\\":{\\\"dataValueType\\\":12,\\\"value\\\":false}}}},\\\"logicalOperation\\\":0,\\\"isEnabled\\\":true,\\\"filterType\\\":6,\\\"rootSchemaName\\\":\\\"WatFinalizationTasks\\\"}\"}",
            "GS5": "e3a315b4-06cb-4461-bddd-fd76c4fa3fda"
          }
        },
        {
          "BL1": "Terrasoft.Core.Process.ProcessSchemaMapping",
          "UId": "cb62b601-8b6a-44f6-bad7-d74d1c9fce94",
          "A2": "ReadDataUserTask4",
          "A3": "e3a315b4-06cb-4461-bddd-fd76c4fa3fda",
          "A4": "e3a315b4-06cb-4461-bddd-fd76c4fa3fda",
          "GT2": "[Element:{02ddea15-63bc-4b66-9b1b-c59daffd9921}].[Parameter:{aa3a5a8a-b73e-4d44-b3ab-89a966fa8d36}]",
          "GT3": "aa3a5a8a-b73e-4d44-b3ab-89a966fa8d36",
          "GT5": "643e4d6d-7ec8-49f0-842a-066a996fbe8b",
          "GT4": "cb455b6f-78ff-4b1e-b241-c2bbc0b37e9f",
          "GT1": {
            "GS1": 1,
            "GS2": "1",
            "GS5": "cb455b6f-78ff-4b1e-b241-c2bbc0b37e9f"
          }
        },
        {
          "BL1": "Terrasoft.Core.Process.ProcessSchemaMapping",
          "UId": "a145c9ab-b44c-45e9-8f65-9f71eb8078d3",
          "A2": "ReadDataUserTask4",
          "A3": "e3a315b4-06cb-4461-bddd-fd76c4fa3fda",
          "A4": "e3a315b4-06cb-4461-bddd-fd76c4fa3fda",
          "GT2": "[Element:{02ddea15-63bc-4b66-9b1b-c59daffd9921}].[Parameter:{97d5cf55-3f8b-4894-bc8e-415f7c2394e0}]",
          "GT3": "97d5cf55-3f8b-4894-bc8e-415f7c2394e0",
          "GT5": "29115add-7520-4ad4-8371-d91f537ac913",
          "GT4": "cb455b6f-78ff-4b1e-b241-c2bbc0b37e9f",
          "GT1": {
            "GS1": 1,
            "GS2": "true"
          }
        },
        {
          "BL1": "Terrasoft.Core.Process.ProcessSchemaMapping",
          "UId": "83b99f64-0048-4ead-baab-2eae1f2a5966",
          "A2": "ReadDataUserTask4",
          "A3": "e3a315b4-06cb-4461-bddd-fd76c4fa3fda",
          "A4": "e3a315b4-06cb-4461-bddd-fd76c4fa3fda",
          "GT2": "[Element:{02ddea15-63bc-4b66-9b1b-c59daffd9921}].[Parameter:{855899fd-454c-4907-b092-741c0fbecdf0}]",
          "GT3": "855899fd-454c-4907-b092-741c0fbecdf0",
          "GT5": "f29e5660-c5ef-4d84-8331-9046c3093519",
          "GT4": "cb455b6f-78ff-4b1e-b241-c2bbc0b37e9f",
          "GT1": {
            "GS1": 1,
            "GS2": "50"
          }
        },
        {
          "BL1": "Terrasoft.Core.Process.ProcessSchemaMapping",
          "UId": "67573212-1975-46e0-b207-a294ccaf74f7",
          "A2": "ReadDataUserTask4",
          "A3": "e3a315b4-06cb-4461-bddd-fd76c4fa3fda",
          "A4": "e3a315b4-06cb-4461-bddd-fd76c4fa3fda",
          "GT2": "[Element:{02ddea15-63bc-4b66-9b1b-c59daffd9921}].[Parameter:{fcde7a50-c31a-409b-8636-2437f0eebad1}]",
          "GT3": "fcde7a50-c31a-409b-8636-2437f0eebad1",
          "GT5": "94ba9876-18c1-4a68-bcef-08f7e7f0e25c",
          "GT4": "cb455b6f-78ff-4b1e-b241-c2bbc0b37e9f",
          "GT1": {
            "GS1": 1,
            "GS2": "0"
          }
        },
        {
          "BL1": "Terrasoft.Core.Process.ProcessSchemaMapping",
          "UId": "b1be0348-6ee9-4d2f-8351-28153db76dc9",
          "A2": "ReadDataUserTask4",
          "A3": "e3a315b4-06cb-4461-bddd-fd76c4fa3fda",
          "A4": "e3a315b4-06cb-4461-bddd-fd76c4fa3fda",
          "GT2": "[Element:{02ddea15-63bc-4b66-9b1b-c59daffd9921}].[Parameter:{cac8ea8b-b74a-4f73-82fa-6d40e2105837}]",
          "GT3": "cac8ea8b-b74a-4f73-82fa-6d40e2105837",
          "GT5": "cb5d6d26-7e81-4cbe-8730-8b7169000d14",
          "GT4": "cb455b6f-78ff-4b1e-b241-c2bbc0b37e9f",
          "GT1": {
            "GS2": ""
          }
        },
        {
          "BL1": "Terrasoft.Core.Process.ProcessSchemaMapping",
          "UId": "6b7bb886-9296-4e7f-be2d-39c111937977",
          "A2": "ReadDataUserTask4",
          "A3": "e3a315b4-06cb-4461-bddd-fd76c4fa3fda",
          "A4": "e3a315b4-06cb-4461-bddd-fd76c4fa3fda",
          "GT2": "[Element:{02ddea15-63bc-4b66-9b1b-c59daffd9921}].[Parameter:{f40dd359-cf80-4e5b-9cda-16c54e4ffeca}]",
          "GT3": "f40dd359-cf80-4e5b-9cda-16c54e4ffeca",
          "GT5": "473e79e2-727e-40a7-8829-7eefc576b403",
          "GT4": "cb455b6f-78ff-4b1e-b241-c2bbc0b37e9f",
          "GT1": {
            "GS2": ""
          }
        },
        {
          "BL1": "Terrasoft.Core.Process.ProcessSchemaMapping",
          "UId": "c2321358-078c-4318-9aaa-9471fa12cd05",
          "A2": "ReadDataUserTask4",
          "A3": "e3a315b4-06cb-4461-bddd-fd76c4fa3fda",
          "A4": "e3a315b4-06cb-4461-bddd-fd76c4fa3fda",
          "GT2": "[Element:{02ddea15-63bc-4b66-9b1b-c59daffd9921}].[Parameter:{e0898726-3a38-4aec-b7b8-8cd0ff324838}]",
          "GT3": "e0898726-3a38-4aec-b7b8-8cd0ff324838",
          "GT5": "e2fced10-4842-423e-ada0-523bf7ea8ad3",
          "GT4": "cb455b6f-78ff-4b1e-b241-c2bbc0b37e9f",
          "GT1": {
            "GS1": 1
          }
        },
        {
          "BL1": "Terrasoft.Core.Process.ProcessSchemaMapping",
          "UId": "137f68e3-63ca-4c20-b8b1-8298e01e2b11",
          "A2": "ReadDataUserTask4",
          "A3": "e3a315b4-06cb-4461-bddd-fd76c4fa3fda",
          "A4": "e3a315b4-06cb-4461-bddd-fd76c4fa3fda",
          "GT2": "[Element:{02ddea15-63bc-4b66-9b1b-c59daffd9921}].[Parameter:{41feba7a-6ee7-4125-b0b8-6d5e11c4aaea}]",
          "GT3": "41feba7a-6ee7-4125-b0b8-6d5e11c4aaea",
          "GT5": "2e63ea99-8125-4254-88bd-20d3610bd471",
          "GT4": "cb455b6f-78ff-4b1e-b241-c2bbc0b37e9f",
          "GT1": {
            "GS2": ""
          }
        },
        {
          "BL1": "Terrasoft.Core.Process.ProcessSchemaMapping",
          "UId": "a64ab228-e299-4dc7-8fae-b60c04377d2f",
          "A2": "ReadDataUserTask4",
          "A3": "e3a315b4-06cb-4461-bddd-fd76c4fa3fda",
          "A4": "e3a315b4-06cb-4461-bddd-fd76c4fa3fda",
          "GT2": "[Element:{02ddea15-63bc-4b66-9b1b-c59daffd9921}].[Parameter:{4f0e3961-0e7d-4535-9cd3-f74e088be551}]",
          "GT3": "4f0e3961-0e7d-4535-9cd3-f74e088be551",
          "GT5": "a3660fce-a8f9-4a68-a3c1-b4f2f7983635",
          "GT4": "cb455b6f-78ff-4b1e-b241-c2bbc0b37e9f",
          "GT1": {
            "GS2": ""
          }
        },
        {
          "BL1": "Terrasoft.Core.Process.ProcessSchemaMapping",
          "UId": "2a5f51d2-6db9-4bba-a639-5ae899dd2ef1",
          "A2": "ReadDataUserTask4",
          "A3": "e3a315b4-06cb-4461-bddd-fd76c4fa3fda",
          "A4": "e3a315b4-06cb-4461-bddd-fd76c4fa3fda",
          "GT2": "[Element:{02ddea15-63bc-4b66-9b1b-c59daffd9921}].[Parameter:{ed2dc652-de1f-4cea-8a02-dfd11badb8e8}]",
          "GT3": "ed2dc652-de1f-4cea-8a02-dfd11badb8e8",
          "GT5": "9a594933-75da-4304-b6a3-5945dba159e3",
          "GT4": "cb455b6f-78ff-4b1e-b241-c2bbc0b37e9f",
          "GT1": {
            "GS2": ""
          }
        },
        {
          "BL1": "Terrasoft.Core.Process.ProcessSchemaMapping",
          "UId": "cbdb160c-e6f2-48f4-8787-d51b18eab8ec",
          "A2": "ReadDataUserTask4",
          "A3": "e3a315b4-06cb-4461-bddd-fd76c4fa3fda",
          "A4": "e3a315b4-06cb-4461-bddd-fd76c4fa3fda",
          "GT2": "[Element:{02ddea15-63bc-4b66-9b1b-c59daffd9921}].[Parameter:{91e62237-cea0-4e38-8701-7591ffab6f4c}]",
          "GT3": "91e62237-cea0-4e38-8701-7591ffab6f4c",
          "GT5": "11fb235f-c06a-4111-84cd-a5dbf9a440d5",
          "GT4": "cb455b6f-78ff-4b1e-b241-c2bbc0b37e9f",
          "GT1": {
            "GS2": ""
          }
        },
        {
          "BL1": "Terrasoft.Core.Process.ProcessSchemaMapping",
          "UId": "93ee011d-d073-4480-8360-423d5f236c94",
          "A2": "ReadDataUserTask4",
          "A3": "e3a315b4-06cb-4461-bddd-fd76c4fa3fda",
          "A4": "e3a315b4-06cb-4461-bddd-fd76c4fa3fda",
          "GT2": "[Element:{02ddea15-63bc-4b66-9b1b-c59daffd9921}].[Parameter:{24cad9f5-e42a-450f-823b-24a7faf991da}]",
          "GT3": "24cad9f5-e42a-450f-823b-24a7faf991da",
          "GT5": "78252e95-b759-416a-9c48-c128fbdf59ef",
          "GT4": "cb455b6f-78ff-4b1e-b241-c2bbc0b37e9f",
          "GT1": {
            "GS2": ""
          }
        },
        {
          "BL1": "Terrasoft.Core.Process.ProcessSchemaMapping",
          "UId": "fa3672c7-15f3-4292-b664-4f53d6b88ffe",
          "A2": "ReadDataUserTask4",
          "A3": "e3a315b4-06cb-4461-bddd-fd76c4fa3fda",
          "A4": "e3a315b4-06cb-4461-bddd-fd76c4fa3fda",
          "GT2": "[Element:{02ddea15-63bc-4b66-9b1b-c59daffd9921}].[Parameter:{597da390-d136-4fb3-baf9-304fa8ccd55b}]",
          "GT3": "597da390-d136-4fb3-baf9-304fa8ccd55b",
          "GT5": "2f797429-6f43-4594-96bb-62fbc7b7deec",
          "GT4": "cb455b6f-78ff-4b1e-b241-c2bbc0b37e9f",
          "GT1": {
            "GS1": 1,
            "GS2": "true",
            "GS5": "cb455b6f-78ff-4b1e-b241-c2bbc0b37e9f"
          }
        },
        {
          "BL1": "Terrasoft.Core.Process.ProcessSchemaMapping",
          "UId": "0b25c302-89cc-426f-a036-489fc2b99475",
          "A2": "ReadDataUserTask4",
          "A3": "e3a315b4-06cb-4461-bddd-fd76c4fa3fda",
          "A4": "e3a315b4-06cb-4461-bddd-fd76c4fa3fda",
          "GT2": "[Element:{02ddea15-63bc-4b66-9b1b-c59daffd9921}].[Parameter:{97bb5c43-6589-4c57-8038-1aedacee28b2}]",
          "GT3": "97bb5c43-6589-4c57-8038-1aedacee28b2",
          "GT5": "be4a0d16-6a15-41cf-ac44-a8b757565428",
          "GT4": "cb455b6f-78ff-4b1e-b241-c2bbc0b37e9f",
          "GT1": {
            "GS2": ""
          }
        },
        {
          "BL1": "Terrasoft.Core.Process.ProcessSchemaMapping",
          "UId": "8451a6e6-42da-402f-89d3-56aca1ec24aa",
          "A2": "ReadDataUserTask4",
          "A3": "e3a315b4-06cb-4461-bddd-fd76c4fa3fda",
          "A4": "e3a315b4-06cb-4461-bddd-fd76c4fa3fda",
          "GT2": "[Element:{02ddea15-63bc-4b66-9b1b-c59daffd9921}].[Parameter:{36f0efbf-1e13-4723-a57c-ddb434a6fe76}]",
          "GT3": "36f0efbf-1e13-4723-a57c-ddb434a6fe76",
          "GT5": "cc12005f-f434-4a40-b9d0-dc8f81755545",
          "GT4": "cb455b6f-78ff-4b1e-b241-c2bbc0b37e9f",
          "GT1": {
            "GS2": ""
          }
        },
        {
          "BL1": "Terrasoft.Core.Process.ProcessSchemaMapping",
          "UId": "8bbe8238-0c6d-4ecb-ac0d-08579fc2edc6",
          "A2": "ReadDataUserTask4",
          "A3": "e3a315b4-06cb-4461-bddd-fd76c4fa3fda",
          "A4": "e3a315b4-06cb-4461-bddd-fd76c4fa3fda",
          "GT2": "[Element:{02ddea15-63bc-4b66-9b1b-c59daffd9921}].[Parameter:{eaffff11-4e18-47b1-a96c-55523761af41}]",
          "GT3": "eaffff11-4e18-47b1-a96c-55523761af41",
          "GT5": "6dada847-859b-4e0a-9297-b3c9572530b6",
          "GT4": "cb455b6f-78ff-4b1e-b241-c2bbc0b37e9f",
          "GT1": {
            "GS2": ""
          }
        },
        {
          "BL1": "Terrasoft.Core.Process.ProcessSchemaMapping",
          "UId": "65b0b13b-4f2a-461d-a3ae-562eae41f70f",
          "A2": "ReadDataUserTask4",
          "A3": "e3a315b4-06cb-4461-bddd-fd76c4fa3fda",
          "A4": "e3a315b4-06cb-4461-bddd-fd76c4fa3fda",
          "GT2": "[Element:{02ddea15-63bc-4b66-9b1b-c59daffd9921}].[Parameter:{f850cbaa-c91b-4747-8aab-50437d5174cb}]",
          "GT3": "f850cbaa-c91b-4747-8aab-50437d5174cb",
          "GT5": "555901ef-f707-4803-a887-1bc07e882096",
          "GT4": "cb455b6f-78ff-4b1e-b241-c2bbc0b37e9f",
          "GT1": {
            "GS2": ""
          }
        },
        {
          "BL1": "Terrasoft.Core.Process.ProcessSchemaMapping",
          "UId": "08121fdd-9e44-499d-80dc-b7855141e21a",
          "A2": "ReadDataUserTask4",
          "A3": "e3a315b4-06cb-4461-bddd-fd76c4fa3fda",
          "A4": "e3a315b4-06cb-4461-bddd-fd76c4fa3fda",
          "GT2": "[Element:{02ddea15-63bc-4b66-9b1b-c59daffd9921}].[Parameter:{ed2fd709-2897-40aa-960f-5b2332dc92d2}]",
          "GT3": "ed2fd709-2897-40aa-960f-5b2332dc92d2",
          "GT5": "978b550e-1b81-448a-8700-9c9190c3a2a4",
          "GT4": "cb455b6f-78ff-4b1e-b241-c2bbc0b37e9f",
          "GT1": {
            "GS1": 3,
            "GS2": "false",
            "GS5": "cb455b6f-78ff-4b1e-b241-c2bbc0b37e9f"
          }
        },
        {
          "BL1": "Terrasoft.Core.Process.ProcessSchemaMapping",
          "UId": "c62c439f-db72-4d95-aa00-8de28475ad65",
          "A2": "ChangeDataUserTask2",
          "A3": "e3a315b4-06cb-4461-bddd-fd76c4fa3fda",
          "A4": "e3a315b4-06cb-4461-bddd-fd76c4fa3fda",
          "GT2": "[Element:{0b13ca20-b24c-4d75-abdd-45a00b44c4e9}].[Parameter:{fd3802b9-b6a9-4770-90f0-c46a65fe7aee}]",
          "GT3": "fd3802b9-b6a9-4770-90f0-c46a65fe7aee",
          "GT5": "bd2cf1ae-bbc6-4d91-8d6e-c6b40f057e95",
          "GT4": "d3021ca7-7450-4678-a117-060171eb2976",
          "GT1": {
            "GS1": 1,
            "GS2": "320df743-3859-42ab-846e-d598464cd4c4"
          }
        },
        {
          "BL1": "Terrasoft.Core.Process.ProcessSchemaMapping",
          "UId": "aee898b3-7a77-4e1a-bf63-f231054792f0",
          "A2": "ChangeDataUserTask2",
          "A3": "e3a315b4-06cb-4461-bddd-fd76c4fa3fda",
          "A4": "e3a315b4-06cb-4461-bddd-fd76c4fa3fda",
          "GT2": "[Element:{0b13ca20-b24c-4d75-abdd-45a00b44c4e9}].[Parameter:{a60a9b3c-0a45-45d7-be04-d653ee1c04db}]",
          "GT3": "a60a9b3c-0a45-45d7-be04-d653ee1c04db",
          "GT5": "d6c84ba1-b6ca-4952-b517-880f22e21fdc",
          "GT4": "d3021ca7-7450-4678-a117-060171eb2976",
          "GT1": {
            "GS1": 3,
            "GS2": "true",
            "GS5": "d3021ca7-7450-4678-a117-060171eb2976"
          }
        },
        {
          "BL1": "Terrasoft.Core.Process.ProcessSchemaMapping",
          "UId": "d1595818-1b0d-4fcd-bcd4-443e9975f545",
          "A2": "ChangeDataUserTask2",
          "A3": "e3a315b4-06cb-4461-bddd-fd76c4fa3fda",
          "A4": "e3a315b4-06cb-4461-bddd-fd76c4fa3fda",
          "GT2": "[Element:{0b13ca20-b24c-4d75-abdd-45a00b44c4e9}].[Parameter:{cd55f0da-2a32-4c0a-82a7-9ee83e91680c}]",
          "GT3": "cd55f0da-2a32-4c0a-82a7-9ee83e91680c",
          "GT5": "03166c4b-2e15-4768-a343-750c16b69691",
          "GT4": "d3021ca7-7450-4678-a117-060171eb2976",
          "GT1": {
            "GS1": 1,
            "GS2": "{\"className\":\"Terrasoft.FilterGroup\",\"serializedFilterEditData\":\"{\\\"className\\\":\\\"Terrasoft.FilterGroup\\\",\\\"items\\\":{\\\"0daf4366-1ecc-4afc-bf1d-c25f7c9e6418\\\":{\\\"className\\\":\\\"Terrasoft.CompareFilter\\\",\\\"filterType\\\":1,\\\"comparisonType\\\":3,\\\"isEnabled\\\":true,\\\"trimDateTimeParameterToDate\\\":false,\\\"leftExpression\\\":{\\\"className\\\":\\\"Terrasoft.ColumnExpression\\\",\\\"expressionType\\\":0,\\\"columnPath\\\":\\\"Id\\\"},\\\"isAggregative\\\":false,\\\"key\\\":\\\"0daf4366-1ecc-4afc-bf1d-c25f7c9e6418\\\",\\\"dataValueType\\\":0,\\\"leftExpressionCaption\\\":\\\"Id\\\",\\\"rightExpression\\\":{\\\"className\\\":\\\"Terrasoft.ParameterExpression\\\",\\\"expressionType\\\":2,\\\"parameter\\\":{\\\"className\\\":\\\"Terrasoft.Parameter\\\",\\\"dataValueType\\\":26,\\\"value\\\":{\\\"value\\\":\\\"[IsOwnerSchema:false].[IsSchema:false].[Element:{d19d9641-dc23-41df-b4be-c2de66d04fd4}].[Parameter:{75049b31-a971-4c42-8d5b-3fa1d261bf06}].[EntityColumn:{093e9790-b19f-4944-bc92-63a9a2fd2ef9}]\\\",\\\"displayValue\\\":\\\"RD Fin Task.First item of resulting collection.Agreement\\\"}}}}},\\\"logicalOperation\\\":0,\\\"isEnabled\\\":true,\\\"filterType\\\":6,\\\"rootSchemaName\\\":\\\"WatAgreement\\\",\\\"key\\\":\\\"\\\"}\",\"dataSourceFilters\":\"{\\\"items\\\":{\\\"0daf4366-1ecc-4afc-bf1d-c25f7c9e6418\\\":{\\\"filterType\\\":1,\\\"comparisonType\\\":3,\\\"isEnabled\\\":true,\\\"trimDateTimeParameterToDate\\\":false,\\\"leftExpression\\\":{\\\"expressionType\\\":0,\\\"columnPath\\\":\\\"Id\\\"},\\\"rightExpression\\\":{\\\"expressionType\\\":2,\\\"parameter\\\":{\\\"dataValueType\\\":26,\\\"value\\\":{\\\"value\\\":\\\"[IsOwnerSchema:false].[IsSchema:false].[Element:{d19d9641-dc23-41df-b4be-c2de66d04fd4}].[Parameter:{75049b31-a971-4c42-8d5b-3fa1d261bf06}].[EntityColumn:{093e9790-b19f-4944-bc92-63a9a2fd2ef9}]\\\"}}}}},\\\"logicalOperation\\\":0,\\\"isEnabled\\\":true,\\\"filterType\\\":6,\\\"rootSchemaName\\\":\\\"WatAgreement\\\"}\"}"
          }
        },
        {
          "BL1": "Terrasoft.Core.Process.ProcessSchemaMapping",
          "UId": "22210230-d680-4de3-8c24-ffddc5c5c492",
          "A2": "ChangeDataUserTask2",
          "A3": "e3a315b4-06cb-4461-bddd-fd76c4fa3fda",
          "A4": "e3a315b4-06cb-4461-bddd-fd76c4fa3fda",
          "GT2": "[Element:{0b13ca20-b24c-4d75-abdd-45a00b44c4e9}].[Parameter:{413ff61b-2f70-4646-afd0-a7d9eb4e6b63}]",
          "GT3": "413ff61b-2f70-4646-afd0-a7d9eb4e6b63",
          "GT5": "effa11ce-90c7-4efe-8a02-be7a659d27e9",
          "GT4": "d3021ca7-7450-4678-a117-060171eb2976",
          "GT1": {
            "GS1": 1,
            "GS2": "{\"$type\":\"Terrasoft.Core.Process.LocalizableParameterValuesList, Terrasoft.Core\",\"$values\":[{\"ItemUId\":\"88e7d064-3120-4f9b-a8ea-7216c8f51ce9\",\"columnMetaPath\":{\"value\":\"9ff9e0a2-bc74-403c-85af-3889f6699bc8\"},\"schemaUId\":{\"value\":\"320df743-3859-42ab-846e-d598464cd4c4\"},\"value\":{\"value\":\"[#BooleanValue.True#]\"},\"displayValue\":{\"value\":\"[#Boolean value.True#]\"},\"parameterValue\":{\"value\":\"{\\\"$type\\\":\\\"Terrasoft.Core.Process.ProcessSchemaParameterValue, Terrasoft.Core\\\",\\\"Source\\\":3,\\\"DisplayValue\\\":\\\"\\\",\\\"Value\\\":\\\"\\\",\\\"MetaPath\\\":null,\\\"MetaDataValue\\\":null,\\\"ModifiedInSchemaUId\\\":\\\"00000000-0000-0000-0000-000000000000\\\",\\\"SchemaUId\\\":\\\"00000000-0000-0000-0000-000000000000\\\",\\\"SchemaManagerName\\\":\\\"\\\",\\\"DataValueTypeUId\\\":\\\"90b65bf8-0ffc-4141-8779-2420877af907\\\",\\\"ReferenceSchemaUId\\\":\\\"00000000-0000-0000-0000-000000000000\\\",\\\"ResourceItemName\\\":null}\"}}]}"
          }
        }
      ],
      "BK37": {
        "BL1": "Terrasoft.Core.Process.ProcessSchemaParameter",
        "UId": "cdd58be7-2dba-4a5e-869b-1ad5d6d7513a",
        "A2": "NotificationCaption",
        "A3": "e3a315b4-06cb-4461-bddd-fd76c4fa3fda",
        "A4": "e3a315b4-06cb-4461-bddd-fd76c4fa3fda",
        "L1": "8b3f29bb-ea14-4ce5-a5c5-293a929b6ba2",
        "L8": {
          "GS1": 3,
          "GS2": "[#[PropertyValue:Caption]#]"
        }
      },
      "BK1": "FFFFFFFF",
      "BK2": "FFBBBBBB",
      "BK3": [
        {
          "BL1": "Terrasoft.Core.Process.ProcessSchemaLaneSet",
          "UId": "c2454d31-61e6-47e7-9e81-8e62d4ef8703",
          "A2": "LaneSet1",
          "A3": "e3a315b4-06cb-4461-bddd-fd76c4fa3fda",
          "A4": "e3a315b4-06cb-4461-bddd-fd76c4fa3fda",
          "A5": "80852c4e-6e90-4769-a5e6-c485d9bc7022",
          "BL7": "11a47caf-a0d5-41fa-a274-a0b11f77447a",
          "BL8": "e3a315b4-06cb-4461-bddd-fd76c4fa3fda",
          "BM4": [
            {
              "BL1": "Terrasoft.Core.Process.ProcessSchemaLane",
              "UId": "7736d9d9-a114-4d8b-8528-0f5e949cd6ad",
              "A2": "Lane1",
              "A3": "e3a315b4-06cb-4461-bddd-fd76c4fa3fda",
              "A4": "e3a315b4-06cb-4461-bddd-fd76c4fa3fda",
              "A5": "80852c4e-6e90-4769-a5e6-c485d9bc7022",
              "IL2": "c2454d31-61e6-47e7-9e81-8e62d4ef8703",
              "BL7": "abcd74b9-5912-414b-82ac-f1aa4dcd554e",
              "BL8": "e3a315b4-06cb-4461-bddd-fd76c4fa3fda",
              "CD1": [],
              "CD2": [],
              "CD4": "c2454d31-61e6-47e7-9e81-8e62d4ef8703",
              "CD7": []
            }
          ]
        }
      ],
      "BK5": [],
      "BK4": [
        {
          "BL1": "Terrasoft.Core.Process.ProcessSchemaTerminateEvent",
          "UId": "68cab0ce-a531-48f0-973e-6c946332a1d1",
          "A2": "TerminateEvent1",
          "A3": "e3a315b4-06cb-4461-bddd-fd76c4fa3fda",
          "A4": "e3a315b4-06cb-4461-bddd-fd76c4fa3fda",
          "A5": "80852c4e-6e90-4769-a5e6-c485d9bc7022",
          "IL2": "7736d9d9-a114-4d8b-8528-0f5e949cd6ad",
          "BL3": "932;184",
          "BL7": "1bd93619-0574-454e-bb4e-cf53b9eb9470",
          "BL8": "e3a315b4-06cb-4461-bddd-fd76c4fa3fda",
          "BN2": "31;31",
          "BO3": true,
          "FC1": []
        },
        {
          "BL1": "Terrasoft.Core.Process.ProcessSchemaStartSignalEvent",
          "UId": "4f1b5382-60a9-45d1-bb1b-5eded0b76959",
          "A2": "StartSignal1",
          "A3": "e3a315b4-06cb-4461-bddd-fd76c4fa3fda",
          "A4": "e3a315b4-06cb-4461-bddd-fd76c4fa3fda",
          "A5": "80852c4e-6e90-4769-a5e6-c485d9bc7022",
          "IL2": "7736d9d9-a114-4d8b-8528-0f5e949cd6ad",
          "IL3": true,
          "BL3": "50;184",
          "BL7": "1129e72f-0e8c-445a-b2ea-463517e86395",
          "BL8": "e3a315b4-06cb-4461-bddd-fd76c4fa3fda",
          "BN2": "31;31",
          "BO3": true,
          "FC1": [
            {
              "BL1": "Terrasoft.Core.Process.ProcessSchemaParameter",
              "UId": "56bba913-76a6-4292-9a7e-4d6b92218f79",
              "A2": "RecordId",
              "A3": "e3a315b4-06cb-4461-bddd-fd76c4fa3fda",
              "A4": "e3a315b4-06cb-4461-bddd-fd76c4fa3fda",
              "IL2": "4f1b5382-60a9-45d1-bb1b-5eded0b76959",
              "L1": "23018567-a13c-4320-8687-fd6f9e3699bd",
              "L8": {
                "GS1": 1,
                "GS2": ""
              }
            }
          ],
          "FC2": "957ee76d-477e-45ee-9d16-38a81b7e5d2c",
          "ED1": false,
          "DZ1": "null",
          "DZ2": false,
          "DZ3": true,
          "DZ5": 2,
          "DZ11": true,
          "DZ12": "{\"$type\":\"System.Collections.ObjectModel.Collection`1[[System.String, mscorlib]], mscorlib\",\"$values\":[\"e412748d-7e84-48aa-9bd1-4872eaa8c78e\"]}",
          "DZ13": "{\"className\":\"Terrasoft.FilterGroup\",\"serializedFilterEditData\":\"{\\\"className\\\":\\\"Terrasoft.FilterGroup\\\",\\\"items\\\":{},\\\"logicalOperation\\\":0,\\\"isEnabled\\\":true,\\\"filterType\\\":6,\\\"rootSchemaName\\\":\\\"WatFinalizationTasks\\\",\\\"key\\\":\\\"\\\"}\",\"dataSourceFilters\":\"{\\\"items\\\":{},\\\"logicalOperation\\\":0,\\\"isEnabled\\\":true,\\\"filterType\\\":6,\\\"rootSchemaName\\\":\\\"WatFinalizationTasks\\\"}\"}"
        },
        {
          "BL1": "Terrasoft.Core.Process.ProcessSchemaFormulaTask",
          "UId": "d71b93a2-7450-4660-ae87-affe067c371f",
          "A2": "FormulaTask1",
          "A3": "e3a315b4-06cb-4461-bddd-fd76c4fa3fda",
          "A4": "e3a315b4-06cb-4461-bddd-fd76c4fa3fda",
          "A5": "80852c4e-6e90-4769-a5e6-c485d9bc7022",
          "IL2": "7736d9d9-a114-4d8b-8528-0f5e949cd6ad",
          "BL3": "150;172",
          "BL7": "d334d28f-b11a-477e-9ff0-0a95fa73d53b",
          "BL8": "e3a315b4-06cb-4461-bddd-fd76c4fa3fda",
          "BN2": "69;55",
          "BO3": true,
          "BP2": [],
          "CL2": "FFFFFFFF",
          "CH1": "[#[IsOwnerSchema:false].[IsSchema:false].[Element:{4f1b5382-60a9-45d1-bb1b-5eded0b76959}].[Parameter:{56bba913-76a6-4292-9a7e-4d6b92218f79}]#]",
          "HS1": "7e6ac4d3-2fc6-4dcd-954d-948b836b5ebc"
        },
        {
          "BL1": "Terrasoft.Core.Process.ProcessSchemaUserTask",
          "UId": "d8f66203-d134-4aa6-a267-2de1118f1b0e",
          "A2": "ChangeDataUserTask1",
          "A3": "e3a315b4-06cb-4461-bddd-fd76c4fa3fda",
          "A4": "e3a315b4-06cb-4461-bddd-fd76c4fa3fda",
          "A5": "80852c4e-6e90-4769-a5e6-c485d9bc7022",
          "IL2": "7736d9d9-a114-4d8b-8528-0f5e949cd6ad",
          "BL3": "293;172",
          "BL7": "d3021ca7-7450-4678-a117-060171eb2976",
          "BL8": "e3a315b4-06cb-4461-bddd-fd76c4fa3fda",
          "BN2": "69;55",
          "BO3": true,
          "BP2": [
            {
              "BL1": "Terrasoft.Core.Process.ProcessSchemaParameter",
              "UId": "70873c4c-ba37-4493-9ed0-84d4d21433c1",
              "A2": "EntitySchemaUId",
              "A3": "d3021ca7-7450-4678-a117-060171eb2976",
              "A4": "d3021ca7-7450-4678-a117-060171eb2976",
              "A5": "66e9e705-64b4-4dda-925e-d1e05a389eb6",
              "IL2": "d8f66203-d134-4aa6-a267-2de1118f1b0e",
              "L1": "b295071f-7ea9-4e62-8d1a-919bf3732ff2",
              "L8": {
                "GS1": 1,
                "GS2": "957ee76d-477e-45ee-9d16-38a81b7e5d2c",
                "GS5": "e3a315b4-06cb-4461-bddd-fd76c4fa3fda"
              }
            },
            {
              "BL1": "Terrasoft.Core.Process.ProcessSchemaParameter",
              "UId": "54368168-dba0-4ffd-a917-a8e148b738c2",
              "A2": "IsMatchConditions",
              "A3": "d3021ca7-7450-4678-a117-060171eb2976",
              "A4": "d3021ca7-7450-4678-a117-060171eb2976",
              "A5": "66e9e705-64b4-4dda-925e-d1e05a389eb6",
              "IL2": "d8f66203-d134-4aa6-a267-2de1118f1b0e",
              "L1": "90b65bf8-0ffc-4141-8779-2420877af907",
              "L8": {
                "GS1": 3,
                "GS2": "true",
                "GS5": "d3021ca7-7450-4678-a117-060171eb2976"
              }
            },
            {
              "BL1": "Terrasoft.Core.Process.ProcessSchemaParameter",
              "UId": "779dd1bb-813b-4d54-b218-7bffd1cf821c",
              "A2": "DataSourceFilters",
              "A3": "d3021ca7-7450-4678-a117-060171eb2976",
              "A4": "d3021ca7-7450-4678-a117-060171eb2976",
              "A5": "66e9e705-64b4-4dda-925e-d1e05a389eb6",
              "IL2": "d8f66203-d134-4aa6-a267-2de1118f1b0e",
              "L1": "394e160f-c8e0-46fa-9c0d-75d97e9e9169",
              "L8": {
                "GS1": 1,
                "GS2": "{\"className\":\"Terrasoft.FilterGroup\",\"serializedFilterEditData\":\"{\\\"className\\\":\\\"Terrasoft.FilterGroup\\\",\\\"items\\\":{\\\"3b8d6cc7-4b6f-4fd8-a4b0-bda7e5d40a7f\\\":{\\\"className\\\":\\\"Terrasoft.CompareFilter\\\",\\\"filterType\\\":1,\\\"comparisonType\\\":3,\\\"isEnabled\\\":true,\\\"trimDateTimeParameterToDate\\\":false,\\\"leftExpression\\\":{\\\"className\\\":\\\"Terrasoft.ColumnExpression\\\",\\\"expressionType\\\":0,\\\"columnPath\\\":\\\"Id\\\"},\\\"isAggregative\\\":false,\\\"key\\\":\\\"3b8d6cc7-4b6f-4fd8-a4b0-bda7e5d40a7f\\\",\\\"dataValueType\\\":0,\\\"leftExpressionCaption\\\":\\\"Id\\\",\\\"rightExpression\\\":{\\\"className\\\":\\\"Terrasoft.ParameterExpression\\\",\\\"expressionType\\\":2,\\\"parameter\\\":{\\\"className\\\":\\\"Terrasoft.Parameter\\\",\\\"dataValueType\\\":26,\\\"value\\\":{\\\"value\\\":\\\"[IsOwnerSchema:false].[IsSchema:false].[Parameter:{7e6ac4d3-2fc6-4dcd-954d-948b836b5ebc}]\\\",\\\"displayValue\\\":\\\"FinTaskId\\\"}}}}},\\\"logicalOperation\\\":0,\\\"isEnabled\\\":true,\\\"filterType\\\":6,\\\"rootSchemaName\\\":\\\"WatFinalizationTasks\\\",\\\"key\\\":\\\"\\\"}\",\"dataSourceFilters\":\"{\\\"items\\\":{\\\"3b8d6cc7-4b6f-4fd8-a4b0-bda7e5d40a7f\\\":{\\\"filterType\\\":1,\\\"comparisonType\\\":3,\\\"isEnabled\\\":true,\\\"trimDateTimeParameterToDate\\\":false,\\\"leftExpression\\\":{\\\"expressionType\\\":0,\\\"columnPath\\\":\\\"Id\\\"},\\\"rightExpression\\\":{\\\"expressionType\\\":2,\\\"parameter\\\":{\\\"dataValueType\\\":26,\\\"value\\\":{\\\"value\\\":\\\"[IsOwnerSchema:false].[IsSchema:false].[Parameter:{7e6ac4d3-2fc6-4dcd-954d-948b836b5ebc}]\\\"}}}}},\\\"logicalOperation\\\":0,\\\"isEnabled\\\":true,\\\"filterType\\\":6,\\\"rootSchemaName\\\":\\\"WatFinalizationTasks\\\"}\"}",
                "GS5": "e3a315b4-06cb-4461-bddd-fd76c4fa3fda"
              }
            },
            {
              "BL1": "Terrasoft.Core.Process.ProcessSchemaParameter",
              "UId": "3406e14d-e261-46f1-a21c-54ffc65dcce7",
              "A2": "RecordColumnValues",
              "A3": "d3021ca7-7450-4678-a117-060171eb2976",
              "A4": "d3021ca7-7450-4678-a117-060171eb2976",
              "A5": "66e9e705-64b4-4dda-925e-d1e05a389eb6",
              "IL2": "d8f66203-d134-4aa6-a267-2de1118f1b0e",
              "L1": "b53eaa2a-4bb7-4a6b-9f4f-58ccab293e31",
              "L8": {
                "GS1": 1,
                "GS2": "{\"$type\":\"Terrasoft.Core.Process.LocalizableParameterValuesList, Terrasoft.Core\",\"$values\":[{\"ItemUId\":\"a6c0f381-be60-4352-9651-9555f3325c2e\",\"columnMetaPath\":{\"value\":\"c8bcb027-e66a-41c6-9952-845c9d9fe0a1\"},\"schemaUId\":{\"value\":\"957ee76d-477e-45ee-9d16-38a81b7e5d2c\"},\"value\":{\"value\":\"[#SysVariable.CurrentUserContact#]\"},\"displayValue\":{\"value\":\"[#System variable.Current user contact#]\"},\"parameterValue\":{\"value\":\"{\\\"$type\\\":\\\"Terrasoft.Core.Process.ProcessSchemaParameterValue, Terrasoft.Core\\\",\\\"Source\\\":3,\\\"DisplayValue\\\":\\\"\\\",\\\"Value\\\":\\\"\\\",\\\"MetaPath\\\":null,\\\"MetaDataValue\\\":null,\\\"ModifiedInSchemaUId\\\":\\\"00000000-0000-0000-0000-000000000000\\\",\\\"SchemaUId\\\":\\\"00000000-0000-0000-0000-000000000000\\\",\\\"SchemaManagerName\\\":\\\"\\\",\\\"DataValueTypeUId\\\":\\\"b295071f-7ea9-4e62-8d1a-919bf3732ff2\\\",\\\"ReferenceSchemaUId\\\":\\\"16be3651-8fe2-4159-8dd0-a803d4683dd3\\\",\\\"ResourceItemName\\\":null}\"}},{\"ItemUId\":\"673babb8-e5ad-47ca-8afa-77b4ccf876d7\",\"columnMetaPath\":{\"value\":\"fdb94650-72f6-4368-9c80-7bd6ae5bf653\"},\"schemaUId\":{\"value\":\"957ee76d-477e-45ee-9d16-38a81b7e5d2c\"},\"value\":{\"value\":\"[#SysVariable.CurrentDateTime#]\"},\"displayValue\":{\"value\":\"[#System variable.Current Time and Date#]\"},\"parameterValue\":{\"value\":\"{\\\"$type\\\":\\\"Terrasoft.Core.Process.ProcessSchemaParameterValue, Terrasoft.Core\\\",\\\"Source\\\":3,\\\"DisplayValue\\\":\\\"\\\",\\\"Value\\\":\\\"\\\",\\\"MetaPath\\\":null,\\\"MetaDataValue\\\":null,\\\"ModifiedInSchemaUId\\\":\\\"00000000-0000-0000-0000-000000000000\\\",\\\"SchemaUId\\\":\\\"00000000-0000-0000-0000-000000000000\\\",\\\"SchemaManagerName\\\":\\\"\\\",\\\"DataValueTypeUId\\\":\\\"d21e9ef4-c064-4012-b286-fa1a8171da44\\\",\\\"ReferenceSchemaUId\\\":\\\"00000000-0000-0000-0000-000000000000\\\",\\\"ResourceItemName\\\":null}\"}}]}",
                "GS5": "e3a315b4-06cb-4461-bddd-fd76c4fa3fda"
              }
            }
          ],
          "CL2": "FFFFFFFF",
          "J6": "d3021ca7-7450-4678-a117-060171eb2976"
        },
        {
          "BL1": "Terrasoft.Core.Process.ProcessSchemaUserTask",
          "UId": "d19d9641-dc23-41df-b4be-c2de66d04fd4",
          "A2": "ReadDataUserTask3",
          "A3": "e3a315b4-06cb-4461-bddd-fd76c4fa3fda",
          "A4": "e3a315b4-06cb-4461-bddd-fd76c4fa3fda",
          "A5": "80852c4e-6e90-4769-a5e6-c485d9bc7022",
          "IL2": "7736d9d9-a114-4d8b-8528-0f5e949cd6ad",
          "BL3": "444;172",
          "BL7": "cb455b6f-78ff-4b1e-b241-c2bbc0b37e9f",
          "BL8": "e3a315b4-06cb-4461-bddd-fd76c4fa3fda",
          "BN2": "69;55",
          "BO2": true,
          "BO3": true,
          "BP2": [
            {
              "BL1": "Terrasoft.Core.Process.ProcessSchemaParameter",
              "UId": "b18d46d7-f652-441d-8d5d-6438be0faeb2",
              "A2": "DataSourceFilters",
              "A3": "cb455b6f-78ff-4b1e-b241-c2bbc0b37e9f",
              "A4": "cb455b6f-78ff-4b1e-b241-c2bbc0b37e9f",
              "A5": "66e9e705-64b4-4dda-925e-d1e05a389eb6",
              "IL2": "d19d9641-dc23-41df-b4be-c2de66d04fd4",
              "L1": "394e160f-c8e0-46fa-9c0d-75d97e9e9169",
              "L8": {
                "GS1": 1,
                "GS2": "{\"className\":\"Terrasoft.FilterGroup\",\"serializedFilterEditData\":\"{\\\"className\\\":\\\"Terrasoft.FilterGroup\\\",\\\"items\\\":{\\\"f8ba4445-8ac5-4c40-bff8-172ccd33a7f0\\\":{\\\"className\\\":\\\"Terrasoft.CompareFilter\\\",\\\"filterType\\\":1,\\\"comparisonType\\\":3,\\\"isEnabled\\\":true,\\\"trimDateTimeParameterToDate\\\":false,\\\"leftExpression\\\":{\\\"className\\\":\\\"Terrasoft.ColumnExpression\\\",\\\"expressionType\\\":0,\\\"columnPath\\\":\\\"Id\\\"},\\\"isAggregative\\\":false,\\\"key\\\":\\\"f8ba4445-8ac5-4c40-bff8-172ccd33a7f0\\\",\\\"dataValueType\\\":0,\\\"leftExpressionCaption\\\":\\\"Id\\\",\\\"rightExpression\\\":{\\\"className\\\":\\\"Terrasoft.ParameterExpression\\\",\\\"expressionType\\\":2,\\\"parameter\\\":{\\\"className\\\":\\\"Terrasoft.Parameter\\\",\\\"dataValueType\\\":26,\\\"value\\\":{\\\"value\\\":\\\"[IsOwnerSchema:false].[IsSchema:false].[Parameter:{7e6ac4d3-2fc6-4dcd-954d-948b836b5ebc}]\\\",\\\"displayValue\\\":\\\"FinTaskId\\\"}}}}},\\\"logicalOperation\\\":0,\\\"isEnabled\\\":true,\\\"filterType\\\":6,\\\"rootSchemaName\\\":\\\"WatFinalizationTasks\\\",\\\"key\\\":\\\"\\\"}\",\"dataSourceFilters\":\"{\\\"items\\\":{\\\"f8ba4445-8ac5-4c40-bff8-172ccd33a7f0\\\":{\\\"filterType\\\":1,\\\"comparisonType\\\":3,\\\"isEnabled\\\":true,\\\"trimDateTimeParameterToDate\\\":false,\\\"leftExpression\\\":{\\\"expressionType\\\":0,\\\"columnPath\\\":\\\"Id\\\"},\\\"rightExpression\\\":{\\\"expressionType\\\":2,\\\"parameter\\\":{\\\"dataValueType\\\":26,\\\"value\\\":{\\\"value\\\":\\\"[IsOwnerSchema:false].[IsSchema:false].[Parameter:{7e6ac4d3-2fc6-4dcd-954d-948b836b5ebc}]\\\"}}}}},\\\"logicalOperation\\\":0,\\\"isEnabled\\\":true,\\\"filterType\\\":6,\\\"rootSchemaName\\\":\\\"WatFinalizationTasks\\\"}\"}",
                "GS5": "e3a315b4-06cb-4461-bddd-fd76c4fa3fda"
              }
            },
            {
              "BL1": "Terrasoft.Core.Process.ProcessSchemaParameter",
              "UId": "f484daa8-4e6a-41bc-b978-bcad1c002031",
              "A2": "ResultType",
              "A3": "cb455b6f-78ff-4b1e-b241-c2bbc0b37e9f",
              "A4": "cb455b6f-78ff-4b1e-b241-c2bbc0b37e9f",
              "IL2": "d19d9641-dc23-41df-b4be-c2de66d04fd4",
              "L1": "6b6b74e2-820d-490e-a017-2b73d4ccf2b0",
              "L8": {
                "GS1": 1,
                "GS2": "0",
                "GS5": "e3a315b4-06cb-4461-bddd-fd76c4fa3fda"
              }
            },
            {
              "BL1": "Terrasoft.Core.Process.ProcessSchemaParameter",
              "UId": "dbbd6ee2-f234-4937-8431-ef934550aca6",
              "A2": "ReadSomeTopRecords",
              "A3": "cb455b6f-78ff-4b1e-b241-c2bbc0b37e9f",
              "A4": "cb455b6f-78ff-4b1e-b241-c2bbc0b37e9f",
              "IL2": "d19d9641-dc23-41df-b4be-c2de66d04fd4",
              "L1": "90b65bf8-0ffc-4141-8779-2420877af907",
              "L8": {
                "GS1": 1,
                "GS2": "true",
                "GS5": "e3a315b4-06cb-4461-bddd-fd76c4fa3fda"
              }
            },
            {
              "BL1": "Terrasoft.Core.Process.ProcessSchemaParameter",
              "UId": "69ded9d6-1ccd-4759-b60c-7790f52ddb66",
              "A2": "NumberOfRecords",
              "A3": "cb455b6f-78ff-4b1e-b241-c2bbc0b37e9f",
              "A4": "cb455b6f-78ff-4b1e-b241-c2bbc0b37e9f",
              "IL2": "d19d9641-dc23-41df-b4be-c2de66d04fd4",
              "L1": "6b6b74e2-820d-490e-a017-2b73d4ccf2b0",
              "L8": {
                "GS1": 1,
                "GS2": "50",
                "GS5": "e3a315b4-06cb-4461-bddd-fd76c4fa3fda"
              }
            },
            {
              "BL1": "Terrasoft.Core.Process.ProcessSchemaParameter",
              "UId": "db964310-3927-44f0-a533-af9ffc43653f",
              "A2": "FunctionType",
              "A3": "cb455b6f-78ff-4b1e-b241-c2bbc0b37e9f",
              "A4": "cb455b6f-78ff-4b1e-b241-c2bbc0b37e9f",
              "IL2": "d19d9641-dc23-41df-b4be-c2de66d04fd4",
              "L1": "6b6b74e2-820d-490e-a017-2b73d4ccf2b0",
              "L8": {
                "GS1": 1,
                "GS2": "0",
                "GS5": "e3a315b4-06cb-4461-bddd-fd76c4fa3fda"
              }
            },
            {
              "BL1": "Terrasoft.Core.Process.ProcessSchemaParameter",
              "UId": "8af2855b-acbc-41cc-a5e4-745b5356eefe",
              "A2": "AggregationColumnName",
              "A3": "cb455b6f-78ff-4b1e-b241-c2bbc0b37e9f",
              "A4": "cb455b6f-78ff-4b1e-b241-c2bbc0b37e9f",
              "IL2": "d19d9641-dc23-41df-b4be-c2de66d04fd4",
              "L1": "394e160f-c8e0-46fa-9c0d-75d97e9e9169",
              "L8": {
                "GS2": ""
              }
            },
            {
              "BL1": "Terrasoft.Core.Process.ProcessSchemaParameter",
              "UId": "4887ac47-3e4d-4da1-88fb-ffa494f48064",
              "A2": "OrderInfo",
              "A3": "cb455b6f-78ff-4b1e-b241-c2bbc0b37e9f",
              "A4": "cb455b6f-78ff-4b1e-b241-c2bbc0b37e9f",
              "IL2": "d19d9641-dc23-41df-b4be-c2de66d04fd4",
              "L1": "394e160f-c8e0-46fa-9c0d-75d97e9e9169",
              "L8": {
                "GS5": "e3a315b4-06cb-4461-bddd-fd76c4fa3fda"
              }
            },
            {
              "BL1": "Terrasoft.Core.Process.ProcessSchemaParameter",
              "UId": "75049b31-a971-4c42-8d5b-3fa1d261bf06",
              "A2": "ResultEntity",
              "A3": "cb455b6f-78ff-4b1e-b241-c2bbc0b37e9f",
              "A4": "cb455b6f-78ff-4b1e-b241-c2bbc0b37e9f",
              "A5": "66e9e705-64b4-4dda-925e-d1e05a389eb6",
              "IL2": "d19d9641-dc23-41df-b4be-c2de66d04fd4",
              "L1": "ebd85d37-0abf-4bbf-bb32-97dc3dffcc8c",
              "L8": {
                "GS1": 1,
                "GS5": "e3a315b4-06cb-4461-bddd-fd76c4fa3fda"
              },
              "L9": "957ee76d-477e-45ee-9d16-38a81b7e5d2c",
              "L13": true
            },
            {
              "BL1": "Terrasoft.Core.Process.ProcessSchemaParameter",
              "UId": "35114a24-21fd-4218-b59f-f968de76f1f4",
              "A2": "ResultCount",
              "A3": "cb455b6f-78ff-4b1e-b241-c2bbc0b37e9f",
              "A4": "cb455b6f-78ff-4b1e-b241-c2bbc0b37e9f",
              "IL2": "d19d9641-dc23-41df-b4be-c2de66d04fd4",
              "L1": "6b6b74e2-820d-490e-a017-2b73d4ccf2b0",
              "L8": {
                "GS2": ""
              }
            },
            {
              "BL1": "Terrasoft.Core.Process.ProcessSchemaParameter",
              "UId": "8e14a062-7750-47e7-af21-75abcae8eb2b",
              "A2": "ResultIntegerFunction",
              "A3": "cb455b6f-78ff-4b1e-b241-c2bbc0b37e9f",
              "A4": "cb455b6f-78ff-4b1e-b241-c2bbc0b37e9f",
              "IL2": "d19d9641-dc23-41df-b4be-c2de66d04fd4",
              "L1": "6b6b74e2-820d-490e-a017-2b73d4ccf2b0",
              "L8": {
                "GS2": ""
              }
            },
            {
              "BL1": "Terrasoft.Core.Process.ProcessSchemaParameter",
              "UId": "de86b096-7667-4661-8a9b-80e81547f4e7",
              "A2": "ResultFloatFunction",
              "A3": "cb455b6f-78ff-4b1e-b241-c2bbc0b37e9f",
              "A4": "cb455b6f-78ff-4b1e-b241-c2bbc0b37e9f",
              "IL2": "d19d9641-dc23-41df-b4be-c2de66d04fd4",
              "L1": "ff22e049-4d16-46ee-a529-92d8808932dc",
              "L8": {
                "GS2": ""
              }
            },
            {
              "BL1": "Terrasoft.Core.Process.ProcessSchemaParameter",
              "UId": "b87a1959-98ba-4cac-ab7d-a7deb315d47d",
              "A2": "ResultDateTimeFunction",
              "A3": "cb455b6f-78ff-4b1e-b241-c2bbc0b37e9f",
              "A4": "cb455b6f-78ff-4b1e-b241-c2bbc0b37e9f",
              "IL2": "d19d9641-dc23-41df-b4be-c2de66d04fd4",
              "L1": "d21e9ef4-c064-4012-b286-fa1a8171da44",
              "L8": {
                "GS2": ""
              }
            },
            {
              "BL1": "Terrasoft.Core.Process.ProcessSchemaParameter",
              "UId": "81aaf844-29c5-4454-aa25-e9704ad546af",
              "A2": "ResultRowsCount",
              "A3": "cb455b6f-78ff-4b1e-b241-c2bbc0b37e9f",
              "A4": "cb455b6f-78ff-4b1e-b241-c2bbc0b37e9f",
              "IL2": "d19d9641-dc23-41df-b4be-c2de66d04fd4",
              "L1": "6b6b74e2-820d-490e-a017-2b73d4ccf2b0",
              "L8": {
                "GS2": ""
              }
            },
            {
              "BL1": "Terrasoft.Core.Process.ProcessSchemaParameter",
              "UId": "6072ab6e-7d51-4589-8e19-b710604fc5b9",
              "A2": "CanReadUncommitedData",
              "A3": "cb455b6f-78ff-4b1e-b241-c2bbc0b37e9f",
              "A4": "cb455b6f-78ff-4b1e-b241-c2bbc0b37e9f",
              "IL2": "d19d9641-dc23-41df-b4be-c2de66d04fd4",
              "L1": "90b65bf8-0ffc-4141-8779-2420877af907",
              "L8": {
                "GS1": 1,
                "GS2": "true",
                "GS5": "cb455b6f-78ff-4b1e-b241-c2bbc0b37e9f"
              }
            },
            {
              "BL1": "Terrasoft.Core.Process.ProcessSchemaParameter",
              "UId": "6261bbde-b0cc-4e7b-b9a0-de0a533eef98",
              "A2": "ResultEntityCollection",
              "A3": "cb455b6f-78ff-4b1e-b241-c2bbc0b37e9f",
              "A4": "cb455b6f-78ff-4b1e-b241-c2bbc0b37e9f",
              "IL2": "d19d9641-dc23-41df-b4be-c2de66d04fd4",
              "L1": "51fb23ba-3eb2-11e2-b7d5-b0c76188709b",
              "L8": {
                "GS2": ""
              }
            },
            {
              "BL1": "Terrasoft.Core.Process.ProcessSchemaParameter",
              "UId": "75e07869-81da-43f1-b243-9f10de71ce25",
              "A2": "EntityColumnMetaPathes",
              "A3": "cb455b6f-78ff-4b1e-b241-c2bbc0b37e9f",
              "A4": "cb455b6f-78ff-4b1e-b241-c2bbc0b37e9f",
              "IL2": "d19d9641-dc23-41df-b4be-c2de66d04fd4",
              "L1": "394e160f-c8e0-46fa-9c0d-75d97e9e9169",
              "L8": {
                "GS1": 1,
                "GS2": "093e9790-b19f-4944-bc92-63a9a2fd2ef9",
                "GS5": "e3a315b4-06cb-4461-bddd-fd76c4fa3fda"
              }
            },
            {
              "BL1": "Terrasoft.Core.Process.ProcessSchemaParameter",
              "UId": "6457973b-7614-4672-8b29-a7ac5e36e37a",
              "A2": "IgnoreDisplayValues",
              "A3": "cb455b6f-78ff-4b1e-b241-c2bbc0b37e9f",
              "A4": "cb455b6f-78ff-4b1e-b241-c2bbc0b37e9f",
              "IL2": "d19d9641-dc23-41df-b4be-c2de66d04fd4",
              "L1": "90b65bf8-0ffc-4141-8779-2420877af907",
              "L8": {
                "GS2": ""
              }
            },
            {
              "BL1": "Terrasoft.Core.Process.ProcessSchemaParameter",
              "UId": "a19170e2-dc05-47ce-97eb-f5f9252a76ec",
              "A2": "ResultCompositeObjectList",
              "A3": "cb455b6f-78ff-4b1e-b241-c2bbc0b37e9f",
              "A4": "cb455b6f-78ff-4b1e-b241-c2bbc0b37e9f",
              "IL2": "d19d9641-dc23-41df-b4be-c2de66d04fd4",
              "L1": "651ec16f-d140-46db-b9e2-825c985a8ac2",
              "L8": {
                "GS2": ""
              }
            },
            {
              "BL1": "Terrasoft.Core.Process.ProcessSchemaParameter",
              "UId": "5581a192-775b-464f-a577-ec6470f92505",
              "A2": "ConsiderTimeInFilter",
              "A3": "cb455b6f-78ff-4b1e-b241-c2bbc0b37e9f",
              "A4": "cb455b6f-78ff-4b1e-b241-c2bbc0b37e9f",
              "IL2": "d19d9641-dc23-41df-b4be-c2de66d04fd4",
              "L1": "90b65bf8-0ffc-4141-8779-2420877af907",
              "L8": {
                "GS1": 3,
                "GS2": "false",
                "GS5": "cb455b6f-78ff-4b1e-b241-c2bbc0b37e9f"
              }
            }
          ],
          "CL2": "FFFFFFFF",
          "J6": "cb455b6f-78ff-4b1e-b241-c2bbc0b37e9f"
        },
        {
          "BL1": "Terrasoft.Core.Process.ProcessSchemaUserTask",
          "UId": "02ddea15-63bc-4b66-9b1b-c59daffd9921",
          "A2": "ReadDataUserTask4",
          "A3": "e3a315b4-06cb-4461-bddd-fd76c4fa3fda",
          "A4": "e3a315b4-06cb-4461-bddd-fd76c4fa3fda",
          "A5": "80852c4e-6e90-4769-a5e6-c485d9bc7022",
          "IL2": "7736d9d9-a114-4d8b-8528-0f5e949cd6ad",
          "BL3": "597;172",
          "BL7": "cb455b6f-78ff-4b1e-b241-c2bbc0b37e9f",
          "BL8": "e3a315b4-06cb-4461-bddd-fd76c4fa3fda",
          "BN2": "69;55",
          "BO2": true,
          "BO3": true,
          "BP2": [
            {
              "BL1": "Terrasoft.Core.Process.ProcessSchemaParameter",
              "UId": "b4b63c75-9013-4f7b-a287-dcf852d0330e",
              "A2": "DataSourceFilters",
              "A3": "cb455b6f-78ff-4b1e-b241-c2bbc0b37e9f",
              "A4": "cb455b6f-78ff-4b1e-b241-c2bbc0b37e9f",
              "A5": "66e9e705-64b4-4dda-925e-d1e05a389eb6",
              "IL2": "02ddea15-63bc-4b66-9b1b-c59daffd9921",
              "L1": "394e160f-c8e0-46fa-9c0d-75d97e9e9169",
              "L8": {
                "GS1": 1,
                "GS2": "{\"className\":\"Terrasoft.FilterGroup\",\"serializedFilterEditData\":\"{\\\"className\\\":\\\"Terrasoft.FilterGroup\\\",\\\"items\\\":{\\\"f8d2526f-4c3c-4b70-8a48-aa1f6501631e\\\":{\\\"className\\\":\\\"Terrasoft.InFilter\\\",\\\"filterType\\\":4,\\\"comparisonType\\\":3,\\\"isEnabled\\\":true,\\\"trimDateTimeParameterToDate\\\":false,\\\"leftExpression\\\":{\\\"className\\\":\\\"Terrasoft.ColumnExpression\\\",\\\"expressionType\\\":0,\\\"columnPath\\\":\\\"WatAgreement\\\"},\\\"isAggregative\\\":false,\\\"key\\\":\\\"f8d2526f-4c3c-4b70-8a48-aa1f6501631e\\\",\\\"dataValueType\\\":10,\\\"leftExpressionCaption\\\":\\\"Agreement\\\",\\\"referenceSchemaName\\\":\\\"WatAgreement\\\",\\\"rightExpressions\\\":[{\\\"className\\\":\\\"Terrasoft.ParameterExpression\\\",\\\"expressionType\\\":2,\\\"parameter\\\":{\\\"className\\\":\\\"Terrasoft.Parameter\\\",\\\"dataValueType\\\":26,\\\"value\\\":{\\\"value\\\":\\\"[IsOwnerSchema:false].[IsSchema:false].[Element:{d19d9641-dc23-41df-b4be-c2de66d04fd4}].[Parameter:{75049b31-a971-4c42-8d5b-3fa1d261bf06}].[EntityColumn:{093e9790-b19f-4944-bc92-63a9a2fd2ef9}]\\\",\\\"displayValue\\\":\\\"RD Fin Task.First item of resulting collection.Agreement\\\",\\\"Id\\\":\\\"035a5b2c-49d4-4080-9ef5-a8203d6fbab6\\\"}}}]},\\\"75f3d675-c8e4-42e3-adde-7e7b31153b50\\\":{\\\"className\\\":\\\"Terrasoft.CompareFilter\\\",\\\"filterType\\\":1,\\\"comparisonType\\\":3,\\\"isEnabled\\\":true,\\\"trimDateTimeParameterToDate\\\":false,\\\"leftExpression\\\":{\\\"className\\\":\\\"Terrasoft.ColumnExpression\\\",\\\"expressionType\\\":0,\\\"columnPath\\\":\\\"WatCompleted\\\"},\\\"isAggregative\\\":false,\\\"key\\\":\\\"75f3d675-c8e4-42e3-adde-7e7b31153b50\\\",\\\"dataValueType\\\":12,\\\"leftExpressionCaption\\\":\\\"Completed\\\",\\\"rightExpression\\\":{\\\"className\\\":\\\"Terrasoft.ParameterExpression\\\",\\\"expressionType\\\":2,\\\"parameter\\\":{\\\"className\\\":\\\"Terrasoft.Parameter\\\",\\\"dataValueType\\\":12,\\\"value\\\":false}}}},\\\"logicalOperation\\\":0,\\\"isEnabled\\\":true,\\\"filterType\\\":6,\\\"rootSchemaName\\\":\\\"WatFinalizationTasks\\\",\\\"key\\\":\\\"\\\"}\",\"dataSourceFilters\":\"{\\\"items\\\":{\\\"f8d2526f-4c3c-4b70-8a48-aa1f6501631e\\\":{\\\"filterType\\\":4,\\\"comparisonType\\\":3,\\\"isEnabled\\\":true,\\\"trimDateTimeParameterToDate\\\":false,\\\"leftExpression\\\":{\\\"expressionType\\\":0,\\\"columnPath\\\":\\\"WatAgreement\\\"},\\\"rightExpressions\\\":[{\\\"expressionType\\\":2,\\\"parameter\\\":{\\\"dataValueType\\\":26,\\\"value\\\":{\\\"value\\\":\\\"[IsOwnerSchema:false].[IsSchema:false].[Element:{d19d9641-dc23-41df-b4be-c2de66d04fd4}].[Parameter:{75049b31-a971-4c42-8d5b-3fa1d261bf06}].[EntityColumn:{093e9790-b19f-4944-bc92-63a9a2fd2ef9}]\\\",\\\"Id\\\":\\\"035a5b2c-49d4-4080-9ef5-a8203d6fbab6\\\"}}}]},\\\"75f3d675-c8e4-42e3-adde-7e7b31153b50\\\":{\\\"filterType\\\":1,\\\"comparisonType\\\":3,\\\"isEnabled\\\":true,\\\"trimDateTimeParameterToDate\\\":false,\\\"leftExpression\\\":{\\\"expressionType\\\":0,\\\"columnPath\\\":\\\"WatCompleted\\\"},\\\"rightExpression\\\":{\\\"expressionType\\\":2,\\\"parameter\\\":{\\\"dataValueType\\\":12,\\\"value\\\":false}}}},\\\"logicalOperation\\\":0,\\\"isEnabled\\\":true,\\\"filterType\\\":6,\\\"rootSchemaName\\\":\\\"WatFinalizationTasks\\\"}\"}",
                "GS5": "e3a315b4-06cb-4461-bddd-fd76c4fa3fda"
              }
            },
            {
              "BL1": "Terrasoft.Core.Process.ProcessSchemaParameter",
              "UId": "aa3a5a8a-b73e-4d44-b3ab-89a966fa8d36",
              "A2": "ResultType",
              "A3": "cb455b6f-78ff-4b1e-b241-c2bbc0b37e9f",
              "A4": "cb455b6f-78ff-4b1e-b241-c2bbc0b37e9f",
              "IL2": "02ddea15-63bc-4b66-9b1b-c59daffd9921",
              "L1": "6b6b74e2-820d-490e-a017-2b73d4ccf2b0",
              "L8": {
                "GS1": 1,
                "GS2": "1",
                "GS5": "e3a315b4-06cb-4461-bddd-fd76c4fa3fda"
              }
            },
            {
              "BL1": "Terrasoft.Core.Process.ProcessSchemaParameter",
              "UId": "97d5cf55-3f8b-4894-bc8e-415f7c2394e0",
              "A2": "ReadSomeTopRecords",
              "A3": "cb455b6f-78ff-4b1e-b241-c2bbc0b37e9f",
              "A4": "cb455b6f-78ff-4b1e-b241-c2bbc0b37e9f",
              "IL2": "02ddea15-63bc-4b66-9b1b-c59daffd9921",
              "L1": "90b65bf8-0ffc-4141-8779-2420877af907",
              "L8": {
                "GS1": 1,
                "GS2": "true",
                "GS5": "e3a315b4-06cb-4461-bddd-fd76c4fa3fda"
              }
            },
            {
              "BL1": "Terrasoft.Core.Process.ProcessSchemaParameter",
              "UId": "855899fd-454c-4907-b092-741c0fbecdf0",
              "A2": "NumberOfRecords",
              "A3": "cb455b6f-78ff-4b1e-b241-c2bbc0b37e9f",
              "A4": "cb455b6f-78ff-4b1e-b241-c2bbc0b37e9f",
              "IL2": "02ddea15-63bc-4b66-9b1b-c59daffd9921",
              "L1": "6b6b74e2-820d-490e-a017-2b73d4ccf2b0",
              "L8": {
                "GS1": 1,
                "GS2": "50",
                "GS5": "e3a315b4-06cb-4461-bddd-fd76c4fa3fda"
              }
            },
            {
              "BL1": "Terrasoft.Core.Process.ProcessSchemaParameter",
              "UId": "fcde7a50-c31a-409b-8636-2437f0eebad1",
              "A2": "FunctionType",
              "A3": "cb455b6f-78ff-4b1e-b241-c2bbc0b37e9f",
              "A4": "cb455b6f-78ff-4b1e-b241-c2bbc0b37e9f",
              "IL2": "02ddea15-63bc-4b66-9b1b-c59daffd9921",
              "L1": "6b6b74e2-820d-490e-a017-2b73d4ccf2b0",
              "L8": {
                "GS1": 1,
                "GS2": "0",
                "GS5": "e3a315b4-06cb-4461-bddd-fd76c4fa3fda"
              }
            },
            {
              "BL1": "Terrasoft.Core.Process.ProcessSchemaParameter",
              "UId": "cac8ea8b-b74a-4f73-82fa-6d40e2105837",
              "A2": "AggregationColumnName",
              "A3": "cb455b6f-78ff-4b1e-b241-c2bbc0b37e9f",
              "A4": "cb455b6f-78ff-4b1e-b241-c2bbc0b37e9f",
              "IL2": "02ddea15-63bc-4b66-9b1b-c59daffd9921",
              "L1": "394e160f-c8e0-46fa-9c0d-75d97e9e9169",
              "L8": {
                "GS2": ""
              }
            },
            {
              "BL1": "Terrasoft.Core.Process.ProcessSchemaParameter",
              "UId": "f40dd359-cf80-4e5b-9cda-16c54e4ffeca",
              "A2": "OrderInfo",
              "A3": "cb455b6f-78ff-4b1e-b241-c2bbc0b37e9f",
              "A4": "cb455b6f-78ff-4b1e-b241-c2bbc0b37e9f",
              "IL2": "02ddea15-63bc-4b66-9b1b-c59daffd9921",
              "L1": "394e160f-c8e0-46fa-9c0d-75d97e9e9169",
              "L8": {
                "GS2": ""
              }
            },
            {
              "BL1": "Terrasoft.Core.Process.ProcessSchemaParameter",
              "UId": "e0898726-3a38-4aec-b7b8-8cd0ff324838",
              "A2": "ResultEntity",
              "A3": "cb455b6f-78ff-4b1e-b241-c2bbc0b37e9f",
              "A4": "cb455b6f-78ff-4b1e-b241-c2bbc0b37e9f",
              "A5": "66e9e705-64b4-4dda-925e-d1e05a389eb6",
              "IL2": "02ddea15-63bc-4b66-9b1b-c59daffd9921",
              "L1": "ebd85d37-0abf-4bbf-bb32-97dc3dffcc8c",
              "L8": {
                "GS1": 1,
                "GS5": "e3a315b4-06cb-4461-bddd-fd76c4fa3fda"
              },
              "L9": "957ee76d-477e-45ee-9d16-38a81b7e5d2c"
            },
            {
              "BL1": "Terrasoft.Core.Process.ProcessSchemaParameter",
              "UId": "41feba7a-6ee7-4125-b0b8-6d5e11c4aaea",
              "A2": "ResultCount",
              "A3": "cb455b6f-78ff-4b1e-b241-c2bbc0b37e9f",
              "A4": "cb455b6f-78ff-4b1e-b241-c2bbc0b37e9f",
              "IL2": "02ddea15-63bc-4b66-9b1b-c59daffd9921",
              "L1": "6b6b74e2-820d-490e-a017-2b73d4ccf2b0",
              "L8": {
                "GS2": ""
              }
            },
            {
              "BL1": "Terrasoft.Core.Process.ProcessSchemaParameter",
              "UId": "4f0e3961-0e7d-4535-9cd3-f74e088be551",
              "A2": "ResultIntegerFunction",
              "A3": "cb455b6f-78ff-4b1e-b241-c2bbc0b37e9f",
              "A4": "cb455b6f-78ff-4b1e-b241-c2bbc0b37e9f",
              "IL2": "02ddea15-63bc-4b66-9b1b-c59daffd9921",
              "L1": "6b6b74e2-820d-490e-a017-2b73d4ccf2b0",
              "L8": {
                "GS2": ""
              }
            },
            {
              "BL1": "Terrasoft.Core.Process.ProcessSchemaParameter",
              "UId": "ed2dc652-de1f-4cea-8a02-dfd11badb8e8",
              "A2": "ResultFloatFunction",
              "A3": "cb455b6f-78ff-4b1e-b241-c2bbc0b37e9f",
              "A4": "cb455b6f-78ff-4b1e-b241-c2bbc0b37e9f",
              "IL2": "02ddea15-63bc-4b66-9b1b-c59daffd9921",
              "L1": "ff22e049-4d16-46ee-a529-92d8808932dc",
              "L8": {
                "GS2": ""
              }
            },
            {
              "BL1": "Terrasoft.Core.Process.ProcessSchemaParameter",
              "UId": "91e62237-cea0-4e38-8701-7591ffab6f4c",
              "A2": "ResultDateTimeFunction",
              "A3": "cb455b6f-78ff-4b1e-b241-c2bbc0b37e9f",
              "A4": "cb455b6f-78ff-4b1e-b241-c2bbc0b37e9f",
              "IL2": "02ddea15-63bc-4b66-9b1b-c59daffd9921",
              "L1": "d21e9ef4-c064-4012-b286-fa1a8171da44",
              "L8": {
                "GS2": ""
              }
            },
            {
              "BL1": "Terrasoft.Core.Process.ProcessSchemaParameter",
              "UId": "24cad9f5-e42a-450f-823b-24a7faf991da",
              "A2": "ResultRowsCount",
              "A3": "cb455b6f-78ff-4b1e-b241-c2bbc0b37e9f",
              "A4": "cb455b6f-78ff-4b1e-b241-c2bbc0b37e9f",
              "IL2": "02ddea15-63bc-4b66-9b1b-c59daffd9921",
              "L1": "6b6b74e2-820d-490e-a017-2b73d4ccf2b0",
              "L8": {
                "GS2": ""
              }
            },
            {
              "BL1": "Terrasoft.Core.Process.ProcessSchemaParameter",
              "UId": "597da390-d136-4fb3-baf9-304fa8ccd55b",
              "A2": "CanReadUncommitedData",
              "A3": "cb455b6f-78ff-4b1e-b241-c2bbc0b37e9f",
              "A4": "cb455b6f-78ff-4b1e-b241-c2bbc0b37e9f",
              "IL2": "02ddea15-63bc-4b66-9b1b-c59daffd9921",
              "L1": "90b65bf8-0ffc-4141-8779-2420877af907",
              "L8": {
                "GS1": 1,
                "GS2": "true",
                "GS5": "cb455b6f-78ff-4b1e-b241-c2bbc0b37e9f"
              }
            },
            {
              "BL1": "Terrasoft.Core.Process.ProcessSchemaParameter",
              "UId": "97bb5c43-6589-4c57-8038-1aedacee28b2",
              "A2": "ResultEntityCollection",
              "A3": "cb455b6f-78ff-4b1e-b241-c2bbc0b37e9f",
              "A4": "cb455b6f-78ff-4b1e-b241-c2bbc0b37e9f",
              "IL2": "02ddea15-63bc-4b66-9b1b-c59daffd9921",
              "L1": "51fb23ba-3eb2-11e2-b7d5-b0c76188709b",
              "L8": {
                "GS2": ""
              }
            },
            {
              "BL1": "Terrasoft.Core.Process.ProcessSchemaParameter",
              "UId": "36f0efbf-1e13-4723-a57c-ddb434a6fe76",
              "A2": "EntityColumnMetaPathes",
              "A3": "cb455b6f-78ff-4b1e-b241-c2bbc0b37e9f",
              "A4": "cb455b6f-78ff-4b1e-b241-c2bbc0b37e9f",
              "IL2": "02ddea15-63bc-4b66-9b1b-c59daffd9921",
              "L1": "394e160f-c8e0-46fa-9c0d-75d97e9e9169",
              "L8": {
                "GS2": ""
              }
            },
            {
              "BL1": "Terrasoft.Core.Process.ProcessSchemaParameter",
              "UId": "eaffff11-4e18-47b1-a96c-55523761af41",
              "A2": "IgnoreDisplayValues",
              "A3": "cb455b6f-78ff-4b1e-b241-c2bbc0b37e9f",
              "A4": "cb455b6f-78ff-4b1e-b241-c2bbc0b37e9f",
              "IL2": "02ddea15-63bc-4b66-9b1b-c59daffd9921",
              "L1": "90b65bf8-0ffc-4141-8779-2420877af907",
              "L8": {
                "GS2": ""
              }
            },
            {
              "BL1": "Terrasoft.Core.Process.ProcessSchemaParameter",
              "UId": "f850cbaa-c91b-4747-8aab-50437d5174cb",
              "A2": "ResultCompositeObjectList",
              "A3": "cb455b6f-78ff-4b1e-b241-c2bbc0b37e9f",
              "A4": "cb455b6f-78ff-4b1e-b241-c2bbc0b37e9f",
              "IL2": "02ddea15-63bc-4b66-9b1b-c59daffd9921",
              "L1": "651ec16f-d140-46db-b9e2-825c985a8ac2",
              "L8": {
                "GS2": ""
              }
            },
            {
              "BL1": "Terrasoft.Core.Process.ProcessSchemaParameter",
              "UId": "ed2fd709-2897-40aa-960f-5b2332dc92d2",
              "A2": "ConsiderTimeInFilter",
              "A3": "cb455b6f-78ff-4b1e-b241-c2bbc0b37e9f",
              "A4": "cb455b6f-78ff-4b1e-b241-c2bbc0b37e9f",
              "IL2": "02ddea15-63bc-4b66-9b1b-c59daffd9921",
              "L1": "90b65bf8-0ffc-4141-8779-2420877af907",
              "L8": {
                "GS1": 3,
                "GS2": "false",
                "GS5": "cb455b6f-78ff-4b1e-b241-c2bbc0b37e9f"
              }
            }
          ],
          "CL2": "FFFFFFFF",
          "J6": "cb455b6f-78ff-4b1e-b241-c2bbc0b37e9f"
        },
        {
          "BL1": "Terrasoft.Core.Process.ProcessSchemaExclusiveGateway",
          "UId": "6c475906-fe3c-4df2-8468-c26779adbd53",
          "A2": "ExclusiveGateway1",
          "A3": "e3a315b4-06cb-4461-bddd-fd76c4fa3fda",
          "A4": "e3a315b4-06cb-4461-bddd-fd76c4fa3fda",
          "A5": "80852c4e-6e90-4769-a5e6-c485d9bc7022",
          "IL2": "7736d9d9-a114-4d8b-8528-0f5e949cd6ad",
          "BL3": "726;172",
          "BL7": "bd9f7570-6c97-4f16-90e5-663a190c6c7c",
          "BL8": "e3a315b4-06cb-4461-bddd-fd76c4fa3fda",
          "BN2": "55;55",
          "BO3": true,
          "HH2": []
        },
        {
          "BL1": "Terrasoft.Core.Process.ProcessSchemaUserTask",
          "UId": "0b13ca20-b24c-4d75-abdd-45a00b44c4e9",
          "A2": "ChangeDataUserTask2",
          "A3": "e3a315b4-06cb-4461-bddd-fd76c4fa3fda",
          "A4": "e3a315b4-06cb-4461-bddd-fd76c4fa3fda",
          "A5": "80852c4e-6e90-4769-a5e6-c485d9bc7022",
          "IL2": "7736d9d9-a114-4d8b-8528-0f5e949cd6ad",
          "BL3": "719;331",
          "BL7": "d3021ca7-7450-4678-a117-060171eb2976",
          "BL8": "e3a315b4-06cb-4461-bddd-fd76c4fa3fda",
          "BN2": "69;55",
          "BO3": true,
          "BP2": [
            {
              "BL1": "Terrasoft.Core.Process.ProcessSchemaParameter",
              "UId": "fd3802b9-b6a9-4770-90f0-c46a65fe7aee",
              "A2": "EntitySchemaUId",
              "A3": "d3021ca7-7450-4678-a117-060171eb2976",
              "A4": "d3021ca7-7450-4678-a117-060171eb2976",
              "A5": "66e9e705-64b4-4dda-925e-d1e05a389eb6",
              "IL2": "0b13ca20-b24c-4d75-abdd-45a00b44c4e9",
              "L1": "b295071f-7ea9-4e62-8d1a-919bf3732ff2",
              "L8": {
                "GS1": 1,
                "GS2": "320df743-3859-42ab-846e-d598464cd4c4",
                "GS5": "e3a315b4-06cb-4461-bddd-fd76c4fa3fda"
              }
            },
            {
              "BL1": "Terrasoft.Core.Process.ProcessSchemaParameter",
              "UId": "a60a9b3c-0a45-45d7-be04-d653ee1c04db",
              "A2": "IsMatchConditions",
              "A3": "d3021ca7-7450-4678-a117-060171eb2976",
              "A4": "d3021ca7-7450-4678-a117-060171eb2976",
              "A5": "66e9e705-64b4-4dda-925e-d1e05a389eb6",
              "IL2": "0b13ca20-b24c-4d75-abdd-45a00b44c4e9",
              "L1": "90b65bf8-0ffc-4141-8779-2420877af907",
              "L8": {
                "GS1": 3,
                "GS2": "true",
                "GS5": "d3021ca7-7450-4678-a117-060171eb2976"
              }
            },
            {
              "BL1": "Terrasoft.Core.Process.ProcessSchemaParameter",
              "UId": "cd55f0da-2a32-4c0a-82a7-9ee83e91680c",
              "A2": "DataSourceFilters",
              "A3": "d3021ca7-7450-4678-a117-060171eb2976",
              "A4": "d3021ca7-7450-4678-a117-060171eb2976",
              "A5": "66e9e705-64b4-4dda-925e-d1e05a389eb6",
              "IL2": "0b13ca20-b24c-4d75-abdd-45a00b44c4e9",
              "L1": "394e160f-c8e0-46fa-9c0d-75d97e9e9169",
              "L8": {
                "GS1": 1,
                "GS2": "{\"className\":\"Terrasoft.FilterGroup\",\"serializedFilterEditData\":\"{\\\"className\\\":\\\"Terrasoft.FilterGroup\\\",\\\"items\\\":{\\\"0daf4366-1ecc-4afc-bf1d-c25f7c9e6418\\\":{\\\"className\\\":\\\"Terrasoft.CompareFilter\\\",\\\"filterType\\\":1,\\\"comparisonType\\\":3,\\\"isEnabled\\\":true,\\\"trimDateTimeParameterToDate\\\":false,\\\"leftExpression\\\":{\\\"className\\\":\\\"Terrasoft.ColumnExpression\\\",\\\"expressionType\\\":0,\\\"columnPath\\\":\\\"Id\\\"},\\\"isAggregative\\\":false,\\\"key\\\":\\\"0daf4366-1ecc-4afc-bf1d-c25f7c9e6418\\\",\\\"dataValueType\\\":0,\\\"leftExpressionCaption\\\":\\\"Id\\\",\\\"rightExpression\\\":{\\\"className\\\":\\\"Terrasoft.ParameterExpression\\\",\\\"expressionType\\\":2,\\\"parameter\\\":{\\\"className\\\":\\\"Terrasoft.Parameter\\\",\\\"dataValueType\\\":26,\\\"value\\\":{\\\"value\\\":\\\"[IsOwnerSchema:false].[IsSchema:false].[Element:{d19d9641-dc23-41df-b4be-c2de66d04fd4}].[Parameter:{75049b31-a971-4c42-8d5b-3fa1d261bf06}].[EntityColumn:{093e9790-b19f-4944-bc92-63a9a2fd2ef9}]\\\",\\\"displayValue\\\":\\\"RD Fin Task.First item of resulting collection.Agreement\\\"}}}}},\\\"logicalOperation\\\":0,\\\"isEnabled\\\":true,\\\"filterType\\\":6,\\\"rootSchemaName\\\":\\\"WatAgreement\\\",\\\"key\\\":\\\"\\\"}\",\"dataSourceFilters\":\"{\\\"items\\\":{\\\"0daf4366-1ecc-4afc-bf1d-c25f7c9e6418\\\":{\\\"filterType\\\":1,\\\"comparisonType\\\":3,\\\"isEnabled\\\":true,\\\"trimDateTimeParameterToDate\\\":false,\\\"leftExpression\\\":{\\\"expressionType\\\":0,\\\"columnPath\\\":\\\"Id\\\"},\\\"rightExpression\\\":{\\\"expressionType\\\":2,\\\"parameter\\\":{\\\"dataValueType\\\":26,\\\"value\\\":{\\\"value\\\":\\\"[IsOwnerSchema:false].[IsSchema:false].[Element:{d19d9641-dc23-41df-b4be-c2de66d04fd4}].[Parameter:{75049b31-a971-4c42-8d5b-3fa1d261bf06}].[EntityColumn:{093e9790-b19f-4944-bc92-63a9a2fd2ef9}]\\\"}}}}},\\\"logicalOperation\\\":0,\\\"isEnabled\\\":true,\\\"filterType\\\":6,\\\"rootSchemaName\\\":\\\"WatAgreement\\\"}\"}",
                "GS5": "e3a315b4-06cb-4461-bddd-fd76c4fa3fda"
              }
            },
            {
              "BL1": "Terrasoft.Core.Process.ProcessSchemaParameter",
              "UId": "413ff61b-2f70-4646-afd0-a7d9eb4e6b63",
              "A2": "RecordColumnValues",
              "A3": "d3021ca7-7450-4678-a117-060171eb2976",
              "A4": "d3021ca7-7450-4678-a117-060171eb2976",
              "A5": "66e9e705-64b4-4dda-925e-d1e05a389eb6",
              "IL2": "0b13ca20-b24c-4d75-abdd-45a00b44c4e9",
              "L1": "b53eaa2a-4bb7-4a6b-9f4f-58ccab293e31",
              "L8": {
                "GS1": 1,
                "GS2": "{\"$type\":\"Terrasoft.Core.Process.LocalizableParameterValuesList, Terrasoft.Core\",\"$values\":[{\"ItemUId\":\"88e7d064-3120-4f9b-a8ea-7216c8f51ce9\",\"columnMetaPath\":{\"value\":\"9ff9e0a2-bc74-403c-85af-3889f6699bc8\"},\"schemaUId\":{\"value\":\"320df743-3859-42ab-846e-d598464cd4c4\"},\"value\":{\"value\":\"[#BooleanValue.True#]\"},\"displayValue\":{\"value\":\"[#Boolean value.True#]\"},\"parameterValue\":{\"value\":\"{\\\"$type\\\":\\\"Terrasoft.Core.Process.ProcessSchemaParameterValue, Terrasoft.Core\\\",\\\"Source\\\":3,\\\"DisplayValue\\\":\\\"\\\",\\\"Value\\\":\\\"\\\",\\\"MetaPath\\\":null,\\\"MetaDataValue\\\":null,\\\"ModifiedInSchemaUId\\\":\\\"00000000-0000-0000-0000-000000000000\\\",\\\"SchemaUId\\\":\\\"00000000-0000-0000-0000-000000000000\\\",\\\"SchemaManagerName\\\":\\\"\\\",\\\"DataValueTypeUId\\\":\\\"90b65bf8-0ffc-4141-8779-2420877af907\\\",\\\"ReferenceSchemaUId\\\":\\\"00000000-0000-0000-0000-000000000000\\\",\\\"ResourceItemName\\\":null}\"}}]}",
                "GS5": "e3a315b4-06cb-4461-bddd-fd76c4fa3fda"
              }
            }
          ],
          "CL2": "FFFFFFFF",
          "J6": "d3021ca7-7450-4678-a117-060171eb2976"
        },
        {
          "BL1": "Terrasoft.Core.Process.ProcessSchemaTerminateEvent",
          "UId": "76d4785b-c3dd-414c-96e9-a8c713a5d8dd",
          "A2": "TerminateEvent2",
          "A3": "e3a315b4-06cb-4461-bddd-fd76c4fa3fda",
          "A4": "e3a315b4-06cb-4461-bddd-fd76c4fa3fda",
          "A5": "80852c4e-6e90-4769-a5e6-c485d9bc7022",
          "IL2": "7736d9d9-a114-4d8b-8528-0f5e949cd6ad",
          "BL3": "932;343",
          "BL7": "1bd93619-0574-454e-bb4e-cf53b9eb9470",
          "BL8": "e3a315b4-06cb-4461-bddd-fd76c4fa3fda",
          "BN2": "31;31",
          "BO3": true,
          "FC1": []
        },
        {
          "BL1": "Terrasoft.Core.Process.ProcessSchemaSequenceFlow",
          "UId": "6219f7f5-8266-4a9e-9f03-fb89631a32f5",
          "A2": "SequenceFlow1",
          "A3": "e3a315b4-06cb-4461-bddd-fd76c4fa3fda",
          "A4": "e3a315b4-06cb-4461-bddd-fd76c4fa3fda",
          "A5": "80852c4e-6e90-4769-a5e6-c485d9bc7022",
          "BL7": "0d8351f6-c2f4-4737-bdd9-6fbfe0837fec",
          "BL8": "e3a315b4-06cb-4461-bddd-fd76c4fa3fda",
          "CI1": "4f1b5382-60a9-45d1-bb1b-5eded0b76959",
          "CI2": "d71b93a2-7450-4660-ae87-affe067c371f",
          "CI3": "null",
          "CI5": "FF939598",
          "CI6": 1,
          "CI11": "81;200",
          "CI12": "150;200"
        },
        {
          "BL1": "Terrasoft.Core.Process.ProcessSchemaSequenceFlow",
          "UId": "d9264da4-c0b0-47d2-afaa-360b7aa11e9d",
          "A2": "SequenceFlow2",
          "A3": "e3a315b4-06cb-4461-bddd-fd76c4fa3fda",
          "A4": "e3a315b4-06cb-4461-bddd-fd76c4fa3fda",
          "A5": "80852c4e-6e90-4769-a5e6-c485d9bc7022",
          "BL7": "0d8351f6-c2f4-4737-bdd9-6fbfe0837fec",
          "BL8": "e3a315b4-06cb-4461-bddd-fd76c4fa3fda",
          "CI1": "d71b93a2-7450-4660-ae87-affe067c371f",
          "CI2": "d8f66203-d134-4aa6-a267-2de1118f1b0e",
          "CI3": "null",
          "CI5": "FF939598",
          "CI6": 1,
          "CI11": "219;200",
          "CI12": "293;200"
        },
        {
          "BL1": "Terrasoft.Core.Process.ProcessSchemaSequenceFlow",
          "UId": "1458f9a0-d41d-4d49-8f06-62db855d2f97",
          "A2": "SequenceFlow3",
          "A3": "e3a315b4-06cb-4461-bddd-fd76c4fa3fda",
          "A4": "e3a315b4-06cb-4461-bddd-fd76c4fa3fda",
          "A5": "80852c4e-6e90-4769-a5e6-c485d9bc7022",
          "BL7": "0d8351f6-c2f4-4737-bdd9-6fbfe0837fec",
          "BL8": "e3a315b4-06cb-4461-bddd-fd76c4fa3fda",
          "CI1": "d8f66203-d134-4aa6-a267-2de1118f1b0e",
          "CI2": "d19d9641-dc23-41df-b4be-c2de66d04fd4",
          "CI3": "null",
          "CI5": "FF939598",
          "CI6": 1,
          "CI11": "362;200",
          "CI12": "444;200"
        },
        {
          "BL1": "Terrasoft.Core.Process.ProcessSchemaSequenceFlow",
          "UId": "82a0afe7-ca36-4fd8-be50-8ebd18cbe1f8",
          "A2": "SequenceFlow4",
          "A3": "e3a315b4-06cb-4461-bddd-fd76c4fa3fda",
          "A4": "e3a315b4-06cb-4461-bddd-fd76c4fa3fda",
          "A5": "80852c4e-6e90-4769-a5e6-c485d9bc7022",
          "BL7": "0d8351f6-c2f4-4737-bdd9-6fbfe0837fec",
          "BL8": "e3a315b4-06cb-4461-bddd-fd76c4fa3fda",
          "CI1": "d19d9641-dc23-41df-b4be-c2de66d04fd4",
          "CI2": "02ddea15-63bc-4b66-9b1b-c59daffd9921",
          "CI3": "null",
          "CI5": "FF939598",
          "CI6": 1,
          "CI11": "513;200",
          "CI12": "597;200"
        },
        {
          "BL1": "Terrasoft.Core.Process.ProcessSchemaSequenceFlow",
          "UId": "f03e1da9-b42e-45ca-a2e8-525a8c1fa4b6",
          "A2": "SequenceFlow5",
          "A3": "e3a315b4-06cb-4461-bddd-fd76c4fa3fda",
          "A4": "e3a315b4-06cb-4461-bddd-fd76c4fa3fda",
          "A5": "80852c4e-6e90-4769-a5e6-c485d9bc7022",
          "BL7": "0d8351f6-c2f4-4737-bdd9-6fbfe0837fec",
          "BL8": "e3a315b4-06cb-4461-bddd-fd76c4fa3fda",
          "CI1": "02ddea15-63bc-4b66-9b1b-c59daffd9921",
          "CI2": "6c475906-fe3c-4df2-8468-c26779adbd53",
          "CI3": "null",
          "CI5": "FF939598",
          "CI6": 1,
          "CI11": "666;200",
          "CI12": "726;200"
        },
        {
          "BL1": "Terrasoft.Core.Process.ProcessSchemaConditionalFlow",
          "UId": "fe631cb5-1431-44ec-85e8-fd05a0f1c038",
          "A2": "ConditionalSequenceFlow1",
          "A3": "e3a315b4-06cb-4461-bddd-fd76c4fa3fda",
          "A4": "e3a315b4-06cb-4461-bddd-fd76c4fa3fda",
          "A5": "80852c4e-6e90-4769-a5e6-c485d9bc7022",
          "BL7": "dac675d4-ea84-4e44-9056-38bf918618e9",
          "BL8": "e3a315b4-06cb-4461-bddd-fd76c4fa3fda",
          "CI1": "6c475906-fe3c-4df2-8468-c26779adbd53",
          "CI2": "68cab0ce-a531-48f0-973e-6c946332a1d1",
          "CI3": "[#[IsOwnerSchema:false].[IsSchema:false].[Element:{02ddea15-63bc-4b66-9b1b-c59daffd9921}].[Parameter:{41feba7a-6ee7-4125-b0b8-6d5e11c4aaea}]#] > 0",
          "CI4": 2,
          "CI5": "FF939598",
          "CI6": 1,
          "CI11": "781;200",
          "CI12": "932;200",
          "GV2": "{\"$type\":\"System.Collections.Generic.Dictionary`2[[System.Guid, mscorlib],[System.Collections.ObjectModel.Collection`1[[System.Guid, mscorlib]], mscorlib]], mscorlib\"}",
          "GV3": []
        },
        {
          "BL1": "Terrasoft.Core.Process.ProcessSchemaSequenceFlow",
          "UId": "ee46f3cc-6ba5-435e-adf3-2fdba0eab471",
          "A2": "DefaultSequenceFlow1",
          "A3": "e3a315b4-06cb-4461-bddd-fd76c4fa3fda",
          "A4": "e3a315b4-06cb-4461-bddd-fd76c4fa3fda",
          "A5": "80852c4e-6e90-4769-a5e6-c485d9bc7022",
          "BL7": "573ed909-e069-4161-b193-ae8dd9437c68",
          "BL8": "e3a315b4-06cb-4461-bddd-fd76c4fa3fda",
          "CI1": "6c475906-fe3c-4df2-8468-c26779adbd53",
          "CI2": "0b13ca20-b24c-4d75-abdd-45a00b44c4e9",
          "CI3": "null",
          "CI4": 1,
          "CI5": "FF939598",
          "CI6": 1,
          "CI11": "754;227",
          "CI12": "754;331"
        },
        {
          "BL1": "Terrasoft.Core.Process.ProcessSchemaSequenceFlow",
          "UId": "d156cb24-313f-42ff-b84d-1034b563483b",
          "A2": "SequenceFlow6",
          "A3": "e3a315b4-06cb-4461-bddd-fd76c4fa3fda",
          "A4": "e3a315b4-06cb-4461-bddd-fd76c4fa3fda",
          "A5": "80852c4e-6e90-4769-a5e6-c485d9bc7022",
          "BL7": "0d8351f6-c2f4-4737-bdd9-6fbfe0837fec",
          "BL8": "e3a315b4-06cb-4461-bddd-fd76c4fa3fda",
          "CI1": "0b13ca20-b24c-4d75-abdd-45a00b44c4e9",
          "CI2": "76d4785b-c3dd-414c-96e9-a8c713a5d8dd",
          "CI3": "null",
          "CI5": "FF939598",
          "CI6": 1,
          "CI11": "788;359",
          "CI12": "932;359"
        }
      ],
      "BK9": [],
      "BK18": "Business Process",
      "BK29": true,
      "BK30": true,
      "BK34": "null",
      "Labels": [
        {
          "BL1": "Terrasoft.Core.Process.ProcessSchemaLabel",
          "UId": "4ed8ddc0-9991-bfe1-a9a4-22e09e811dcd",
          "A2": "ConditionalSequenceFlow1_label1",
          "A3": "e3a315b4-06cb-4461-bddd-fd76c4fa3fda",
          "A4": "e3a315b4-06cb-4461-bddd-fd76c4fa3fda",
          "ParentUId": "fe631cb5-1431-44ec-85e8-fd05a0f1c038",
          "X": 104
        }
      ],
      "BK24": []
    }
  }
}