﻿{
  "Descriptor": {
    "UId": "0ae98ebf-55f2-4c69-a6f1-5b540e53e7e3",
    "Name": "SMConsultedASUsc578d757Section",
    "ModifiedOnUtc": "\/Date(1677540594000)\/",
    "Parent": {
      "UId": "7912fb69-4fee-429f-8b23-93943c35d66d",
      "Name": "BaseSectionV2"
    },
    "ManagerName": "ClientUnitSchemaManager",
    "Caption": "Section schema: \"Consulted ASUs\"",
    "DependsOn": []
  }
}