﻿{
  "Descriptor": {
    "UId": "ae47d9d6-b332-443f-a8b2-79333c69bba2",
    "Name": "WatPartnershipRequestFolder",
    "ModifiedOnUtc": "\/Date(1600184981000)\/",
    "Parent": {
      "UId": "d602bf96-d029-4b07-9755-63c8f5cb5ed5",
      "Name": "BaseFolder"
    },
    "ManagerName": "EntitySchemaManager",
    "Caption": "Partnership Requests folder"
  }
}