﻿{
  "Descriptor": {
    "UId": "4d171125-3fa8-4e97-ae66-0b684897e086",
    "Name": "WatTimerFolder",
    "ModifiedOnUtc": "\/Date(1605123998000)\/",
    "Parent": {
      "UId": "d602bf96-d029-4b07-9755-63c8f5cb5ed5",
      "Name": "BaseFolder"
    },
    "ManagerName": "EntitySchemaManager",
    "Caption": "Timer folder"
  }
}