﻿{
  "Descriptor": {
    "UId": "365b6892-a476-4a6e-8701-20895fdc004c",
    "Name": "WatWatTravelerInAnvilExportb4978ddePage",
    "ModifiedOnUtc": "\/Date(1617031496000)\/",
    "Parent": {
      "UId": "d3cc497c-f286-4f13-99c1-751c468733c0",
      "Name": "BasePageV2"
    },
    "ManagerName": "ClientUnitSchemaManager",
    "Caption": "Card schema: \"Traveler In Anvil Export\""
  }
}