﻿{
  "Descriptor": {
    "UId": "25be4c88-51a7-4fbc-af25-e72586a95338",
    "Name": "WatSchemaCustomEmailCallDetail",
    "ModifiedOnUtc": "\/Date(1626110745000)\/",
    "Parent": {
      "UId": "01eb38ee-668a-42f0-999d-c2534f979089",
      "Name": "BaseGridDetailV2"
    },
    "ManagerName": "ClientUnitSchemaManager",
    "Caption": "Detail schema: \"Email and Call Detail\""
  }
}