﻿{
  "Descriptor": {
    "UId": "810bbd9d-3dec-49bf-8269-7aba356181ce",
    "Name": "WatAgreementTermDatesInTag",
    "ModifiedOnUtc": "\/Date(1601069123000)\/",
    "Parent": {
      "UId": "5894a2b0-51d5-419a-82bb-238674634270",
      "Name": "BaseEntityInTag"
    },
    "ManagerName": "EntitySchemaManager",
    "Caption": "Agreement Term Dates section record tag"
  }
}