﻿{
  "Descriptor": {
    "UId": "b2d4cf59-418b-43eb-ad91-d30d050a6b79",
    "Name": "WatArrivalNoticeTag",
    "ModifiedOnUtc": "\/Date(1675102291000)\/",
    "Parent": {
      "UId": "9e3f203c-e905-4de5-9468-335b193f2439",
      "Name": "BaseTag"
    },
    "ManagerName": "EntitySchemaManager",
    "Caption": "Travel contact infos section tag",
    "DependsOn": []
  }
}