﻿{
  "Descriptor": {
    "UId": "7d8771c6-d987-4ff7-b874-bed52058896b",
    "Name": "WatReceivedGiftTag",
    "ModifiedOnUtc": "\/Date(1616011989000)\/",
    "Parent": {
      "UId": "9e3f203c-e905-4de5-9468-335b193f2439",
      "Name": "BaseTag"
    },
    "ManagerName": "EntitySchemaManager",
    "Caption": "Received Gifts section tag"
  }
}