﻿{
  "Descriptor": {
    "UId": "66f4533f-caf8-4494-92ee-ea1e1371a55a",
    "Name": "WatProcess26L_TripManagementWorkflow_Version4",
    "ModifiedOnUtc": "\/Date(1701791449000)\/",
    "Parent": {
      "UId": "8e198bed-784a-4b01-b5f7-da966311fe9f",
      "Name": "WatProcess26L_TripManagementWorkflow_042eb5a"
    },
    "ManagerName": "ProcessSchemaManager",
    "Caption": "SM#26L (Trip): LEARN Registration",
    "DependsOn": []
  }
}