﻿{
  "PackageData": [
    {
      "Row": [
        {
          "SchemaColumnUId": "ae0e45ca-c495-4fe7-a39d-3ab7278e1617",
          "Value": "2ddc398c-3804-4465-9e27-4edda506938a"
        },
        {
          "SchemaColumnUId": "f06e2eda-824e-415b-8e16-bcd4bd1cec90",
          "Value": false
        },
        {
          "SchemaColumnUId": "dc6037ae-6e25-4920-ab27-10d3dd9e2e1e",
          "Value": "0c889e2e-1840-42af-a224-26dc3d6b4bbc"
        },
        {
          "SchemaColumnUId": "5868314d-f071-4b55-9ccc-a5557609f72c",
          "Value": "fd636fec-8e7c-45f6-86cb-42c84992f449"
        }
      ]
    }
  ]
}