﻿{
  "PackageData": [
    {
      "Row": [
        {
          "SchemaColumnUId": "ae0e45ca-c495-4fe7-a39d-3ab7278e1617",
          "Value": "dc403c87-9dba-4abe-b4c2-a6983911b57e"
        },
        {
          "SchemaColumnUId": "bd12ea8e-2bc2-42bf-925a-3ab766cc0b9f",
          "Value": 69
        },
        {
          "SchemaColumnUId": "0e3d3857-2203-40e4-b1ec-8e972007650e",
          "Value": "f3ec7ec0-ae93-4488-b97a-4db29361791e",
          "DisplayValue": "Admin"
        },
        {
          "SchemaColumnUId": "991cf5ef-ffb8-49a5-add3-074a595f6c43",
          "Value": "bd51dc3d-bd04-4fdb-a315-ff7a5cf3e663",
          "DisplayValue": "Master Agreement"
        }
      ]
    }
  ]
}