﻿{
  "Descriptor": {
    "UId": "e3b9dfde-fd7e-43f8-8d24-2f4e23835f90",
    "Name": "WatGiftsInFolder",
    "ModifiedOnUtc": "\/Date(1599070027000)\/",
    "Parent": {
      "UId": "4f63bafb-e9e7-4082-b92e-66b97c14017c",
      "Name": "BaseItemInFolder"
    },
    "ManagerName": "EntitySchemaManager",
    "Caption": "Gifts in Folder"
  }
}