﻿{
  "Descriptor": {
    "UId": "15c23d99-3691-4911-b4f6-0dc0d48f068b",
    "Name": "WatAccountRankingFile",
    "ModifiedOnUtc": "\/Date(1598994984000)\/",
    "Parent": {
      "UId": "556c5867-60a7-4456-aae1-a57a122bef70",
      "Name": "File"
    },
    "ManagerName": "EntitySchemaManager",
    "Caption": "Account Ranking attachment"
  }
}