﻿{
  "PackageData": [
    {
      "Row": [
        {
          "SchemaColumnUId": "ae0e45ca-c495-4fe7-a39d-3ab7278e1617",
          "Value": "374c0f30-4319-405b-a13f-ff6f500408c2"
        },
        {
          "SchemaColumnUId": "085d7c7c-fdbc-443a-ad06-1f04ace34173",
          "Value": ""
        },
        {
          "SchemaColumnUId": "08aeb0b2-b929-4208-900f-d5d58700a872",
          "Value": "74ff0cee-6593-482f-a62f-6dde6e17ab5e",
          "DisplayValue": "Email template"
        },
        {
          "SchemaColumnUId": "1fea7f02-7faa-4a8b-a1f9-ee4e05fef97d",
          "Value": "2c867063-28eb-4b4c-8bb2-c63ddb5a4e9f",
          "DisplayValue": "EmailTemplate374c0f30-4319-405b-a13f-ff6f500408c2.png"
        },
        {
          "SchemaColumnUId": "26bd9f25-0d50-4c47-829f-8b286576317c",
          "Value": "dcec597e-693e-47d1-88a8-5795346db9fc",
          "DisplayValue": "Consulted ASUs"
        },
        {
          "SchemaColumnUId": "2e7c35e3-0774-4a4a-bea5-6ce4c8de1465",
          "Value": "Overdue Notice – Input required on Institutional International Agreement"
        },
        {
          "SchemaColumnUId": "2f0c4548-e688-4561-a3a3-e6e9422ff3f7",
          "Value": ""
        },
        {
          "SchemaColumnUId": "382c1794-3e8d-4895-91ce-02c9f5e3553e",
          "Value": ""
        },
        {
          "SchemaColumnUId": "47e72ecd-b21c-4b09-933e-6c1263381425",
          "Value": ""
        },
        {
          "SchemaColumnUId": "54425b16-8b5b-40a1-baf1-3997560a6b0e",
          "Value": "<html xmlns=\"http://www.w3.org/1999/xhtml\"><head><title></title><!--[if !mso]><!--><!--<![endif]--><style type=\"text/css\">#outlook a { padding:0; }\n          body { margin:0;padding:0;-webkit-text-size-adjust:100%;-ms-text-size-adjust:100%; }\n          table, td { border-collapse:collapse;mso-table-lspace:0pt;mso-table-rspace:0pt; }\n          img { border:0;height:auto;line-height:100%; outline:none;text-decoration:none;-ms-interpolation-mode:bicubic; }\n          p { display:block;margin:13px 0; }</style><!--[if mso]>\n        <noscript>\n        <xml>\n        <o:OfficeDocumentSettings>\n          <o:AllowPNG/>\n          <o:PixelsPerInch>96</o:PixelsPerInch>\n        </o:OfficeDocumentSettings>\n        </xml>\n        </noscript>\n        <![endif]--><!--[if lte mso 11]>\n        <style type=\"text/css\">\n          .mj-outlook-group-fix { width:100% !important; }\n        </style>\n        <![endif]--><style type=\"text/css\">@media only screen and (min-width:480px) {\n        .mj-column-per-100 { width:100% !important; max-width: 100%; }\n      }</style><style media=\"screen and (min-width:480px)\">.moz-text-html .mj-column-per-100 { width:100% !important; max-width: 100%; }</style><style type=\"text/css\"></style><style type=\"text/css\">.mj-block {font-family: Arial, Helvetica, sans-serif;font-size: 13px;}</style></head><body style=\"word-spacing:normal;background-color:#ffffff;\"><div style=\"background-color:#ffffff;\"><!--[if mso | IE]><table align=\"center\" border=\"0\" cellpadding=\"0\" cellspacing=\"0\" class=\"mj-block-outlook\" role=\"presentation\" style=\"width:600px;\" width=\"600\" ><tr><td style=\"line-height:0px;font-size:0px;mso-line-height-rule:exactly;\"><![endif]--><div style=\"margin:0px auto;max-width:600px;\" class=\"mj-block\"><table style=\"width:100%;\" role=\"presentation\" cellspacing=\"0\" cellpadding=\"0\" border=\"0\" align=\"center\"><tbody><tr><td style=\"direction:ltr;font-size:0px;padding:0;text-align:center;\"><!--[if mso | IE]><table role=\"presentation\" border=\"0\" cellpadding=\"0\" cellspacing=\"0\"><tr><td class=\"\" width=\"600px\" ><table align=\"center\" border=\"0\" cellpadding=\"0\" cellspacing=\"0\" class=\"\" role=\"presentation\" style=\"width:600px;\" width=\"600\" ><tr><td style=\"line-height:0px;font-size:0px;mso-line-height-rule:exactly;\"><![endif]--><div style=\"margin:0px auto;max-width:600px;\"><table style=\"width:100%;\" role=\"presentation\" cellspacing=\"0\" cellpadding=\"0\" border=\"0\" align=\"center\"><tbody><tr><td style=\"direction:ltr;font-size:0px;padding:0;text-align:center;\"><!--[if mso | IE]><table role=\"presentation\" border=\"0\" cellpadding=\"0\" cellspacing=\"0\"><tr><td class=\"\" style=\"vertical-align:top;width:600px;\" ><![endif]--><div style=\"font-size:0px;text-align:left;direction:ltr;display:inline-block;vertical-align:top;width:100%;\" class=\"mj-column-per-100 mj-outlook-group-fix\"><table width=\"100%\" style=\"vertical-align:top;\" role=\"presentation\" cellspacing=\"0\" cellpadding=\"0\" border=\"0\"><tbody><tr><td style=\"font-size:0px;padding:10px 25px;padding-top:5px;padding-right:5px;padding-bottom:5px;padding-left:5px;word-break:break-word;\" align=\"left\"><div style=\"font-family:Arial, Helvetica, sans-serif;font-size:15px;letter-spacing:0px;line-height:22px;text-align:left;color:#000001;\">Greetings from Waterloo International,<br><br>Please note that you were asked to provide input on behalf of your&nbsp;[#SMFaculty#] in&nbsp;regards to an international agreement by [#SMDeadlineDate#]. That date has now passed. As such, Waterloo International may move forwards with the next steps in the agreement process without your input.&nbsp;<br><br>Note that it may still be possible to provide input on this agreement. If you wish to provide input please visit&nbsp;<a style=\"color:#0000EE;\" href=\"https://azunivercitywaterloo.dev2.creatiosandbox.com/Navigation/Navigation.aspx?schemaName=WatAgreement&amp;recordId=[#WatAgreement.Id#]\">[#WatAgreement.WatName#]</a> as soon as possible, and if the agreement remains open in the&nbsp;portal for input please respond on behalf of your [#SMFaculty#].<br><br>This is the final notice you will receive in regards to this agreement.<br><br>If you have any questions please contract&nbsp;international.agreements@uwaterloo.ca<br><br>Thank you,<br><br>Waterloo International</div></td></tr></tbody></table></div><!--[if mso | IE]></td></tr></table><![endif]--></td></tr></tbody></table></div><!--[if mso | IE]></td></tr></table></td></tr></table><![endif]--></td></tr></tbody></table></div><!--[if mso | IE]></td></tr></table><![endif]--></div></body></html>"
        },
        {
          "SchemaColumnUId": "613d189f-c6a0-4ec4-b2b0-a43199cacef4",
          "Value": false
        },
        {
          "SchemaColumnUId": "698c2960-3832-4ba4-ad56-8a6489b32ad4",
          "Value": false
        },
        {
          "SchemaColumnUId": "aa4c5784-7f68-47d8-b7bb-ee3f89221ac8",
          "Value": false
        },
        {
          "SchemaColumnUId": "b1b8aa8c-787f-42e0-8af1-603d1761f75a",
          "Value": "null"
        },
        {
          "SchemaColumnUId": "b4972436-c042-4a3b-a025-f04575f10532",
          "Value": "{\"ItemType\":\"sheet\",\"Caption\":\"Content designer\",\"Width\":600,\"BackgroundColor\":\"#ffffff\",\"SheetAlign\":\"center\",\"BreakpointWidth\":480,\"Items\":[{\"ItemType\":\"mjblock\",\"Styles\":{\"background-position\":\"top center\",\"background-repeat\":\"no-repeat\"},\"Items\":[{\"ItemType\":\"section\",\"Styles\":{\"direction\":\"ltr\"},\"Items\":[{\"ItemType\":\"column\",\"Width\":100,\"Styles\":{},\"WrapperStyles\":{\"vertical-align\":\"top\",\"direction\":\"ltr\",\"width\":\"100%\"},\"Items\":[{\"ItemType\":\"text\",\"Content\":\"Greetings from Waterloo International,<br />\\n<br />\\nPlease note that you were asked to provide input on behalf of your&nbsp;[#SMFaculty#] in&nbsp;regards to an international agreement by [#SMDeadlineDate#]. That date has now passed. As such, Waterloo International may move forwards with the next steps in the agreement process without your input.&nbsp;<br />\\n<br />\\nNote that it may still be possible to provide input on this agreement. If you wish to provide input please visit&nbsp;<a href=\\\"https://azunivercitywaterloo.dev2.creatiosandbox.com/Navigation/Navigation.aspx?schemaName=WatAgreement&amp;recordId=[#WatAgreement.Id#]\\\" style=\\\"color:#0000EE;\\\">[#WatAgreement.WatName#]</a> as soon as possible, and if the agreement remains open in the&nbsp;portal for input please respond on behalf of your [#SMFaculty#].<br />\\n<br />\\nThis is the final notice you will receive in regards to this agreement.<br />\\n<br />\\nIf you have any questions please contract&nbsp;international.agreements@uwaterloo.ca<br />\\n<br />\\nThank you,<br />\\n<br />\\nWaterloo International\",\"Styles\":{\"font-family\":\"Arial, Helvetica, sans-serif\",\"font-size\":\"15px\",\"color\":\"#000001\",\"line-height\":\"22px\",\"text-align\":\"left\",\"padding-left\":\"5px\",\"padding-right\":\"5px\",\"padding-top\":\"5px\",\"padding-bottom\":\"5px\",\"letter-spacing\":\"0px\"}}]}]}]}]}"
        },
        {
          "SchemaColumnUId": "cf75d513-0d42-439c-b19f-8c7fe4234460",
          "Value": "e75ac3fe-be9b-4a01-87db-c7dffd354f8c",
          "DisplayValue": "Personal message to each recipient"
        },
        {
          "SchemaColumnUId": "e6618002-83f7-419a-a866-63ea7599b123",
          "Value": ""
        },
        {
          "SchemaColumnUId": "f73ea119-e10f-4db3-a89f-02b338f69444",
          "Value": 1
        },
        {
          "SchemaColumnUId": "feab52f3-9df5-4499-8425-855973838905",
          "Value": "null",
          "DisplayValue": ""
        }
      ]
    },
    {
      "Row": [
        {
          "SchemaColumnUId": "ae0e45ca-c495-4fe7-a39d-3ab7278e1617",
          "Value": "459b5ceb-8f4a-4893-b57e-9c4cac1f44f3"
        },
        {
          "SchemaColumnUId": "085d7c7c-fdbc-443a-ad06-1f04ace34173",
          "Value": ""
        },
        {
          "SchemaColumnUId": "08aeb0b2-b929-4208-900f-d5d58700a872",
          "Value": "74ff0cee-6593-482f-a62f-6dde6e17ab5e",
          "DisplayValue": "Email template"
        },
        {
          "SchemaColumnUId": "1fea7f02-7faa-4a8b-a1f9-ee4e05fef97d",
          "Value": "b56bdeb8-91f5-4d3c-a4d8-cb05225e73f9",
          "DisplayValue": "EmailTemplate459b5ceb-8f4a-4893-b57e-9c4cac1f44f3.png"
        },
        {
          "SchemaColumnUId": "26bd9f25-0d50-4c47-829f-8b286576317c",
          "Value": "dcec597e-693e-47d1-88a8-5795346db9fc",
          "DisplayValue": "Consulted ASUs"
        },
        {
          "SchemaColumnUId": "2e7c35e3-0774-4a4a-bea5-6ce4c8de1465",
          "Value": "Reminder – Input required on Institutional International Agreement by the [#SMDeadlineDate#]"
        },
        {
          "SchemaColumnUId": "2f0c4548-e688-4561-a3a3-e6e9422ff3f7",
          "Value": ""
        },
        {
          "SchemaColumnUId": "382c1794-3e8d-4895-91ce-02c9f5e3553e",
          "Value": ""
        },
        {
          "SchemaColumnUId": "47e72ecd-b21c-4b09-933e-6c1263381425",
          "Value": ""
        },
        {
          "SchemaColumnUId": "54425b16-8b5b-40a1-baf1-3997560a6b0e",
          "Value": "<html xmlns=\"http://www.w3.org/1999/xhtml\"><head><title></title><!--[if !mso]><!--><!--<![endif]--><style type=\"text/css\">#outlook a { padding:0; }\n          body { margin:0;padding:0;-webkit-text-size-adjust:100%;-ms-text-size-adjust:100%; }\n          table, td { border-collapse:collapse;mso-table-lspace:0pt;mso-table-rspace:0pt; }\n          img { border:0;height:auto;line-height:100%; outline:none;text-decoration:none;-ms-interpolation-mode:bicubic; }\n          p { display:block;margin:13px 0; }</style><!--[if mso]>\n        <noscript>\n        <xml>\n        <o:OfficeDocumentSettings>\n          <o:AllowPNG/>\n          <o:PixelsPerInch>96</o:PixelsPerInch>\n        </o:OfficeDocumentSettings>\n        </xml>\n        </noscript>\n        <![endif]--><!--[if lte mso 11]>\n        <style type=\"text/css\">\n          .mj-outlook-group-fix { width:100% !important; }\n        </style>\n        <![endif]--><style type=\"text/css\">@media only screen and (min-width:480px) {\n        .mj-column-per-100 { width:100% !important; max-width: 100%; }\n      }</style><style media=\"screen and (min-width:480px)\">.moz-text-html .mj-column-per-100 { width:100% !important; max-width: 100%; }</style><style type=\"text/css\"></style><style type=\"text/css\">.mj-block {font-family: Arial, Helvetica, sans-serif;font-size: 13px;}</style></head><body style=\"word-spacing:normal;background-color:#ffffff;\"><div style=\"background-color:#ffffff;\"><!--[if mso | IE]><table align=\"center\" border=\"0\" cellpadding=\"0\" cellspacing=\"0\" class=\"mj-block-outlook\" role=\"presentation\" style=\"width:600px;\" width=\"600\" ><tr><td style=\"line-height:0px;font-size:0px;mso-line-height-rule:exactly;\"><![endif]--><div style=\"margin:0px auto;max-width:600px;\" class=\"mj-block\"><table style=\"width:100%;\" role=\"presentation\" cellspacing=\"0\" cellpadding=\"0\" border=\"0\" align=\"center\"><tbody><tr><td style=\"direction:ltr;font-size:0px;padding:0;text-align:center;\"><!--[if mso | IE]><table role=\"presentation\" border=\"0\" cellpadding=\"0\" cellspacing=\"0\"><tr><td class=\"\" width=\"600px\" ><table align=\"center\" border=\"0\" cellpadding=\"0\" cellspacing=\"0\" class=\"\" role=\"presentation\" style=\"width:600px;\" width=\"600\" ><tr><td style=\"line-height:0px;font-size:0px;mso-line-height-rule:exactly;\"><![endif]--><div style=\"margin:0px auto;max-width:600px;\"><table style=\"width:100%;\" role=\"presentation\" cellspacing=\"0\" cellpadding=\"0\" border=\"0\" align=\"center\"><tbody><tr><td style=\"direction:ltr;font-size:0px;padding:0;text-align:center;\"><!--[if mso | IE]><table role=\"presentation\" border=\"0\" cellpadding=\"0\" cellspacing=\"0\"><tr><td class=\"\" style=\"vertical-align:top;width:600px;\" ><![endif]--><div style=\"font-size:0px;text-align:left;direction:ltr;display:inline-block;vertical-align:top;width:100%;\" class=\"mj-column-per-100 mj-outlook-group-fix\"><table width=\"100%\" style=\"vertical-align:top;\" role=\"presentation\" cellspacing=\"0\" cellpadding=\"0\" border=\"0\"><tbody><tr><td style=\"font-size:0px;padding:10px 25px;padding-top:5px;padding-right:5px;padding-bottom:5px;padding-left:5px;word-break:break-word;\" align=\"left\"><div style=\"font-family:Arial, Helvetica, sans-serif;font-size:15px;letter-spacing:0px;line-height:22px;text-align:left;color:#000001;\">Greetings from Waterloo International,<br><br>This is a friendly reminder that one or more institutional level agreements require the input of your&nbsp;[#SMFaculty#]&nbsp;within the deadline date of [#SMDeadlineDate#]. Please click on the following link&nbsp;<a style=\"color:#0000EE;\" href=\"https://azunivercitywaterloo.dev2.creatiosandbox.com/Navigation/Navigation.aspx?schemaName=WatAgreement&amp;recordId=[#WatAgreement.Id#]\">[#WatAgreement.WatName#]</a> and provide your input as soon as possible.<br><br>If you have any questions, please contact&nbsp;international.agreements@uwaterloo.ca<br><br>We look forward to hearing from you!<br><br>Thank you,<br><br>Waterloo International</div></td></tr></tbody></table></div><!--[if mso | IE]></td></tr></table><![endif]--></td></tr></tbody></table></div><!--[if mso | IE]></td></tr></table></td></tr></table><![endif]--></td></tr></tbody></table></div><!--[if mso | IE]></td></tr></table><![endif]--></div></body></html>"
        },
        {
          "SchemaColumnUId": "613d189f-c6a0-4ec4-b2b0-a43199cacef4",
          "Value": false
        },
        {
          "SchemaColumnUId": "698c2960-3832-4ba4-ad56-8a6489b32ad4",
          "Value": false
        },
        {
          "SchemaColumnUId": "aa4c5784-7f68-47d8-b7bb-ee3f89221ac8",
          "Value": false
        },
        {
          "SchemaColumnUId": "b1b8aa8c-787f-42e0-8af1-603d1761f75a",
          "Value": "null"
        },
        {
          "SchemaColumnUId": "b4972436-c042-4a3b-a025-f04575f10532",
          "Value": "{\"ItemType\":\"sheet\",\"Caption\":\"Content designer\",\"Width\":600,\"BackgroundColor\":\"#ffffff\",\"SheetAlign\":\"center\",\"BreakpointWidth\":480,\"Items\":[{\"ItemType\":\"mjblock\",\"Styles\":{\"background-position\":\"top center\",\"background-repeat\":\"no-repeat\"},\"Items\":[{\"ItemType\":\"section\",\"Styles\":{\"direction\":\"ltr\"},\"Items\":[{\"ItemType\":\"column\",\"Width\":100,\"Styles\":{},\"WrapperStyles\":{\"vertical-align\":\"top\",\"direction\":\"ltr\",\"width\":\"100%\"},\"Items\":[{\"ItemType\":\"text\",\"Content\":\"Greetings from Waterloo International,<br />\\n<br />\\nThis is a friendly reminder that one or more institutional level agreements require the input of your&nbsp;[#SMFaculty#]&nbsp;within the deadline date of [#SMDeadlineDate#]. Please click on the following link&nbsp;<a href=\\\"https://azunivercitywaterloo.dev2.creatiosandbox.com/Navigation/Navigation.aspx?schemaName=WatAgreement&amp;recordId=[#WatAgreement.Id#]\\\" style=\\\"color:#0000EE;\\\">[#WatAgreement.WatName#]</a> and provide your input as soon as possible.<br />\\n<br />\\nIf you have any questions, please contact&nbsp;international.agreements@uwaterloo.ca<br />\\n<br />\\nWe look forward to hearing from you!<br />\\n<br />\\nThank you,<br />\\n<br />\\nWaterloo International\",\"Styles\":{\"font-family\":\"Arial, Helvetica, sans-serif\",\"font-size\":\"15px\",\"color\":\"#000001\",\"line-height\":\"22px\",\"text-align\":\"left\",\"padding-left\":\"5px\",\"padding-right\":\"5px\",\"padding-top\":\"5px\",\"padding-bottom\":\"5px\",\"letter-spacing\":\"0px\"}}]}]}]}]}"
        },
        {
          "SchemaColumnUId": "cf75d513-0d42-439c-b19f-8c7fe4234460",
          "Value": "e75ac3fe-be9b-4a01-87db-c7dffd354f8c",
          "DisplayValue": "Personal message to each recipient"
        },
        {
          "SchemaColumnUId": "e6618002-83f7-419a-a866-63ea7599b123",
          "Value": ""
        },
        {
          "SchemaColumnUId": "f73ea119-e10f-4db3-a89f-02b338f69444",
          "Value": 1
        },
        {
          "SchemaColumnUId": "feab52f3-9df5-4499-8425-855973838905",
          "Value": "null",
          "DisplayValue": ""
        }
      ]
    },
    {
      "Row": [
        {
          "SchemaColumnUId": "ae0e45ca-c495-4fe7-a39d-3ab7278e1617",
          "Value": "567fe908-464a-4bc7-a421-b9fe6bd6fd31"
        },
        {
          "SchemaColumnUId": "085d7c7c-fdbc-443a-ad06-1f04ace34173",
          "Value": ""
        },
        {
          "SchemaColumnUId": "08aeb0b2-b929-4208-900f-d5d58700a872",
          "Value": "74ff0cee-6593-482f-a62f-6dde6e17ab5e",
          "DisplayValue": "Email template"
        },
        {
          "SchemaColumnUId": "1fea7f02-7faa-4a8b-a1f9-ee4e05fef97d",
          "Value": "aff24db8-b3f8-484d-8729-eaa199343614",
          "DisplayValue": "EmailTemplate567fe908-464a-4bc7-a421-b9fe6bd6fd31.png"
        },
        {
          "SchemaColumnUId": "26bd9f25-0d50-4c47-829f-8b286576317c",
          "Value": "7b72d7ec-6a94-4a69-8d74-077db4820706",
          "DisplayValue": "Consulted Faculties"
        },
        {
          "SchemaColumnUId": "2e7c35e3-0774-4a4a-bea5-6ce4c8de1465",
          "Value": "Reminder – Input required on Institutional International Agreement by the [#SMDeadlineDate#]"
        },
        {
          "SchemaColumnUId": "2f0c4548-e688-4561-a3a3-e6e9422ff3f7",
          "Value": ""
        },
        {
          "SchemaColumnUId": "382c1794-3e8d-4895-91ce-02c9f5e3553e",
          "Value": ""
        },
        {
          "SchemaColumnUId": "47e72ecd-b21c-4b09-933e-6c1263381425",
          "Value": ""
        },
        {
          "SchemaColumnUId": "54425b16-8b5b-40a1-baf1-3997560a6b0e",
          "Value": "<html xmlns=\"http://www.w3.org/1999/xhtml\"><head><title></title><!--[if !mso]><!--><!--<![endif]--><style type=\"text/css\">#outlook a { padding:0; }\n          body { margin:0;padding:0;-webkit-text-size-adjust:100%;-ms-text-size-adjust:100%; }\n          table, td { border-collapse:collapse;mso-table-lspace:0pt;mso-table-rspace:0pt; }\n          img { border:0;height:auto;line-height:100%; outline:none;text-decoration:none;-ms-interpolation-mode:bicubic; }\n          p { display:block;margin:13px 0; }</style><!--[if mso]>\n        <noscript>\n        <xml>\n        <o:OfficeDocumentSettings>\n          <o:AllowPNG/>\n          <o:PixelsPerInch>96</o:PixelsPerInch>\n        </o:OfficeDocumentSettings>\n        </xml>\n        </noscript>\n        <![endif]--><!--[if lte mso 11]>\n        <style type=\"text/css\">\n          .mj-outlook-group-fix { width:100% !important; }\n        </style>\n        <![endif]--><style type=\"text/css\">@media only screen and (min-width:480px) {\n        .mj-column-per-100 { width:100% !important; max-width: 100%; }\n      }</style><style media=\"screen and (min-width:480px)\">.moz-text-html .mj-column-per-100 { width:100% !important; max-width: 100%; }</style><style type=\"text/css\"></style><style type=\"text/css\">.mj-block {font-family: Arial, Helvetica, sans-serif;font-size: 13px;}</style></head><body style=\"word-spacing:normal;background-color:#ffffff;\"><div style=\"background-color:#ffffff;\"><!--[if mso | IE]><table align=\"center\" border=\"0\" cellpadding=\"0\" cellspacing=\"0\" class=\"mj-block-outlook\" role=\"presentation\" style=\"width:600px;\" width=\"600\" ><tr><td style=\"line-height:0px;font-size:0px;mso-line-height-rule:exactly;\"><![endif]--><div style=\"margin:0px auto;max-width:600px;\" class=\"mj-block\"><table style=\"width:100%;\" role=\"presentation\" cellspacing=\"0\" cellpadding=\"0\" border=\"0\" align=\"center\"><tbody><tr><td style=\"direction:ltr;font-size:0px;padding:0;text-align:center;\"><!--[if mso | IE]><table role=\"presentation\" border=\"0\" cellpadding=\"0\" cellspacing=\"0\"><tr><td class=\"\" width=\"600px\" ><table align=\"center\" border=\"0\" cellpadding=\"0\" cellspacing=\"0\" class=\"\" role=\"presentation\" style=\"width:600px;\" width=\"600\" ><tr><td style=\"line-height:0px;font-size:0px;mso-line-height-rule:exactly;\"><![endif]--><div style=\"margin:0px auto;max-width:600px;\"><table style=\"width:100%;\" role=\"presentation\" cellspacing=\"0\" cellpadding=\"0\" border=\"0\" align=\"center\"><tbody><tr><td style=\"direction:ltr;font-size:0px;padding:0;text-align:center;\"><!--[if mso | IE]><table role=\"presentation\" border=\"0\" cellpadding=\"0\" cellspacing=\"0\"><tr><td class=\"\" style=\"vertical-align:top;width:600px;\" ><![endif]--><div style=\"font-size:0px;text-align:left;direction:ltr;display:inline-block;vertical-align:top;width:100%;\" class=\"mj-column-per-100 mj-outlook-group-fix\"><table width=\"100%\" style=\"vertical-align:top;\" role=\"presentation\" cellspacing=\"0\" cellpadding=\"0\" border=\"0\"><tbody><tr><td style=\"font-size:0px;padding:10px 25px;padding-top:5px;padding-right:5px;padding-bottom:5px;padding-left:5px;word-break:break-word;\" align=\"left\"><div style=\"font-family:Arial, Helvetica, sans-serif;font-size:15px;letter-spacing:0px;line-height:22px;text-align:left;color:#000001;\">Greetings from Waterloo International,<br><br>This is a friendly reminder that one or more institutional level agreements require the input of the [#Faculty#] Faculty within the deadline date of [#SMDeadlineDate#]. Please click on the following link&nbsp;<a style=\"color:#0000EE;\" href=\"https://azunivercitywaterloo.dev2.creatiosandbox.com/Navigation/Navigation.aspx?schemaName=WatAgreement&amp;recordId=[#Agreement.Id#]\">[#Agreement.WatName#]</a> and provide your input as soon as possible.<br><br>If you have any questions, please contact&nbsp;international.agreements@uwaterloo.ca<br><br>We look forward to hearing from you!<br><br>Thank you,<br><br>Waterloo International</div></td></tr></tbody></table></div><!--[if mso | IE]></td></tr></table><![endif]--></td></tr></tbody></table></div><!--[if mso | IE]></td></tr></table></td></tr></table><![endif]--></td></tr></tbody></table></div><!--[if mso | IE]></td></tr></table><![endif]--></div></body></html>"
        },
        {
          "SchemaColumnUId": "613d189f-c6a0-4ec4-b2b0-a43199cacef4",
          "Value": false
        },
        {
          "SchemaColumnUId": "698c2960-3832-4ba4-ad56-8a6489b32ad4",
          "Value": false
        },
        {
          "SchemaColumnUId": "aa4c5784-7f68-47d8-b7bb-ee3f89221ac8",
          "Value": false
        },
        {
          "SchemaColumnUId": "b1b8aa8c-787f-42e0-8af1-603d1761f75a",
          "Value": "null"
        },
        {
          "SchemaColumnUId": "b4972436-c042-4a3b-a025-f04575f10532",
          "Value": "{\"ItemType\":\"sheet\",\"Caption\":\"Content designer\",\"Width\":600,\"BackgroundColor\":\"#ffffff\",\"SheetAlign\":\"center\",\"BreakpointWidth\":480,\"Items\":[{\"ItemType\":\"mjblock\",\"Styles\":{\"background-position\":\"top center\",\"background-repeat\":\"no-repeat\"},\"Items\":[{\"ItemType\":\"section\",\"Styles\":{\"direction\":\"ltr\"},\"Items\":[{\"ItemType\":\"column\",\"Width\":100,\"Styles\":{},\"WrapperStyles\":{\"vertical-align\":\"top\",\"direction\":\"ltr\",\"width\":\"100%\"},\"Items\":[{\"ItemType\":\"text\",\"Content\":\"Greetings from Waterloo International,<br />\\n<br />\\nThis is a friendly reminder that one or more institutional level agreements require the input of the [#Faculty#] Faculty within the deadline date of [#SMDeadlineDate#]. Please click on the following link&nbsp;<a href=\\\"https://azunivercitywaterloo.dev2.creatiosandbox.com/Navigation/Navigation.aspx?schemaName=WatAgreement&amp;recordId=[#Agreement.Id#]\\\" style=\\\"color:#0000EE;\\\">[#Agreement.WatName#]</a> and provide your input as soon as possible.<br />\\n<br />\\nIf you have any questions, please contact&nbsp;international.agreements@uwaterloo.ca<br />\\n<br />\\nWe look forward to hearing from you!<br />\\n<br />\\nThank you,<br />\\n<br />\\nWaterloo International\",\"Styles\":{\"font-family\":\"Arial, Helvetica, sans-serif\",\"font-size\":\"15px\",\"color\":\"#000001\",\"line-height\":\"22px\",\"text-align\":\"left\",\"padding-left\":\"5px\",\"padding-right\":\"5px\",\"padding-top\":\"5px\",\"padding-bottom\":\"5px\",\"letter-spacing\":\"0px\"}}]}]}]}]}"
        },
        {
          "SchemaColumnUId": "cf75d513-0d42-439c-b19f-8c7fe4234460",
          "Value": "e75ac3fe-be9b-4a01-87db-c7dffd354f8c",
          "DisplayValue": "Personal message to each recipient"
        },
        {
          "SchemaColumnUId": "e6618002-83f7-419a-a866-63ea7599b123",
          "Value": ""
        },
        {
          "SchemaColumnUId": "f73ea119-e10f-4db3-a89f-02b338f69444",
          "Value": 1
        },
        {
          "SchemaColumnUId": "feab52f3-9df5-4499-8425-855973838905",
          "Value": "null",
          "DisplayValue": ""
        }
      ]
    },
    {
      "Row": [
        {
          "SchemaColumnUId": "ae0e45ca-c495-4fe7-a39d-3ab7278e1617",
          "Value": "5ac04b10-637f-4f57-9cd0-54da8605f3a6"
        },
        {
          "SchemaColumnUId": "085d7c7c-fdbc-443a-ad06-1f04ace34173",
          "Value": ""
        },
        {
          "SchemaColumnUId": "08aeb0b2-b929-4208-900f-d5d58700a872",
          "Value": "74ff0cee-6593-482f-a62f-6dde6e17ab5e",
          "DisplayValue": "Email template"
        },
        {
          "SchemaColumnUId": "1fea7f02-7faa-4a8b-a1f9-ee4e05fef97d",
          "Value": "c09ff356-7f1a-4a4a-8fa7-b19dda356ba3",
          "DisplayValue": "EmailTemplate5ac04b10-637f-4f57-9cd0-54da8605f3a6.png"
        },
        {
          "SchemaColumnUId": "26bd9f25-0d50-4c47-829f-8b286576317c",
          "Value": "7b72d7ec-6a94-4a69-8d74-077db4820706",
          "DisplayValue": "Consulted Faculties"
        },
        {
          "SchemaColumnUId": "2e7c35e3-0774-4a4a-bea5-6ce4c8de1465",
          "Value": "Overdue Notice – Input required on Institutional International Agreement"
        },
        {
          "SchemaColumnUId": "2f0c4548-e688-4561-a3a3-e6e9422ff3f7",
          "Value": ""
        },
        {
          "SchemaColumnUId": "382c1794-3e8d-4895-91ce-02c9f5e3553e",
          "Value": ""
        },
        {
          "SchemaColumnUId": "47e72ecd-b21c-4b09-933e-6c1263381425",
          "Value": ""
        },
        {
          "SchemaColumnUId": "54425b16-8b5b-40a1-baf1-3997560a6b0e",
          "Value": "<html xmlns=\"http://www.w3.org/1999/xhtml\"><head><title></title><!--[if !mso]><!--><!--<![endif]--><style type=\"text/css\">#outlook a { padding:0; }\n          body { margin:0;padding:0;-webkit-text-size-adjust:100%;-ms-text-size-adjust:100%; }\n          table, td { border-collapse:collapse;mso-table-lspace:0pt;mso-table-rspace:0pt; }\n          img { border:0;height:auto;line-height:100%; outline:none;text-decoration:none;-ms-interpolation-mode:bicubic; }\n          p { display:block;margin:13px 0; }</style><!--[if mso]>\n        <noscript>\n        <xml>\n        <o:OfficeDocumentSettings>\n          <o:AllowPNG/>\n          <o:PixelsPerInch>96</o:PixelsPerInch>\n        </o:OfficeDocumentSettings>\n        </xml>\n        </noscript>\n        <![endif]--><!--[if lte mso 11]>\n        <style type=\"text/css\">\n          .mj-outlook-group-fix { width:100% !important; }\n        </style>\n        <![endif]--><style type=\"text/css\">@media only screen and (min-width:480px) {\n        .mj-column-per-100 { width:100% !important; max-width: 100%; }\n      }</style><style media=\"screen and (min-width:480px)\">.moz-text-html .mj-column-per-100 { width:100% !important; max-width: 100%; }</style><style type=\"text/css\"></style><style type=\"text/css\">.mj-block {font-family: Arial, Helvetica, sans-serif;font-size: 13px;}</style></head><body style=\"word-spacing:normal;background-color:#ffffff;\"><div style=\"background-color:#ffffff;\"><!--[if mso | IE]><table align=\"center\" border=\"0\" cellpadding=\"0\" cellspacing=\"0\" class=\"mj-block-outlook\" role=\"presentation\" style=\"width:600px;\" width=\"600\" ><tr><td style=\"line-height:0px;font-size:0px;mso-line-height-rule:exactly;\"><![endif]--><div style=\"margin:0px auto;max-width:600px;\" class=\"mj-block\"><table style=\"width:100%;\" role=\"presentation\" cellspacing=\"0\" cellpadding=\"0\" border=\"0\" align=\"center\"><tbody><tr><td style=\"direction:ltr;font-size:0px;padding:0;text-align:center;\"><!--[if mso | IE]><table role=\"presentation\" border=\"0\" cellpadding=\"0\" cellspacing=\"0\"><tr><td class=\"\" width=\"600px\" ><table align=\"center\" border=\"0\" cellpadding=\"0\" cellspacing=\"0\" class=\"\" role=\"presentation\" style=\"width:600px;\" width=\"600\" ><tr><td style=\"line-height:0px;font-size:0px;mso-line-height-rule:exactly;\"><![endif]--><div style=\"margin:0px auto;max-width:600px;\"><table style=\"width:100%;\" role=\"presentation\" cellspacing=\"0\" cellpadding=\"0\" border=\"0\" align=\"center\"><tbody><tr><td style=\"direction:ltr;font-size:0px;padding:0;text-align:center;\"><!--[if mso | IE]><table role=\"presentation\" border=\"0\" cellpadding=\"0\" cellspacing=\"0\"><tr><td class=\"\" style=\"vertical-align:top;width:600px;\" ><![endif]--><div style=\"font-size:0px;text-align:left;direction:ltr;display:inline-block;vertical-align:top;width:100%;\" class=\"mj-column-per-100 mj-outlook-group-fix\"><table width=\"100%\" style=\"vertical-align:top;\" role=\"presentation\" cellspacing=\"0\" cellpadding=\"0\" border=\"0\"><tbody><tr><td style=\"font-size:0px;padding:10px 25px;padding-top:5px;padding-right:5px;padding-bottom:5px;padding-left:5px;word-break:break-word;\" align=\"left\"><div style=\"font-family:Arial, Helvetica, sans-serif;font-size:15px;letter-spacing:0px;line-height:22px;text-align:left;color:#000001;\">Greetings from Waterloo International,<br><br>Please note that you were asked to provide input on behalf of [#Faculty#] Faculty in&nbsp;regards to an international agreement by [#SMDeadlineDate#]. That date has now passed. As such, Waterloo International may move forwards with the next steps in the agreement process without your input.<br><br>Note that it may still be possible to provide input on this agreement. If you wish to provide input please visit&nbsp;<a style=\"color:#0000EE;\" href=\"https://azunivercitywaterloo.dev2.creatiosandbox.com/Navigation/Navigation.aspx?schemaName=WatAgreement&amp;recordId=[#Agreement.Id#]\">[#Agreement.WatName#]</a> as soon as possible, and if the agreement remains open in the&nbsp;portal for input please respond on behalf of your [#Faculty#].<br><br>This is the final notice you will receive in regards to this agreement.<br><br>If you have any questions please contract&nbsp;international.agreements@uwaterloo.ca<br><br>Thank you,<br><br>Waterloo International</div></td></tr></tbody></table></div><!--[if mso | IE]></td></tr></table><![endif]--></td></tr></tbody></table></div><!--[if mso | IE]></td></tr></table></td></tr></table><![endif]--></td></tr></tbody></table></div><!--[if mso | IE]></td></tr></table><![endif]--></div></body></html>"
        },
        {
          "SchemaColumnUId": "613d189f-c6a0-4ec4-b2b0-a43199cacef4",
          "Value": false
        },
        {
          "SchemaColumnUId": "698c2960-3832-4ba4-ad56-8a6489b32ad4",
          "Value": false
        },
        {
          "SchemaColumnUId": "aa4c5784-7f68-47d8-b7bb-ee3f89221ac8",
          "Value": false
        },
        {
          "SchemaColumnUId": "b1b8aa8c-787f-42e0-8af1-603d1761f75a",
          "Value": "null"
        },
        {
          "SchemaColumnUId": "b4972436-c042-4a3b-a025-f04575f10532",
          "Value": "{\"ItemType\":\"sheet\",\"Caption\":\"Content designer\",\"Width\":600,\"BackgroundColor\":\"#ffffff\",\"SheetAlign\":\"center\",\"BreakpointWidth\":480,\"Items\":[{\"ItemType\":\"mjblock\",\"Styles\":{\"background-position\":\"top center\",\"background-repeat\":\"no-repeat\"},\"Items\":[{\"ItemType\":\"section\",\"Styles\":{\"direction\":\"ltr\"},\"Items\":[{\"ItemType\":\"column\",\"Width\":100,\"Styles\":{},\"WrapperStyles\":{\"vertical-align\":\"top\",\"direction\":\"ltr\",\"width\":\"100%\"},\"Items\":[{\"ItemType\":\"text\",\"Content\":\"Greetings from Waterloo International,<br />\\n<br />\\nPlease note that you were asked to provide input on behalf of [#Faculty#] Faculty in&nbsp;regards to an international agreement by [#SMDeadlineDate#]. That date has now passed. As such, Waterloo International may move forwards with the next steps in the agreement process without your input.<br />\\n<br />\\nNote that it may still be possible to provide input on this agreement. If you wish to provide input please visit&nbsp;<a href=\\\"https://azunivercitywaterloo.dev2.creatiosandbox.com/Navigation/Navigation.aspx?schemaName=WatAgreement&amp;recordId=[#Agreement.Id#]\\\" style=\\\"color:#0000EE;\\\">[#Agreement.WatName#]</a> as soon as possible, and if the agreement remains open in the&nbsp;portal for input please respond on behalf of your [#Faculty#].<br />\\n<br />\\nThis is the final notice you will receive in regards to this agreement.<br />\\n<br />\\nIf you have any questions please contract&nbsp;international.agreements@uwaterloo.ca<br />\\n<br />\\nThank you,<br />\\n<br />\\nWaterloo International\",\"Styles\":{\"font-family\":\"Arial, Helvetica, sans-serif\",\"font-size\":\"15px\",\"color\":\"#000001\",\"line-height\":\"22px\",\"text-align\":\"left\",\"padding-left\":\"5px\",\"padding-right\":\"5px\",\"padding-top\":\"5px\",\"padding-bottom\":\"5px\",\"letter-spacing\":\"0px\"}}]}]}]}]}"
        },
        {
          "SchemaColumnUId": "cf75d513-0d42-439c-b19f-8c7fe4234460",
          "Value": "e75ac3fe-be9b-4a01-87db-c7dffd354f8c",
          "DisplayValue": "Personal message to each recipient"
        },
        {
          "SchemaColumnUId": "e6618002-83f7-419a-a866-63ea7599b123",
          "Value": ""
        },
        {
          "SchemaColumnUId": "f73ea119-e10f-4db3-a89f-02b338f69444",
          "Value": 1
        },
        {
          "SchemaColumnUId": "feab52f3-9df5-4499-8425-855973838905",
          "Value": "null",
          "DisplayValue": ""
        }
      ]
    }
  ]
}