﻿{
  "PackageData": [
    {
      "Row": [
        {
          "SchemaColumnUId": "ae0e45ca-c495-4fe7-a39d-3ab7278e1617",
          "Value": "3e884ca3-9683-4e2f-b66c-c70ca83f0c68"
        },
        {
          "SchemaColumnUId": "bd12ea8e-2bc2-42bf-925a-3ab766cc0b9f",
          "Value": 57
        },
        {
          "SchemaColumnUId": "0e3d3857-2203-40e4-b1ec-8e972007650e",
          "Value": "79770671-cde2-4c0f-9078-a4ff68703def",
          "DisplayValue": "General"
        },
        {
          "SchemaColumnUId": "991cf5ef-ffb8-49a5-add3-074a595f6c43",
          "Value": "a531360c-d994-4fc4-ae2f-fd125e7144e3",
          "DisplayValue": "Arrival Notices"
        }
      ]
    }
  ]
}