﻿{
  "Descriptor": {
    "UId": "bcc23580-270f-4cce-a536-0a7a768f9771",
    "Name": "WatMasterAgreementInTag",
    "ModifiedOnUtc": "\/Date(1605663934000)\/",
    "Parent": {
      "UId": "5894a2b0-51d5-419a-82bb-238674634270",
      "Name": "BaseEntityInTag"
    },
    "ManagerName": "EntitySchemaManager",
    "Caption": "Master Agreement section record tag"
  }
}