﻿{
  "Descriptor": {
    "UId": "eb3bc660-2afc-4da6-92b4-a46fb108741a",
    "Name": "SysModuleEntityInPortal_5d93515beff14249a6e71ae9d3b7beb1",
    "ModifiedOnUtc": "\/Date(1678305721000)\/",
    "InstallType": 0,
    "Schema": {
      "UId": "0933e2c4-342c-41e0-adce-7dbc2c8860bf",
      "Name": "SysModuleEntityInPortal"
    },
    "Columns": [
      {
        "ColumnUId": "c86fd533-a630-42fa-8042-c604384abe1f",
        "IsForceUpdate": false,
        "IsKey": false,
        "ColumnName": "SysPortal",
        "DataTypeValueUId": "b295071f-7ea9-4e62-8d1a-919bf3732ff2"
      },
      {
        "ColumnUId": "ae0e45ca-c495-4fe7-a39d-3ab7278e1617",
        "IsForceUpdate": false,
        "IsKey": true,
        "ColumnName": "Id",
        "DataTypeValueUId": "23018567-a13c-4320-8687-fd6f9e3699bd"
      },
      {
        "ColumnUId": "a9afe7de-15cf-48a6-b6fb-249b1883c032",
        "IsForceUpdate": false,
        "IsKey": false,
        "ColumnName": "SysModuleEntity",
        "DataTypeValueUId": "b295071f-7ea9-4e62-8d1a-919bf3732ff2"
      }
    ]
  }
}